2.170338333333330164e-02,4.430236666666669820e-01,2.601935000000000220e-01,-3.140344217863260123e+00,-1.347310166666670103e-04,-1.980358333333329893e-03
2.170338333333330164e-02,4.430236666666669820e-01,2.601935000000000220e-01,-3.140344217863260123e+00,-1.347310166666670103e-04,-1.980358333333329893e-03
2.171130006759602188e-02,4.430138723130233602e-01,2.602228051123638419e-01,-3.140290436816425945e+00,-1.232963373804448230e-04,-1.993424559243727433e-03
2.172496690077245843e-02,4.429923939296042668e-01,2.602782364432790208e-01,-3.140186391675624300e+00,-1.019126940384989768e-04,-2.015720924312838867e-03
2.174088025827190102e-02,4.429673958538837275e-01,2.603576852895609361e-01,-3.140029947741089345e+00,-6.277657843128440726e-05,-2.047511163450139397e-03
2.178206484139876345e-02,4.429326869518109833e-01,2.604534464046251441e-01,-3.139818033247163687e+00,4.034505270109398469e-06,-2.101670427025871622e-03
2.182217760380259636e-02,4.429011170761746885e-01,2.605590026783068947e-01,-3.139552975259473300e+00,5.026635286314421093e-05,-2.178251116605033327e-03
2.185563569620633043e-02,4.428957476604004628e-01,2.606775069103042242e-01,-3.139276125890511526e+00,6.795357535012997038e-05,-2.286625134109071533e-03
2.190852219940464876e-02,4.428790767745945933e-01,2.607865095054832105e-01,-3.139011197767685779e+00,1.014558403498543835e-04,-2.377816887507214899e-03
2.196246236813307814e-02,4.428509976692583949e-01,2.608920216937597458e-01,-3.138679659578536452e+00,1.777250551523792965e-04,-2.446047447410587550e-03
2.200745837560740339e-02,4.428330050042886268e-01,2.611385748464271628e-01,-3.138326854972982360e+00,3.427100945879543075e-04,-2.463128446475770610e-03
2.202644468239830025e-02,4.427724399408161648e-01,2.612940515486275594e-01,-3.137978561522771770e+00,5.657719014280748315e-04,-2.532196669402386399e-03
2.203174424467635450e-02,4.426908866214134819e-01,2.614434799597387671e-01,-3.137575548153960003e+00,7.169885287784883354e-04,-2.646877362246067948e-03
2.204780205795492387e-02,4.424020891657551857e-01,2.616616125758706168e-01,-3.137304879592166973e+00,8.759176408824555400e-04,-2.775723932154977678e-03
2.198226873365071929e-02,4.421277408580687185e-01,2.618587139857375679e-01,-3.136947413335973156e+00,1.058346509367883966e-03,-2.886978823258062096e-03
2.193300912054050450e-02,4.418927174558721638e-01,2.621243022310699167e-01,-3.136456077402103748e+00,1.217514920989638339e-03,-2.930707570556444382e-03
2.200308077769514564e-02,4.417788956050011651e-01,2.625105994617435989e-01,-3.136041142491390321e+00,1.419541288646552048e-03,-2.964978865458830527e-03
2.202822587234453885e-02,4.416688453512152002e-01,2.628564477903649332e-01,-3.135567196122360123e+00,1.595208996799914181e-03,-3.067774546953670831e-03
2.205418634094381131e-02,4.414492940129547405e-01,2.632483503987644302e-01,-3.135009546786740930e+00,1.878424504764986385e-03,-3.102237613911459305e-03
2.214407316980220378e-02,4.411777879080423515e-01,2.637914931450168199e-01,-3.134423186987440157e+00,2.106472003704630211e-03,-3.246034417163147414e-03
2.221665344838686870e-02,4.408306346144978405e-01,2.644531431521637832e-01,-3.133847849166394361e+00,2.328404583989813169e-03,-3.428517172237895237e-03
2.233919710144708845e-02,4.405353865772931865e-01,2.651676698257968701e-01,-3.133103045547331877e+00,2.783394578393658721e-03,-3.669948782855340149e-03
2.247796175853194675e-02,4.403800930591394991e-01,2.660023669085511688e-01,-3.132292722300723753e+00,3.253009654891758293e-03,-3.958254587312416174e-03
2.276725211788359002e-02,4.402943524776523621e-01,2.668786433927187174e-01,-3.131506296612995843e+00,3.725025589967041230e-03,-4.189737515599470906e-03
2.303672414308825800e-02,4.403608711871101478e-01,2.678248321415119815e-01,-3.130620862989432762e+00,4.010142432028887885e-03,-4.368316391046295731e-03
2.333870487505229283e-02,4.403532258402961252e-01,2.689919092922061772e-01,-3.129919855019813291e+00,4.373977379621544516e-03,-4.681348913721858698e-03
2.369609925965197178e-02,4.402419353363672405e-01,2.701543560864835825e-01,-3.129161991287861433e+00,4.825444266733005388e-03,-4.961902523624306914e-03
2.405697040236904824e-02,4.400553700225116049e-01,2.712515197930105981e-01,-3.128438600414774395e+00,5.226126498478117499e-03,-5.299645942127999276e-03
2.430587308147101958e-02,4.397930905000315138e-01,2.723982169558758493e-01,-3.127636835326884412e+00,5.534723497999968593e-03,-5.542148365388131423e-03
2.454271479702466174e-02,4.395757083924677899e-01,2.735633268120495343e-01,-3.126726286219324802e+00,5.903565076949721276e-03,-5.880492377534144756e-03
2.478568183354262419e-02,4.392665354432841451e-01,2.748406521806160963e-01,-3.125787284704053981e+00,6.300053861572089617e-03,-6.150216802377663460e-03
2.517495420866723566e-02,4.389137576312452382e-01,2.761999541581001139e-01,-3.124671554145405761e+00,6.579583761812723107e-03,-6.371269402604852819e-03
2.541844129078311282e-02,4.386422469784998501e-01,2.777771613988935240e-01,-3.123623572129121673e+00,6.817642628210916073e-03,-6.557142741598308983e-03
2.552553740651931219e-02,4.383174397694733493e-01,2.795047782290648319e-01,-3.122500402781123618e+00,7.151770624076190901e-03,-6.691435836154854475e-03
2.575656223764321087e-02,4.380411262176429066e-01,2.813333708815026757e-01,-3.121310622280123681e+00,7.538254330027694718e-03,-6.927346014050992165e-03
2.610384454860273026e-02,4.377496457634000304e-01,2.832334445818534552e-01,-3.120073515251057028e+00,7.908925937843746048e-03,-7.072469364138056144e-03
2.660483865996867911e-02,4.374722052567009412e-01,2.853222747611971477e-01,-3.118924159498738469e+00,8.348959004559879798e-03,-7.231404462644355421e-03
2.704943514297518392e-02,4.370797192642428275e-01,2.875345015870360843e-01,-3.117723877178852021e+00,9.003148261648726003e-03,-7.385708006718423937e-03
2.742898693816508623e-02,4.365508307503782603e-01,2.897924110085985938e-01,-3.116558983977780084e+00,9.625604447048281484e-03,-7.593211399708367851e-03
2.779079819998753198e-02,4.359548288015260287e-01,2.920356111807138610e-01,-3.115491064966144030e+00,1.020260990095606633e-02,-7.795717699531644167e-03
2.817306707047425099e-02,4.354985640399330893e-01,2.941989850203340917e-01,-3.114444843934503826e+00,1.071375883835823037e-02,-8.095131799560595018e-03
2.856269042808842404e-02,4.351226870173416361e-01,2.964263539857578955e-01,-3.113414519194813934e+00,1.132236842237170638e-02,-8.389512881564994626e-03
2.885961911552836073e-02,4.346716851659312431e-01,2.986629926551466752e-01,-3.112468830108339191e+00,1.184003391243110097e-02,-8.619244890672147011e-03
2.916615925874627493e-02,4.341319850372951095e-01,3.008349568547559194e-01,-3.111554983889034620e+00,1.244716116474857068e-02,-8.836524427729697262e-03
2.947767797843946561e-02,4.335820179719293010e-01,3.030293046153957892e-01,-3.110656477331456671e+00,1.320476953488505627e-02,-8.936199560276598258e-03
2.973924404371244487e-02,4.329324973256872267e-01,3.052532287563454738e-01,-3.109763012052695341e+00,1.395863966288679765e-02,-9.054642967693054059e-03
2.988743984529098827e-02,4.322124807403764368e-01,3.075349883613989199e-01,-3.108848138635290415e+00,1.480408851497108831e-02,-9.172815947134671868e-03
2.999432062581411026e-02,4.313472177293104504e-01,3.098421287198733776e-01,-3.108002936445482423e+00,1.573423257512765461e-02,-9.301404925011027072e-03
3.002053092506239487e-02,4.304919884653428119e-01,3.121551765557125657e-01,-3.107115225233441524e+00,1.666128442376106980e-02,-9.379657219412189384e-03
2.991404364840557009e-02,4.295495610911621021e-01,3.144709793753575622e-01,-3.106169884422592453e+00,1.761766936210954621e-02,-9.499169118505002701e-03
2.979395012756564862e-02,4.286805797104502047e-01,3.169018371287809499e-01,-3.105323660753356751e+00,1.857329613724421555e-02,-9.561582763638807464e-03
2.966109397074072340e-02,4.277603541125080122e-01,3.193495606517074981e-01,-3.104319099504724289e+00,1.950798387648846124e-02,-9.667341192190082727e-03
2.954459806133110517e-02,4.266329885813429645e-01,3.218637696881355148e-01,-3.103266922511672909e+00,2.035469576328271385e-02,-9.734767246084186088e-03
2.946491069029420762e-02,4.255776498577568123e-01,3.245283574626645628e-01,-3.102303773750806126e+00,2.122681409287498905e-02,-9.861184649122804388e-03
2.939085970574628268e-02,4.245407969246276503e-01,3.271987002867695060e-01,-3.101362901751404166e+00,2.210681638327395213e-02,-1.008374774189921101e-02
2.929842397796048048e-02,4.235722189960809958e-01,3.298957801231021669e-01,-3.100469580868447927e+00,2.297786168909573754e-02,-1.023337013631032445e-02
2.921676790591489284e-02,4.225623857067798417e-01,3.325037530877184566e-01,-3.099568939522200139e+00,2.390204629321552796e-02,-1.034403041260518671e-02
2.914987634635474861e-02,4.216877206374375353e-01,3.350983403810190442e-01,-3.098841287519296994e+00,2.488772791155230424e-02,-1.050791167118827335e-02
2.895062151907636799e-02,4.207212590963871346e-01,3.377129795053296912e-01,-3.098161852125351334e+00,2.597286836829280562e-02,-1.066794175718461732e-02
2.888911441608751907e-02,4.197194349106699862e-01,3.403162008641770209e-01,-3.097581639033330170e+00,2.691849531032513079e-02,-1.089757492576084834e-02
2.883666008555868521e-02,4.188584238889180855e-01,3.427780260616968833e-01,-3.096932782441977228e+00,2.769631447227335549e-02,-1.095992719430416429e-02
2.880830448719544357e-02,4.179679855463873106e-01,3.452011818198101878e-01,-3.096435419602855621e+00,2.851811172357992738e-02,-1.098334927507157999e-02
2.873840154948605063e-02,4.170305084684782782e-01,3.476425133151623825e-01,-3.095938487713036036e+00,2.924841858009381151e-02,-1.095328246210733325e-02
2.881274549409871058e-02,4.160516644931943619e-01,3.500235835467533918e-01,-3.095458804246734363e+00,2.996282443790787217e-02,-1.097892586563859602e-02
2.888591931852727696e-02,4.150412974139021660e-01,3.525052304750330157e-01,-3.095082792265853477e+00,3.071776619247994569e-02,-1.100314882443209109e-02
2.900909153480633190e-02,4.140879973687943694e-01,3.550010507168533946e-01,-3.094679953877608636e+00,3.142424314234369687e-02,-1.096608975492427765e-02
2.915143187803574329e-02,4.131879148159314785e-01,3.574348213966306864e-01,-3.094262593362217650e+00,3.209997913628084842e-02,-1.093596656905125933e-02
2.929204247108731229e-02,4.123240354968211729e-01,3.598878150856197888e-01,-3.093926021034438811e+00,3.268230884262525449e-02,-1.090801114232019427e-02
2.939181378575955392e-02,4.115312490654731148e-01,3.623399647250123978e-01,-3.093611452507433857e+00,3.319910088622612249e-02,-1.089453680629395155e-02
2.947453665418884802e-02,4.107284280974515256e-01,3.647139699743852659e-01,-3.093276250928755466e+00,3.373150696122753645e-02,-1.083396606525549588e-02
2.958625208931034076e-02,4.098612075009470668e-01,3.670800720317800581e-01,-3.092920950924575862e+00,3.420988951296178443e-02,-1.075660358559850198e-02
2.975617379539166260e-02,4.090235700121535034e-01,3.694320364118123812e-01,-3.092605514468170114e+00,3.476224387884612604e-02,-1.069754328309235371e-02
2.985135558504016171e-02,4.080538698372358497e-01,3.716307449462515899e-01,-3.092303729084071584e+00,3.530953287009457042e-02,-1.061113856618801921e-02
2.996642993035402922e-02,4.070464805524142138e-01,3.737514963519774081e-01,-3.091968934195541863e+00,3.593026112178426823e-02,-1.046144140062493788e-02
3.004030515158669784e-02,4.059892576230595407e-01,3.758243019968398602e-01,-3.091604252543712406e+00,3.640679614604650643e-02,-1.032072370565436346e-02
3.005427229973739803e-02,4.048946040319179041e-01,3.777150184122107235e-01,-3.091207958566094760e+00,3.692159412959546139e-02,-1.016127432376428587e-02
3.013005421385843083e-02,4.037626373418348735e-01,3.794808950658780655e-01,-3.090738112289119766e+00,3.741712540664877268e-02,-1.003304568176964333e-02
3.022856996195480428e-02,4.026258588947673189e-01,3.811382007591667120e-01,-3.090285425607463665e+00,3.791224557454449251e-02,-9.844218682694513833e-03
3.037738134423120795e-02,4.015136654011052242e-01,3.826982729093795221e-01,-3.089828244795258971e+00,3.832812660568207797e-02,-9.656788269096510183e-03
3.051985080874377795e-02,4.003918239031945547e-01,3.842510326055093017e-01,-3.089367616423631002e+00,3.872301324745187207e-02,-9.418109280668881395e-03
3.072031830176710776e-02,3.991491994653777464e-01,3.857809502000499879e-01,-3.088894578245391376e+00,3.908314887207946231e-02,-9.135535733307996106e-03
3.092819390024316439e-02,3.977980453101718772e-01,3.872624657938891768e-01,-3.088451008533077857e+00,3.954073580940069277e-02,-8.773170244228429421e-03
3.116795470804928359e-02,3.963839971513473115e-01,3.887009552154305214e-01,-3.088028632069622414e+00,4.001699819327139002e-02,-8.375686842286875905e-03
3.144751615957807472e-02,3.949619197292719708e-01,3.900979667820071439e-01,-3.087643215863109081e+00,4.050687699882402765e-02,-7.957903287762142785e-03
3.170465468626194189e-02,3.935419978853124667e-01,3.914533275127344836e-01,-3.087278788123287487e+00,4.097327950702508992e-02,-7.481748035812021622e-03
3.195380720350401299e-02,3.920630267676760150e-01,3.927086182428603522e-01,-3.086899246580168121e+00,4.138582494086180674e-02,-7.021909665828538795e-03
3.224281476914304945e-02,3.906258652688661681e-01,3.939216936051718188e-01,-3.086555188424387808e+00,4.186924194064049753e-02,-6.616279320138964033e-03
3.250377854125798688e-02,3.891911977292875635e-01,3.950736608793782301e-01,-3.086190699755824163e+00,4.239373277596170803e-02,-6.229286409573362750e-03
3.272615813489172798e-02,3.877400318363199982e-01,3.962765063101864604e-01,-3.085799579480000610e+00,4.289323237519233195e-02,-5.867490245447585379e-03
3.295559347234330860e-02,3.862730133280883882e-01,3.974671077691949161e-01,-3.085420074664887657e+00,4.336326523637349523e-02,-5.455677324738968277e-03
3.326638196879966314e-02,3.847809124530797154e-01,3.985563138053399568e-01,-3.084990796688378278e+00,4.382859843164300245e-02,-5.050096440748924782e-03
3.361394063402700638e-02,3.832649218901786337e-01,3.995436260698932984e-01,-3.084539974006312857e+00,4.424336864011495229e-02,-4.726708996619809720e-03
3.398956543983842199e-02,3.817855861322502209e-01,4.004847675999441692e-01,-3.084103472711621219e+00,4.466115698723433641e-02,-4.358150421429559523e-03
3.432675510156377174e-02,3.802156345708789242e-01,4.013273149966379849e-01,-3.083666696908438976e+00,4.510125381535125960e-02,-3.968127893753663205e-03
3.469589913544902926e-02,3.786205222129267467e-01,4.020479710530660555e-01,-3.083276067037520107e+00,4.551859236375076223e-02,-3.584030784130174188e-03
3.508776332708980761e-02,3.770466724055194230e-01,4.027425041238430481e-01,-3.082925771069366938e+00,4.596949591954666708e-02,-3.169062282644142300e-03
3.541684289298990818e-02,3.754971081466462191e-01,4.034085384885355285e-01,-3.082558260910823744e+00,4.640884161661711083e-02,-2.679925818697527842e-03
3.579275725746069309e-02,3.739001620791422287e-01,4.040049678022929469e-01,-3.082226007915686239e+00,4.688977917159642406e-02,-2.178944324410033492e-03
3.615523136617750100e-02,3.722291668825167266e-01,4.045380731487490111e-01,-3.081861269614288634e+00,4.735417658747245045e-02,-1.632768478933048321e-03
3.649703345138791827e-02,3.705680548649525896e-01,4.050046293145730392e-01,-3.081495059610311671e+00,4.788880974050532119e-02,-1.028006443272140059e-03
3.684691372773191143e-02,3.689137273002471851e-01,4.054886900145939777e-01,-3.081109415512199412e+00,4.840175521417165033e-02,-4.008558019985289855e-04
3.719105301448157042e-02,3.672784433966171380e-01,4.059419229476158297e-01,-3.080701554404338349e+00,4.894096751530284395e-02,2.258580178321773629e-04
3.758404233295618846e-02,3.656092512386717730e-01,4.063053842422011952e-01,-3.080258790540668645e+00,4.946617473131318526e-02,8.472835747201780225e-04
3.797782109178896026e-02,3.638726452419007162e-01,4.066034449368157722e-01,-3.079836590841811272e+00,4.997423103106410358e-02,1.497785363262494913e-03
3.835283644314401580e-02,3.621709506529308120e-01,4.068833135016987068e-01,-3.079522374854942957e+00,5.059163604117332402e-02,2.167550140032740904e-03
3.880283361834299671e-02,3.604931847903974362e-01,4.071221566053231933e-01,-3.079276850208212402e+00,5.117529326988713712e-02,2.879203133373981448e-03
3.923557033530389315e-02,3.588941091625167390e-01,4.073635041254121680e-01,-3.079038010302244555e+00,5.174247715826251620e-02,3.562766472798772118e-03
3.972896447454709462e-02,3.572706965981001792e-01,4.075513121686680229e-01,-3.078825982470010825e+00,5.228677393411691743e-02,4.204985786470753599e-03
4.018870155238863512e-02,3.556860370212485134e-01,4.076589389357443971e-01,-3.078614637400789888e+00,5.275458319131502705e-02,4.809050174392214688e-03
4.062096531485073075e-02,3.541228691795338390e-01,4.077038523973057216e-01,-3.078422370275636144e+00,5.320816534819827748e-02,5.387663952971240115e-03
4.106413754753432399e-02,3.525629126405266933e-01,4.076182283091533409e-01,-3.078148194676594507e+00,5.367233671921525784e-02,5.940396318331886590e-03
4.152375009143426110e-02,3.509953614341453920e-01,4.074575795978877535e-01,-3.077857287136535280e+00,5.418568905247181378e-02,6.543004341726308543e-03
4.196539851230784296e-02,3.494096849450166742e-01,4.072408653215642826e-01,-3.077592350074060956e+00,5.469759623403026155e-02,7.150417959634139571e-03
4.234472822218890431e-02,3.478467716354337602e-01,4.069440600767200156e-01,-3.077304462217882453e+00,5.521307471538022815e-02,7.772585701096201317e-03
4.271764366096353349e-02,3.463634016903700541e-01,4.065925789624431075e-01,-3.077135461573328179e+00,5.569620315179915626e-02,8.347714824348860876e-03
4.306449953097264693e-02,3.448969470497229572e-01,4.062421263260495019e-01,-3.076995776991544584e+00,5.616671782624925446e-02,8.947295734517060964e-03
4.340506344299604330e-02,3.433798402988392784e-01,4.058615969556985115e-01,-3.076856998536733112e+00,5.660068029933151140e-02,9.548523247119992605e-03
4.368339769866878136e-02,3.418998725273607042e-01,4.054284331565675137e-01,-3.076741036826119657e+00,5.703573656966159922e-02,1.010162796564097361e-02
4.394704752767687045e-02,3.404178934720934468e-01,4.048645847782763596e-01,-3.076620868763783712e+00,5.745384298958976232e-02,1.069729386780821252e-02
4.420200784593632248e-02,3.389529688333629553e-01,4.042558097212331503e-01,-3.076481881150757935e+00,5.783398873686417668e-02,1.125469204566484187e-02
4.446394921921915933e-02,3.374847082366853046e-01,4.036211547935237287e-01,-3.076359709042111312e+00,5.819503221670292020e-02,1.186062519448930277e-02
4.478707073921032317e-02,3.360378749130372156e-01,4.029376589217550375e-01,-3.076266224615326283e+00,5.859356700280249353e-02,1.245876875658631817e-02
4.504429677007705524e-02,3.346672288885524926e-01,4.022234605275627484e-01,-3.076225756716027160e+00,5.910753461064074260e-02,1.309242488053082888e-02
4.525121468771135108e-02,3.332951840321300985e-01,4.014718269907083248e-01,-3.076176674051396720e+00,5.965791973178360963e-02,1.371130438260000604e-02
4.545749825767839147e-02,3.318941179464111046e-01,4.006773722932392423e-01,-3.076163387163748375e+00,6.023545252713106285e-02,1.429447209414762797e-02
4.569193560456837055e-02,3.304475021149897440e-01,3.998311657841994160e-01,-3.076250987332723508e+00,6.094319050105315855e-02,1.498332856413096305e-02
4.591283237106251469e-02,3.289618890384318761e-01,3.988832731296627077e-01,-3.076432719288563433e+00,6.183737550738040850e-02,1.572698381159244596e-02
4.615849680423797508e-02,3.274786733076683887e-01,3.979136170005073136e-01,-3.076636338278151417e+00,6.266911199563338086e-02,1.647509680572950205e-02
4.636039011074256228e-02,3.259674425062068504e-01,3.969025418088958368e-01,-3.076893149906447800e+00,6.344861072568158677e-02,1.721655573573987325e-02
4.653312442601952037e-02,3.244895917750333370e-01,3.958460174006551702e-01,-3.077167720619043312e+00,6.420683018093029104e-02,1.798096079445052342e-02
4.670549187120989071e-02,3.230153630271530574e-01,3.947901417529925960e-01,-3.077417678402952106e+00,6.500209229564786473e-02,1.876096929124619964e-02
4.681194309985935165e-02,3.215697719493295081e-01,3.936793850958023588e-01,-3.077691082028497060e+00,6.583815061417930270e-02,1.954513821858996914e-02
4.695575495633089874e-02,3.201034054132027573e-01,3.925295790907017413e-01,-3.077968201860436182e+00,6.668777223799565723e-02,2.029688138297245509e-02
4.714001555181131231e-02,3.186054378817582133e-01,3.913392760415604910e-01,-3.078246499173997730e+00,6.758913857405907111e-02,2.106908509112236788e-02
4.729874476996401983e-02,3.171249059444464224e-01,3.901588500009808280e-01,-3.078543069765374618e+00,6.851135520284672153e-02,2.185298021419052397e-02
4.742109414593720373e-02,3.156441465699383331e-01,3.889620111880481845e-01,-3.078841010421023316e+00,6.942306148187124548e-02,2.266828886866178658e-02
4.754009053495635712e-02,3.141839699254704299e-01,3.877078393359540409e-01,-3.079193700487720342e+00,7.025559074239252910e-02,2.356310417868948820e-02
4.764539515625195593e-02,3.127249716443323835e-01,3.864040893920406283e-01,-3.079587399043608009e+00,7.106809352513830669e-02,2.449372973020648783e-02
4.774197224433051473e-02,3.112764243050437640e-01,3.850939664482743718e-01,-3.079993740527683155e+00,7.186370345696778406e-02,2.544941634428885685e-02
4.780521739212303944e-02,3.098296501283491766e-01,3.838078477081068307e-01,-3.080341279090215156e+00,7.271987644104732640e-02,2.642111722613490338e-02
4.786159806015465035e-02,3.083967859111724219e-01,3.825017841083337422e-01,-3.080597575967544355e+00,7.361641693239100170e-02,2.741665960432974544e-02
4.790385627163250976e-02,3.069638252390360922e-01,3.811692897478429209e-01,-3.080792256328455991e+00,7.453829477935743075e-02,2.845987939116084720e-02
4.795566497135263923e-02,3.055813039376580331e-01,3.797933467024087739e-01,-3.080995575243571594e+00,7.543550974381106611e-02,2.949955214421833699e-02
4.799308239551520333e-02,3.043861437514213120e-01,3.783833795812675538e-01,-3.081181053617989551e+00,7.592009618203358901e-02,3.048404464196605157e-02
4.804074782491998818e-02,3.032443764515206919e-01,3.769823369144690850e-01,-3.081395215669080923e+00,7.631644178954766211e-02,3.142128792998888365e-02
4.806576486319547731e-02,3.021265980290064324e-01,3.755841071041409185e-01,-3.081611710355272482e+00,7.670693260372282718e-02,3.235034379646022779e-02
4.808889461404444732e-02,3.010003069483262461e-01,3.741902988186026624e-01,-3.081829418681107047e+00,7.708268753027409936e-02,3.329533903605963463e-02
4.811480002402159645e-02,2.998945194734315978e-01,3.727974954176760947e-01,-3.082076296715742458e+00,7.748006616167202321e-02,3.421860974897862617e-02
4.813252746493817957e-02,2.988203855989463031e-01,3.713956601271370950e-01,-3.082318974218817509e+00,7.787958013588852646e-02,3.513990756784365899e-02
4.813955250257899443e-02,2.977610256324536020e-01,3.700065424410829973e-01,-3.082568924298654700e+00,7.825416338099318303e-02,3.605088944874340617e-02
4.814355576897773326e-02,2.967193032164185396e-01,3.685941934845158863e-01,-3.082804434629821344e+00,7.862329731795941745e-02,3.695736504843970954e-02
4.811972561987350183e-02,2.956474762784078170e-01,3.671736849209861209e-01,-3.083233436816257278e+00,7.896035581875879283e-02,3.797351111360671577e-02
4.805568437230971907e-02,2.945753074401257776e-01,3.657011704838302735e-01,-3.084052748901839003e+00,7.919589645033967007e-02,3.922908421149117614e-02
4.799930673829632538e-02,2.934939890970952869e-01,3.642490378046273070e-01,-3.084887866880264173e+00,7.956057150365633546e-02,4.063172288598421861e-02
4.794713105523139285e-02,2.924215621543962418e-01,3.628155434900029452e-01,-3.085722968050505610e+00,7.991683985016409530e-02,4.202409686295557195e-02
4.788461564627836259e-02,2.913905306015771579e-01,3.613764748162109908e-01,-3.086543336037063323e+00,8.027178526290873473e-02,4.341993856644515981e-02
4.782479151530006495e-02,2.903702408413929015e-01,3.599348933395689620e-01,-3.087381589789063518e+00,8.062842610266689192e-02,4.479074717342032552e-02
4.776628736218611893e-02,2.893681507804113928e-01,3.584955840819727957e-01,-3.088208426946059681e+00,8.096811159350038312e-02,4.616451047426206600e-02
4.769890424183449024e-02,2.883878864441071221e-01,3.570453830183445421e-01,-3.089034410758022542e+00,8.128784576504888282e-02,4.755099968556005668e-02
4.764450271221765121e-02,2.874142947776073820e-01,3.556122972764548806e-01,-3.089843740910768854e+00,8.160626524414045513e-02,4.893522802199443827e-02
4.759551898063889286e-02,2.864331414318421754e-01,3.541762223263145715e-01,-3.090705207267083754e+00,8.188861352437974694e-02,5.027275071866522255e-02
4.753022101310029612e-02,2.854356972949112503e-01,3.527008230385221821e-01,-3.091692984012188283e+00,8.212901394220085971e-02,5.151326052263895117e-02
4.746866448660192611e-02,2.844075084712253121e-01,3.512171929956780514e-01,-3.092748311939951478e+00,8.239486271806741036e-02,5.279472289523120393e-02
4.740409933898817596e-02,2.834233850048451520e-01,3.497990737392200900e-01,-3.093761290811311238e+00,8.269892211829686646e-02,5.405112840724041884e-02
4.734634460382310811e-02,2.824907707026887427e-01,3.484673777506344661e-01,-3.094688901814074633e+00,8.285826849812147343e-02,5.531444784915538759e-02
4.729945320329719677e-02,2.815547358296612845e-01,3.471215469580624102e-01,-3.095656593852895266e+00,8.284618259196578627e-02,5.667811714989735156e-02
4.723054296094399140e-02,2.806405326091190866e-01,3.457894281841836781e-01,-3.096637241267783391e+00,8.285221030783117280e-02,5.797787223411325630e-02
4.717291983546001433e-02,2.797524771205596172e-01,3.444678591370031739e-01,-3.097631071871675523e+00,8.286111916491285811e-02,5.921437127894204483e-02
4.710933801286292660e-02,2.788580566562381957e-01,3.431640718938022694e-01,-3.098640908459718624e+00,8.287533135978801535e-02,6.043605373831761191e-02
4.706116660518191303e-02,2.779621849038397818e-01,3.418616051873097916e-01,-3.099650824770954660e+00,8.288089863745067010e-02,6.165173080950551304e-02
4.701687314608687940e-02,2.770712554432634422e-01,3.405786572448761262e-01,-3.100661532084493022e+00,8.288341324617569394e-02,6.287030220412918868e-02
4.698172134732758742e-02,2.761966912622439985e-01,3.393061164062548540e-01,-3.101668551985905964e+00,8.289080979503768432e-02,6.408549625705721453e-02
4.694074197134971704e-02,2.753236399497071552e-01,3.380566722850309458e-01,-3.102673432334861481e+00,8.288510144621875908e-02,6.529880811031057997e-02
4.691046809838798903e-02,2.744631143502416215e-01,3.368314898714345751e-01,-3.103664636200668792e+00,8.287443610496614266e-02,6.651091568343640847e-02
4.689376439714273287e-02,2.736358716780131206e-01,3.356460312156754333e-01,-3.104634842806366812e+00,8.285591718382472048e-02,6.763204929684135669e-02
4.690604593579032061e-02,2.728677735406396798e-01,3.344974709781725619e-01,-3.105581796222766311e+00,8.283079050992719905e-02,6.861716021964020529e-02
4.692687858654361749e-02,2.721136106665521526e-01,3.333682227370808326e-01,-3.106537690776669969e+00,8.280329926942661678e-02,6.960048838814808514e-02
4.692391205065855886e-02,2.713872893326552682e-01,3.322227162626427699e-01,-3.107599890414112220e+00,8.274115062177536672e-02,7.053944215489191261e-02
4.686891410656293666e-02,2.707307241927037755e-01,3.310546859777050432e-01,-3.108609467485541344e+00,8.262446951734730982e-02,7.133512989507936886e-02
4.680380215000908700e-02,2.700966489120310010e-01,3.298907197078335130e-01,-3.109606286130423669e+00,8.251495022297750115e-02,7.215347887772306790e-02
4.674766722825367260e-02,2.694756645393549532e-01,3.287351421156048392e-01,-3.110594614083046494e+00,8.241301174999220158e-02,7.296579102405331696e-02
4.671458704788217925e-02,2.687396077031120600e-01,3.274979455887051527e-01,-3.111821531040443567e+00,8.219404793669470022e-02,7.404997517736362778e-02
4.668686067921457017e-02,2.677606385208711748e-01,3.260892680648615483e-01,-3.113463762154661918e+00,8.173883498814660253e-02,7.585606422040841457e-02
4.665539392249121176e-02,2.667825951261009187e-01,3.246895352877515739e-01,-3.115102041554155043e+00,8.129284010418878770e-02,7.765138679415194145e-02
4.662156246204504639e-02,2.658093300802072956e-01,3.233046822239818985e-01,-3.116734397330875428e+00,8.085151114752182899e-02,7.943969175751164347e-02
4.659447390675985207e-02,2.648397401279465879e-01,3.219358809618801942e-01,-3.118361837563807359e+00,8.041324151898604500e-02,8.123025949369788723e-02
4.653299182139237350e-02,2.641287032005705249e-01,3.207119253243413404e-01,-3.119700374171591850e+00,8.004934402445371133e-02,8.254570096698038428e-02
4.643429142531131648e-02,2.636503166813742305e-01,3.196149588988275170e-01,-3.120766335797914515e+00,7.975424059768468354e-02,8.342707346254822631e-02
4.634065753114377517e-02,2.631664741528439988e-01,3.185339390002095428e-01,-3.121833845844212529e+00,7.945685120166896820e-02,8.430256433023132490e-02
4.624227712039661459e-02,2.627099557120103901e-01,3.174850037488090027e-01,-3.122872964990065281e+00,7.916312483205316386e-02,8.511371441792361936e-02
4.613920984559397725e-02,2.623043248411279782e-01,3.164801900992028627e-01,-3.123848139123746925e+00,7.887458191941879027e-02,8.581626071090447949e-02
4.604334946017218239e-02,2.618930564291185314e-01,3.154872324275870832e-01,-3.124819144179766361e+00,7.858335198531703203e-02,8.652373625966904014e-02
4.594468228294179557e-02,2.614817670976928299e-01,3.145069902590648114e-01,-3.125791228575013125e+00,7.829393113396791726e-02,8.723370326151182186e-02
4.584955328414096892e-02,2.610702231362038161e-01,3.135397510358899908e-01,-3.126759226453156959e+00,7.800567711847895824e-02,8.794369968215692834e-02
4.575659458677996949e-02,2.606527106504157865e-01,3.125874987159524276e-01,-3.127729608762454649e+00,7.772282434757400715e-02,8.865888998691734413e-02
4.565637017498035133e-02,2.602344866897565168e-01,3.116497497594594157e-01,-3.128665501610321531e+00,7.744376011573445018e-02,8.938448090605942420e-02
4.549840870084886912e-02,2.598362016449669576e-01,3.107618094151978760e-01,-3.129203310017993012e+00,7.722641577545197311e-02,9.034146126673082977e-02
4.531323917950492997e-02,2.594311485615166113e-01,3.098978802707150204e-01,-3.129625391046949812e+00,7.704086950156140146e-02,9.140741272449907917e-02
4.513012428785855706e-02,2.590252871211529140e-01,3.090452385947832226e-01,-3.130052862376966782e+00,7.685293541490201275e-02,9.247016328625713710e-02
4.495062515589668545e-02,2.586179067605954840e-01,3.082015609636587494e-01,-3.130482689634498605e+00,7.666913622977286624e-02,9.352752827996706209e-02
4.477750906681469967e-02,2.582093126024271323e-01,3.073703435455155675e-01,-3.130916852356853575e+00,7.648171369654747920e-02,9.458456612090548887e-02
4.460460004498112419e-02,2.578026025493614926e-01,3.065484246921693634e-01,-3.131350159478500039e+00,7.629945488452564983e-02,9.564313788198557098e-02
4.442810673544574790e-02,2.573979243744253242e-01,3.057282071070720475e-01,-3.131830059752581885e+00,7.611500303061141670e-02,9.669136858617354002e-02
4.424247493423089095e-02,2.569903377975028547e-01,3.049040812946462453e-01,-3.132357247701147429e+00,7.592874889223183432e-02,9.773995510717892188e-02
4.405812261304298955e-02,2.565810421256848883e-01,3.040909146335867841e-01,-3.132888249832237459e+00,7.574352066176753828e-02,9.878653370833452574e-02
4.387456950347260604e-02,2.561723826759346179e-01,3.032869699285674070e-01,-3.133420978418754999e+00,7.556084006448290924e-02,9.983491642324091031e-02
4.369341391429873434e-02,2.557649767509740379e-01,3.024929155299029837e-01,-3.133955346802570041e+00,7.537787853210353717e-02,1.008837264616725266e-01
4.351317894322483115e-02,2.553562872571553122e-01,3.017065584212125229e-01,-3.134489678359814402e+00,7.519642934989562155e-02,1.019292448584400712e-01
4.333309556872402130e-02,2.549446142348046895e-01,3.009301948748211997e-01,-3.135026229274995302e+00,7.501837813582833137e-02,1.029753702658562226e-01
4.315355441888948235e-02,2.545318567061414794e-01,3.001626271763261911e-01,-3.135563303428460902e+00,7.483828918209749215e-02,1.040211762578244908e-01
4.297663588663675621e-02,2.541192556978390527e-01,2.994049465003242871e-01,-3.136101647629410571e+00,7.465807850778626020e-02,1.050669584717168897e-01
4.280016253737665977e-02,2.537084472521696776e-01,2.986563223507772147e-01,-3.136640571117807141e+00,7.447779711479862730e-02,1.061091632718604433e-01
4.265403826471365206e-02,2.533318564093649528e-01,2.979458503923891333e-01,-3.137139358193242966e+00,7.430306884125659206e-02,1.070307382322893686e-01
4.246356381079449682e-02,2.529452938043472154e-01,2.972403877700168229e-01,-3.137641148369121780e+00,7.410158754727330654e-02,1.081627371349555417e-01
4.223508614056931121e-02,2.525800600858355005e-01,2.965749251754547511e-01,-3.138054839494713644e+00,7.387472240425042858e-02,1.094539746448009582e-01
4.203588140660396988e-02,2.522749050151636974e-01,2.959754975307283265e-01,-3.138249307433487179e+00,7.363413550272730757e-02,1.105815581245980089e-01
4.183815107265265870e-02,2.519666750983835524e-01,2.953839520551670428e-01,-3.138446550266499990e+00,7.339433192956450192e-02,1.117072598694782426e-01
4.164152937270271249e-02,2.516576734455955311e-01,2.948006951381934027e-01,-3.138645411962835752e+00,7.315701105647197389e-02,1.128331626099654261e-01
4.144786667519302636e-02,2.513474203088663095e-01,2.942239250738414302e-01,-3.138846881451065940e+00,7.292001950030366220e-02,1.139596333729765015e-01
4.125474426348704066e-02,2.510376902539427357e-01,2.936533617423073284e-01,-3.139050885801732527e+00,7.268220852787192487e-02,1.150853742733585483e-01
4.106253120159179815e-02,2.507261343402027443e-01,2.930885406197060172e-01,-3.139257501804651351e+00,7.244456452307711236e-02,1.162105290533132634e-01
4.086980513230838857e-02,2.504132658177631310e-01,2.925256249231671934e-01,-3.139446702839908454e+00,7.220697816571911010e-02,1.173271831602381715e-01
4.067751451036490107e-02,2.500977290079313686e-01,2.919574628348572398e-01,-3.139556999470649590e+00,7.196534025658876677e-02,1.184118211168131152e-01
4.048597348225763115e-02,2.497797682481193715e-01,2.913959469557173554e-01,-3.139669905490618529e+00,7.172395121654585870e-02,1.194948370308839686e-01
4.029625643358138859e-02,2.494602399048720942e-01,2.908410496146883739e-01,-3.139785332915919991e+00,7.148050217690776753e-02,1.205760290857075812e-01
4.010822423070892206e-02,2.491391316651138943e-01,2.902926108216039580e-01,-3.139903879696390732e+00,7.123766609928333660e-02,1.216561993806527658e-01
3.995361169587181155e-02,2.488598664695256812e-01,2.897513656339446020e-01,-3.140026206850163426e+00,7.101266508954859336e-02,1.225542571756254723e-01
3.982050192726393351e-02,2.486072304582156445e-01,2.892158475873601309e-01,-3.140149769496950682e+00,7.079836041677770031e-02,1.233343567881613895e-01
3.968880715640455553e-02,2.483522328809849578e-01,2.886854893249612974e-01,-3.140274590177857039e+00,7.058527160306456161e-02,1.241154454545580904e-01
3.955676311820246344e-02,2.480955446628580197e-01,2.881598516541886701e-01,-3.140400727956030646e+00,7.037156509044253938e-02,1.248974165595531927e-01
3.942418851193254387e-02,2.478366929926136553e-01,2.876386801938132232e-01,-3.140528860289843571e+00,7.015791475509108865e-02,1.256803145263312993e-01
3.931213221904565625e-02,2.476256028105467133e-01,2.871705316585492773e-01,-3.140659669075045013e+00,6.996764525270345036e-02,1.263722146941788360e-01
3.921521970406702945e-02,2.474445718788119974e-01,2.867289466503692430e-01,-3.140792559519198335e+00,6.978418748390173565e-02,1.270074010689012933e-01
3.913025949147205806e-02,2.472589295768856388e-01,2.862398239941070788e-01,-3.140927771091509779e+00,6.958211887252986616e-02,1.275783341668740578e-01
3.904518588233853865e-02,2.470714178946030459e-01,2.857543442407727285e-01,-3.141065369810156938e+00,6.938009798221445035e-02,1.281504037259142970e-01
3.895916556334962089e-02,2.468819111651864018e-01,2.852727323040084584e-01,-3.141204823423002779e+00,6.917820065757475378e-02,1.287238817746880204e-01
3.887230846754918812e-02,2.466906520036895589e-01,2.847937545519958480e-01,-3.141345828753098868e+00,6.897619866613563522e-02,1.292981627617774687e-01
3.878564937974952886e-02,2.464980612303184215e-01,2.843190935072899550e-01,-3.141488376730631860e+00,6.877393463397409035e-02,1.298735936622664178e-01
3.869970391053180470e-02,2.463038736652686522e-01,2.838479031384944506e-01,-3.141631859752950451e+00,6.857160274196387462e-02,1.304505000827920480e-01
3.861465804576429128e-02,2.461121186185501186e-01,2.833829503984248155e-01,-3.141770340127552075e+00,6.838858597858418764e-02,1.310190528413189004e-01
3.853122733237557968e-02,2.459342193984096203e-01,2.829295615449429202e-01,-3.141884302767995241e+00,6.827975791011361983e-02,1.315526107268281120e-01
3.844798553762464322e-02,2.457555112140918652e-01,2.824792715888458372e-01,-3.141999616009867324e+00,6.817076977087456469e-02,1.320872260633211004e-01
3.836272970884772177e-02,2.455791592598149942e-01,2.820411498890710855e-01,-3.142034164295938403e+00,6.806536207790998827e-02,1.326335588451253711e-01
3.827236723940382473e-02,2.454123446735982650e-01,2.816299635647531718e-01,-3.141926046937238315e+00,6.796837375914298318e-02,1.332023765984577668e-01
3.817837580975959322e-02,2.452669936813148543e-01,2.812716290782365514e-01,-3.141819706124362455e+00,6.787827785340544429e-02,1.337881262234524027e-01
3.808478067363870595e-02,2.451201841993828345e-01,2.809162787273040696e-01,-3.141715299814416440e+00,6.778801131983554218e-02,1.343746033010625729e-01
3.799118076918674841e-02,2.449720838155153846e-01,2.805637257152799879e-01,-3.141612958010002732e+00,6.769734111150790823e-02,1.349618768179086103e-01
3.789780087920784080e-02,2.448218232498475810e-01,2.802135624305451822e-01,-3.141513146353750230e+00,6.760623865205060701e-02,1.355501751694418167e-01
3.782220484348491896e-02,2.446994006569332136e-01,2.798783021081936440e-01,-3.141415320908765629e+00,6.752197944945050045e-02,1.360518551835309675e-01
3.777113907047507241e-02,2.446181060597622248e-01,2.795588814022666457e-01,-3.141318749980261060e+00,6.745525730614904125e-02,1.364256882293772011e-01
3.773470541812226631e-02,2.445649108918075687e-01,2.792458400289017373e-01,-3.141224231316344540e+00,6.740819927578768633e-02,1.367140379535360661e-01
3.769835726121927716e-02,2.445099267582877545e-01,2.789348375534808078e-01,-3.141131332655865194e+00,6.736100070166899101e-02,1.370037756247002025e-01
3.766183841153283168e-02,2.444530130251985622e-01,2.786262730425829170e-01,-3.141039650981625186e+00,6.731336412128752222e-02,1.372953903522708130e-01
3.762540994749592749e-02,2.443944110400609049e-01,2.783199484934613110e-01,-3.140949165555737554e+00,6.726528818891400197e-02,1.375885209520969765e-01
3.758888790031253424e-02,2.443339667994584297e-01,2.780159109526629257e-01,-3.140860096930995660e+00,6.721713202382505192e-02,1.378829170463245213e-01
3.755223453360450464e-02,2.442722143784735456e-01,2.777138450298559658e-01,-3.140772736014498800e+00,6.716889959801583543e-02,1.381787359342569466e-01
3.751565359692442952e-02,2.442091366226427362e-01,2.774138051072599365e-01,-3.140686791645132203e+00,6.712040069414824950e-02,1.384759083776212485e-01
3.747912618531144130e-02,2.441446478032986422e-01,2.771155217624651224e-01,-3.140601979720043957e+00,6.707170902037838667e-02,1.387745316037964083e-01
3.744243195250947231e-02,2.440787362846960074e-01,2.768188379316259273e-01,-3.140518294157823576e+00,6.702296870497832793e-02,1.390744986305106068e-01
3.740555794936316347e-02,2.440114386243735223e-01,2.765236707392048077e-01,-3.140435904074699192e+00,6.697432968607879011e-02,1.393755190925002330e-01
3.736869536003431524e-02,2.439428350277190738e-01,2.762302107712266697e-01,-3.140354530110791131e+00,6.692552281120744961e-02,1.396777519493774544e-01
3.732908382974777645e-02,2.438703915302171399e-01,2.759345150395728918e-01,-3.140274255584705632e+00,6.687391605758610802e-02,1.399946963139337142e-01
3.726302049378475006e-02,2.437750331595108788e-01,2.756048350186862117e-01,-3.140194844182393474e+00,6.679980133124842345e-02,1.404351827183122903e-01
3.719690116373310096e-02,2.436784528378418690e-01,2.752768998916060306e-01,-3.140116637154481083e+00,6.672577935189000220e-02,1.408763859226017379e-01
3.713188516431625841e-02,2.435779653475940443e-01,2.749434376676924141e-01,-3.140066393116022869e+00,6.664781916960973995e-02,1.413155211898576014e-01
3.707464553717986638e-02,2.434570170240309972e-01,2.745627598762901411e-01,-3.140205315128228758e+00,6.654286465171647957e-02,1.417365205860491584e-01
3.702277680180467850e-02,2.433485444218140559e-01,2.741888803872288838e-01,-3.140325094154219787e+00,6.642799157829501477e-02,1.421261237574520386e-01
3.698190694264399947e-02,2.433190550001620434e-01,2.738738328462332339e-01,-3.140297784245897894e+00,6.633986376293687925e-02,1.424127597895660235e-01
3.694100244465695765e-02,2.432884911100367809e-01,2.735601597703701815e-01,-3.140271066152036550e+00,6.625182416999132740e-02,1.427002762881139364e-01
3.689975554543032527e-02,2.432632755598408136e-01,2.732566898577957204e-01,-3.140245051643484331e+00,6.616846795744862897e-02,1.429859529641601401e-01
3.685657307496747331e-02,2.432940036210927415e-01,2.730331011419930287e-01,-3.140219798512849714e+00,6.612571750145430916e-02,1.432483584715004699e-01
3.681337826249156397e-02,2.433236497519735975e-01,2.728107097701981121e-01,-3.140195208236695290e+00,6.608294883730428393e-02,1.435116557512126079e-01
3.676999111595297826e-02,2.433520613864113002e-01,2.725891475645797479e-01,-3.140171181787838606e+00,6.604008866322270965e-02,1.437758860950468787e-01
3.672657853681401269e-02,2.433792886813289091e-01,2.723684331913689416e-01,-3.140147746400196560e+00,6.599717718152832424e-02,1.440409697579144166e-01
3.668313758775523098e-02,2.434053593304998930e-01,2.721485537086378859e-01,-3.140124940329881209e+00,6.595410091989650780e-02,1.443069130693109270e-01
3.663963684563166512e-02,2.434303586868455105e-01,2.719294753612371274e-01,-3.140102673438660119e+00,6.591092080956618970e-02,1.445736142938540969e-01
3.659601387566705638e-02,2.434543450194146252e-01,2.717112202622020689e-01,-3.140080931887383908e+00,6.586759640749909051e-02,1.448410857470708302e-01
3.655230179877470148e-02,2.434784041283673262e-01,2.714933039244345481e-01,-3.140038909467892214e+00,6.582308369754599764e-02,1.451085540172083466e-01
3.650853037930511247e-02,2.435122322100541636e-01,2.712666752449428009e-01,-3.139763988026744723e+00,6.576537727762982177e-02,1.453688824292630188e-01
3.647073669346988928e-02,2.435243010838284705e-01,2.709908332889086613e-01,-3.139300109879066270e+00,6.568660246820746951e-02,1.456195267267101356e-01
3.643289620823943892e-02,2.435354252168172584e-01,2.707158720773173988e-01,-3.138838055206435218e+00,6.560783127720616614e-02,1.458708950073147881e-01
3.639502123168764786e-02,2.435456638835412913e-01,2.704417949195278004e-01,-3.138377808595290475e+00,6.552903485413377749e-02,1.461229253747085288e-01
3.635388769860232322e-02,2.435581297819547353e-01,2.701680867328857261e-01,-3.137919130423938441e+00,6.545288389687785313e-02,1.463857606678167500e-01
3.630389743135813835e-02,2.435848322813623235e-01,2.698734163858007573e-01,-3.137363490034459357e+00,6.537474911592607019e-02,1.466697541255742310e-01
3.625673069013084227e-02,2.436226497818941850e-01,2.695320828641558086e-01,-3.136580823413528840e+00,6.527290441934816001e-02,1.469271451794468830e-01
3.622973116126378124e-02,2.436466815491647731e-01,2.691712997200920165e-01,-3.135800634637670115e+00,6.514834078018956476e-02,1.471077757857177370e-01
3.620341637617584957e-02,2.436694073597947263e-01,2.688107708959284747e-01,-3.135022961436648270e+00,6.502304960136151557e-02,1.472862272924254645e-01
3.617700218192433648e-02,2.436913832265115987e-01,2.684512371470608727e-01,-3.134247680895104082e+00,6.489792306550630496e-02,1.474654449678310941e-01
3.615051305555546518e-02,2.437126231028685641e-01,2.680926664186151775e-01,-3.133474689274239111e+00,6.477297342407414837e-02,1.476454005259338065e-01
3.612360976158462272e-02,2.437337869623735498e-01,2.677374571462970976e-01,-3.132697268245253408e+00,6.465070676105444392e-02,1.478267669838005116e-01
3.609932199013933529e-02,2.437397939483606224e-01,2.674060640673671663e-01,-3.132139440836584576e+00,6.453119441945258383e-02,1.479919552885291811e-01
3.607495512010394645e-02,2.437451466885121876e-01,2.670755168788869205e-01,-3.131583557903343529e+00,6.441182141949798601e-02,1.481577964653578161e-01
3.605050387793540950e-02,2.437499052702296609e-01,2.667457214850226244e-01,-3.131028938468531919e+00,6.429257455798040310e-02,1.483243145283053566e-01
3.602597011212027578e-02,2.437540957549110265e-01,2.664166565132937703e-01,-3.130475536421995830e+00,6.417344638780390909e-02,1.484914777923121709e-01
3.600135517376030353e-02,2.437577355217629416e-01,2.660882936906174834e-01,-3.129923298777483875e+00,6.405443328819752924e-02,1.486592570625815679e-01
3.597666352500151349e-02,2.437608429362018159e-01,2.657606067446349196e-01,-3.129372176801623606e+00,6.393553075322251644e-02,1.488276295624083312e-01
3.595203715517675952e-02,2.437634946600567842e-01,2.654351903027237225e-01,-3.128824868760087252e+00,6.381734039424566407e-02,1.489956194726198835e-01
3.592936466653242483e-02,2.437664910731225654e-01,2.651339539229660702e-01,-3.128318515468528460e+00,6.370805930577401466e-02,1.491503159304253812e-01
3.590852598975108334e-02,2.437697988476109912e-01,2.648554475592830304e-01,-3.127850654218687687e+00,6.360715024019425456e-02,1.492925350743756208e-01
3.588940766913693847e-02,2.437733868346308452e-01,2.645983000234943261e-01,-3.127418956425997543e+00,6.351410525304398980e-02,1.494230481103859809e-01
3.587190251993435663e-02,2.437772259404737962e-01,2.643612149312679627e-01,-3.127021220728143369e+00,6.342844419380405663e-02,1.495425836392154373e-01
