1.123380354396229380e-01,9.596469864442237763e-02,3.523485137170089820e-01,-3.129416997053466876e+00,-7.873741843225926440e-04,8.368264756640407488e-04
1.123380354396229380e-01,9.596469864442237763e-02,3.523485137170089820e-01,-3.129416997053466876e+00,-7.873741843225926440e-04,8.368264756640407488e-04
1.123350930367435635e-01,9.598768519122634346e-02,3.523481823120930279e-01,-3.129410595899013270e+00,-7.749633907666385975e-04,8.366794922007614885e-04
1.123293870746599477e-01,9.603226205090405199e-02,3.523475398206136200e-01,-3.129397871110737750e+00,-7.611152874751473448e-04,8.363944506496725963e-04
1.123210936381179165e-01,9.609705375856614218e-02,3.523466061014479678e-01,-3.129378959549101058e+00,-7.546586393916442960e-04,8.359801457901831507e-04
1.123103800057009688e-01,9.618076694536766003e-02,3.523454025444282545e-01,-3.129354028488773309e+00,-7.625271666200676094e-04,8.354448100017992148e-04
1.122973990299178937e-01,9.628218229574178610e-02,3.523439415845474598e-01,-3.129323280061238055e+00,-7.900840487939837526e-04,8.347963109578297519e-04
1.122823030453776599e-01,9.640014171895458506e-02,3.523422464437436230e-01,-3.129286927194129930e+00,-8.413125549498154691e-04,8.340419638413062390e-04
1.122652274231213387e-01,9.653356600645575381e-02,3.523403282592773023e-01,-3.129245205799054741e+00,-9.190819803878861943e-04,8.331887304713912800e-04
1.122463039689303582e-01,9.668142990912505230e-02,3.523382027186470200e-01,-3.129198359144110153e+00,-1.025299892271557120e-03,8.322431541234006540e-04
1.122256579639217128e-01,9.684276350029387415e-02,3.523358855996713279e-01,-3.129146637330575853e+00,-1.161080517554073698e-03,8.312114120727685882e-04
1.122034019161223667e-01,9.701666773444476977e-02,3.523333857591613438e-01,-3.129090296114277248e+00,-1.326884016191993889e-03,8.300993097438244973e-04
1.121796504404155015e-01,9.720227148074628287e-02,3.523307207077160941e-01,-3.129029589381421950e+00,-1.522626213135912796e-03,8.289123491219608413e-04
1.121545036423037545e-01,9.739877635248320176e-02,3.523278986199649410e-01,-3.128964772188957522e+00,-1.747786539012551911e-03,8.276556813762597255e-04
1.121280597005053503e-01,9.760541924280356774e-02,3.523249312901201025e-01,-3.128896095338720151e+00,-2.001489561782737910e-03,8.263341751303155975e-04
1.121004109369797136e-01,9.782148189213855927e-02,3.523218296807733574e-01,-3.128823805131854208e+00,-2.282580063241268324e-03,8.249524147924938624e-04
1.120716419923636631e-01,9.804629515550167262e-02,3.523186018232113970e-01,-3.128748142509885088e+00,-2.589685374681909187e-03,8.235147013887151365e-04
1.120418357492291572e-01,9.827921941513284576e-02,3.523152585462053232e-01,-3.128669341069569843e+00,-2.921268709175172448e-03,8.220251026698512358e-04
1.120110676046631726e-01,9.851966103135614827e-02,3.523118074645557596e-01,-3.128587627364202817e+00,-3.275673675151799698e-03,8.204874275837159992e-04
1.119794095489242136e-01,9.876705836180833809e-02,3.523082568302848272e-01,-3.128503219745375041e+00,-3.651162649034241179e-03,8.189052653210627348e-04
1.119469209909317448e-01,9.902095115374645595e-02,3.523046181839287194e-01,-3.128416252888528870e+00,-4.045882909013477982e-03,8.172815718294696233e-04
1.119010982805577065e-01,9.938796080405364053e-02,3.523078406135763396e-01,-3.128204813844220222e+00,-4.352117012817340903e-03,8.149487989220353164e-04
1.118483843336198769e-01,9.983714707131348398e-02,3.523182414649987937e-01,-3.127873486856982854e+00,-4.618519168713672123e-03,8.123093500626281816e-04
1.117896755467856496e-01,1.004090838261394586e-01,3.523428063754259765e-01,-3.127318207547546969e+00,-4.845195693985391780e-03,8.095069274055313692e-04
1.117304423245271405e-01,1.009848819448274371e-01,3.523672380661555525e-01,-3.126762297777304855e+00,-5.084576875668904948e-03,8.066780884476067864e-04
1.116707393396944442e-01,1.015639908855146961e-01,3.523915197266553334e-01,-3.126206255348320973e+00,-5.335010011416653486e-03,8.038253811161320166e-04
1.116106129623293114e-01,1.021460806244308961e-01,3.524156639867165319e-01,-3.125650172924720138e+00,-5.594799310209019189e-03,8.009509899326659309e-04
1.115500981290820232e-01,1.027308655589186381e-01,3.524396734649634655e-01,-3.125094146075025670e+00,-5.862312654228261574e-03,7.980569164443573633e-04
1.114892126452468185e-01,1.033182602210169221e-01,3.524635620994082674e-01,-3.124538252095654833e+00,-6.135790747013349956e-03,7.951442921425608094e-04
1.114145218429420520e-01,1.040230766665186241e-01,3.524879967401569059e-01,-3.123981002160953757e+00,-6.307169799976809245e-03,7.917758064170234231e-04
1.113380393524356360e-01,1.047427023515531269e-01,3.525123949498611409e-01,-3.123423866500266488e+00,-6.469836268360248596e-03,7.883437359643124392e-04
1.112613585203517663e-01,1.054635887303490144e-01,3.525366926733450312e-01,-3.122867089710100963e+00,-6.634764664029076976e-03,7.849004308042264360e-04
1.111844914829510644e-01,1.061855807936825796e-01,3.525608890179299237e-01,-3.122310715989163210e+00,-6.800597265199160614e-03,7.814471617861283321e-04
1.110941761615525658e-01,1.069556306954998759e-01,3.525878052969207421e-01,-3.121708841879926588e+00,-6.822219307549162379e-03,7.778108558321782193e-04
1.109999514945640975e-01,1.077398165421808995e-01,3.526154331806737874e-01,-3.121094430088287019e+00,-6.801538634739061860e-03,7.741175626646529901e-04
1.109056690154376357e-01,1.085243973760495056e-01,3.526429677658092787e-01,-3.120480774026442639e+00,-6.778965879074617430e-03,7.704186430211789824e-04
1.108113581791815710e-01,1.093092011405251557e-01,3.526704207221275644e-01,-3.119867922748064348e+00,-6.753543212943673851e-03,7.667151996793221836e-04
1.107170248666722173e-01,1.100941310744408264e-01,3.526977860052580294e-01,-3.119255917333219941e+00,-6.724332322771745495e-03,7.630081040490104254e-04
1.106226922056044587e-01,1.108790503559585056e-01,3.527250781005821789e-01,-3.118644777999613815e+00,-6.690454339526077585e-03,7.592982524110446956e-04
1.105283695003589917e-01,1.116638655980107392e-01,3.527522970319508788e-01,-3.118034533241015538e+00,-6.651104439719480142e-03,7.555864119818240209e-04
1.104340671031355109e-01,1.124485074571275889e-01,3.527794448949937989e-01,-3.117425211295645759e+00,-6.605529059040060776e-03,7.518732580049688596e-04
1.103375750146423501e-01,1.132715052092486130e-01,3.528039068508022624e-01,-3.116827261519835357e+00,-6.534271406379612603e-03,7.480832638502701642e-04
1.101950235124647542e-01,1.144079426254382692e-01,3.527878158707403733e-01,-3.116548322323163589e+00,-5.969016769661714301e-03,7.436597255248810889e-04
1.100489980881589891e-01,1.155461144377313842e-01,3.527697453294699748e-01,-3.116292921979880948e+00,-5.354266747799241687e-03,7.392152658201986328e-04
1.099031928688609799e-01,1.166826581830214260e-01,3.527517609384980823e-01,-3.116037418064578901e+00,-4.732590706512385982e-03,7.347741993111429979e-04
1.097576156018595650e-01,1.178175559389413457e-01,3.527338637799762866e-01,-3.115781819988403978e+00,-4.103539206591993310e-03,7.303369475277531400e-04
1.096122741262452183e-01,1.189507809771817859e-01,3.527160597922620600e-01,-3.115526175199494041e+00,-3.466620358906815844e-03,7.259038838306131535e-04
1.094671558458694266e-01,1.200823589276762554e-01,3.526983322409510957e-01,-3.115270537366443104e+00,-2.821416346435117340e-03,7.214752552995530501e-04
1.093222710067215664e-01,1.212122620629857012e-01,3.526806908525942363e-01,-3.115014944552465970e+00,-2.167526080686300004e-03,7.170513824857688767e-04
1.091776125113299994e-01,1.223405070643398262e-01,3.526631261101805803e-01,-3.114759439958203480e+00,-1.504613446569302935e-03,7.126324781217708432e-04
1.090331794934479015e-01,1.234670973957765483e-01,3.526456360097578457e-01,-3.114504060106129568e+00,-8.323749538960071963e-04,7.082187565317863689e-04
1.088889783696250918e-01,1.245920206592175256e-01,3.526282272376158322e-01,-3.114248834478327677e+00,-1.505358236761539020e-04,7.038104398389464318e-04
1.087449939764088269e-01,1.257153184908318677e-01,3.526108822810247734e-01,-3.113993800590543870e+00,5.411152470350790236e-04,6.994076294967966831e-04
1.086011552972961508e-01,1.268370334245100262e-01,3.525936039816789380e-01,-3.113738737903976261e+00,1.243301596286465992e-03,6.950068873749902943e-04
1.084182376879014725e-01,1.279863276744167278e-01,3.525722677149224493e-01,-3.113366224511930458e+00,2.205031234178344776e-03,6.888480621646731914e-04
1.082318863821747773e-01,1.291367332155896885e-01,3.525506122866252090e-01,-3.112983046113344088e+00,3.200229296397667875e-03,6.825313185526324074e-04
1.080458910747756768e-01,1.302854359285820496e-01,3.525290418958783034e-01,-3.112600552971930501e+00,4.204998175629563566e-03,6.762266339997097600e-04
1.078602325341058155e-01,1.314324892399520439e-01,3.525075382704989102e-01,-3.112218763602196070e+00,5.219414954114061540e-03,6.699339010462407101e-04
1.076749143706845491e-01,1.325778862354923537e-01,3.524861134631414594e-01,-3.111837668880252039e+00,6.243593132531317924e-03,6.636529416256812175e-04
1.074899202879439630e-01,1.337216707775023827e-01,3.524647555687003275e-01,-3.111457272937679708e+00,7.277587332660656258e-03,6.573835306631642264e-04
1.073052405138868459e-01,1.348639438270110291e-01,3.524434596581088042e-01,-3.111077532983818728e+00,8.321455563994783339e-03,6.511254837636488340e-04
1.071167904139347510e-01,1.361122372060697416e-01,3.524162046322565911e-01,-3.110646303357419207e+00,9.386821856083015295e-03,6.449098992139720970e-04
1.069240480138957394e-01,1.375211375362324351e-01,3.523629300984509327e-01,-3.110327177092079065e+00,1.046211009782754657e-02,6.386315024429960272e-04
1.067164155451875013e-01,1.390328997968908187e-01,3.522708916331664386e-01,-3.110282854256264606e+00,1.165734182266505055e-02,6.320811174284974221e-04
1.065091113765812142e-01,1.405422121428750726e-01,3.521790552632715898e-01,-3.110238696069847819e+00,1.286226996895271923e-02,6.255416719942385410e-04
1.063021601026417629e-01,1.420489178808095887e-01,3.520874970701758921e-01,-3.110194140245962746e+00,1.407663418670088845e-02,6.190135260120681760e-04
1.060955582683742876e-01,1.435530791641208281e-01,3.519962140700300113e-01,-3.110149222236284761e+00,1.530041257573032214e-02,6.124964268520133965e-04
1.058892820345520153e-01,1.450547981420866051e-01,3.519051797269819870e-01,-3.110103982403721545e+00,1.653352630890386407e-02,6.059900962633868460e-04
1.056833342341805954e-01,1.465541217668017149e-01,3.518143986603914364e-01,-3.110058449331653208e+00,1.777594113177069501e-02,5.994942932509222467e-04
1.054776956228650753e-01,1.480511401154225859e-01,3.517238498968246474e-01,-3.110012657422924320e+00,1.902756377799805221e-02,5.930087513244911316e-04
1.052723593981053224e-01,1.495459170193626786e-01,3.516335270631453236e-01,-3.109966634628515525e+00,2.028831750409106072e-02,5.865332220502534862e-04
1.050673231641788136e-01,1.510385064740935868e-01,3.515434290504229620e-01,-3.109920405422706757e+00,2.155812615385488060e-02,5.800674637847522217e-04
1.048625644092548576e-01,1.525290008049224044e-01,3.514535312818530266e-01,-3.109873999843989711e+00,2.283685979538668462e-02,5.736112176129784393e-04
1.046580876520543518e-01,1.540174380954215938e-01,3.513638409189605016e-01,-3.109827436432722969e+00,2.412444170105196989e-02,5.671642542396044054e-04
1.044538741384607727e-01,1.555039006206356267e-01,3.512743378873908195e-01,-3.109780740687176248e+00,2.542073510573032366e-02,5.607263264106968634e-04
1.042499189590192082e-01,1.569884425245885451e-01,3.511850184155951293e-01,-3.109733931581903477e+00,2.672562860600751281e-02,5.542972026757823347e-04
1.040462205767340165e-01,1.584711104823844086e-01,3.510958827730717990e-01,-3.109687025461138177e+00,2.803901340902953399e-02,5.478766566803631739e-04
1.038427578177861799e-01,1.599519873707770934e-01,3.510069081016466974e-01,-3.109640044667878911e+00,2.936072908964020012e-02,5.414644532299721803e-04
1.036395366644580762e-01,1.614311034328033134e-01,3.509181036336337378e-01,-3.109593000254242234e+00,3.069067560639061887e-02,5.350603773920439019e-04
1.034365387842907935e-01,1.629085336189498023e-01,3.508294498815023865e-01,-3.109545911207004742e+00,3.202869045336662751e-02,5.286642050283539736e-04
1.032336886325263547e-01,1.643844777940365320e-01,3.507409253879371080e-01,-3.109498765554942423e+00,3.337474774797564298e-02,5.222706147544850823e-04
1.029464297729461714e-01,1.660398731768534808e-01,3.506291321355866630e-01,-3.109423149486549409e+00,3.484865287131334866e-02,5.099101899481772249e-04
1.026447299568521154e-01,1.678771468773150310e-01,3.504764982610637514e-01,-3.109294934090765405e+00,3.610991844801519218e-02,4.956022040978382828e-04
1.023479354017438059e-01,1.697502015715251777e-01,3.503220061299221477e-01,-3.109132077097174651e+00,3.730788504864974292e-02,4.812179666180129377e-04
1.020516330826945484e-01,1.716206426184576639e-01,3.501678397240450269e-01,-3.108969522609936753e+00,3.851360164113063617e-02,4.668653609556850563e-04
1.017557978488706910e-01,1.734884706557854872e-01,3.500139955372870149e-01,-3.108807345989572202e+00,3.972708059242090195e-02,4.525433465188361069e-04
1.014604167228260329e-01,1.753537749004638324e-01,3.498604664321558477e-01,-3.108645537336138354e+00,4.094816518760032581e-02,4.382506566190994793e-04
1.011654613258275298e-01,1.772166637921176735e-01,3.497072253856033930e-01,-3.108484096512696748e+00,4.217665462026662371e-02,4.239862679420836164e-04
1.008709272789408973e-01,1.790772097282177511e-01,3.495542756228708914e-01,-3.108323008968373546e+00,4.341241457812904797e-02,4.097489151512001353e-04
1.005767879872058179e-01,1.809355134370525531e-01,3.494015917352945588e-01,-3.108162274249071544e+00,4.465524713296348258e-02,3.955376633438670362e-04
1.002830327392767035e-01,1.827916515942735742e-01,3.492491683205515285e-01,-3.108001882373593094e+00,4.590499935851582308e-02,3.813514258890020043e-04
9.998965124827241535e-02,1.846456983995781731e-01,3.490970002912798797e-01,-3.107841823371958689e+00,4.716151994284546733e-02,3.671891547596148699e-04
9.969661178633915100e-02,1.864978578776609608e-01,3.489450478483281937e-01,-3.107682138808837813e+00,4.842464075107410365e-02,3.530496848930435652e-04
9.938865017956617642e-02,1.885992640128177356e-01,3.487585524137923332e-01,-3.107615731023135819e+00,4.975303658142482544e-02,3.381294791904290915e-04
9.907747332009192442e-02,1.907572124106471090e-01,3.485641773248085995e-01,-3.107571311852722395e+00,5.110124483609472523e-02,3.230444208201708979e-04
9.878280429301647403e-02,1.928510663761735799e-01,3.483712150953644504e-01,-3.107567812770921201e+00,5.231065808443331050e-02,3.086442128388243184e-04
9.853604246192390614e-02,1.947614508553490442e-01,3.481817480330217651e-01,-3.107684959791281898e+00,5.309948461226472044e-02,2.962154264427923830e-04
9.828952627019524324e-02,1.966696230328991435e-01,3.479925876896230452e-01,-3.107801818858892950e+00,5.389474625251245571e-02,2.838046039658418253e-04
9.804314854226285625e-02,1.985760759054919500e-01,3.478037286294874963e-01,-3.107918124281771721e+00,5.469728620053246337e-02,2.714063559576772571e-04
9.779689271146507767e-02,2.004808851260822533e-01,3.476151443054724122e-01,-3.108033907825907605e+00,5.550686007954583334e-02,2.590203493734272123e-04
9.755075038229563122e-02,2.023841641234388200e-01,3.474268093871417662e-01,-3.108149363502446416e+00,5.632323200393740681e-02,2.466452262009905905e-04
9.729461892482790808e-02,2.043437119421359915e-01,3.472180261933625056e-01,-3.108433689624352958e+00,5.710633372171615429e-02,2.334530811521640656e-04
9.700840774845477521e-02,2.064161656432472181e-01,3.469726231243837611e-01,-3.108785244903676137e+00,5.773611118947486603e-02,2.186113342020383423e-04
9.669828847298221619e-02,2.085589353010879887e-01,3.467062272403064194e-01,-3.109048712693473604e+00,5.823243519604499180e-02,2.027301608731298457e-04
9.638841565366533526e-02,2.106997518176380313e-01,3.464402485446781976e-01,-3.109311108211378016e+00,5.873552673183216749e-02,1.868677110713170468e-04
9.607888667248641601e-02,2.128383748991090341e-01,3.461747366633554646e-01,-3.109572753642857013e+00,5.924549476581799506e-02,1.710290374914223796e-04
9.580898218811510769e-02,2.148472397852929372e-01,3.459161604461148398e-01,-3.109885461194063616e+00,5.972185883752803570e-02,1.583687950682389329e-04
9.554695642371924258e-02,2.168294976689258691e-01,3.456592545381966808e-01,-3.110207461166259346e+00,6.019689151086124457e-02,1.463383566242097711e-04
9.528505705545403659e-02,2.188104061508664988e-01,3.454027350583859235e-01,-3.110528572234889655e+00,6.067835216574833657e-02,1.343140554820197101e-04
9.502326406689907967e-02,2.207900340939561723e-01,3.451465716421069363e-01,-3.110848830216665029e+00,6.116600668543679259e-02,1.222955852015781891e-04
9.476157999438475366e-02,2.227684272535352117e-01,3.448907563551122935e-01,-3.111168275368333180e+00,6.165966383833058201e-02,1.102826332976659213e-04
9.450000342884254390e-02,2.247456319085721077e-01,3.446352773387111879e-01,-3.111486945791693159e+00,6.215913025740048281e-02,9.827495598941466629e-05
9.423852182137244793e-02,2.267216971544224746e-01,3.443801106984800131e-01,-3.111804876575672285e+00,6.266419407247922346e-02,8.627250290445742046e-05
9.397714351481217809e-02,2.286966621605762418e-01,3.441252564329042030e-01,-3.112122103544681995e+00,6.317469497812822077e-02,7.427488545651801731e-05
9.371585248527262990e-02,2.306705734320218804e-01,3.438706875984868239e-01,-3.112438657989414548e+00,6.369042425700639776e-02,6.228213508090468429e-05
9.345465229990849998e-02,2.326434690860965382e-01,3.436163996665488884e-01,-3.112754572097443884e+00,6.421122219479993842e-02,5.029395810776361936e-05
9.319354165377174981e-02,2.346153876658428894e-01,3.433623830260052467e-01,-3.113069876035741146e+00,6.473692361525001937e-02,3.831015022159432336e-05
9.293250924462141682e-02,2.365863685439027753e-01,3.431086171746264846e-01,-3.113384597123178832e+00,6.526734536455180979e-02,2.633069609738210830e-05
9.267156376031614184e-02,2.385564453840790244e-01,3.428551044823673344e-01,-3.113698764301889188e+00,6.580235550907587161e-02,1.435522442521212351e-05
9.241068962812465371e-02,2.405256550282900696e-01,3.426018203077873525e-01,-3.114012401531890184e+00,6.634177027934995419e-02,2.383819251593750194e-06
9.214986526739225858e-02,2.424939655856857557e-01,3.423487590374458267e-01,-3.114325496622236678e+00,6.688536224132875241e-02,-9.582432043789323981e-06
9.186631193667335604e-02,2.444060478882057186e-01,3.420923426218922536e-01,-3.114605545133097397e+00,6.735017337670319570e-02,-2.036652783581282639e-05
9.144660469649355805e-02,2.463172857946198946e-01,3.417308711301887403e-01,-3.115053850187551543e+00,6.760036248856667040e-02,-3.366572929617672982e-05
9.098945086101419000e-02,2.483287372836728568e-01,3.413356419760415483e-01,-3.115595049679464879e+00,6.791534753738528996e-02,-4.906804715316174473e-05
9.053288208151344385e-02,2.503395884341327871e-01,3.409409621694561854e-01,-3.116135339907637469e+00,6.823495562485801247e-02,-6.446134902702548030e-05
9.007698065985070279e-02,2.523495926643581355e-01,3.405469068548667155e-01,-3.116674514327049117e+00,6.855887606294407133e-02,-7.984053559140307746e-05
8.962171922742007135e-02,2.543587835479931281e-01,3.401534503844664825e-01,-3.117212622711058589e+00,6.888695774208961065e-02,-9.520621623040002293e-05
8.916706636524036889e-02,2.563671914850479960e-01,3.397605612521158447e-01,-3.117749708017843346e+00,6.921903798636215577e-02,-1.105587641822648655e-04
8.871300384050317955e-02,2.583748501128105834e-01,3.393682251614916212e-01,-3.118285821953499681e+00,6.955499826082550685e-02,-1.258990218123181551e-04
8.825949861148832398e-02,2.603817851650058746e-01,3.389764075184136249e-01,-3.118820999670098626e+00,6.989467286825161441e-02,-1.412271489713166006e-04
8.780653228578741420e-02,2.623880274611287144e-01,3.385850930442482198e-01,-3.119355287135759269e+00,7.023794597109862814e-02,-1.565438579887769852e-04
8.735408252151388719e-02,2.643936045500598908e-01,3.381942607672584478e-01,-3.119888723947604081e+00,7.058469008407138034e-02,-1.718496343893263225e-04
8.690211552018836660e-02,2.663985474961160782e-01,3.378038774365006991e-01,-3.120421393445544034e+00,7.093476952955336812e-02,-1.871442878986683206e-04
8.643357475139684665e-02,2.684189436397670381e-01,3.373985734583234142e-01,-3.121057763187266243e+00,7.129316987226261282e-02,-2.014675609656831263e-04
8.595944269383641589e-02,2.704444369978450946e-01,3.369882419802257556e-01,-3.121730395715105022e+00,7.165646410944702394e-02,-2.154403465248242540e-04
8.548581658466272715e-02,2.724692973901613469e-01,3.365783797417787326e-01,-3.122401884855194876e+00,7.202273747793723480e-02,-2.294078893863716728e-04
8.501267908823796626e-02,2.744935462849719676e-01,3.361689703568355725e-01,-3.123072255943098341e+00,7.239188190647907750e-02,-2.433706256324060662e-04
8.454000646770072624e-02,2.765172039593886133e-01,3.357599899860412296e-01,-3.123741552148756817e+00,7.276378106069443519e-02,-2.573285829865083253e-04
8.406778499009692762e-02,2.785403016255880160e-01,3.353514288576203706e-01,-3.124409830474889738e+00,7.313836068661928869e-02,-2.712822617362828977e-04
8.359598872949994264e-02,2.805628517076404482e-01,3.349432590089218564e-01,-3.125077122676477526e+00,7.351549435734654192e-02,-2.852314570914092585e-04
8.312460052927618526e-02,2.825846867141377228e-01,3.345354786798937496e-01,-3.125743243991360387e+00,7.389492319475193804e-02,-2.991757999605355249e-04
8.265077600318092299e-02,2.844599523020248100e-01,3.341342871961091032e-01,-3.126232630772671772e+00,7.413772065622965812e-02,-3.125228585716464231e-04
8.213752805023175063e-02,2.860596685185383126e-01,3.337346771454274275e-01,-3.126465608948083563e+00,7.415125960247041792e-02,-3.237695944194411962e-04
8.159793438353370176e-02,2.876032325418247937e-01,3.333304961226623009e-01,-3.126685066132044444e+00,7.413723475372194227e-02,-3.340503619487892608e-04
8.105883179829284635e-02,2.891477029691035261e-01,3.329266083857031489e-01,-3.126905097388559707e+00,7.412651544071488519e-02,-3.443364113091870043e-04
8.052027740360649666e-02,2.906932002555995820e-01,3.325230215181325666e-01,-3.127125720846910539e+00,7.411907557946738334e-02,-3.546304232034885135e-04
7.998224763060862719e-02,2.922396794158442779e-01,3.321197219298964720e-01,-3.127346911806125007e+00,7.411478699355530941e-02,-3.649320252460878217e-04
7.944471869781824513e-02,2.937870960598564229e-01,3.317166939637747336e-01,-3.127568645295108141e+00,7.411351996514634055e-02,-3.752407646247413902e-04
7.890767289302691445e-02,2.953354128661732081e-01,3.313139335119614781e-01,-3.127790902554083985e+00,7.411517606515037604e-02,-3.855565988720286341e-04
7.837108551246768640e-02,2.968845856267443017e-01,3.309114197769276733e-01,-3.128013657427018313e+00,7.411961949837579666e-02,-3.958788742796914557e-04
7.783494004991167725e-02,2.984345804644912836e-01,3.305091486210743335e-01,-3.128236892583899031e+00,7.412675844062896480e-02,-4.062075452314400296e-04
7.729921732585368077e-02,2.999853609003917954e-01,3.301071086090122120e-01,-3.128460587711527019e+00,7.413648614234139012e-02,-4.165422921824709235e-04
7.676389581337103585e-02,3.015368554784781385e-01,3.297052860238688377e-01,-3.128684686314001873e+00,7.414865706512493992e-02,-4.268819020361283492e-04
7.622421161775110032e-02,3.030214542631994856e-01,3.293017771017571760e-01,-3.128839724255894961e+00,7.408953851780709920e-02,-4.356182071653799323e-04
7.568363322540336280e-02,3.044887564500332600e-01,3.288979602086281595e-01,-3.128976688514156113e+00,7.401311215394437704e-02,-4.439317806068111263e-04
7.514342976717237887e-02,3.059569831739895607e-01,3.284943464515467926e-01,-3.129114315914371058e+00,7.393919113261614162e-02,-4.522568307769147655e-04
7.460358559858284999e-02,3.074261038701822657e-01,3.280909260907327041e-01,-3.129252588987427419e+00,7.386768548933318745e-02,-4.605930611247742684e-04
7.406408546466818066e-02,3.088960666830913304e-01,3.276876811730271566e-01,-3.129391444402376266e+00,7.379851307229720603e-02,-4.689386466150954674e-04
7.352630283637640041e-02,3.103459104445431271e-01,3.272707804839844470e-01,-3.129464119516113474e+00,7.376610119666010545e-02,-4.749376030102516323e-04
7.298928742695126592e-02,3.117896909478288792e-01,3.268495241866429812e-01,-3.129515544518946424e+00,7.374709871981689757e-02,-4.801760953617223351e-04
7.245259547524987576e-02,3.132341538462346531e-01,3.264284990438931500e-01,-3.129567788835107223e+00,7.372998728180264749e-02,-4.854328863738751189e-04
7.193318201701631720e-02,3.145801176543557842e-01,3.260142846812267847e-01,-3.129620830002860732e+00,7.369504688424227679e-02,-4.901707528073557911e-04
7.144282814862210063e-02,3.156815859812371339e-01,3.256247054453227374e-01,-3.129674634167687763e+00,7.357597644435215356e-02,-4.899852274484523982e-04
7.095755509007820039e-02,3.166991078568990314e-01,3.252466699997782484e-01,-3.129729170406751138e+00,7.341470344056452713e-02,-4.867447443704634889e-04
7.047238370307988553e-02,3.177184552715100474e-01,3.248687137477143105e-01,-3.129784406376051376e+00,7.325540295350466136e-02,-4.835393071358989685e-04
6.998729799937331020e-02,3.187397910465087914e-01,3.244908072473919880e-01,-3.129840313841813604e+00,7.309813559237472724e-02,-4.803761714294678669e-04
6.950229370099168802e-02,3.197630301111367146e-01,3.241129464352571765e-01,-3.129896864211563656e+00,7.294281598731455762e-02,-4.772535133834317602e-04
6.901736689782721201e-02,3.207880908409112553e-01,3.237351277701360219e-01,-3.129954030135794429e+00,7.278936284696947701e-02,-4.741695903175614682e-04
6.853251609790700360e-02,3.218148961890510695e-01,3.233573550453212042e-01,-3.130011786936429452e+00,7.263771573440631901e-02,-4.711228152579205594e-04
6.804773572721836694e-02,3.228433701251128274e-01,3.229796184434681194e-01,-3.130070108089864966e+00,7.248778340627841377e-02,-4.681115158100966254e-04
6.756302456627572006e-02,3.238734424930400646e-01,3.226019222611735682e-01,-3.130128971163717466e+00,7.233951228784155085e-02,-4.651342471775178969e-04
6.707837911091291128e-02,3.249050444304735774e-01,3.222242626564898460e-01,-3.130188352914490935e+00,7.219283100829484989e-02,-4.621895349306434577e-04
6.659379632889557421e-02,3.259381100541680620e-01,3.218466368779512865e-01,-3.130248231257899860e+00,7.204767324074738688e-02,-4.592759777572763850e-04
6.610927480783923560e-02,3.269725786930944844e-01,3.214690485474731574e-01,-3.130308586558073536e+00,7.190399169544983704e-02,-4.563923076559900024e-04
6.562481031018316258e-02,3.280083873249673432e-01,3.210914887654187089e-01,-3.130369396969960860e+00,7.176170835311433682e-02,-4.535371646996846137e-04
6.514040166634857409e-02,3.290454810975039224e-01,3.207139618710014850e-01,-3.130430644766687198e+00,7.162078245301085888e-02,-4.507093992405478860e-04
6.465604607357654243e-02,3.300838039540394675e-01,3.203364642113503136e-01,-3.130492310992839755e+00,7.148115393772593029e-02,-4.479078176881379496e-04
6.417174119561055989e-02,3.311233027471184864e-01,3.199589937092960912e-01,-3.130554377830732982e+00,7.134276885074453123e-02,-4.451312939481343652e-04
6.368748560236582590e-02,3.321639301213218931e-01,3.195815537530399264e-01,-3.130616829714632399e+00,7.120559053759435708e-02,-4.423788158532716039e-04
6.320327628212089877e-02,3.332056332010602251e-01,3.192041363140121768e-01,-3.130679648558444494e+00,7.106955187031176180e-02,-4.396492757612636688e-04
6.271903652902897919e-02,3.342484119714683732e-01,3.188267055267203776e-01,-3.130742820456550390e+00,7.093459205932309275e-02,-4.369390028314203860e-04
6.219238301029370031e-02,3.353158974174549889e-01,3.184266860910152097e-01,-3.130806329883850658e+00,7.078342387349521869e-02,-4.326980078264178685e-04
6.149451802579086052e-02,3.364512861155214973e-01,3.179231797336095067e-01,-3.130870162485210884e+00,7.049783699295104900e-02,-4.225114383748519156e-04
6.077480863058584704e-02,3.375942584235453459e-01,3.174026563121650213e-01,-3.130934305978922083e+00,7.017624793608444322e-02,-4.119164233920542362e-04
6.005582706404276327e-02,3.387378036896223077e-01,3.168825492832550994e-01,-3.130998719941332720e+00,6.985607466233710594e-02,-4.013637514083695664e-04
5.933859140804604443e-02,3.398829100682840276e-01,3.163421376258241935e-01,-3.131013766808028453e+00,6.950355579665101757e-02,-3.904831874239615588e-04
5.862262727055966849e-02,3.410290912245207418e-01,3.157907103195579102e-01,-3.131001695468404122e+00,6.913379499663634131e-02,-3.794387807172690534e-04
5.790735310567490107e-02,3.421757546049850052e-01,3.152397922856105539e-01,-3.130990098197936611e+00,6.876554427464853791e-02,-3.684344059727335694e-04
5.719273523507172052e-02,3.433228849488221823e-01,3.146893780350147329e-01,-3.130978991409933521e+00,6.839877464293568632e-02,-3.574685541975508606e-04
5.647875167452425654e-02,3.444704522259052215e-01,3.141394446287065212e-01,-3.130968353977326757e+00,6.803341226289431887e-02,-3.465397068595529699e-04
5.576537048599167212e-02,3.456184461364886773e-01,3.135899728050173252e-01,-3.130958166389772312e+00,6.766941014493225992e-02,-3.356461877967020628e-04
5.505256883928634493e-02,3.467668436994499337e-01,3.130409423768003019e-01,-3.130948409457739334e+00,6.730670673725826225e-02,-3.247865492959918607e-04
5.434032222682768504e-02,3.479156273999562954e-01,3.124923346219236620e-01,-3.130939064975390096e+00,6.694524867807184754e-02,-3.139593514923790332e-04
5.362860292222496744e-02,3.490647876675169181e-01,3.119441320673262408e-01,-3.130930115750035547e+00,6.658499252908471611e-02,-3.031631323684782229e-04
5.291739538034173629e-02,3.502142967609958024e-01,3.113963167685147582e-01,-3.130921544682961688e+00,6.622587653301717503e-02,-2.923967077822121224e-04
5.220667189931083030e-02,3.513641497633961386e-01,3.108488727834179954e-01,-3.130913336123524182e+00,6.586786443057662810e-02,-2.816586937611632153e-04
5.149641543053070508e-02,3.525143259794734085e-01,3.103017840971676877e-01,-3.130905474556922030e+00,6.551090490360796104e-02,-2.709479492234763030e-04
5.078660595126714694e-02,3.536648118400932406e-01,3.097550356632233770e-01,-3.130897945328800169e+00,6.515495518646410855e-02,-2.602633098480266831e-04
5.007721988353294740e-02,3.548156017774763415e-01,3.092086130196685101e-01,-3.130890734622058247e+00,6.479998089829952512e-02,-2.496035776613051717e-04
4.936824701533080312e-02,3.559666696402944419e-01,3.086625023864810191e-01,-3.130883828586146667e+00,6.444593022320849185e-02,-2.389678396083505681e-04
4.865978448916810639e-02,3.571177758206219854e-01,3.081167009374972121e-01,-3.130877214681269116e+00,6.409273704286233553e-02,-2.283591377354905478e-04
4.801168238477752925e-02,3.581510575998121393e-01,3.075763770663075269e-01,-3.130870880350793861e+00,6.372134657968660243e-02,-2.198410793625084250e-04
4.741436880959525729e-02,3.590452107975984908e-01,3.070125274367715984e-01,-3.130864813805478875e+00,6.327489739532048130e-02,-2.135826789038698106e-04
4.681030905267834219e-02,3.599032151938361124e-01,3.064130774025864978e-01,-3.130859003945851704e+00,6.275884761002983869e-02,-2.077106191774468109e-04
4.620624113047445969e-02,3.607622720516546755e-01,3.058139602859986650e-01,-3.130853439540962402e+00,6.224388913615266222e-02,-2.018441289320447153e-04
4.560217740776031925e-02,3.616224431603095035e-01,3.052152556163187369e-01,-3.130848110558260622e+00,6.173017157996214116e-02,-1.959819051697759586e-04
4.499812168203566609e-02,3.624836758741707965e-01,3.046169471607018675e-01,-3.130843006821872887e+00,6.121763883912453158e-02,-1.901238030362837868e-04
4.439407284582395224e-02,3.633459259745202563e-01,3.040190178375317132e-01,-3.130838118854522012e+00,6.070624245866518970e-02,-1.842696388093734887e-04
4.379002659283497134e-02,3.642091554128267794e-01,3.034214500177813689e-01,-3.130833437744021008e+00,6.019593898178228486e-02,-1.784192057648999652e-04
4.318599346305713321e-02,3.650733121312684237e-01,3.028242223435453906e-01,-3.130828954372641970e+00,5.968664735489741940e-02,-1.725724516558201256e-04
4.258938152666939814e-02,3.659365375967320033e-01,3.022085387011889668e-01,-3.130824660728539044e+00,5.911667216067705011e-02,-1.668131087220188046e-04
4.199678264275241019e-02,3.667996285572884263e-01,3.015830296229491392e-01,-3.130820548551335403e+00,5.851434506756308246e-02,-1.611024375267946780e-04
4.140411839563142016e-02,3.676635582429765847e-01,3.009578991445393537e-01,-3.130816610229932184e+00,5.791313493182847355e-02,-1.553932740276076335e-04
4.076062153270947064e-02,3.685447083662676815e-01,3.003209835031520614e-01,-3.130812838611926718e+00,5.721651374392571626e-02,-1.479814413946764972e-04
4.010310457563562303e-02,3.694311362900753459e-01,2.996810844551461850e-01,-3.130809226284907432e+00,5.649440755962108207e-02,-1.401023618096722235e-04
3.944575881268646417e-02,3.703182301773343954e-01,2.990415824227836139e-01,-3.130805766865527584e+00,5.577376921176073477e-02,-1.322324605122883001e-04
3.878858958677119939e-02,3.712059517808195541e-01,2.984024652594575722e-01,-3.130802453634027760e+00,5.505454774317661976e-02,-1.243716367295507230e-04
3.813158748542540277e-02,3.720942766815545366e-01,2.977637156422729969e-01,-3.130799280486229019e+00,5.433668388790990900e-02,-1.165194791427732552e-04
3.747474043697351931e-02,3.729831852929429981e-01,2.971253152931666586e-01,-3.130796241684884240e+00,5.362012097125455623e-02,-1.086755550217346117e-04
3.681803697170697720e-02,3.738726379801498578e-01,2.964872230320116930e-01,-3.130793331194344997e+00,5.290471497025384801e-02,-1.008395976790979194e-04
3.612964049104838010e-02,3.747559005128806020e-01,2.957799688601991939e-01,-3.130790543943578808e+00,5.199460442876843724e-02,-9.292817839398239538e-05
3.543427595616250453e-02,3.755562509428768680e-01,2.949826832338319771e-01,-3.130787874451407049e+00,5.073452811180516331e-02,-8.527181701364452732e-05
3.504344410600877119e-02,3.760506812572547153e-01,2.944202863576734774e-01,-3.130785317831052517e+00,4.969665074384641001e-02,-7.950603906151821481e-05
3.469062089353767281e-02,3.765387336708572730e-01,2.939031377323870764e-01,-3.130782869482559239e+00,4.876764925349693497e-02,-7.385859425839727511e-05
3.433703799351769254e-02,3.770284880439284114e-01,2.933859609383541733e-01,-3.130780524482446037e+00,4.784052263165755603e-02,-6.821096725179071920e-05
3.398262678501027395e-02,3.775198970510312280e-01,2.928686408243025285e-01,-3.130778278817064830e+00,4.691492053778501675e-02,-6.256278080877229492e-05
3.362742631098737667e-02,3.780128859747272640e-01,2.923511866582809704e-01,-3.130776128000482217e+00,4.599078265760189743e-02,-5.691413276597454235e-05
3.327146867596077195e-02,3.785073892574156162e-01,2.918336029520903208e-01,-3.130774068130015575e+00,4.506804571224518052e-02,-5.126501391582545330e-05
3.291478377014450674e-02,3.790033451393116093e-01,2.913158932284241609e-01,-3.130772095518914444e+00,4.414664798189447958e-02,-4.561539961491916121e-05
3.255740733110110835e-02,3.795006862785315627e-01,2.907980670242014121e-01,-3.130770206142821976e+00,4.322653844575642668e-02,-3.996540288331245332e-05
3.219936351486979431e-02,3.799993598209253642e-01,2.902801247150026409e-01,-3.130768396839896717e+00,4.230765669270913909e-02,-3.431493915302733622e-05
3.184068515050376275e-02,3.804993039210524675e-01,2.897620751671753370e-01,-3.130766663923409965e+00,4.138995614509131254e-02,-2.866411280734660260e-05
3.148139738651529324e-02,3.810004666550966812e-01,2.892439213383881103e-01,-3.130765004286790720e+00,4.047338483176797508e-02,-2.301290385874659236e-05
3.112152382921326566e-02,3.815027988983283880e-01,2.887256655593848920e-01,-3.130763414975696879e+00,3.955789222117787191e-02,-1.736128479290579925e-05
3.076109449585753483e-02,3.820062448868080107e-01,2.882073168398391894e-01,-3.130761892693426418e+00,3.864343919045349490e-02,-1.170936886011431999e-05
3.040012725462998625e-02,3.825107640424375011e-01,2.876888738361103592e-01,-3.130760434964110495e+00,3.772997459119285107e-02,-6.057060041696546737e-06
3.003866558928127914e-02,3.830162811782300003e-01,2.871703532639899858e-01,-3.130759038742290556e+00,3.681745111952994254e-02,-4.049971046569909579e-07
2.969303369397792436e-02,3.834980453796760780e-01,2.866601411039268466e-01,-3.130757701566074136e+00,3.589305569341939839e-02,4.692797678273418459e-06
2.935931927232538971e-02,3.839619749659214376e-01,2.861562173818571475e-01,-3.130756421067547812e+00,3.495982556095290905e-02,9.369929126351507503e-06
2.902509470245233023e-02,3.844268962444615245e-01,2.856521869781963319e-01,-3.130755194539739605e+00,3.402748457286329520e-02,1.404945131365318078e-05
2.869042046106890995e-02,3.848928557051608523e-01,2.851480991126093545e-01,-3.130754020058913234e+00,3.309606907289972672e-02,1.873375303570578437e-05
2.838485347562907241e-02,3.853746893276740471e-01,2.846701272017891915e-01,-3.130752895093627863e+00,3.218930854714172063e-02,2.397809912193699686e-05
2.823695450507570162e-02,3.856453707448850854e-01,2.842730732428218055e-01,-3.130751817704737316e+00,3.110222163146930674e-02,2.509588224135156441e-05
2.814056465664127593e-02,3.858900960159148408e-01,2.838717598124750330e-01,-3.130750785992726382e+00,2.982305378120912384e-02,2.463961724552967442e-05
2.804309194131457406e-02,3.861363159063898043e-01,2.834700121779842319e-01,-3.130749797729535544e+00,2.854531719035371604e-02,2.419915802080171508e-05
2.794446066143458154e-02,3.863840323753115480e-01,2.830678533148378029e-01,-3.130748851435440905e+00,2.726937730702717194e-02,2.377747052961922081e-05
2.784472150113544500e-02,3.866331789081098869e-01,2.826653049506901993e-01,-3.130747944990460052e+00,2.599517440384147351e-02,2.337375405168615430e-05
2.774392085494585547e-02,3.868836960873583419e-01,2.822623815542373293e-01,-3.130747076880098678e+00,2.472262671338020662e-02,2.298724598168372049e-05
2.764210339838562083e-02,3.871355265332382944e-01,2.818590977075373094e-01,-3.130746245577571862e+00,2.345165894228441045e-02,2.261721551589534571e-05
2.753931364160966747e-02,3.873886117953038721e-01,2.814554725733602325e-01,-3.130745449244874745e+00,2.218221864525867643e-02,2.226295992494858883e-05
2.743559128531101662e-02,3.876429018130584936e-01,2.810515157512284423e-01,-3.130744686758805351e+00,2.091422247857939107e-02,2.192381139551816393e-05
2.733097763764020388e-02,3.878983419831366630e-01,2.806472463166132525e-01,-3.130743956328137401e+00,1.964762800514897184e-02,2.159912481819257002e-05
2.722550973827694148e-02,3.881548851110439013e-01,2.802426749971347331e-01,-3.130743256784231487e+00,1.838236607369773262e-02,2.128828683602680696e-05
2.711922349784001707e-02,3.884124851247669485e-01,2.798378133777857379e-01,-3.130742586895148172e+00,1.711837562060435775e-02,2.099070926490874118e-05
2.701215505154036522e-02,3.886710943222553838e-01,2.794326778601787797e-01,-3.130741945141952698e+00,1.585561775873831070e-02,2.070582622628194008e-05
2.690433586657604501e-02,3.889306734395786558e-01,2.790272746652542324e-01,-3.130741330686950707e+00,1.459402013760384073e-02,2.043310078717716676e-05
2.679579976208321113e-02,3.891911773327081936e-01,2.786216209197427407e-01,-3.130740742000909904e+00,1.333355483297586457e-02,2.017201306528971111e-05
2.668657620076515108e-02,3.894525687468737285e-01,2.782157241893405408e-01,-3.130740178197929602e+00,1.207416235761554595e-02,1.992206986522107779e-05
2.657669407494579750e-02,3.897148106355250996e-01,2.778095937576935959e-01,-3.130739638277006520e+00,1.081579351168247306e-02,1.968279774314480939e-05
2.646618276664172015e-02,3.899778639687658255e-01,2.774032437709824106e-01,-3.130739120981967716e+00,9.558420166014054697e-03,1.945374101497122121e-05
2.635507426601070916e-02,3.902416922353357798e-01,2.769967103847735812e-01,-3.130738625702654154e+00,8.302160203378585943e-03,1.923471021632843495e-05
2.624610545545510987e-02,3.905039697615096950e-01,2.766022612581475193e-01,-3.130738151117837820e+00,7.114884949854721925e-03,1.911473232371121097e-05
2.620453952391395627e-02,3.906759666391099728e-01,2.763753923695822512e-01,-3.130737696574052986e+00,6.743702445402538492e-03,1.870260969656048245e-05
2.617552150220259916e-02,3.908190860837725267e-01,2.761716884857781662e-01,-3.130737261248065284e+00,6.430087704812947717e-03,1.826338636726070966e-05
2.614575531921143822e-02,3.909631923024806111e-01,2.759672045542000962e-01,-3.130736844102389060e+00,6.114383406417392072e-03,1.783311705331058360e-05
2.611524492503055836e-02,3.911083068664145679e-01,2.757619220789830905e-01,-3.130736444706574861e+00,5.796551887542858265e-03,1.741149365088523129e-05
2.608402254170490153e-02,3.912543845546914145e-01,2.755558779543853531e-01,-3.130736061903620637e+00,5.476689563952216386e-03,1.699815065677169772e-05
2.605211811370129055e-02,3.914013857419941789e-01,2.753491028670437268e-01,-3.130735695232755411e+00,5.154879398203995183e-03,1.659273468528554572e-05
2.601956060846387711e-02,3.915492712646533313e-01,2.751416277317451087e-01,-3.130735344003239273e+00,4.831204010641666768e-03,1.619490843104507351e-05
2.598637814693279674e-02,3.916980021256055711e-01,2.749334840704939498e-01,-3.130735007362670519e+00,4.505746172153888077e-03,1.580435049851774851e-05
2.595259676154128975e-02,3.918475445216789144e-01,2.747246975618835019e-01,-3.130734685020097885e+00,4.178576333337581314e-03,1.542074962916466230e-05
2.591824259476303849e-02,3.919978612473319357e-01,2.745152989462792958e-01,-3.130734375947111126e+00,3.849774058881173626e-03,1.504381255007777442e-05
2.588335115015766991e-02,3.921488760350868019e-01,2.743053183393036054e-01,-3.130734079844732509e+00,3.519433426138481903e-03,1.467182909888572643e-05
2.585760002399714250e-02,3.922629867124550751e-01,2.740998953196755461e-01,-3.130733796114683276e+00,3.211585558577040832e-03,1.311263116138015632e-05
2.583363849836242329e-02,3.923688560652769386e-01,2.738951493959123074e-01,-3.130733524065387297e+00,2.907994992284822569e-03,1.127627008742416821e-05
2.580915756829921595e-02,3.924755241360380897e-01,2.736898662629363432e-01,-3.130733263510455000e+00,2.602933959169884126e-03,9.450129016694388043e-06
2.578417877855451734e-02,3.925829590260139224e-01,2.734840719730713965e-01,-3.130733013520934804e+00,2.296469344115917820e-03,7.633939584826136113e-06
2.575872300113024246e-02,3.926911293254314872e-01,2.732777859548017330e-01,-3.130732773936285351e+00,1.988656590018464745e-03,5.827255308722971601e-06
2.573281057178291101e-02,3.928000035187962924e-01,2.730710296059947750e-01,-3.130732544213259860e+00,1.679554059069439864e-03,4.029678121449722273e-06
2.570646113434889302e-02,3.929095508204746290e-01,2.728638244969632254e-01,-3.130732323805716977e+00,1.369219376520746517e-03,2.240835393735259496e-06
2.567971224154777868e-02,3.930195897132109373e-01,2.726562351210662372e-01,-3.130732112599818873e+00,1.057605970790525098e-03,4.600433631606009462e-07
2.565941910551205324e-02,3.930755451391650945e-01,2.724653538482593174e-01,-3.130731897242575279e+00,7.116436024218098953e-04,-1.413740324403510471e-06
2.563399208661696488e-02,3.931381382076570841e-01,2.722967809256954252e-01,-3.130713292646583934e+00,4.120677319232940103e-04,-3.331553980530696564e-06
2.558689970177812495e-02,3.932754959246835269e-01,2.721785265351151506e-01,-3.130639419444063432e+00,2.881455077927288317e-04,-5.293883599737701057e-06
2.553948057348949530e-02,3.934134368738896881e-01,2.720597139784802221e-01,-3.130565692066370254e+00,1.629302494175342473e-04,-7.248620891444739747e-06
2.549178690904734326e-02,3.935518025409229792e-01,2.719402724700183960e-01,-3.130492204794001587e+00,3.615124103776247628e-05,-9.196021743811325761e-06
2.544383154675476308e-02,3.936905716542405953e-01,2.718202312754213756e-01,-3.130418948842715654e+00,-9.212114734968553445e-05,-1.113634557538587120e-05
2.539562486872099303e-02,3.938297291425009172e-01,2.716996142380279089e-01,-3.130345913483889131e+00,-2.218259773411215374e-04,-1.306992811522970817e-05
2.534718719713582868e-02,3.939692259952070619e-01,2.715784027359331443e-01,-3.130273089904151096e+00,-3.527898207450100949e-04,-1.499384380827775058e-05
2.530345278951908611e-02,3.940922846311011862e-01,2.714329692675149230e-01,-3.130200469401513974e+00,-4.253930699470168586e-04,-1.519591631879796832e-05
2.526497876247501412e-02,3.941970263901714566e-01,2.712607028191122982e-01,-3.130128042622014384e+00,-4.329538017759740364e-04,-1.348586753373408003e-05
2.522627619987863334e-02,3.943021544339973539e-01,2.710880451325500817e-01,-3.130055802951208221e+00,-4.419400861421085157e-04,-1.177659419465379248e-05
2.518733908975220523e-02,3.944077053408646671e-01,2.709150822258319380e-01,-3.129983741373111084e+00,-4.524739355545811278e-04,-1.007326861502842044e-05
2.514817801835817282e-02,3.945136595489970310e-01,2.707418295543205233e-01,-3.129911851266174327e+00,-4.644889550832876192e-04,-8.375660392449335326e-06
2.510880257155895939e-02,3.946199997600616238e-01,2.705682996783027039e-01,-3.129840125442838072e+00,-4.779221353041916611e-04,-6.683529354397671817e-06
2.506922177430511919e-02,3.947267098098398153e-01,2.703945040006324185e-01,-3.129768556784592093e+00,-4.927133010152009215e-04,-4.996640061618412928e-06
2.502967519135378821e-02,3.948331732212829737e-01,2.702213926819963530e-01,-3.129697493865455815e+00,-5.085677883647158736e-04,-3.322961416590836820e-06
2.499329803803647387e-02,3.949312370227054947e-01,2.700616944820447562e-01,-3.129631742509491943e+00,-5.222205927435332904e-04,-1.773237637366173898e-06
2.495989485247907327e-02,3.950214163492975494e-01,2.699145921813709270e-01,-3.129570983459559752e+00,-5.338276625808961381e-04,-3.400448438862434373e-07
2.492928095881499426e-02,3.951041979909730717e-01,2.697793133755211348e-01,-3.129514914841816431e+00,-5.435357729698791227e-04,9.836373866554176628e-07
2.490128190769472227e-02,3.951800418601442710e-01,2.696551281591986760e-01,-3.129463251271374702e+00,-5.514830193682683469e-04,2.204446752570539999e-06
