2.506833079649126161e-02,1.950765094777556774e-01,2.697834219344306117e-01,-3.129048110726409870e+00,-2.514214066913477656e-03,-6.169654773484008236e-05
2.506833079649126161e-02,1.950765094777556774e-01,2.697834219344306117e-01,-3.129048110726409870e+00,-2.514214066913477656e-03,-6.169654773484008236e-05
2.506829098703948489e-02,1.950863586154704676e-01,2.698145515890271740e-01,-3.128997864525549844e+00,-2.513734190807667083e-03,-6.170211257147809926e-05
2.506821833878965580e-02,1.951090487978965338e-01,2.698779595923100905e-01,-3.128901352906403144e+00,-2.512696033061133285e-03,-6.171278604746426857e-05
2.506814044275025924e-02,1.951391090266349493e-01,2.699750528108716408e-01,-3.128758799194552687e+00,-2.511561330423258461e-03,-6.172900698124506817e-05
2.506802730956019312e-02,1.951941856938906594e-01,2.700886901523819605e-01,-3.128555910137701623e+00,-2.509571418696886561e-03,-6.174739790776815338e-05
2.506795915257358648e-02,1.952336349410815630e-01,2.702257817264342998e-01,-3.128337737016070985e+00,-2.505426473246255819e-03,-6.178074589412490202e-05
2.506808516049831639e-02,1.952596413451305191e-01,2.703880291076893871e-01,-3.128074298248723295e+00,-2.500395516678022290e-03,-6.181695993139662486e-05
2.506834392606586623e-02,1.952832628805658832e-01,2.705840163742241344e-01,-3.127744689733574557e+00,-2.497312716724422663e-03,-6.185510291820618038e-05
2.506852263196081287e-02,1.953298460936631897e-01,2.707901739899820637e-01,-3.127440816587129024e+00,-2.493562315085066927e-03,-6.190005492206436034e-05
2.506877253321943000e-02,1.954193122888046863e-01,2.710938258511891297e-01,-3.127115538457011734e+00,-2.490309650211234693e-03,-6.195579880232127145e-05
2.506912145206180789e-02,1.955262186225734666e-01,2.713951257959883456e-01,-3.126783345945672643e+00,-2.487195937922858074e-03,-6.205204317160503886e-05
2.506923752311742901e-02,1.955952618348351935e-01,2.718136976764596868e-01,-3.126459994997165648e+00,-2.486006356871709507e-03,-6.214396429925461403e-05
2.506966895343332516e-02,1.957788959930481520e-01,2.723032706318989082e-01,-3.126196496966800797e+00,-2.483899846910983100e-03,-6.222775687449226501e-05
2.506953321530458814e-02,1.958556126317536894e-01,2.728729098050464708e-01,-3.125740359477920283e+00,-2.479182831771433327e-03,-6.228851347735695800e-05
2.506974710712516277e-02,1.959100285578166123e-01,2.735084993821342847e-01,-3.125217915925789569e+00,-2.469266725074401037e-03,-6.232587605766437002e-05
2.506990574357917043e-02,1.958690366459801546e-01,2.741858130051063602e-01,-3.124696863989587126e+00,-2.455092556916912191e-03,-6.234761566205439590e-05
2.507019937171457019e-02,1.959341938750126522e-01,2.748382727510789714e-01,-3.124171657294966042e+00,-2.433956570995089459e-03,-6.244907231747589876e-05
2.507157902698721810e-02,1.961149253713035390e-01,2.755070346127631020e-01,-3.123550005824195175e+00,-2.406919847135669758e-03,-6.249907430516244528e-05
2.507200803477189349e-02,1.963443858958449084e-01,2.762445300265226056e-01,-3.122869379853551841e+00,-2.381202411431124644e-03,-6.260351427989758154e-05
2.507220200072273961e-02,1.965970174089141653e-01,2.771110645434536890e-01,-3.122233580577779222e+00,-2.357601139392639326e-03,-6.280393056549311295e-05
2.507196945726807361e-02,1.969120768076096650e-01,2.780367724189535261e-01,-3.121469004729245711e+00,-2.316771180464397353e-03,-6.295665615309611570e-05
2.507295128015529437e-02,1.973067011477517840e-01,2.791534397096340769e-01,-3.120723450113353614e+00,-2.276242737819553219e-03,-6.310433952676264594e-05
2.507317051086501575e-02,1.976420617478149011e-01,2.803591764194426905e-01,-3.119980731565570320e+00,-2.238737362728735695e-03,-6.323243261407701513e-05
2.507418754387900559e-02,1.979302300671523518e-01,2.815969862015487157e-01,-3.119270933159122183e+00,-2.208088533230734719e-03,-6.333703915332552690e-05
2.507468504815875063e-02,1.982696072377265195e-01,2.829219633069616768e-01,-3.118548645282512410e+00,-2.189743129092852365e-03,-6.343783230541647758e-05
2.507555919178275361e-02,1.987034221050459903e-01,2.842851678123075043e-01,-3.117761268778226125e+00,-2.168417299676538533e-03,-6.349448106501582451e-05
2.507613485082190244e-02,1.991135029981474791e-01,2.857511442511853073e-01,-3.116948755524739934e+00,-2.152357176078904637e-03,-6.371271934190486544e-05
2.507668670638749445e-02,1.995082474097563119e-01,2.873169408586603302e-01,-3.116199129305753601e+00,-2.146538730479374824e-03,-6.393882921705099109e-05
2.507737312024362411e-02,1.998862173822112120e-01,2.888994874166594395e-01,-3.115522520784468785e+00,-2.144031337156335204e-03,-6.410672617459556592e-05
2.507775298295275568e-02,2.003527845520670925e-01,2.905293891894220049e-01,-3.114812428768011010e+00,-2.137255211915301076e-03,-6.420411999957495767e-05
2.507843748974026774e-02,2.008632483997202789e-01,2.922008110115228985e-01,-3.114092275279817468e+00,-2.136394935191263198e-03,-6.427839079355083672e-05
2.507842767205577597e-02,2.015210761202033130e-01,2.938709077624610533e-01,-3.113403530046165102e+00,-2.135226470024415707e-03,-6.432923618925566727e-05
2.507975128255519534e-02,2.022680512456956070e-01,2.954924987346145837e-01,-3.112615205411004560e+00,-2.136593595692897786e-03,-6.420704117026706907e-05
2.508169323805516798e-02,2.030258323388950403e-01,2.972246593390575065e-01,-3.111898388080680089e+00,-2.135496763090361048e-03,-6.410781095988976423e-05
2.508389572280460972e-02,2.038646845314169009e-01,2.989954229688675524e-01,-3.111196651067907659e+00,-2.118306831644756888e-03,-6.396143375538883161e-05
2.508553725363050699e-02,2.047679765436336286e-01,3.008110433221879987e-01,-3.110513308521178910e+00,-2.101143854754252815e-03,-6.392610545545907345e-05
2.508475005699115773e-02,2.056291832778613382e-01,3.025702469324288990e-01,-3.109868639973348614e+00,-2.098373320497922204e-03,-6.392418951977273892e-05
2.508448986396974445e-02,2.065329092505590880e-01,3.043872430147803732e-01,-3.109274750854547520e+00,-2.100616260608166586e-03,-6.383719119506065735e-05
2.508518609684747339e-02,2.074774149735087447e-01,3.061429677094172908e-01,-3.108590089101118892e+00,-2.102496427982748772e-03,-6.380051140405192437e-05
2.508428829467084301e-02,2.084432280198481868e-01,3.078979583427651767e-01,-3.107867888615818419e+00,-2.101624374882528519e-03,-6.360784455635538166e-05
2.508323870480144366e-02,2.093915894713240244e-01,3.096203316653297621e-01,-3.107098818671607532e+00,-2.106005546180997768e-03,-6.337266753747016769e-05
2.508182096842640624e-02,2.102335945023044994e-01,3.113227959410352907e-01,-3.106370345228441021e+00,-2.102865057565970856e-03,-6.317054893523124800e-05
2.508003712054068107e-02,2.111797124812082593e-01,3.130002661260608554e-01,-3.105713183570979474e+00,-2.095590853262266871e-03,-6.316487967499042331e-05
2.507954280532394969e-02,2.121729551133555991e-01,3.146327711612498246e-01,-3.105077199999418003e+00,-2.079091313554665230e-03,-6.309373023623108959e-05
2.508123939940164540e-02,2.132042318098813227e-01,3.163086765742836870e-01,-3.104347596406534571e+00,-2.064215300872969221e-03,-6.297446444127581338e-05
2.508270969629608146e-02,2.142446226911255414e-01,3.180407549999892391e-01,-3.103586944193343911e+00,-2.050090578544387816e-03,-6.293404482977112515e-05
2.508243171206358743e-02,2.153230766048046252e-01,3.197952178945447366e-01,-3.102846120893204329e+00,-2.042438806557278583e-03,-6.282919625261615903e-05
2.508156927128039199e-02,2.163796507812294212e-01,3.215225443113717829e-01,-3.102136246991317403e+00,-2.012769447437505639e-03,-6.275718009788690320e-05
2.507991683831282959e-02,2.174636683889518973e-01,3.231343827915532652e-01,-3.101400352807998306e+00,-1.990293166707205515e-03,-6.257671082823297723e-05
2.507960607763698446e-02,2.185221159750797559e-01,3.247921922312680398e-01,-3.100660832873484818e+00,-1.970068631284378671e-03,-6.230405285779502334e-05
2.507958233949214230e-02,2.195213948636292600e-01,3.263655769918415994e-01,-3.099938034308378665e+00,-1.949837808701277656e-03,-6.204508367870028727e-05
2.508024246411931155e-02,2.204548235342149443e-01,3.278960563890844782e-01,-3.099290149826900542e+00,-1.925231833236185682e-03,-6.190392730731538720e-05
2.507977381361419303e-02,2.213860966728284085e-01,3.293471835022153127e-01,-3.098567794439825107e+00,-1.890840092612302995e-03,-6.168690246642153101e-05
2.507848869498138789e-02,2.223061395300182375e-01,3.307575003791192181e-01,-3.097795729016787458e+00,-1.856993979932538901e-03,-6.144602524521879203e-05
2.507727704827346360e-02,2.231763555056865134e-01,3.320734174926343041e-01,-3.097016789076574295e+00,-1.822167663900635609e-03,-6.118078869040951065e-05
2.507629810773190360e-02,2.241156940355029104e-01,3.334044892993086040e-01,-3.096254565509502399e+00,-1.785177411291445117e-03,-6.108466984331171806e-05
2.507412879826536461e-02,2.251052007539613153e-01,3.347054754564569024e-01,-3.095541210969717572e+00,-1.761361949641822777e-03,-6.106395543628966309e-05
2.507193457907582954e-02,2.261104608788190584e-01,3.359633011998619523e-01,-3.094852486168375272e+00,-1.729113703845292817e-03,-6.100133691061364587e-05
2.506967754846027227e-02,2.272008273501885667e-01,3.372490164013973724e-01,-3.094113377121972430e+00,-1.686928267445442393e-03,-6.097758301938637908e-05
2.506710213287673475e-02,2.283313112929508670e-01,3.385042223750005519e-01,-3.093392406513435944e+00,-1.640131988829080650e-03,-6.099588660277517935e-05
2.506454805047631657e-02,2.294613602758487358e-01,3.397415389622396864e-01,-3.092745835117409747e+00,-1.599635841456735529e-03,-6.112414707670576043e-05
2.506326897383940461e-02,2.306700276971364316e-01,3.409248595640488877e-01,-3.092106063366795166e+00,-1.553225551123773663e-03,-6.109097013119136276e-05
2.506259971651827664e-02,2.318767350693755336e-01,3.420768547127878700e-01,-3.091437880101504110e+00,-1.505670591114897667e-03,-6.117000089878515479e-05
2.506075499380797447e-02,2.331314303149948364e-01,3.432256346343783293e-01,-3.090769516862609478e+00,-1.450152394509984701e-03,-6.119737159085422771e-05
2.505860752945856390e-02,2.344361378356010495e-01,3.444166372241849738e-01,-3.090033800903797534e+00,-1.387092301204189988e-03,-6.121895621391225937e-05
2.505621561828740018e-02,2.357228528993925987e-01,3.455901804226439444e-01,-3.089334195264328731e+00,-1.311122880367055800e-03,-6.129803733647249092e-05
2.505336091674824003e-02,2.370497245493063398e-01,3.467272950177817670e-01,-3.088694165124518332e+00,-1.234755993363358291e-03,-6.150730062187672253e-05
2.505106221706080577e-02,2.383488659999431492e-01,3.477318572447148926e-01,-3.088049578287986652e+00,-1.160201106572148486e-03,-6.170962266090853938e-05
2.504923617706013295e-02,2.396184820834019458e-01,3.486907078219549927e-01,-3.087417466932135035e+00,-1.095727042849396673e-03,-6.187812620249812448e-05
2.504651195320823504e-02,2.409812703607254469e-01,3.496310525730136343e-01,-3.086850806028066607e+00,-1.021790011769301530e-03,-6.187711354998455039e-05
2.504326983984009672e-02,2.423894401284246436e-01,3.505173917220074098e-01,-3.086321378898482681e+00,-9.601166090699756687e-04,-6.180878220248174301e-05
2.503984355374625284e-02,2.437745300575532292e-01,3.513814299768820981e-01,-3.085843517206636744e+00,-8.903053592427623633e-04,-6.165372513040674361e-05
2.503660457655236191e-02,2.451609373680924409e-01,3.521949115402255859e-01,-3.085392111704588380e+00,-8.210467338129434330e-04,-6.149354628275391181e-05
2.503409413506594086e-02,2.465507325942406791e-01,3.530047947572674261e-01,-3.084937683197876535e+00,-7.590080301696612922e-04,-6.128984923451238573e-05
2.503161873846151964e-02,2.479418036885835397e-01,3.537849312324465867e-01,-3.084446113502312681e+00,-6.882849650582186125e-04,-6.106119261133815114e-05
2.502885591896809175e-02,2.493585763697594715e-01,3.545148163928992791e-01,-3.083962640477142525e+00,-6.253940464644503795e-04,-6.089069229380706012e-05
2.502696494942472163e-02,2.507855905391386253e-01,3.551970143593241036e-01,-3.083521227615579452e+00,-5.509290403278653114e-04,-6.077255701883096939e-05
2.502445095472899048e-02,2.522062625615965614e-01,3.558857083209180372e-01,-3.083042029464763356e+00,-4.847502750221615577e-04,-6.071434749391955944e-05
2.502084264093622223e-02,2.536243580289076482e-01,3.565722982975066402e-01,-3.082596397895866147e+00,-4.171792568599852111e-04,-6.074835050983896250e-05
2.501857232023996236e-02,2.550231315182259206e-01,3.572010745360043038e-01,-3.082116654406375389e+00,-3.492052176313837275e-04,-6.076944027530319472e-05
2.501672891415294628e-02,2.563981871473319796e-01,3.577932287616399365e-01,-3.081650948837671766e+00,-2.903830008604165705e-04,-6.082222559391282810e-05
2.501601744264957128e-02,2.578019628883794767e-01,3.583403994352665212e-01,-3.081199615034105221e+00,-2.463872784826818315e-04,-6.067061740610891113e-05
2.501478083856564089e-02,2.592303968016612670e-01,3.588647553875559115e-01,-3.080778524986269140e+00,-2.096830022637695260e-04,-6.046523503012931510e-05
2.501376491622542275e-02,2.606544224944201682e-01,3.593749939880642730e-01,-3.080366570249217339e+00,-1.767536725138082391e-04,-6.021373599210807305e-05
2.501306555687607749e-02,2.620288230304320676e-01,3.598836156231709493e-01,-3.079952317874410817e+00,-1.503305387710885939e-04,-5.988858123386829298e-05
2.501314147316970049e-02,2.634346064359218698e-01,3.603910964669244099e-01,-3.079542790517721507e+00,-1.217547986554642182e-04,-5.953874539092270286e-05
2.501302910131409513e-02,2.648342406493110479e-01,3.608770707992028370e-01,-3.079164466462893213e+00,-9.914463520508649895e-05,-5.914080995599625419e-05
2.501341389585556504e-02,2.662088194587366452e-01,3.613121996343895415e-01,-3.078790586210083280e+00,-8.069891712047097597e-05,-5.876538226992939905e-05
2.501413607817959406e-02,2.676035753118879423e-01,3.617349190571622075e-01,-3.078421591470485552e+00,-6.258692252077789468e-05,-5.836084057652249411e-05
2.501423415766541175e-02,2.689783731115232834e-01,3.621535377911839215e-01,-3.078070495881036983e+00,-4.534083373042952598e-05,-5.789044464683430893e-05
2.501364060826512248e-02,2.703254054195157741e-01,3.625472776054446400e-01,-3.077786943546682252e+00,-2.840976835214652723e-05,-5.746030869734602135e-05
2.501230601075732363e-02,2.716621629711951091e-01,3.629394579506685092e-01,-3.077556558555356148e+00,-1.539771711795810959e-05,-5.714524058263518292e-05
2.501055362884776340e-02,2.729921700487072389e-01,3.632837102392090234e-01,-3.077350545404472282e+00,-7.523537505349232575e-06,-5.676918962411653039e-05
2.500884436535304525e-02,2.743050921109947415e-01,3.635727011786265561e-01,-3.077164916864998379e+00,-1.580709175992476018e-06,-5.635960781462589434e-05
2.500714088505232024e-02,2.756004673412582595e-01,3.638097709791704992e-01,-3.076970417387005163e+00,2.825163686356114943e-06,-5.593922123638802923e-05
2.500525242131915182e-02,2.768664791907584632e-01,3.640123176150904527e-01,-3.076780462903802693e+00,5.469875772711448936e-06,-5.554730224524855893e-05
2.500322826762806094e-02,2.781375811495129247e-01,3.642046747718443167e-01,-3.076588894119278716e+00,9.302164247006354511e-06,-5.517448410657796931e-05
2.500048358542741531e-02,2.793943572176155188e-01,3.643409784283243580e-01,-3.076386553327246975e+00,1.276507481924681376e-05,-5.481131439384121624e-05
2.499739970447796555e-02,2.806558035365773751e-01,3.644640045419870189e-01,-3.076210075421689005e+00,1.275476595505911581e-05,-5.448905503934773313e-05
2.499436734565314844e-02,2.818853388630114809e-01,3.646095824931929741e-01,-3.076048518978589552e+00,4.551837193047415114e-06,-5.421054986312345565e-05
2.499117721691083982e-02,2.831430399695303302e-01,3.647153314552605274e-01,-3.075897293674476618e+00,-4.206772150242320125e-06,-5.392509492118446797e-05
2.498845124040711269e-02,2.843947718495909438e-01,3.648026773595295369e-01,-3.075743470836504567e+00,-8.706942647878727893e-06,-5.359955034782343171e-05
2.498589652991622598e-02,2.856310536098506381e-01,3.648646535654188061e-01,-3.075615662755277313e+00,-1.120454815209398361e-05,-5.326219730870057980e-05
2.498368187652516906e-02,2.868501010421847797e-01,3.649293427858233407e-01,-3.075523811850512157e+00,-9.290937910975834407e-06,-5.297025070404659606e-05
2.498154968455376310e-02,2.880721089027880044e-01,3.649507728997575251e-01,-3.075468363892738921e+00,-1.005068310986238267e-05,-5.272945795299165247e-05
2.498000557481743281e-02,2.892816014272343028e-01,3.649475596415426293e-01,-3.075404725215763246e+00,-9.236587885717004705e-06,-5.254527774844676587e-05
2.497897547975668278e-02,2.905180323587145952e-01,3.649267728608083794e-01,-3.075355281277066144e+00,-6.197144790597904022e-06,-5.237596128047203092e-05
2.497827832899915390e-02,2.917643556609406108e-01,3.648696744870963959e-01,-3.075314190411336579e+00,-8.870294593030459080e-07,-5.216957960181886595e-05
2.497757698315861488e-02,2.930023712016723847e-01,3.648091062399720363e-01,-3.075281846106537209e+00,6.593749363879174980e-06,-5.197273821959865354e-05
2.497674772520593750e-02,2.942494710178764072e-01,3.647355702331904204e-01,-3.075255066391107572e+00,1.823980695017167776e-05,-5.176814202828971948e-05
2.497593499307457915e-02,2.955015718206893682e-01,3.646494850631831208e-01,-3.075243181068014309e+00,2.645434809696992737e-05,-5.156782954323592454e-05
2.497479656275733775e-02,2.967549649252511079e-01,3.645341825570653227e-01,-3.075225261452453562e+00,3.981206334961578648e-05,-5.137429203755170665e-05
2.497305792200062852e-02,2.980180711865538234e-01,3.644493051488050250e-01,-3.075210425278701365e+00,5.409851399208278521e-05,-5.120122267063728617e-05
2.497157915267565406e-02,2.992850394238646961e-01,3.643474824212566965e-01,-3.075213876101842825e+00,6.305878214997714189e-05,-5.105375218490859786e-05
2.497049857586392321e-02,3.005704897091295846e-01,3.642395934483157460e-01,-3.075242054699677485e+00,6.849334467913027226e-05,-5.092240892901854092e-05
2.496936756294959245e-02,3.018461286791115361e-01,3.641173341591076307e-01,-3.075265207525968325e+00,7.582173729005021112e-05,-5.079594504209296595e-05
2.496844913991144721e-02,3.031443468831493404e-01,3.639665756863171286e-01,-3.075316122479833769e+00,8.152915442201460236e-05,-5.065728025639597081e-05
2.496805995472880374e-02,3.044537422625474554e-01,3.637853158696608968e-01,-3.075391510810905338e+00,8.598565531048913844e-05,-5.051276043615412305e-05
2.496758939667476432e-02,3.057297362266766516e-01,3.636050870262824142e-01,-3.075490954158865531e+00,9.285527516591077278e-05,-5.037727358665507595e-05
2.496667649076271533e-02,3.069735373482229690e-01,3.633872535413900651e-01,-3.075624509867237677e+00,9.749903980243113599e-05,-5.024078588231321201e-05
2.496605120148841575e-02,3.082320759642916963e-01,3.631580278479594193e-01,-3.075753937372678326e+00,1.001154362841451224e-04,-5.010643376395368793e-05
2.496519074503586108e-02,3.094721109428817396e-01,3.629070610732441637e-01,-3.075920891795488998e+00,1.122787239265376781e-04,-4.995626907183828384e-05
2.496418808000593764e-02,3.106913570805275859e-01,3.626596563247332372e-01,-3.076094729256179772e+00,1.242000913331340727e-04,-4.983649099842133221e-05
2.496319239788073741e-02,3.118859068921384647e-01,3.623917019327322908e-01,-3.076282323778925853e+00,1.357056595514202226e-04,-4.972154005077745440e-05
2.496242913007156242e-02,3.130429391534633177e-01,3.621109558431913067e-01,-3.076498240711501353e+00,1.575834722502211999e-04,-4.949080141680455063e-05
2.496149359583115998e-02,3.142030326798325168e-01,3.618206641233568388e-01,-3.076738292591879809e+00,1.932927616480139914e-04,-4.918412217224826550e-05
2.496062309190109213e-02,3.153604103718916085e-01,3.615108913825071935e-01,-3.076983410783995510e+00,2.250919918707040227e-04,-4.891204375226864895e-05
2.495990424620784381e-02,3.164985171304109390e-01,3.611952528766365078e-01,-3.077210275972251718e+00,2.549246018873091587e-04,-4.863509365744328260e-05
2.495930055894257649e-02,3.176435449009780143e-01,3.608780428736174106e-01,-3.077428998211374722e+00,2.831524370028536109e-04,-4.835609554691867325e-05
2.495863836261041566e-02,3.187653352179826149e-01,3.605408573647794768e-01,-3.077668054034260692e+00,3.111737043722528906e-04,-4.809044061464012621e-05
2.495807764789664471e-02,3.198854105396959913e-01,3.601903780327507243e-01,-3.077960465532566747e+00,3.393642947280256614e-04,-4.782545318224807262e-05
2.495755668224842322e-02,3.210194975313577781e-01,3.598164643372023797e-01,-3.078260102501689577e+00,3.683996758366240719e-04,-4.755153254920735508e-05
2.495699416117965266e-02,3.221698924991885371e-01,3.594157145717994384e-01,-3.078575449413288201e+00,3.988466976825493838e-04,-4.729131068755518963e-05
2.495660540306921318e-02,3.233000243864425083e-01,3.590132763623389844e-01,-3.078890410349714113e+00,4.299102709241854657e-04,-4.703944640984797896e-05
2.495611150900808525e-02,3.244079437683369260e-01,3.586255848646306421e-01,-3.079185199292774566e+00,4.616803969835015301e-04,-4.678031188415819136e-05
2.495555633201343090e-02,3.255271137328740738e-01,3.581916759203291889e-01,-3.079524224677438138e+00,4.868921643314822866e-04,-4.648381228218514684e-05
2.495508843709758409e-02,3.266251712173358634e-01,3.577375486730427490e-01,-3.079912641834767317e+00,5.098684366103479375e-04,-4.615752203055581231e-05
2.495466611390451811e-02,3.277128703966237788e-01,3.572675362895067486e-01,-3.080302382998839406e+00,5.347486175659405894e-04,-4.584401214950143343e-05
2.495416062124663700e-02,3.288052399858950592e-01,3.567866818634698456e-01,-3.080698362143828639e+00,5.649066629469601340e-04,-4.551989361225049674e-05
2.495385599645368394e-02,3.298941052051783673e-01,3.563204231816454737e-01,-3.081040248135693105e+00,5.980168245761479642e-04,-4.515966178664268359e-05
2.495358377682930714e-02,3.309780750597281496e-01,3.558422713922052005e-01,-3.081357833926377410e+00,6.316401180764513301e-04,-4.478645941792332201e-05
2.495336374439326502e-02,3.320444922207708149e-01,3.553308441297828857e-01,-3.081700489482763761e+00,6.652367251151017910e-04,-4.441029798050005322e-05
2.495311274451769007e-02,3.330144070169578363e-01,3.548033712061932077e-01,-3.082054508589410879e+00,6.766059488780176538e-04,-4.406384954803893345e-05
2.495285406327788641e-02,3.339657077636615790e-01,3.542691622746601543e-01,-3.082448030326716548e+00,6.836920266248271930e-04,-4.374866028153223094e-05
2.495272350115876336e-02,3.349083413268704734e-01,3.536879180775532316e-01,-3.082850575174205243e+00,6.901963043713995206e-04,-4.343633531351296062e-05
2.495278721873161673e-02,3.358459335127482182e-01,3.530820257931866490e-01,-3.083264966494297710e+00,6.974808264322613803e-04,-4.312655774041997012e-05
2.495289453457522760e-02,3.367698407176304976e-01,3.524832355108061810e-01,-3.083666154938982551e+00,7.048803911812508713e-04,-4.282348315322052950e-05
2.495288307624045007e-02,3.376849676796911948e-01,3.518914271849558073e-01,-3.084072438914013947e+00,7.123683409831501430e-04,-4.252213302837012270e-05
2.495287203014244157e-02,3.386062148734561572e-01,3.513054901202869451e-01,-3.084477684676893539e+00,7.198377852185864137e-04,-4.222331860556282279e-05
2.495280944875045634e-02,3.395361983977768783e-01,3.507329567704651763e-01,-3.084879198878096140e+00,7.280685090316623169e-04,-4.192713044287732510e-05
2.495277091387362520e-02,3.404973197915024952e-01,3.501424951537704944e-01,-3.085427798422352375e+00,7.352626687255987489e-04,-4.156482763945248640e-05
2.495295301963748255e-02,3.414544563738905469e-01,3.494932822222813207e-01,-3.086231899784989352e+00,7.393425224466673457e-04,-4.107739843942653264e-05
2.495309566099519066e-02,3.424384278834818884e-01,3.488498631164639319e-01,-3.087039665239474040e+00,7.494817267552308405e-04,-4.052635734472877010e-05
2.495316706653701727e-02,3.434217382586559619e-01,3.482104295240704417e-01,-3.087827081364839188e+00,7.600569694304158816e-04,-3.997667375472026675e-05
2.495323086900416709e-02,3.444174005367317548e-01,3.475690022253814515e-01,-3.088616592548037776e+00,7.706494978628573725e-04,-3.943009960095417317e-05
2.495332390795695562e-02,3.454084454108903302e-01,3.469222719597639948e-01,-3.089407265662054147e+00,7.813866804587140226e-04,-3.888756279728292742e-05
2.495341376889500737e-02,3.463907650078968392e-01,3.462818391367302739e-01,-3.090202182672321829e+00,7.917574063763937195e-04,-3.834748641162148838e-05
2.495347443441437232e-02,3.473774283602181767e-01,3.456409363147310287e-01,-3.090999482177074764e+00,8.027712470644954648e-04,-3.781007082979735516e-05
2.495358746383034496e-02,3.483553469822955884e-01,3.449977695185892923e-01,-3.091805865973185519e+00,8.138931042475465710e-04,-3.727194503737242971e-05
2.495362639358611120e-02,3.493292385335820538e-01,3.443409566275485445e-01,-3.092639523601393936e+00,8.240494706927611185e-04,-3.675883561663250484e-05
2.495368462313605692e-02,3.503074903893246272e-01,3.436430963593202215e-01,-3.093588019432726544e+00,8.316843208255694135e-04,-3.629127971109417981e-05
2.495378294637972880e-02,3.512884097572586684e-01,3.429274313504286353e-01,-3.094581632337317867e+00,8.405237452828434987e-04,-3.579836619841620716e-05
2.495382869786862134e-02,3.522410642561540350e-01,3.422619335631701953e-01,-3.095536300291060527e+00,8.509601197071719070e-04,-3.531900902661388677e-05
2.495378445293485598e-02,3.531581900451513656e-01,3.416226492374535018e-01,-3.096440617716718968e+00,8.550466683119060723e-04,-3.483925969044529157e-05
2.495364628593179854e-02,3.540782966828002198e-01,3.409559839518389035e-01,-3.097362145413700585e+00,8.510803919750809096e-04,-3.430383123292672848e-05
2.495350393193742147e-02,3.549715772524502655e-01,3.402894924193775594e-01,-3.098298475137612584e+00,8.471846882595803624e-04,-3.380126137171794682e-05
2.495343653687054353e-02,3.558501825503991300e-01,3.396239232802786279e-01,-3.099252516807447844e+00,8.436412865688288970e-04,-3.332010054880585315e-05
2.495338362600196119e-02,3.567261611389542231e-01,3.389577289693189721e-01,-3.100203726411985716e+00,8.404935917570351828e-04,-3.283902847930378989e-05
2.495329104034707882e-02,3.575963360681047587e-01,3.382829416891604546e-01,-3.101161718072602991e+00,8.373188107979440652e-04,-3.235818781963700395e-05
2.495321303829865431e-02,3.584551281128242617e-01,3.376113419576360353e-01,-3.102125775555456322e+00,8.349280191473891586e-04,-3.187752778886391658e-05
2.495312366402568233e-02,3.593114412508132127e-01,3.369421656315433333e-01,-3.103096018906106313e+00,8.323454824136150912e-04,-3.139671372815020547e-05
2.495305794892522383e-02,3.601718873999625314e-01,3.362757373252862614e-01,-3.104074192870056592e+00,8.307049939119780365e-04,-3.091554995355808727e-05
2.495295692241841778e-02,3.610220962375150222e-01,3.356040526848799721e-01,-3.105060317528517189e+00,8.292828832148529039e-04,-3.043385416138225767e-05
2.495279038712487282e-02,3.618286476505182536e-01,3.349567706595070748e-01,-3.106038057641859140e+00,8.277719940009597077e-04,-2.999213563488344842e-05
2.495253373460347771e-02,3.626073359769483861e-01,3.343281414168437493e-01,-3.106993407524005324e+00,8.261820653146105574e-04,-2.961328945419593899e-05
2.495226093093186673e-02,3.633947742676651438e-01,3.336926379477603288e-01,-3.107949413032494501e+00,8.247470305279346959e-04,-2.923387265000729831e-05
2.495210303360190576e-02,3.641508151451964825e-01,3.330383959505440750e-01,-3.109011524934925497e+00,8.220321732727754608e-04,-2.887520622654845938e-05
2.495213317217304105e-02,3.648472386895170727e-01,3.323520076099897858e-01,-3.110030295735369155e+00,8.170553653186678027e-04,-2.858299503311851754e-05
2.495222637367682308e-02,3.655220482958944639e-01,3.316508709144962430e-01,-3.111043437678457035e+00,8.124082612447412581e-04,-2.828234223621838345e-05
2.495233231991170197e-02,3.661866826875026515e-01,3.309407792018333461e-01,-3.112062296532541072e+00,8.083971239098351703e-04,-2.798067544042154997e-05
2.495231167340813613e-02,3.669587484839503255e-01,3.301396984683923619e-01,-3.113299947178591154e+00,7.993857225476118074e-04,-2.755691705699680319e-05
2.495223556400938403e-02,3.679614836112043985e-01,3.291710660013788536e-01,-3.114909940361084484e+00,7.803917715318379458e-04,-2.680548353857073042e-05
2.495214218419113811e-02,3.689621581371246295e-01,3.282071003380166996e-01,-3.116517710248804640e+00,7.613118774778354853e-04,-2.605388026340630454e-05
2.495202908562155902e-02,3.699591989537861503e-01,3.272474861654289802e-01,-3.118130497645715593e+00,7.421953911595061170e-04,-2.530303502208370128e-05
2.495190632612606305e-02,3.709637036053414216e-01,3.262854720866975589e-01,-3.119741585552598284e+00,7.231202784517284194e-04,-2.455310396552905371e-05
2.495200167989308770e-02,3.717173994933832826e-01,3.254436312438614975e-01,-3.121063240745079348e+00,7.072094578147596110e-04,-2.401379601147738733e-05
2.495228470378759583e-02,3.722524550678931177e-01,3.247216269219440066e-01,-3.122143549618341396e+00,6.941752767576064159e-04,-2.366986213208059647e-05
2.495253713184683933e-02,3.727946983608519949e-01,3.240063781831518663e-01,-3.123221851956004880e+00,6.812447941386852706e-04,-2.332508541105362756e-05
2.495278198048033261e-02,3.733109586277855163e-01,3.233120753524631463e-01,-3.124261788508768678e+00,6.684592026695730096e-04,-2.300794908984747940e-05
2.495304426433287565e-02,3.737767333340966114e-01,3.226481020332661598e-01,-3.125251088083561779e+00,6.558055394026811313e-04,-2.273974415263531560e-05
2.495331243311907019e-02,3.742462558206613998e-01,3.219886236798200629e-01,-3.126235488031086973e+00,6.433440316242211576e-04,-2.247041291795351875e-05
2.495358591344816468e-02,3.747127086848672795e-01,3.213306402312569587e-01,-3.127214204529400465e+00,6.310936550061871982e-04,-2.219999599787715920e-05
2.495385440496082283e-02,3.751835829422528468e-01,3.206822219793202255e-01,-3.128194152155244545e+00,6.188792260153259429e-04,-2.192841279752403189e-05
2.495413113499966862e-02,3.756533268970654871e-01,3.200371479577314715e-01,-3.129177450302684793e+00,6.066420977557728878e-04,-2.165557637943658852e-05
2.495444959115422981e-02,3.761210863621474165e-01,3.193984244421584906e-01,-3.130129622055090710e+00,5.945701070288237321e-04,-2.137811244659621460e-05
2.495504818269004069e-02,3.765693921107387543e-01,3.188016124146608732e-01,-3.130710345304963393e+00,5.850566623667734396e-04,-2.099853300286782916e-05
2.495576244976278543e-02,3.770204699696679818e-01,3.182158100958612512e-01,-3.131186051197480058e+00,5.765913461558070307e-04,-2.056793371932906644e-05
2.495648447641402728e-02,3.774713811833712573e-01,3.176330435926286722e-01,-3.131661139355587320e+00,5.681663125589838433e-04,-2.013676444535210370e-05
2.495721465159330549e-02,3.779221232995778612e-01,3.170516217120255553e-01,-3.132136862125202370e+00,5.600704461676053259e-04,-1.970503543621909568e-05
2.495794475466237006e-02,3.783701694998555243e-01,3.164748577666384732e-01,-3.132609651642268567e+00,5.518621241348268440e-04,-1.927278409616634314e-05
2.495868538467541434e-02,3.788194278724130726e-01,3.159033042897694266e-01,-3.133085681642017395e+00,5.435744715453804440e-04,-1.883999413049412231e-05
2.495943898396398020e-02,3.792712991501585029e-01,3.153242998715328760e-01,-3.133600146926398988e+00,5.351319243684028899e-04,-1.841202870058159695e-05
2.496022338084165348e-02,3.797232037474089217e-01,3.147344588540578192e-01,-3.134152920689523558e+00,5.265481158872536245e-04,-1.798303722857107000e-05
2.496100322543989142e-02,3.801760543808495041e-01,3.141489377184199516e-01,-3.134705348122867274e+00,5.178760030048346757e-04,-1.755352306258447958e-05
2.496177855054808672e-02,3.806280905862632902e-01,3.135680858353729339e-01,-3.135258691312102997e+00,5.092728899877450258e-04,-1.712345886268562965e-05
2.496254891234781642e-02,3.810778124967802438e-01,3.129909553297273161e-01,-3.135806953628686777e+00,5.007104815704406650e-04,-1.669288540282141536e-05
2.496332371807715236e-02,3.815295026947715940e-01,3.124161145014424656e-01,-3.136357590277329965e+00,4.922582900839711419e-04,-1.626178190707212190e-05
2.496409479573715243e-02,3.819810244498413332e-01,3.118422663730393563e-01,-3.136908812967667437e+00,4.838005740117054597e-04,-1.583016699990805225e-05
2.496486675861865970e-02,3.824297638713247127e-01,3.112703320558461439e-01,-3.137458889879989332e+00,4.753914276139085591e-04,-1.539808775013310513e-05
2.496563848541222957e-02,3.828803966718197782e-01,3.107013670808496664e-01,-3.138009406917893873e+00,4.670135958420724141e-04,-1.496553021319462649e-05
2.496641189731256538e-02,3.833300481297958195e-01,3.101349827512782653e-01,-3.138557896743202846e+00,4.586763854293543778e-04,-1.453319146136629377e-05
2.496704712422122621e-02,3.837475102089847878e-01,3.095973357114487068e-01,-3.139069244581000007e+00,4.506210420595862902e-04,-1.415398351257845303e-05
2.496789882509622277e-02,3.841773091496044623e-01,3.090599319926997657e-01,-3.139579941477000702e+00,4.415006447208916348e-04,-1.368140869509017585e-05
2.496892904386355944e-02,3.845859735368177268e-01,3.085510409686029742e-01,-3.140005267986744286e+00,4.313736818898110327e-04,-1.313894878120122149e-05
2.496982045246010085e-02,3.849366142512854472e-01,3.080999312940875257e-01,-3.140219260297513415e+00,4.206803087190089520e-04,-1.266720222354920996e-05
2.497071092266566275e-02,3.852885301614075719e-01,3.076508041673946536e-01,-3.140434507103172290e+00,4.100476250005854919e-04,-1.219531136721536595e-05
2.497159875366201584e-02,3.856410881248992784e-01,3.072016252675286441e-01,-3.140650804644275595e+00,3.995234701934933423e-04,-1.172311863264780092e-05
2.497248321410182326e-02,3.859938172493637687e-01,3.067535223967582381e-01,-3.140867475898697414e+00,3.890613386019982811e-04,-1.125062842160283841e-05
2.497336620374196806e-02,3.863484115858647483e-01,3.063067486934543671e-01,-3.141086728909606940e+00,3.786711842312126628e-04,-1.077784559991626210e-05
2.497424594416215726e-02,3.867028077447990930e-01,3.058611756939922932e-01,-3.141306701242231103e+00,3.683501600822946241e-04,-1.030477836796173898e-05
2.497512626714896988e-02,3.870573844533347629e-01,3.054141406086876009e-01,-3.141506206890638531e+00,3.580346237524914110e-04,-9.834922078595355211e-06
2.497601543386316139e-02,3.874147691419924100e-01,3.049582783991544588e-01,-3.141629320233795486e+00,3.475984603613684531e-04,-9.378025344234593681e-06
2.497690463004691858e-02,3.877725393966857115e-01,3.045043861302524357e-01,-3.141752581103166797e+00,3.372202694855557241e-04,-8.920809393850320999e-06
2.497779203283976082e-02,3.881309687448443180e-01,3.040529042273452109e-01,-3.141878155261562888e+00,3.268771588225831176e-04,-8.463274266234584468e-06
2.497867871741643250e-02,3.884884844094751988e-01,3.036040429142646269e-01,-3.142005851812513573e+00,3.166008173139586972e-04,-8.005605574398800214e-06
2.497940854447166723e-02,3.888041957868387244e-01,3.031583557178947896e-01,-3.142135247292224154e+00,3.071163060085007300e-04,-7.626532096242472624e-06
2.498003620240651576e-02,3.890939011403141690e-01,3.027156829712376873e-01,-3.142266524779365522e+00,2.981382635897597577e-04,-7.298086610093237976e-06
2.498066272203203556e-02,3.893836184625609209e-01,3.022749879847918542e-01,-3.142399921351495262e+00,2.891890535732916079e-04,-6.968968515033572925e-06
2.498128831903741534e-02,3.896738327646420141e-01,3.018371594222731824e-01,-3.142534776019151099e+00,2.802528628262369848e-04,-6.639162302651144448e-06
2.498191443560414393e-02,3.899644333426572906e-01,3.014017555260348757e-01,-3.142672058106194211e+00,2.713693131965835598e-04,-6.308784680729155573e-06
2.498244150445693909e-02,3.902075573656837992e-01,3.010140679501074890e-01,-3.142810540815564657e+00,2.634149797525489568e-04,-6.017487915316266730e-06
2.498289378921076526e-02,3.904202456482731010e-01,3.006490908797425643e-01,-3.142950645035326840e+00,2.557447175077201995e-04,-5.750429489669059217e-06
2.498328457842822342e-02,3.906360349010800093e-01,3.002344659478118905e-01,-3.143092091863301629e+00,2.473863792027884115e-04,-5.510716755733130233e-06
2.498367606573319993e-02,3.908525460753684566e-01,2.998210947401203086e-01,-3.143235239496004141e+00,2.390562595613466418e-04,-5.270203526266149864e-06
2.498406840669562673e-02,3.910705255991097085e-01,2.994085171066297457e-01,-3.143379843321363332e+00,2.307484854526446565e-04,-5.028850137694662840e-06
2.498446163823869401e-02,3.912891339709816396e-01,2.989976601959402625e-01,-3.143525513051802278e+00,2.224567021376547390e-04,-4.786690705239739870e-06
2.498485540683443099e-02,3.915087558279987667e-01,2.985885227655863394e-01,-3.143672989529394002e+00,2.141801398021599872e-04,-4.543754885333443994e-06
2.498524939379417192e-02,3.917291813003854761e-01,2.981810887043617742e-01,-3.143821086808085141e+00,2.059310173173406673e-04,-4.300080736036480993e-06
2.498564154991036318e-02,3.919475719288352811e-01,2.977774558471659172e-01,-3.143963296632125815e+00,1.984710449088605160e-04,-4.059823772254086926e-06
2.498602464034188966e-02,3.921506916585244529e-01,2.973834629809000707e-01,-3.144081645767978994e+00,1.939489701209557023e-04,-3.834462094983639263e-06
2.498640826352694494e-02,3.923556089242805633e-01,2.969914078135489910e-01,-3.144201423953101315e+00,1.894402202748237470e-04,-3.608404826923061329e-06
2.498680526889898723e-02,3.925581031675980936e-01,2.966087492661204639e-01,-3.144240520175088704e+00,1.850830044990858401e-04,-3.377137023642925507e-06
2.498722926611020995e-02,3.927501383741585639e-01,2.962506227364305467e-01,-3.144138068518352203e+00,1.810632642171390236e-04,-3.136008749478178471e-06
2.498767176207888213e-02,3.929197277853553327e-01,2.959419078619210386e-01,-3.144037178010598232e+00,1.773514268305295422e-04,-2.887529095752535485e-06
2.498811426350786707e-02,3.930899871714821914e-01,2.956342118479838854e-01,-3.143937784447866424e+00,1.736503375409112840e-04,-2.638484300036030274e-06
2.498855687212328536e-02,3.932615669153041171e-01,2.953275591305020709e-01,-3.143840422591917427e+00,1.699496964980251297e-04,-2.388901972196541360e-06
2.498899977476451081e-02,3.934339333520835424e-01,2.950218007169055912e-01,-3.143745060186384332e+00,1.662574685792344729e-04,-2.138837762628899664e-06
2.498935711954223399e-02,3.935785829365006094e-01,2.947291638293213500e-01,-3.143651468758287049e+00,1.628529371522744081e-04,-1.925983417612759039e-06
2.498959539197095556e-02,3.936819570762912224e-01,2.944509153743189445e-01,-3.143559378186878472e+00,1.601526127727805093e-04,-1.768171419181522174e-06
2.498976205828446276e-02,3.937575644213202608e-01,2.941775127612492047e-01,-3.143468540336165074e+00,1.582497748181967807e-04,-1.647261835784163443e-06
2.498992959946976650e-02,3.938343622314305348e-01,2.939049969677621776e-01,-3.143379341580701425e+00,1.563450138979702124e-04,-1.525588023997787785e-06
2.499009821821604124e-02,3.939121997618985627e-01,2.936334513046778838e-01,-3.143291192638365761e+00,1.544374200862782078e-04,-1.403085311243475740e-06
2.499026788249645442e-02,3.939909466714811015e-01,2.933628601393145630e-01,-3.143204445871174979e+00,1.525251332902872081e-04,-1.279786689029228891e-06
2.499043847411512934e-02,3.940707580504717034e-01,2.930928648292535632e-01,-3.143118907249451865e+00,1.506076403342472721e-04,-1.155725155459827387e-06
2.499061004669406519e-02,3.941515107046335009e-01,2.928235660901090109e-01,-3.143034738293232877e+00,1.486849022981528079e-04,-1.030929973453003956e-06
2.499078250795800510e-02,3.942331925885684263e-01,2.925546830393701003e-01,-3.142951795831290251e+00,1.467566798438126768e-04,-9.054320555206931410e-07
2.499095586729311799e-02,3.943158449538943788e-01,2.922864837799835636e-01,-3.142870099888775748e+00,1.448276504110264297e-04,-7.792588385423076279e-07
2.499113003106769731e-02,3.943995058900450212e-01,2.920188843348505148e-01,-3.142789736455636085e+00,1.428951974023374299e-04,-6.524371439658131684e-07
2.499130495061294144e-02,3.944842175404074669e-01,2.917520905659900521e-01,-3.142710390920198549e+00,1.409597240282052728e-04,-5.249941709208147882e-07
2.499148069098254196e-02,3.945699112747660386e-01,2.914858764613010855e-01,-3.142632043824375998e+00,1.390162836924618004e-04,-3.969376296833139538e-07
2.499167150886291711e-02,3.946589743167048803e-01,2.912163289310658043e-01,-3.142554600558808975e+00,1.369700621057766692e-04,-2.624474855538340873e-07
2.499199268408825933e-02,3.947704858238552106e-01,2.909119329343549110e-01,-3.142478204022112642e+00,1.340347972486777717e-04,-7.439924575344768361e-08
2.499231419807277504e-02,3.948828967532159173e-01,2.906082221998957937e-01,-3.142402792948445711e+00,1.310978109388939120e-04,1.140385981299551073e-07
2.499263042901713264e-02,3.949987902942533879e-01,2.902982291563928618e-01,-3.142355038448344295e+00,1.280100524080461264e-04,3.016560932524467131e-07
2.499290836847049141e-02,3.951348196883406327e-01,2.899402669227458818e-01,-3.142496005910630608e+00,1.238555274739404203e-04,4.815840928352269714e-07
2.499316006038325780e-02,3.952579320812873998e-01,2.895882110750150895e-01,-3.142617715738894812e+00,1.193105197630449897e-04,6.480191989100909016e-07
2.499335801847695632e-02,3.953015431543366875e-01,2.892941683695052779e-01,-3.142592411191997837e+00,1.158242469696656597e-04,7.700160184906528513e-07
2.499355649198907806e-02,3.953459218076885717e-01,2.890007860169213072e-01,-3.142567532019022281e+00,1.123413608861840556e-04,8.924521824334037849e-07
2.499375658550379020e-02,3.953845651674264827e-01,2.887168835352251772e-01,-3.142543338983066814e+00,1.090417090760455350e-04,1.014173224076531151e-06
2.499396662546713235e-02,3.953667328985659979e-01,2.885121648951891604e-01,-3.142519762506354120e+00,1.073524986185129182e-04,1.125860366040583786e-06
2.499417718388786611e-02,3.953497441373592935e-01,2.883078591030390214e-01,-3.142496756903544686e+00,1.056630642599104704e-04,1.237992407492635348e-06
2.499438820748496257e-02,3.953336879464856013e-01,2.881036491754082052e-01,-3.142474292680482062e+00,1.039686795574700201e-04,1.350580369768128946e-06
2.499459967243274766e-02,3.953186100838792516e-01,2.878996312346472353e-01,-3.142452418704522188e+00,1.022695562782793735e-04,1.463605659231272755e-06
2.499481156727295303e-02,3.953043800038996136e-01,2.876957975045462690e-01,-3.142431039694547401e+00,1.005663853471969134e-04,1.577049526652511174e-06
2.499502388058721936e-02,3.952909858409690558e-01,2.874921071267289574e-01,-3.142410192850746409e+00,9.885968655036864942e-05,1.690896577883854268e-06
2.499523659128287736e-02,3.952783073621111143e-01,2.872885796827345795e-01,-3.142389786042487643e+00,9.714903687195817876e-05,1.805128032433631449e-06
2.499544992729072629e-02,3.952651271515416065e-01,2.870847289283963710e-01,-3.142348927446624973e+00,9.539233054247885633e-05,1.919442843604205837e-06
2.499566360637935428e-02,3.952418128719560331e-01,2.868715741143479381e-01,-3.142075090042264485e+00,9.311316491004674673e-05,2.030735225244967091e-06
2.499584784365969925e-02,3.952400394244625637e-01,2.866086897863548977e-01,-3.141612328713186297e+00,9.000261245596084825e-05,2.137892096048422777e-06
2.499603250669718904e-02,3.952389004743832035e-01,2.863461876326064415e-01,-3.141151287802078418e+00,8.689318156209804823e-05,2.245400806461543900e-06
2.499621760108445070e-02,3.952384053258277130e-01,2.860841026183068014e-01,-3.140692095013475349e+00,8.378524454173213131e-05,2.353249744363513722e-06
2.499641852130792333e-02,3.952353629107805966e-01,2.858219542434531357e-01,-3.140234507560366595e+00,8.078065088556396153e-05,2.465803973443014408e-06
2.499666283275216866e-02,3.952177712391414799e-01,2.855383617852102485e-01,-3.139679958470497301e+00,7.769746990019218741e-05,2.587552154667230601e-06
2.499689343462041524e-02,3.951887314921886385e-01,2.852076891676433301e-01,-3.138898396345431330e+00,7.367563574990472161e-05,2.697838948805566097e-06
2.499702507565536996e-02,3.951733009411775299e-01,2.848571542679408375e-01,-3.138119317588499602e+00,6.875416202033939137e-05,2.774983452765147108e-06
2.499715344964252572e-02,3.951589267550002504e-01,2.845064650212610347e-01,-3.137342730493096532e+00,6.380536157203988996e-05,2.851226338823977927e-06
2.499728235819444200e-02,3.951450841586789942e-01,2.841563849549782472e-01,-3.136568507463689759e+00,5.886346136286893808e-05,2.927840522548369956e-06
2.499741178295617275e-02,3.951317439495335981e-01,2.838068913355499823e-01,-3.135796557807256413e+00,5.392844028736113794e-05,3.004811283329542370e-06
2.499754331158198645e-02,3.951182478588178282e-01,2.834603807388121899e-01,-3.135020175588037361e+00,4.909944244253483775e-05,3.082423520798556087e-06
2.499766201208810518e-02,3.951197546072829359e-01,2.831373501304463858e-01,-3.134463367032271019e+00,4.437952892616813959e-05,3.153075479438855843e-06
2.499778116615174878e-02,3.951217033583931393e-01,2.828148451119854023e-01,-3.133908475430268403e+00,3.966524020515130907e-05,3.224042474370136547e-06
2.499790079411275123e-02,3.951240399625901012e-01,2.824927711463864899e-01,-3.133354820499765214e+00,3.495603622235432816e-05,3.295332678474556331e-06
2.499802087496525230e-02,3.951267420899924887e-01,2.821711127896697757e-01,-3.132802355487215529e+00,3.025174089887215287e-05,3.366931632175987484e-06
2.499814139031799123e-02,3.951297936861900562e-01,2.818498587908923048e-01,-3.132251029985952950e+00,2.555217615905448829e-05,3.438826455970747133e-06
2.499826232294941400e-02,3.951331815038675588e-01,2.815289961685032982e-01,-3.131700796487971505e+00,2.085714527078665544e-05,3.511005076474022212e-06
2.499838297265651391e-02,3.951368334239964142e-01,2.812101308195785188e-01,-3.131154353519030487e+00,1.619042321603522425e-05,3.583044475901735515e-06
2.499849406607008301e-02,3.951399499589818842e-01,2.809151830758271351e-01,-3.130648842106942720e+00,1.187638434419574114e-05,3.649362189312817005e-06
2.499859619008661452e-02,3.951425693841134623e-01,2.806427133891599146e-01,-3.130181799974347534e+00,7.893740338037264279e-06,3.710309955473535124e-06
2.499868989928535554e-02,3.951447277145612724e-01,2.803913606502083655e-01,-3.129750898971932926e+00,4.222364609572209145e-06,3.766220135068970423e-06
2.499877571760248177e-02,3.951464588272692868e-01,2.801598381509798896e-01,-3.129353938175886363e+00,8.432324481701496494e-07,3.817406714885533639e-06
