<?xml version="1.0"?>
<sdf version="1.5">
  <world name="default">

    <!-- A gazebo links attacher -->
    <plugin name="ros_link_attacher_plugin" filename="libgazebo_ros_link_attacher.so"/>

    <!-- A global light source -->
    <include>
      <uri>model://sun</uri>
    </include>

    <!-- A ground plane -->
    <include>
      <uri>model://ground_plane</uri>
      <pose>0 0 -0.0405 0 0 0</pose>
    </include>

    <!-- camera view -->
    <gui>
      <camera name="user_default">
            <pose>0.556 -0.9132 0.8266 0 0.59 2.15</pose>
      </camera>
    </gui>

    <!-- chessboard -->
    <include>
      <uri>model://chessboard</uri>
      <pose>0 0 -0.02 0 0 1.5708</pose>
      <static>1</static>
    </include>

    <include>
      <uri>model://queenW</uri>
      <pose>-0.075 -0.025 0.04 0 0 0</pose>
    </include>
    <include>
      <uri>model://pawnW1</uri>
      <pose>-0.175 -0.025 0.0201 0 0 0</pose>
    </include>


    <!-- screw grippers on top of arms, as they are separate models -->
    <!--plugin name="team_A_arm_gripper_joint" filename="libgazebo_ros_always_attached.so">
      <model_1>team_A_arm</model_1>
      <link_1>team_A_wrist_3_link</link_1>
      <model_2>team_A_gripper</model_2>
      <link_2>team_A_tool0</link_2>
      <link2_world_pose_x>0.174</link2_world_pose_x>
      <link2_world_pose_y>0.457</link2_world_pose_y>
      <link2_world_pose_z>0.027</link2_world_pose_z>
      <link2_world_pose_qx>0.500</link2_world_pose_qx>
      <link2_world_pose_qy>-0.500</link2_world_pose_qy>
      <link2_world_pose_qz>-0.500</link2_world_pose_qz>
      <link2_world_pose_qw>0.500</link2_world_pose_qw>
    </plugin>
    <plugin name="team_B_arm_gripper_joint" filename="libgazebo_ros_always_attached.so">
      <model_1>team_B_arm</model_1>
      <link_1>team_B_wrist_3_link</link_1>
      <model_2>team_B_gripper</model_2>
      <link_2>team_B_tool0</link_2>
      <link2_world_pose_x>-0.174</link2_world_pose_x>
      <link2_world_pose_y>-0.457</link2_world_pose_y>
      <link2_world_pose_z>0.027</link2_world_pose_z>
      <link2_world_pose_qx>0.500</link2_world_pose_qx>
      <link2_world_pose_qy>0.500</link2_world_pose_qy>
      <link2_world_pose_qz>0.500</link2_world_pose_qz>
      <link2_world_pose_qw>0.500</link2_world_pose_qw>
    </plugin-->
  </world>
</sdf>
