0,0.02241591,0.4429648,0.2602723,-3.13987279607694,-0.0004137016407,-0.003420417
0.01,0.0230846906649608,0.442509561615381,0.261773809890526,-3.13675421608853,0.000186535001683807,-0.00472372646926932
0.02,0.0237534713299215,0.442054323230762,0.263275319781051,-3.13363563610012,0.000786771644067613,-0.00602703593853864
0.03,0.0244222519948823,0.441599084846143,0.264776829671577,-3.13051705611171,0.00138700828645142,-0.00733034540780796
0.04,0.0251934702147241,0.440981999755305,0.266790759323685,-3.12627057659836,0.0022283011961319,-0.00879026189076674
0.05,0.0259923277020487,0.440154922675553,0.269420813209141,-3.12071539670617,0.00339051920767327,-0.0102157684585667
0.06,0.0268755727755417,0.438948244823566,0.273149194170759,-3.11286679929975,0.0050398266542367,-0.0116483102321776
0.07,0.0276780220122124,0.437518538996039,0.277075554413647,-3.10526136464386,0.00663137245620612,-0.0127873963167408
0.08,0.0284528460139753,0.436054407143921,0.281022427937938,-3.09769895393785,0.00821261081370629,-0.0138449494919785
0.09,0.0291766250689368,0.434397912110653,0.285270595287726,-3.08980485927518,0.00984999458020652,-0.0146583786396601
0.1,0.0298979995616012,0.432325396342712,0.28999894713237,-3.08150433569633,0.0115601315535929,-0.0152293797188517
0.11,0.0306089106682675,0.429728900297641,0.295276030973273,-3.0734465117238,0.0132099224855028,-0.0154843772093266
0.12,0.0313409461271218,0.42691079255463,0.300899119957168,-3.0650314020436,0.014929565612153,-0.0156562047465728
0.13,0.0320454782804446,0.423945904676732,0.306291088248919,-3.05806125361122,0.0164122640492181,-0.0156429265865277
0.14,0.0327550630620081,0.420924715711546,0.311280586324642,-3.05258789577691,0.0176491512485566,-0.0156046939703513
0.15,0.033491924520975,0.417629290083171,0.316272168963494,-3.04800053821166,0.0187503493829898,-0.0154369511213233
0.16,0.0342592426589697,0.413964666203257,0.321366433679422,-3.04419524785684,0.0198358051983043,-0.0150915737515966
0.17,0.035006660388383,0.409778937266429,0.32631889490495,-3.04200494222828,0.0210247761508644,-0.0143863818662657
0.18,0.0357486736869937,0.405621689956045,0.33114057622066,-3.04022884579228,0.022129818557534,-0.0136933115608278
0.19,0.0365159365931392,0.401354391366251,0.33588709651573,-3.03851006231269,0.0231605241467042,-0.0128633425295412
0.2,0.0373057555041426,0.396992620437316,0.340315440490228,-3.03770049657354,0.0237848991898055,-0.0117957474488677
0.21,0.0381926202825657,0.391954010538323,0.345244224547208,-3.03694213089519,0.0246873708399522,-0.010393915491301
0.22,0.0391005409667383,0.386751904286709,0.350073707861743,-3.03706794335048,0.0254223860823159,-0.00893497170566214
0.23,0.0399904528081608,0.38163705190742,0.354611793168491,-3.03770277319091,0.0259920998150698,-0.00703122589409824
0.24,0.0408884433524705,0.376413327334531,0.35915915408745,-3.03829001276483,0.0267218862301475,-0.00515220076506067
0.25,0.0418971982325512,0.369977153135695,0.364479819815514,-3.03898208462947,0.0288600961869976,-0.00286653602074552
0.26,0.042480109872844,0.365802098393,0.367499864909649,-3.0392035327091,0.0308497059105554,-0.000218807692585779
0.27,0.0430793948706383,0.361344316945597,0.370699432302434,-3.03924501346219,0.0333127912784366,0.00264822499318832
0.28,0.0436885623132371,0.356775099051618,0.373900237038561,-3.0392098899378,0.0359094046440239,0.00559874919523338
0.29,0.0443227620423646,0.352258927847463,0.376787260147595,-3.03918354879463,0.0380990768098307,0.00865283912395662
0.3,0.0449530388589393,0.347453313280788,0.379792846735644,-3.03907582305351,0.0410114609635676,0.0118013833214862
0.31,0.0455220189918896,0.342364123238706,0.382748301521307,-3.03883777783465,0.0452415542209811,0.0156197638950517
0.32,0.0460635564796193,0.337203565806802,0.385329764036541,-3.03934187527621,0.0499493694390195,0.0194909110688393
0.33,0.0465825823036295,0.332218819264741,0.387283021853244,-3.04050443550969,0.0544852712287645,0.0230066323580799
0.34,0.0470915784661286,0.327298831729264,0.389034414131932,-3.04184439781441,0.0589287833032265,0.0266109685861837
0.35,0.0475585522815504,0.322607116796654,0.390624937679905,-3.0430553320634,0.0633226942917034,0.030180280573907
0.36,0.0479216217333877,0.318626908411825,0.391535711675292,-3.04465158888567,0.0671938124189593,0.0333003855603038
0.37,0.0482282444139945,0.314884404733426,0.392075978484226,-3.04689380684987,0.0710842278518393,0.0361501894344671
0.38,0.0484662161515833,0.311371107271173,0.392456953453632,-3.04817929879921,0.0753235570715843,0.0394843566051003
0.39,0.0487021705536953,0.308051548052291,0.392556325923978,-3.04955893478037,0.0789748380211574,0.0428591526710442
0.4,0.0489523073862036,0.30471947188738,0.392504190527249,-3.05116841047018,0.0823936278531024,0.0463141348808425
0.41,0.0492131705532693,0.301279077555604,0.391689355574313,-3.05363521738247,0.0854268943609855,0.0495764494430583
0.42,0.0494328568813721,0.297858983235565,0.390617867617474,-3.05625762148522,0.0885655734921751,0.052895882830884
0.43,0.0496861112558547,0.294629660414984,0.389143197598408,-3.05933265205408,0.0907863814884773,0.0562153131557981
0.44,0.0499355577631107,0.291561592999014,0.38711646268386,-3.06387001737105,0.0923286765196696,0.0591648912817421
0.45,0.0501030153756578,0.288831275261473,0.385307174926619,-3.06734602595564,0.0940755525670544,0.0622040396130016
0.46,0.0502631142822986,0.28604893857028,0.383159279590617,-3.07162987154644,0.0957501016142744,0.0649579407743349
0.47,0.0504206617876053,0.2833111640522,0.380799710782515,-3.07628194460127,0.0973275223588665,0.0673197760517116
0.48,0.0506623302609453,0.280182433410159,0.377028519257529,-3.08219381111781,0.0971986562039003,0.0697138222853627
0.49,0.0508542673365044,0.277596526520404,0.373329047714755,-3.08775906937283,0.0964617864801764,0.0717616967977075
0.5,0.0509993728669876,0.275436118038411,0.370268487186273,-3.09249560280464,0.0958334036981918,0.0737256552317065
0.51,0.0510162914503438,0.273379497261514,0.366890056533133,-3.0970776474205,0.0950297850385455,0.0761800921260038
0.52,0.0510328086177532,0.271326015588228,0.363522393397656,-3.10168088778695,0.0942222368658254,0.0786323778783044
0.53,0.0509747452205291,0.269457144564763,0.360056520549742,-3.10619463791516,0.0935163476069823,0.0808287835151131
0.54,0.0508509643961665,0.267869644145289,0.356373849626653,-3.11013836353594,0.0930677514620241,0.0824880659023008
0.55,0.050634603336489,0.266402931225283,0.352680140454897,-3.11303596005743,0.0925982813989143,0.0845657173661612
0.56,0.0504347865150747,0.26500387793272,0.349085638761992,-3.11606186374745,0.0920702222302809,0.08651994929139
0.57,0.0501850061554817,0.263711952458623,0.345561271591926,-3.11865536705822,0.0910845649155388,0.0887540528037487
0.58,0.0498990391470131,0.262505741397198,0.342305678705418,-3.12029168580674,0.0900694106646673,0.0912020801927203
0.59,0.0495465567192038,0.261488206618537,0.339180326787333,-3.11997811208872,0.089238420493567,0.0937834165961919
0.6,0.0491109922405198,0.260714066657675,0.336190701629983,-3.11841931965599,0.0886497476103232,0.0965350235067258
0.61,0.0486369003741351,0.25990787381593,0.333118412418063,-3.11719330957035,0.0873164857219119,0.099543552911055
0.62,0.0480739478235941,0.259045587280862,0.330047764694848,-3.11559170653418,0.0860180182439488,0.103003317781295
0.63,0.0474747891351563,0.258123692784135,0.327039795196977,-3.1135224310087,0.0849143948563856,0.106642192007202
0.64,0.046823007453336,0.25721917381865,0.324052508722063,-3.11134044408841,0.0839830964864804,0.110528638279633
0.65,0.0461848149021728,0.256383456431298,0.321280003345336,-3.10977337023174,0.0835960971757944,0.114088142665811
0.66,0.045532010404059,0.255497624704027,0.318473025669063,-3.10913803325632,0.0829461437249118,0.117781752752516
0.67,0.0447063100415086,0.254306822270422,0.315053664802422,-3.10876099010109,0.0821861245081327,0.122383629185444
0.68,0.0438860059770142,0.253160979935759,0.311914109185263,-3.10806110706327,0.0817623625408738,0.126788533202962
0.69,0.0431911617934146,0.252092996916356,0.309354648195219,-3.10814621456931,0.0812610282800712,0.130559662805202
0.7,0.0425249643694241,0.251061427552785,0.306874355739349,-3.10853246310469,0.0806501979071757,0.134172859305064
0.71,0.041913342612409,0.250095151531457,0.304399925278797,-3.10943099368743,0.0801174622981958,0.137397312607022
0.72,0.0412907577358287,0.249188381965582,0.301975754281523,-3.11046630374048,0.0791885747539214,0.140799051598155
0.73,0.0406718706213213,0.248279253894407,0.299653545862674,-3.11138368169543,0.0781654273682599,0.144251256764338
0.74,0.0400258709683463,0.247293083668951,0.297400511355303,-3.11206058988146,0.0771198658869966,0.147881682359397
0.75,0.0393355553052575,0.246346190846306,0.295028167029762,-3.11337879452264,0.0754864642949435,0.151189350116143
0.76,0.0386525641556908,0.245447889883089,0.292793148128151,-3.11439934781614,0.0740473236812359,0.154330484900583
0.77,0.0380634669551576,0.244659711220533,0.290704206764543,-3.11556964728542,0.0724231183388281,0.156780386757341
0.78,0.0375347092171133,0.243931290755607,0.288658943602465,-3.11704183740478,0.0707024598848698,0.159005994974535
0.79,0.0370125333162908,0.243300483657896,0.286798412235996,-3.11811616744889,0.0695000614013296,0.160904691369912
0.8,0.0364138505625826,0.242764480239929,0.284956921548006,-3.1182422053131,0.0684517010381658,0.162739678047536
0.81,0.0359561341079834,0.242210547496364,0.283418374770698,-3.11878077089037,0.0673118879921466,0.164523253628448
0.82,0.03553566307426,0.241752165562644,0.281884004394591,-3.11916232455593,0.066063869722569,0.166056947178107
0.83,0.0351582101643092,0.241369779997725,0.280531096937379,-3.11927771566587,0.0653770517600442,0.167090990413823
0.84,0.0347805856747273,0.240996621226102,0.279267601769925,-3.11922698834092,0.0650024181218782,0.16825313062989
0.85,0.0344353360839299,0.240633310500777,0.278134670649743,-3.11891604341701,0.064574487945146,0.169316440351627
0.86,0.0341073195848383,0.240283966386952,0.277015045424279,-3.11852267943172,0.0640622891135126,0.170329508861591
0.87,0.0338406088193771,0.240042096368545,0.275863488907005,-3.11822544685787,0.06313040037224,0.171046970070062
0.88,0.0336431834406694,0.23978522455023,0.274716373531274,-3.11831782663732,0.0620911705543771,0.171783925264078
0.89,0.0334510173426429,0.239546247400943,0.273646663747537,-3.11815820305228,0.0611237952301579,0.17246733090216
0.9,0.0332913523902229,0.239337932621968,0.272646621502211,-3.11796654549352,0.0599999124680061,0.173002399883826
0.91,0.0332097943541712,0.239117787069751,0.271660238818084,-3.11841978303324,0.0586927485787573,0.173288548687449
0.92,0.0331769580423693,0.238925111355833,0.270624297993696,-3.11893712308504,0.0574835084151056,0.173407267699914
0.93,0.0331491612161609,0.23872571731662,0.269574609063307,-3.11952868184746,0.0562596518725492,0.173517943164517
0.94,0.033119509292641,0.238535585461623,0.268506610364907,-3.12020321417576,0.0550132154402468,0.173618128109561
0.95,0.0330854729670599,0.238378238513421,0.267391084558531,-3.12110364435734,0.0537042857600933,0.173686421082256
0.96,0.0330885936634234,0.238216670523285,0.266253725499955,-3.12225745696945,0.0527262050098875,0.173744510284447
0.97,0.0331024699106472,0.237981999783379,0.264969973150467,-3.12400572675949,0.051882953409684,0.173912916088352
0.98,0.0331084232737648,0.237762099855586,0.263616415433645,-3.12519541653197,0.0510408069397893,0.174019844058901
0.99,0.0331143766368824,0.237542199927793,0.262262857716822,-3.12638510630445,0.0501986604698947,0.174126772029451
1,0.03312033,0.2373223,0.2609093,-3.12757479607694,0.049356514,0.1742337
