0,0.1107306,0.09863622,0.351073,-3.13948579607694,-0.0010782275,0.00590371
0.01,0.110624057326336,0.0991948005051077,0.351051695973736,-3.13915829205075,-0.00037631259920992,0.00639177831099369
0.02,0.110517514652671,0.0997533810102154,0.351030391947471,-3.13883078802457,0.000325602301580161,0.00687984662198738
0.03,0.110410971979007,0.100311961515323,0.351009087921207,-3.13850328399839,0.00102751720237024,0.00736791493298107
0.04,0.110304429305342,0.100870542020431,0.350987783894942,-3.1381757799722,0.00172943210316032,0.00785598324397476
0.05,0.110197886631678,0.101429122525539,0.350966479868678,-3.13784827594602,0.0024313470039504,0.00834405155496846
0.06,0.110091343958013,0.101987703030646,0.350945175842414,-3.13752077191984,0.00313326190474048,0.00883211986596215
0.07,0.10996715787558,0.102654929585038,0.350939035446187,-3.13697493214802,0.00399576148715426,0.00936470940342646
0.08,0.109817531659994,0.103552182354142,0.350980373079029,-3.13576994718359,0.00508896002397489,0.00995184087803351
0.09,0.109654294449184,0.104513038311597,0.351042616673092,-3.13436768613243,0.00628618064048581,0.0105911567909265
0.1,0.109443018140978,0.105662879115618,0.351135390251172,-3.13271172346966,0.00788681518976177,0.0113582418733269
0.11,0.109212178845297,0.10685819999213,0.351223641019434,-3.13104226790969,0.00970609347571498,0.0121279405775112
0.12,0.108970141326359,0.108073969243862,0.351314774623813,-3.12933276009606,0.0116507882802619,0.0129069589721276
0.13,0.108719024996839,0.1093412560113,0.351392996515936,-3.12762831843273,0.0136481050469336,0.0137107361801323
0.14,0.108404015745904,0.11086565718573,0.351399075560396,-3.12631084533694,0.0162907838035613,0.014590853776309
0.15,0.108027327780184,0.112553221442518,0.351356477430832,-3.12531200909755,0.0194057435863876,0.0156403533070858
0.16,0.107637045639288,0.1142715547797,0.351305838683098,-3.12436095574526,0.022584436558771,0.0167500507461869
0.17,0.107251694735142,0.115990084256663,0.351246070137165,-3.12346465091027,0.0257129209467817,0.017837759138719
0.18,0.106831966772152,0.117725883887117,0.351162579327525,-3.12253997327173,0.0290317988566172,0.0190076272777327
0.19,0.106387171022856,0.119471270596764,0.351075883284125,-3.12153761771355,0.0325152603089883,0.0202488804100134
0.2,0.105902877002161,0.121287691465824,0.350952453130837,-3.12050785280926,0.0363347130718251,0.0215211479274404
0.21,0.105363612175451,0.12338802744415,0.350698542565569,-3.11999250156136,0.0405424918325497,0.0228426580224388
0.22,0.104772760281796,0.125582385488677,0.350391120446441,-3.11978303024858,0.0449214256638693,0.0243426332210884
0.23,0.104072391174031,0.127940650335589,0.350012860936576,-3.11996146152338,0.0495780590566163,0.0262683580769574
0.24,0.103372022066266,0.130298915182501,0.349634601426711,-3.12013989279819,0.0542346924493633,0.0281940829328265
0.25,0.102671420613453,0.132657005744767,0.349256309641893,-3.1203183048992,0.0588919886637239,0.0301207064415076
0.26,0.101898379689175,0.135052163264343,0.348836188170778,-3.12070342290496,0.0637372705266144,0.0323407578534474
0.27,0.101016897421361,0.137636263132656,0.348341471195384,-3.12113407864238,0.0686129189853001,0.0350783041303933
0.28,0.10008133447865,0.140403311979197,0.347773656893032,-3.1214326453208,0.0731929975963261,0.0381632431585946
0.29,0.0991932871832978,0.14306425191579,0.34723129385006,-3.12157388461975,0.0775365451295641,0.040986375017095
0.3,0.0983543850932569,0.145584952095409,0.346724037575334,-3.12146820099087,0.0815897727902448,0.0435284122339719
0.31,0.097475219830593,0.148263246303207,0.346167604971472,-3.12142270197333,0.0857560218388001,0.0462369343218576
0.32,0.0966196773126504,0.150916210508369,0.345575062833376,-3.1216547307551,0.0891521863059722,0.0489818965594459
0.33,0.0957479364383355,0.153542985756187,0.344975478471051,-3.12195377343576,0.0922057209533459,0.0518590444043293
0.34,0.0947990341640611,0.156304662518549,0.344219763981423,-3.12285956593266,0.0948359888264842,0.0550275376285944
0.35,0.0938214792955795,0.159104568167266,0.343390093732435,-3.12388087566966,0.0971496869226911,0.0582454749391471
0.36,0.0928983782186889,0.161813395796756,0.342571377298857,-3.12497642553756,0.0994056519562175,0.0611859548585099
0.37,0.0919237392286568,0.164596308588828,0.341740810480131,-3.12593725303945,0.101574775082931,0.06380338473661
0.38,0.0909782245610319,0.167312444526544,0.340920914093274,-3.12689752783817,0.103528839209564,0.0661559588633229
0.39,0.0900620456518904,0.169961499672955,0.3401117367549,-3.12785780263689,0.10526820060805,0.0682450025626454
0.4,0.0891337495404576,0.172595284692409,0.339300364027591,-3.12879966910996,0.106961117572017,0.070294217780711
0.41,0.0879022195516262,0.175266025777623,0.338230829891567,-3.13002991259705,0.107970436083937,0.0728469962820782
0.42,0.086650302048726,0.177964575490896,0.337138841097955,-3.13131174766317,0.109012924516026,0.0754714226212053
0.43,0.0853628642262368,0.180660907451678,0.335976952673634,-3.132222108503,0.109919989729983,0.0779378358274287
0.44,0.0840255175220447,0.183372205368237,0.334774590278701,-3.13331148586617,0.11082548481275,0.0800531745760913
0.45,0.0826329447095577,0.186092889911494,0.333532137456958,-3.134578359483,0.111704804261485,0.0817345177961932
0.46,0.0812403718970707,0.18881357445475,0.332289684635215,-3.13584523309983,0.11258412371022,0.0834158610162952
0.47,0.0798235249379232,0.191377976705493,0.331056178308304,-3.13677575250709,0.113181223083586,0.084985830310816
0.48,0.0783194069030399,0.193703197357728,0.329818790296395,-3.13730210823325,0.113393101272348,0.0862941880144946
0.49,0.0768152888681566,0.196028418009963,0.328581402284485,-3.13782846395941,0.113604979461109,0.0876025457181731
0.5,0.0753142887024015,0.1983362946385,0.327335875845529,-3.1384141754071,0.113781510797215,0.0888365606669799
0.51,0.0737830002152285,0.200501877673009,0.326033250689178,-3.13885069334087,0.113829377698637,0.0894097776437524
0.52,0.0722536351206594,0.202616497198453,0.324714631775877,-3.13921041750709,0.113783885476316,0.0898840229593066
0.53,0.0707269850124054,0.204710007935648,0.323362993534454,-3.13943487221755,0.113808322585143,0.0900654846516256
0.54,0.069261366088351,0.206560727681971,0.322060633890648,-3.13964720128959,0.113686796188914,0.0897258398634829
0.55,0.0678164948374773,0.2082964702726,0.320789172874144,-3.13985953036163,0.113468611691564,0.0890082384140146
0.56,0.0663716235866037,0.210032212863228,0.319517711857641,-3.14007185943367,0.113250427194214,0.0882906369645464
0.57,0.0648957172438128,0.211790726743535,0.318209810441594,-3.14028418850571,0.112991699636628,0.087515696289799
0.58,0.0634294375250541,0.213505571930197,0.316832799585544,-3.14048322233982,0.112557721944303,0.0867246765569084
0.59,0.0620015283895228,0.215151896674954,0.315485655610388,-3.14068005137255,0.11207376440401,0.0859742383007609
0.6,0.060612053126721,0.216693564010146,0.31419195256445,-3.14087688040529,0.111526663307659,0.0852363395562774
0.61,0.0588462425865012,0.218333131709975,0.312568566290543,-3.14106470446579,0.11067848977179,0.0832705072693109
0.62,0.0570705122547448,0.219975809658581,0.310878073416523,-3.1411395780733,0.109732579065263,0.0812371527306734
0.63,0.0552853343189265,0.221625561007004,0.30913160690882,-3.14119921474398,0.108729514326191,0.0791072643401558
0.64,0.0534904147633414,0.223282229147867,0.30733667274986,-3.14125885141465,0.107679678874546,0.0768878003185041
0.65,0.0517117868420467,0.22492077389488,0.305536535747537,-3.14131848808532,0.106610001437498,0.0747060267925445
0.66,0.049954836259616,0.226535203998583,0.303729475940745,-3.14137812475599,0.105513922631891,0.0725744035236128
0.67,0.0482875957820661,0.228039330734996,0.301901178317081,-3.14139224846798,0.104348124357088,0.0706618156885279
0.68,0.0466925632817879,0.229390038364875,0.299950297715516,-3.14131725357487,0.102957135228641,0.0690149990233324
0.69,0.0450980188050935,0.230740404568983,0.297999738118021,-3.14124225868177,0.101566791869024,0.0673688400578813
0.7,0.043665495821735,0.231969366984403,0.296108611337332,-3.14114324593978,0.100270004344345,0.0658828488708937
0.71,0.0421940243196612,0.233176770017702,0.294169683626839,-3.141008614376,0.0987689992073755,0.064213838465438
0.72,0.0407101705558903,0.234384156150753,0.292259809824008,-3.14087398281222,0.0973284434161581,0.0625061758388745
0.73,0.0392318396115209,0.235584412993185,0.290335961015738,-3.14073935124844,0.095888195249525,0.0608344646143884
0.74,0.0380538871939465,0.236540997318397,0.28847887493053,-3.14060471968467,0.0939488925153666,0.0593141182426318
0.75,0.0370802476567825,0.237408629816847,0.2868335393412,-3.14047008812089,0.092249650281096,0.0578659901540979
0.76,0.0361867056847993,0.238196214983298,0.285227279056554,-3.14044191111205,0.0905680128858297,0.0566358800661798
0.77,0.0353006988197345,0.238969775287494,0.283611933232927,-3.14046489397038,0.0888693387661061,0.0554089599266478
0.78,0.0344146919546697,0.23974333559169,0.281996587409299,-3.14048787682871,0.0871706646463825,0.0541820397871159
0.79,0.0335529725994987,0.240504102001971,0.280399907714984,-3.14051085968704,0.0854993219411143,0.0530260887772219
0.8,0.0327300613869333,0.241287937297766,0.278855361891042,-3.14053384254538,0.08410402423227,0.0520120401404669
0.81,0.0322441603553898,0.241871356699929,0.277478553074552,-3.14055682540371,0.0822176172205217,0.0515298196874507
0.82,0.0317963286429266,0.242417739091342,0.276087828955328,-3.14057980826204,0.0802337276147007,0.0511527153938203
0.83,0.0313484999193822,0.242964112635015,0.274697101427496,-3.14060279112037,0.0782498409178228,0.0507756264506955
0.84,0.0309337872346533,0.243480825335387,0.273312919753325,-3.14068171031238,0.0761877236742362,0.0503426885344769
0.85,0.030535426449487,0.24398289222823,0.271931970263482,-3.140788249514,0.0740869780774935,0.0498821737451972
0.86,0.0301506012826631,0.244453128936742,0.270554436802938,-3.14089478871562,0.0719085605628964,0.0494530438764548
0.87,0.0298385875985122,0.244818117817759,0.269310762444526,-3.14100132791723,0.0700640633390611,0.0491058510536825
0.88,0.0296297406405449,0.245097199444047,0.268310004732885,-3.14110786711885,0.0691970987890515,0.048778206946756
0.89,0.0294286276434741,0.245365718336042,0.267278408579619,-3.14121440632046,0.0682685682189172,0.0484490396931008
0.9,0.0292435898601982,0.245610192185524,0.266254585409037,-3.14132094552208,0.0673356005813456,0.0481243129657042
0.91,0.0290937714823497,0.245796097608037,0.265249672100377,-3.1414274847237,0.0664258942814075,0.0478969399815085
0.92,0.0289518921680048,0.245966644487038,0.264250389989777,-3.14153229265467,0.0655358953571036,0.0477299961941735
0.93,0.0288579294436551,0.246132388496121,0.263366232621844,-3.14134867960169,0.0646554306080017,0.0476463777874379
0.94,0.02877770846845,0.246223324047276,0.262526781487437,-3.1411140633384,0.0636618045244559,0.0475708114496125
0.95,0.0286756931469582,0.246355262381045,0.261846410984101,-3.14080790659397,0.0628109343055131,0.0475002814713906
0.96,0.02857632080176,0.246482576519699,0.261150651837273,-3.14050174984955,0.0619930965026734,0.0473714430089278
0.97,0.02849107560132,0.246585132389774,0.260372188877955,-3.14019559310512,0.0613520623770051,0.0469309002066959
0.98,0.02840583040088,0.246687688259849,0.259593725918637,-3.13988943636069,0.0607110282513367,0.0464903574044639
0.99,0.02832058520044,0.246790244129925,0.258815262959318,-3.13958327961626,0.0600699941256684,0.046049814602232
1,0.02823534,0.2468928,0.2580368,-3.13927712287183,0.05942896,0.0456092718
