0,0.0223728666666667,0.443083833333333,0.25987,-3.14046421786326,-0.000587434433333333,-0.00338799333333333
0.00333333333333333,0.0225993646908446,0.442963773934505,0.260293804099283,-3.1395541221839,-0.000423914446721436,-0.00384229600718847
0.00666666666666667,0.0228258627150226,0.442843714535676,0.260717608198567,-3.13864402650454,-0.000260394460109538,-0.0042965986810436
0.01,0.0230523607392005,0.442723655136848,0.26114141229785,-3.13773393082518,-9.6874473497641e-05,-0.00475090135489873
0.0133333333333333,0.0232788587633785,0.442603595738019,0.261565216397133,-3.13682383514581,6.66455131142565e-05,-0.00520520402875387
0.0166666666666667,0.0235053567875564,0.442483536339191,0.261989020496417,-3.13591373946645,0.000230165499726154,-0.005659506702609
0.02,0.0237318548117344,0.442363476940362,0.2624128245957,-3.13500364378709,0.000393685486338051,-0.00611380937646413
0.0233333333333333,0.0239583528359123,0.442243417541534,0.262836628694983,-3.13409354810772,0.000557205472949949,-0.00656811205031927
0.0266666666666667,0.0241848508600903,0.442123358142705,0.263260432794267,-3.13318345242836,0.000720725459561846,-0.0070224147241744
0.03,0.0244113488842682,0.442003298743877,0.26368423689355,-3.132273356749,0.000884245446173744,-0.00747671739802953
0.0333333333333333,0.0246561675266105,0.441855378370623,0.264196741060071,-3.131168188473,0.00108867611561847,-0.00795948997846635
0.0366666666666667,0.0249563320243389,0.441623291106949,0.26497720458528,-3.12947371367765,0.0014166963231189,-0.00852826900903495
0.04,0.0252615722149372,0.441373376037027,0.265809682127371,-3.12766323716934,0.00177656585150388,-0.00910063710907738
0.0433333333333333,0.0255726672594795,0.441102896444312,0.266702158270577,-3.12571895172025,0.00217317383644555,-0.00967714523061104
0.0466666666666667,0.0258650771101884,0.440790728758728,0.267712547253951,-3.12353823699332,0.00263597076383223,-0.0101926313376369
0.05,0.0261529809473957,0.440423347538126,0.268883789471059,-3.12101808785551,0.00317232731369603,-0.0106703848772164
0.0533333333333333,0.0264740038221972,0.439981188978177,0.27028038159076,-3.11800446608257,0.00380849053240414,-0.0111873343907179
0.0566666666666667,0.0267950266969986,0.439539030418228,0.271676973710461,-3.11499084430963,0.00444465375111224,-0.0117042839042193
0.06,0.0271160495718001,0.439096871858279,0.273073565830162,-3.1119772225367,0.00508081696982035,-0.0122212334177208
0.0633333333333333,0.0274227548880929,0.438643982141848,0.274477283247223,-3.10895861029672,0.00571752374480944,-0.0126989178990765
0.0666666666666667,0.0276869867212432,0.438159258115564,0.27590213808077,-3.10592519368085,0.00635584299643154,-0.0130601214399202
0.07,0.0279512185543934,0.43767453408928,0.277326992914316,-3.10289177706499,0.00699416224805364,-0.0134213249807638
0.0733333333333333,0.0282154503875437,0.437189810062995,0.278751847747863,-3.09985836044913,0.00763248149967573,-0.0137825285216074
0.0766666666666667,0.028479682220694,0.436705086036711,0.28017670258141,-3.09682494383326,0.00827080075129783,-0.0141437320624511
0.08,0.0287439140538442,0.436220362010426,0.281601557414957,-3.0937915272174,0.00890912000291993,-0.0145049356032947
0.0833333333333333,0.0289750954068744,0.435667122109963,0.283138163901362,-3.0906817787858,0.00955737113462754,-0.0147414882018632
0.0866666666666667,0.0292048529406629,0.43511093053619,0.284679584664385,-3.08756874196904,0.010206050133099,-0.0149726708206471
0.09,0.0294515346419593,0.434445584629655,0.286378278291425,-3.08413847077537,0.010917653439453,-0.0151816728465655
0.0933333333333333,0.0297011124809803,0.43372997783908,0.288181970957172,-3.08051334991076,0.0116672827118465,-0.0153700381182101
0.0966666666666667,0.0299359557568963,0.432906758437709,0.290040410252626,-3.07707493917006,0.0123755979444813,-0.0154614379689789
0.1,0.0301551503685553,0.431977583211432,0.291955205323954,-3.07380764263093,0.0130475277868333,-0.0154544430420583
0.103333333333333,0.0303743449802143,0.431048407985155,0.293870000395282,-3.07054034609179,0.0137194576291853,-0.0154474481151377
0.106666666666667,0.0305935395918733,0.430119232758878,0.29578479546661,-3.06727304955266,0.0143913874715373,-0.015440453188217
0.11,0.0308127342035323,0.429190057532601,0.297699590537938,-3.06400575301352,0.0150633173138892,-0.0154334582612964
0.113333333333333,0.0310319288151913,0.428260882306324,0.299614385609265,-3.06073845647439,0.0157352471562412,-0.0154264633343758
0.116666666666667,0.0312511234268502,0.427331707080047,0.301529180680593,-3.05747115993525,0.0164071769985932,-0.0154194684074551
0.12,0.031465737542911,0.426372222807343,0.303442244533291,-3.05435862458113,0.0170451998684757,-0.0153683422773052
0.123333333333333,0.0316742267023385,0.425372209820885,0.30535299343146,-3.05145303311034,0.0176378829423721,-0.0152582046930112
0.126666666666667,0.0318761755135531,0.424391183300967,0.307152111743099,-3.04885635374964,0.0182053856864031,-0.01515080422152
0.13,0.0320715717014337,0.423429178881959,0.308839389956585,-3.04656916627452,0.0187476608413726,-0.0150461459999267
0.133333333333333,0.0322678825414085,0.422461543363857,0.310471840301364,-3.04446522176917,0.0192514063030428,-0.0149394888014732
0.136666666666667,0.0324743584913415,0.421439880776626,0.312020453913535,-3.04281530077952,0.0196578856700086,-0.0148151130101569
0.14,0.0326858269070243,0.420392299811096,0.3135657516865,-3.0412743589647,0.0200404364180586,-0.0146823589623294
0.143333333333333,0.0328956076594871,0.419311403985319,0.315099110506892,-3.03983745901838,0.0204232646483888,-0.0145169669705692
0.146666666666667,0.0331150408713662,0.41814221222434,0.316682986432342,-3.03855594917279,0.0207860669992262,-0.0143286057167477
0.15,0.033340172062653,0.416935961695258,0.318297643108186,-3.03732562700982,0.0211380439122491,-0.0141380106590163
0.153333333333333,0.0335653032539398,0.415729711166177,0.319912299784031,-3.03609530484686,0.0214900208252721,-0.013947415601285
0.156666666666667,0.0337904344452265,0.414523460637095,0.321526956459875,-3.03486498268389,0.0218419977382951,-0.0137568205435537
0.16,0.0340443971688734,0.413049818173069,0.323334826,-3.03351386188527,0.0224652633431815,-0.0134986730027733
0.163333333333333,0.0343111435233245,0.41147239503951,0.325146324803549,-3.032351749571,0.0231334713447097,-0.0131934730439464
0.166666666666667,0.0345782032766606,0.409893459559416,0.326952184167439,-3.03121120834775,0.023797520206312,-0.0128859255368632
0.17,0.0348452630299967,0.408314524079322,0.328758043531329,-3.0300706671245,0.0244615690679143,-0.0125783780297799
0.173333333333333,0.0351123227833329,0.406735588599228,0.330563902895219,-3.02893012590124,0.0251256179295166,-0.0122708305226967
0.176666666666667,0.0353743051291314,0.405183886806068,0.332261314470295,-3.02818223904618,0.0257094304157108,-0.0119741148787926
0.18,0.0356358272580359,0.40363465347791,0.333948896323378,-3.02746994243525,0.026285970266173,-0.0116783810364069
0.183333333333333,0.0359094667812992,0.402022092020817,0.335646853528653,-3.02690347001157,0.0268329262299187,-0.0113524057257886
0.186666666666667,0.0361979486420946,0.400331961291231,0.337357519281222,-3.02651561452016,0.0273436455227145,-0.0109893882866665
0.19,0.036461660328065,0.398813240153132,0.33893867833881,-3.02576561386033,0.0278178818456134,-0.0105507214710498
0.193333333333333,0.0367408142330766,0.397209723246765,0.340403396194498,-3.02560985902581,0.028103336185364,-0.0100549780151718
0.196666666666667,0.037027357428391,0.395570942618717,0.341860898466708,-3.02558374104499,0.0283528559384079,-0.00955028902114186
0.2,0.0373248908530579,0.393835430957013,0.343397431270491,-3.02557709765084,0.0286725434360569,-0.00902808796412637
0.203333333333333,0.0376404971381423,0.39194085014277,0.345063925671982,-3.02560247920134,0.0291076181393209,-0.00847708923057411
0.206666666666667,0.0379561034232266,0.390046269328527,0.346730420073472,-3.02562786075184,0.0295426928425849,-0.00792609049702185
0.21,0.0382717097083109,0.388151688514284,0.348396914474963,-3.02565324230234,0.0299777675458489,-0.00737509176346959
0.213333333333333,0.0385873159933952,0.386257107700042,0.350063408876453,-3.02567862385284,0.0304128422491129,-0.00682409302991732
0.216666666666667,0.0389029222784796,0.384362526885799,0.351729903277943,-3.02570400540334,0.0308479169523769,-0.00627309429636506
0.22,0.0392246698024461,0.382430224596523,0.353413430176918,-3.02579340869385,0.0312824579910622,-0.00571208864987368
0.223333333333333,0.0395390382494062,0.380538114767776,0.354970336242039,-3.02617231132541,0.0316162392973934,-0.00490909706377988
0.226666666666667,0.0398482161861608,0.378673100411988,0.356494159019608,-3.02649872070736,0.0319597749876126,-0.00410753965769381
0.23,0.0401485215469122,0.376854372978952,0.357961541870426,-3.02673444391947,0.0323203370274082,-0.00330904254735187
0.233333333333333,0.0404488269076636,0.375035645545916,0.359428924721243,-3.02697016713157,0.0326808990672038,-0.00251054543700994
0.236666666666667,0.0407488713584118,0.37321761953077,0.360895115155901,-3.02720581346109,0.0330430741183722,-0.00171281107111344
0.24,0.0411114124001202,0.370977589877972,0.362678468034052,-3.02763649149339,0.033595007057558,-0.000969908870945806
0.243333333333333,0.0419290716685127,0.365892196638083,0.366828482176803,-3.02912773402978,0.0350332049289555,-2.96458710843134e-05
0.246666666666667,0.0421127477637455,0.364406404300614,0.367868417936013,-3.0289723157524,0.03608370081918,0.000959271526924153
0.25,0.0422964238589782,0.362920611963145,0.368908353695222,-3.02881689747502,0.0371341967094045,0.00194818892493262
0.253333333333333,0.0424733440856853,0.361425185562776,0.369816698787491,-3.02903566098342,0.0381593781488237,0.00302087203896777
0.256666666666667,0.0426502643123924,0.359929759162408,0.37072504387976,-3.02925442449181,0.0391845595882429,0.00409355515300291
0.26,0.0428271845390994,0.358434332762039,0.371633388972029,-3.0294731880002,0.0402097410276621,0.00516623826703806
0.263333333333333,0.0429925947738311,0.35695163157735,0.372552596137928,-3.02949429686992,0.0413897200290434,0.00627625955733407
0.266666666666667,0.0431563658196065,0.355470742647009,0.373473350219861,-3.02948725686676,0.0425917444371089,0.00739159834275139
0.27,0.0433201368653818,0.353989853716669,0.374394104301793,-3.02948021686361,0.0437937688451745,0.0085069371281687
0.273333333333333,0.043483518855492,0.352505210229762,0.375318801626564,-3.02942935752322,0.0450167736615138,0.00962457412388647
0.276666666666667,0.0436451486351278,0.351003657148854,0.376261258341626,-3.0291811467277,0.0463342690467282,0.010752561690282
0.28,0.0438104704063645,0.34953123515662,0.377152710397437,-3.02890149367993,0.0475415189741325,0.0119388474472344
0.283333333333333,0.043983805486258,0.348136056038773,0.377906221621002,-3.02864150190474,0.048472339346501,0.01319018585259
0.286666666666667,0.0441634412264516,0.346717890872394,0.378595876905,-3.02859137202368,0.049365756019473,0.0143316549872856
0.29,0.0443425244248951,0.345161027746277,0.379388347114593,-3.0283374077983,0.050611033770123,0.0155433673107637
0.293333333333333,0.0445216076233386,0.34360416462016,0.380180817324185,-3.02808344357291,0.051856311520773,0.0167550796342419
0.296666666666667,0.0447006908217822,0.342047301494042,0.380973287533778,-3.02782947934753,0.053101589271423,0.0179667919577201
0.3,0.0448797740202257,0.340490438367925,0.381765757743371,-3.02757551512215,0.0543468670220729,0.0191785042811983
0.303333333333333,0.0450588572186692,0.338933575241808,0.382558227952963,-3.02732155089677,0.0555921447727229,0.0203902166046764
0.306666666666667,0.0452405353541885,0.337324732910836,0.383376204916193,-3.02699229261,0.0569225401917697,0.0217278355747942
0.31,0.0454273638642861,0.335612723386418,0.384244807128384,-3.02651359231047,0.0584218753047926,0.0233153513143311
0.313333333333333,0.0456140504610082,0.333911219277901,0.385048819760488,-3.02624917715398,0.0598957685577591,0.0248001859612552
0.316666666666667,0.0457999521528434,0.33224187027081,0.385656268052272,-3.02662300617512,0.0612938036022449,0.0259902982102832
0.32,0.0459820738812142,0.330582809108268,0.386212224671401,-3.02702343233062,0.0626878486178346,0.0272830778451244
0.323333333333333,0.0461811960113643,0.328954115388985,0.386616091503826,-3.02769535260975,0.0637850553222136,0.0283069194450889
0.326666666666667,0.0463835080375556,0.327331119710743,0.386991420739621,-3.02841821509845,0.0648265643221435,0.0292802984510556
0.33,0.0465858200637468,0.3257081240325,0.387366749975416,-3.02914107758715,0.0658680733220734,0.0302536774570222
0.333333333333333,0.0467872561809323,0.324097624968855,0.387722336253606,-3.02987231549268,0.0668842376204636,0.0312389231599595
0.336666666666667,0.0469817414979465,0.322516712363915,0.387975141279673,-3.0306908364729,0.0678821445875591,0.0322909554890517
0.34,0.047172850143761,0.320941370634372,0.388184832716073,-3.03155439296238,0.0688943151675072,0.033371968633692
0.343333333333333,0.0473639587895755,0.319366028904829,0.388394524152472,-3.03241794945186,0.0699064857474554,0.0344529817783322
0.346666666666667,0.0475470424473972,0.317819766205172,0.388666690230659,-3.03308029136756,0.0709697895894809,0.0355387531939237
0.35,0.0476982701744974,0.316514203437789,0.388815718278726,-3.03369773198406,0.0718472459678556,0.0365352118026348
0.353333333333333,0.0478449637512753,0.315248878515617,0.388929507557913,-3.03434475790698,0.0726796937747069,0.037513794449374
0.356666666666667,0.0479916573280531,0.313983553593444,0.3890432968371,-3.03499178382989,0.0735121415815583,0.0384923770961131
0.36,0.0481324494751383,0.312745642613412,0.389134697975005,-3.03569780953578,0.0743516841092443,0.0393936320705133
0.363333333333333,0.0482599557176582,0.311569448715173,0.389175696630129,-3.03653666161204,0.0752071990010584,0.0401207990478586
0.366666666666667,0.0483779605336072,0.310383700290402,0.389121961414234,-3.0375871741262,0.0761281724744363,0.0409690907854839
0.37,0.0484948970156098,0.309196877561161,0.389057574386264,-3.03866148559614,0.0770565060662388,0.0418310017088374
0.373333333333333,0.0486118334976125,0.30801005483192,0.388993187358294,-3.03973579706609,0.0779848396580414,0.0426929126321908
0.376666666666667,0.048723525284662,0.306833513560757,0.388996724722845,-3.04050467264989,0.0789645663703644,0.0435810037707432
0.38,0.0488300601437431,0.305667081693325,0.389067049803871,-3.04097322364323,0.0799948261685899,0.0444948370134956
0.383333333333333,0.0489422529054988,0.304583753022836,0.388957864782716,-3.04168875124504,0.0806950220233005,0.0453792036703266
0.386666666666667,0.0490520569757902,0.303521967960306,0.388782526252879,-3.04256530982753,0.0813240439219774,0.0463027954069992
0.39,0.0491618610460816,0.302460182897776,0.388607187723043,-3.04344186841001,0.0819530658206542,0.0472263871436717
0.393333333333333,0.049274917906306,0.301393097952133,0.388408557604666,-3.04434617738713,0.0825425545204492,0.0481617794887311
0.396666666666667,0.0493961086193599,0.300312760238821,0.388151685067546,-3.04531987837251,0.0830331873985606,0.0491266801678348
0.4,0.0495172993324139,0.29923242252551,0.387894812530426,-3.04629357935788,0.083523820276672,0.0500915808469385
0.403333333333333,0.0496296644883351,0.298079026851854,0.387448096770992,-3.04728912630413,0.0841593376192404,0.0510811400487833
0.406666666666667,0.0497398164326734,0.296907310213115,0.386953773454067,-3.04829015162789,0.0848311880759818,0.0520768829427545
0.41,0.0498142097488073,0.295734105206343,0.386368765307693,-3.04930831680795,0.0857696787078382,0.0531785477146752
0.413333333333333,0.0498777145343818,0.294556556850527,0.385764063128255,-3.05030826010026,0.0867963368210584,0.0543130179241682
0.416666666666667,0.0499412193199562,0.293379008494711,0.385159360948817,-3.05130820339257,0.0878229949342787,0.0554474881336611
0.42,0.0500047241055306,0.292201460138895,0.384554658769379,-3.05230814668488,0.088849653047499,0.0565819583431541
0.423333333333333,0.050068228891105,0.291023911783079,0.383949956589942,-3.05330808997719,0.0898763111607192,0.0577164285526471
0.426666666666667,0.0501317336766794,0.289846363427263,0.383345254410504,-3.0543080332695,0.0909029692739395,0.0588508987621401
0.43,0.0501986601741517,0.288696502817126,0.382615162949876,-3.05564170884615,0.0917632663958087,0.0599570053080334
0.433333333333333,0.0502699491627961,0.287576089911004,0.381722333499868,-3.05742512303039,0.0923849145299824,0.0609747588740056
0.436666666666667,0.0503353241446199,0.286493713082615,0.38073607956312,-3.05951222855426,0.0929587644588115,0.0617971150293463
0.44,0.0503793083606531,0.285478735446544,0.379808430697588,-3.06128945855217,0.0936113082002429,0.0626763906746968
0.443333333333333,0.0503977478533863,0.284581455237513,0.379005802146858,-3.0625622023886,0.0943442108949171,0.063650902155042
0.446666666666667,0.0504161873461195,0.283684175028482,0.378203173596127,-3.06383494622503,0.0950771135895912,0.0646254136353871
0.45,0.0504346268388527,0.282786894819452,0.377400545045397,-3.06510769006146,0.0958100162842654,0.0655999251157323
0.453333333333333,0.0504530663315859,0.281889614610421,0.376597916494667,-3.06638043389789,0.0965429189789395,0.0665744365960774
0.456666666666667,0.0504843507245698,0.280900912756465,0.375631939694494,-3.06808390210547,0.0972439134873687,0.0674489890397138
0.46,0.050522881127319,0.279860638518222,0.374573815583911,-3.0700303486888,0.0979269080873044,0.0682671530224068
0.463333333333333,0.050555499959906,0.278870519188363,0.373516510190183,-3.07191691298106,0.0985944739821978,0.0690038839896522
0.466666666666667,0.0505808592958463,0.277941990836745,0.372460210193008,-3.07372994092356,0.0992430931963544,0.0696406139949953
0.47,0.0506062186317866,0.277013462485127,0.371403910195833,-3.07554296886606,0.0998917124105109,0.0702773440003383
0.473333333333333,0.0506429702431775,0.276082340164609,0.370312105734203,-3.07714750754841,0.100088512336052,0.071039245453298
0.476666666666667,0.0506945771983855,0.27500217108745,0.368819922723925,-3.07888883083283,0.10010688346276,0.0717710454524641
0.48,0.0507654000348029,0.273707659585921,0.366651929963025,-3.08109539302528,0.0998324740298782,0.072401112701611
0.483333333333333,0.0508260730800962,0.272500106254012,0.364534360257319,-3.08329296071081,0.0994662784223603,0.0729761681492408
0.486666666666667,0.0508165532359709,0.271942620581484,0.363456407890074,-3.08420031302884,0.0993131972354318,0.0734446163730995
0.49,0.0508051917064893,0.271405362939032,0.362391881743637,-3.08506906183331,0.0991431787456651,0.0738947515416454
0.493333333333333,0.0507938301770077,0.270868105296581,0.361327355597199,-3.08593781063778,0.0989731602558984,0.0743448867101914
0.496666666666667,0.0507824686475261,0.27033084765413,0.360262829450762,-3.08680655944224,0.0988031417661317,0.0747950218787374
0.5,0.050766930803049,0.269812230305079,0.359196685214735,-3.08766152260268,0.0986346950310174,0.0752485302511036
0.503333333333333,0.050734751641538,0.269289782274245,0.358021977171584,-3.08898575333321,0.0983336958522781,0.0757577511955474
0.506666666666667,0.0507025724800271,0.268767334243411,0.356847269128433,-3.09030998406375,0.0980326966735389,0.0762669721399913
0.51,0.0506703933185162,0.268244886212577,0.355672561085282,-3.09163421479429,0.0977316974947996,0.0767761930844352
0.513333333333333,0.0506382141570052,0.267722438181743,0.354497853042132,-3.09295844552483,0.0974306983160603,0.077285414028879
0.516666666666667,0.0506060349954943,0.267199990150909,0.353323144998981,-3.09428267625537,0.097129699137321,0.0777946349733229
0.52,0.0505735762212376,0.266682405041268,0.352166886242184,-3.09564633798596,0.0968218939802475,0.0782986576178528
0.523333333333333,0.0505256034830434,0.266177532053679,0.351033257391572,-3.09693774030377,0.0965142853141053,0.0788584660917837
0.526666666666667,0.0504638167341364,0.265672182103565,0.349837849994806,-3.09815523341199,0.0962763657554759,0.0794895390332208
0.53,0.0503971684375523,0.26516804365675,0.348605406403321,-3.09937272652021,0.0960637946089293,0.0801496339120148
0.533333333333333,0.0503353521265338,0.26467834591634,0.347380535494698,-3.10059375742275,0.0958336370524043,0.0807823150667715
0.536666666666667,0.0502884305127409,0.264233161957419,0.346179007540411,-3.10182569365075,0.095549269016904,0.0813304928400894
0.54,0.0502415088989481,0.263787977998499,0.344977479586124,-3.10305762987875,0.0952649009814036,0.0818786706134074
0.543333333333333,0.0501945872851552,0.263342794039578,0.343775951631837,-3.10428956610675,0.0949805329459033,0.0824268483867252
0.546666666666667,0.0501412956385178,0.262912021089199,0.342553752769716,-3.10544905666989,0.0947034814541005,0.0829949578129287
0.55,0.0500772931687736,0.262505479373892,0.341296797032289,-3.10648673425025,0.0944387322858824,0.0835965811021675
0.553333333333333,0.0500132906990294,0.262098937658584,0.340039841294862,-3.10752441183061,0.0941739831176642,0.0841982043914063
0.556666666666667,0.0499492882292852,0.261692395943277,0.338782885557435,-3.10856208941097,0.093909233949446,0.0847998276806451
0.56,0.049885285759541,0.26128585422797,0.337525929820008,-3.10959976699133,0.0936444847812279,0.0854014509698839
0.563333333333333,0.0498016708523523,0.260881777061022,0.336231515037592,-3.11065983389678,0.0932295756434193,0.0861212993749841
0.566666666666667,0.0497178714538592,0.260533491091476,0.33497520377282,-3.11160719514652,0.0926267854946543,0.0868502251482327
0.57,0.0496100057866773,0.260244775446159,0.333871953479127,-3.11199213243368,0.0920875736997254,0.0876727734828167
0.573333333333333,0.0495014612034112,0.259950945527527,0.332793763170879,-3.11236625454393,0.0915400221257513,0.0885203851722389
0.576666666666667,0.0493938294636223,0.259634614946336,0.331723740860509,-3.11270592498508,0.090981710042741,0.0893958642279594
0.58,0.0492861977238333,0.259318284365144,0.330653718550139,-3.11304559542623,0.0904233979597306,0.0902713432836798
0.583333333333333,0.0491785659840443,0.259001953783953,0.329583696239769,-3.11338526586738,0.0898650858767202,0.0911468223394002
0.586666666666667,0.0490709342442554,0.258685623202761,0.3285136739294,-3.11372493630853,0.0893067737937098,0.0920223013951206
0.59,0.0489571335284903,0.258386146027843,0.327457664226118,-3.11394418976275,0.0887600307258768,0.0929167741875013
0.593333333333333,0.0488272869317833,0.258130505585563,0.326438102164374,-3.11385023132525,0.0882433793687054,0.0938606508417671
0.596666666666667,0.0487016256644293,0.257885986266727,0.325421881953992,-3.11374777888192,0.0878449926543025,0.094736073359035
0.6,0.0485749006185153,0.257653904964787,0.324403190157968,-3.11363934586367,0.0875116145536457,0.0955687350230227
0.603333333333333,0.0484250418871363,0.257426599368266,0.32335898683826,-3.11354253813777,0.0869371256058745,0.0965186829383257
0.606666666666667,0.0482751831557573,0.257199293771745,0.322314783518553,-3.11344573041188,0.0863626366581032,0.0974686308536288
0.61,0.0480802335465778,0.256944496805025,0.321267461722709,-3.11318844333916,0.0857986786500461,0.0986430948094277
0.613333333333333,0.0478679346420075,0.256679122179908,0.320218940053048,-3.11286940977297,0.0852387725565392,0.0999039442005204
0.616666666666667,0.0476556357374371,0.25641374755479,0.319170418383387,-3.11255037620677,0.0846788664630322,0.101164793591613
0.62,0.0474373686925659,0.256141751978419,0.318134582372276,-3.11211014829327,0.0841452895444479,0.102469502071424
0.623333333333333,0.0472058800709292,0.255840558386288,0.317096385775866,-3.11154790906494,0.0836106745316636,0.103852034303597
0.626666666666667,0.0469714900431911,0.255539859066356,0.316086787944485,-3.11092890931051,0.0831673893241195,0.105227041728277
0.63,0.0467341602753924,0.255239660549049,0.315106166730751,-3.11025239909854,0.0828166405895165,0.106594424926197
0.633333333333333,0.0464968305075937,0.254939462031741,0.314125545517016,-3.10957588888657,0.0824658918549136,0.107961808124118
0.636666666666667,0.0462561731450876,0.254637896655342,0.313144297750759,-3.10891835101393,0.0821117156422661,0.109341024939983
0.64,0.0459845324696559,0.254323604421654,0.312157216139173,-3.10843746504094,0.0817256261005825,0.110830424852072
0.643333333333333,0.045740004456456,0.254042575046997,0.31127309535881,-3.10808482404862,0.0816161005131597,0.112095956583853
0.646666666666667,0.0455079316628256,0.253776826215769,0.310436273502802,-3.1077910972042,0.0816336249640516,0.113258646059991
0.65,0.0452758588691952,0.253511077384542,0.309599451646794,-3.10749737035977,0.0816511494149436,0.11442133553613
0.653333333333333,0.0450432731261948,0.253236119373188,0.308760110124594,-3.10723610187293,0.0816545747371567,0.115598572988298
0.656666666666667,0.0448081851257112,0.252916237357189,0.307908477226382,-3.10713317097825,0.0815892220233702,0.116846778032997
0.66,0.044574842369416,0.252586238020961,0.307055940604905,-3.10716509053911,0.0815017975204734,0.118080668845213
0.663333333333333,0.0443420986213897,0.252252766185863,0.30620309380465,-3.10724329390282,0.0814067974678216,0.119309646680966
0.666666666666667,0.0440342946856846,0.2518088749888,0.305085798741849,-3.10732149726652,0.0812616743578896,0.120935542744475
0.67,0.0435856660955757,0.251153114146825,0.303491790912402,-3.10726330041875,0.0811690026828422,0.123253779398001
0.673333333333333,0.0431461886643801,0.250511626074891,0.301959841252126,-3.10711566151598,0.0811772016340765,0.125485729121199
0.676666666666667,0.0428748720205507,0.250152685232669,0.301174462884913,-3.10696802261322,0.0812859720043413,0.126796180148903
0.68,0.0426054836518288,0.249794923770925,0.300393983302369,-3.10682344382741,0.0813966365944114,0.128098602591772
0.683333333333333,0.0423598274937812,0.249390776704724,0.299678390877149,-3.1070225529973,0.0814785180663871,0.129291838549176
0.686666666666667,0.0421141713357336,0.248986629638523,0.29896279845193,-3.10722166216718,0.0815603995383628,0.13048507450658
0.69,0.0418666127762137,0.248590312783653,0.298311521891855,-3.10742760440618,0.0816464126721325,0.131673472950035
0.693333333333333,0.041618406535045,0.248196661761553,0.29768214197462,-3.10763587299613,0.081733832449853,0.13286022443881
0.696666666666667,0.041400553922874,0.247821799035393,0.297046390886148,-3.10801176022938,0.0817697692083333,0.133884997854255
0.7,0.0411978164544994,0.247456292284259,0.296407467156627,-3.10847111622665,0.0817800690573372,0.134829111330472
0.703333333333333,0.0409950789861248,0.247090785533125,0.295768543427106,-3.10893047222393,0.0817903689063412,0.135773224806689
0.706666666666667,0.0407923415177502,0.246725278781991,0.295129619697584,-3.1093898282212,0.0818006687553452,0.136717338282907
0.71,0.0405896040493756,0.246359772030857,0.294490695968063,-3.10984918421848,0.0818109686043492,0.137661451759124
0.713333333333333,0.040386866581001,0.245994265279723,0.293851772238541,-3.11030854021575,0.0818212684533531,0.138605565235342
0.716666666666667,0.0401625726106756,0.245673711426529,0.293249286472951,-3.11076789621302,0.0816959800248753,0.139706158019258
0.72,0.0399265256932649,0.245349779954679,0.292641096753132,-3.1112272522103,0.0815510326655054,0.140877550311165
0.723333333333333,0.0397054516476396,0.245026702757364,0.292061002368226,-3.11170163051831,0.0814051980801384,0.141968175807898
0.726666666666667,0.0394923999382999,0.244704083273017,0.291495961222803,-3.11218405765158,0.0812588881266915,0.143015527148486
0.73,0.0392696102739423,0.244335857036335,0.29096143516891,-3.11240876670528,0.0811339969910166,0.144177759154956
0.733333333333333,0.0390446979527674,0.243957689545704,0.290433560723793,-3.11257729897058,0.081013774679492,0.145365032582151
0.736666666666667,0.0388197856315925,0.243579522055074,0.289905686278676,-3.11274583123588,0.0808935523679673,0.146552306009347
0.74,0.0385969995735667,0.243208988555421,0.289369253356738,-3.11293397603706,0.0807327500424453,0.147694436658174
0.743333333333333,0.0383893236592526,0.242892705490769,0.288772000204351,-3.11326149598367,0.080283568621603,0.148515763238601
0.746666666666667,0.0381816477449385,0.242576422426118,0.288174747051964,-3.11358901593029,0.0798343872007608,0.149337089819028
0.75,0.0379739718306245,0.242260139361466,0.287577493899577,-3.11391653587691,0.0793852057799186,0.150158416399455
0.753333333333333,0.0377662959163104,0.241943856296814,0.28698024074719,-3.11424405582353,0.0789360243590764,0.150979742979882
0.756666666666667,0.0375586200019963,0.241627573232162,0.286382987594803,-3.11457157577015,0.0784868429382341,0.151801069560309
0.76,0.0373504810867795,0.241312477409871,0.285789041094499,-3.1148907684876,0.0780397422307947,0.152603533021292
0.763333333333333,0.0371749889038561,0.241042619458906,0.285291296887041,-3.11514386017046,0.0775668276846088,0.153079711385651
0.766666666666667,0.0370038835754049,0.240798710877636,0.284806961292898,-3.11539695185332,0.0770565721416866,0.153570763339392
0.77,0.0368327457060296,0.240555233505281,0.284322669289932,-3.11565004353618,0.0765456640248384,0.154062748985462
0.773333333333333,0.0366727833945396,0.240333472386209,0.283877473740956,-3.11590313521905,0.0760485599765249,0.154497737001245
0.776666666666667,0.0365167036982284,0.240119255933408,0.283445861092025,-3.11615622690191,0.0755562517412324,0.154912922885735
0.78,0.0363606240019172,0.239905039480606,0.283014248443094,-3.11640931858477,0.0750639435059399,0.155328108770225
0.783333333333333,0.0362047433883401,0.239725819726156,0.282644399537332,-3.11652314056062,0.0747767735420806,0.155622161412023
0.786666666666667,0.0360489784335873,0.239566931604208,0.282310432808668,-3.11655605260397,0.0746087804189884,0.155845840656039
0.79,0.0358932134788345,0.23940804348226,0.281976466080003,-3.11658896464731,0.0744407872958961,0.156069519900055
0.793333333333333,0.0357374485240817,0.239249155360311,0.281642499351339,-3.11662187669066,0.0742727941728039,0.156293199144071
0.796666666666667,0.0355816835693289,0.239090267238363,0.281308532622674,-3.116654788734,0.0741048010497116,0.156516878388087
0.8,0.0354259186145761,0.238931379116415,0.28097456589401,-3.11668770077735,0.0739368079266193,0.156740557632104
0.803333333333333,0.035271095725379,0.238772655360368,0.280638893221903,-3.11671992631861,0.0737487346824256,0.157062835474856
0.806666666666667,0.035116872534051,0.23861403623598,0.280302134584344,-3.11675171484799,0.0735478788821081,0.157447878981006
0.81,0.0349640639206523,0.238463351288469,0.279965520494506,-3.11675944336675,0.0733376383256805,0.157819016891092
0.813333333333333,0.0348277939372308,0.238355141419131,0.279629876128027,-3.11669210472805,0.073100784385403,0.15807717855278
0.816666666666667,0.0346915239538093,0.238246931549794,0.279294231761548,-3.11662476608935,0.0728639304451256,0.158335340214468
0.82,0.0345616372535236,0.238155269134609,0.278958202488408,-3.11655742745065,0.0725593515653223,0.158485210777513
0.823333333333333,0.0344369332643431,0.23807704191767,0.278621860702101,-3.11649008881195,0.0721997854965286,0.158547157701957
0.826666666666667,0.0343117551490396,0.237999133829804,0.278290848031479,-3.11641156762061,0.0718569921096853,0.158625055296881
0.83,0.0341821848406841,0.237924182078722,0.278009203037002,-3.11622945388791,0.0716695769093006,0.158850716157056
0.833333333333333,0.0340526145323286,0.23784923032764,0.277727558042525,-3.11604734015521,0.0714821617089158,0.159076377017231
0.836666666666667,0.0339230442239731,0.237774278576558,0.277445913048049,-3.11586522642252,0.071294746508531,0.159302037877406
0.84,0.0337934739156175,0.237699326825476,0.277164268053572,-3.11568311268982,0.0711073313081463,0.159527698737581
0.843333333333333,0.033663903607262,0.237624375074394,0.276882623059095,-3.11550099895712,0.0709199161077615,0.159753359597755
0.846666666666667,0.0335343332989065,0.237549423323312,0.276600978064619,-3.11531888522442,0.0707325009073768,0.15997902045793
0.85,0.033404762990551,0.23747447157223,0.276319333070142,-3.11513677149172,0.070545085706992,0.160204681318105
0.853333333333333,0.0332751926821955,0.237399519821148,0.276037688075665,-3.11495465775903,0.0703576705066072,0.16043034217828
0.856666666666667,0.0331456223738399,0.237324568070066,0.275756043081189,-3.11477254402633,0.0701702553062224,0.160656003038455
0.86,0.0330246016351664,0.237260181481809,0.275469251535942,-3.11459061460837,0.0699014433904754,0.160849974112817
0.863333333333333,0.0329210741308304,0.237236234942704,0.275169818794171,-3.11440901517436,0.0694757292220752,0.160933672239765
0.866666666666667,0.0328200230328203,0.237236665137038,0.274866504812452,-3.11422741574035,0.0690373590625844,0.160956739426424
0.87,0.0327466165024995,0.23722501488375,0.274565951182058,-3.11420467674409,0.0685583178912268,0.161002588071709
0.873333333333333,0.0326924466731401,0.237204958351116,0.274267318364954,-3.11429248209672,0.0680509754600382,0.161064289383308
0.876666666666667,0.0326382768437808,0.237184901818481,0.27396868554785,-3.11438028744935,0.0675436330288496,0.161125990694908
0.88,0.0325841070144215,0.237164845285846,0.273670052730746,-3.11446809280198,0.067036290597661,0.161187692006508
0.883333333333333,0.0325299371850621,0.237144788753212,0.273371419913642,-3.11455589815461,0.0665289481664724,0.161249393318108
0.886666666666667,0.0324757673557028,0.237124732220577,0.273072787096538,-3.11464370350724,0.0660216057352838,0.161311094629708
0.89,0.0324215975263434,0.237104675687942,0.272774154279433,-3.11473150885987,0.0655142633040952,0.161372795941308
0.893333333333333,0.0323674276969841,0.237084619155308,0.272475521462329,-3.1148193142125,0.0650069208729066,0.161434497252908
0.896666666666667,0.0323132578676248,0.237064562622673,0.272176888645225,-3.11490711956513,0.064499578441718,0.161496198564508
0.9,0.0322590880382654,0.237044506090038,0.271878255828121,-3.11499492491776,0.0639922360105294,0.161557899876108
0.903333333333333,0.0322049182089061,0.237024449557404,0.271579623011017,-3.11508273027039,0.0634848935793408,0.161619601187708
0.906666666666667,0.0321645006552194,0.237002007727049,0.271297139971263,-3.11522889699981,0.063006655792757,0.161601218138613
0.91,0.0321389346267745,0.23699786340113,0.271006002449509,-3.11544310944091,0.0625268362888207,0.161504988110163
0.913333333333333,0.0321203124858813,0.237005098207873,0.270703053600844,-3.11554496342688,0.0621091053623836,0.161403273465254
0.916666666666667,0.0321100894876441,0.237001135805793,0.270377191242175,-3.11577051526388,0.0616670138044387,0.161288152907243
0.92,0.0320998664894069,0.236997173403713,0.270051328883506,-3.11599606710089,0.0612249222464938,0.161173032349232
0.923333333333333,0.0320896434911696,0.236993211001633,0.269725466524837,-3.1162216189379,0.0607828306885489,0.161057911791221
0.926666666666667,0.0320794204929324,0.236989248599554,0.269399604166168,-3.1164471707749,0.060340739130604,0.16094279123321
0.93,0.0320691974946952,0.236985286197474,0.269073741807499,-3.11667272261191,0.059898647572659,0.160827670675199
0.933333333333333,0.032058974496458,0.236981323795394,0.268747879448831,-3.11689827444892,0.0594565560147141,0.160712550117188
0.936666666666667,0.0320487514982208,0.236977361393314,0.268422017090162,-3.11712382628592,0.0590144644567692,0.160597429559177
0.94,0.0320354366711308,0.236988835964925,0.268065638451476,-3.11748766739938,0.0585347397492476,0.1604648248019
0.943333333333333,0.0320210847827906,0.237005488406334,0.267699024041985,-3.11789789350269,0.0580423921304939,0.160326355494411
0.946666666666667,0.0320067328944504,0.237022140847743,0.267332409632493,-3.118308119606,0.0575500445117403,0.160187886186922
0.95,0.0319923810061102,0.237038793289152,0.266965795223001,-3.11871834570931,0.0570576968929866,0.160049416879433
0.953333333333333,0.031984432687202,0.237050389102308,0.266592614842871,-3.11916135134425,0.0565731907078104,0.159913904547484
0.956666666666667,0.0319854219188663,0.237031706174822,0.266193912710806,-3.1198152759295,0.0562784200402829,0.159815496665383
0.96,0.0319808102878473,0.237009300818903,0.265796832600285,-3.12049415725374,0.0560424615174106,0.159725489201282
0.963333333333333,0.0319804186868725,0.236969315032665,0.265353417712469,-3.12132561538565,0.0557892302793231,0.159662644827867
0.966666666666667,0.0319837930420273,0.236913640464919,0.264868653654921,-3.12229323310838,0.0555205848647819,0.159624040805064
0.97,0.0319871654876849,0.236857970432369,0.264383881159382,-3.1232607307614,0.0552519413918386,0.159585422525989
0.973333333333333,0.0319848822853495,0.23681573297692,0.263874116586117,-3.12387259969865,0.0549890486445973,0.159504579282361
0.976666666666667,0.0319825990830142,0.236773495521472,0.263364352012853,-3.12448446863589,0.0547261558973559,0.159423736038732
0.98,0.0319803158806788,0.236731258066023,0.262854587439588,-3.12509633757313,0.0544632631501146,0.159342892795104
0.983333333333333,0.0319780326783434,0.236689020610575,0.262344822866323,-3.12570820651038,0.0542003704028733,0.159262049551476
0.986666666666667,0.0319757494760081,0.236646783155127,0.261835058293059,-3.12632007544762,0.053937477655632,0.159181206307847
0.99,0.0319734662736727,0.236604545699678,0.261325293719794,-3.12693194438487,0.0536745849083907,0.159100363064219
0.993333333333333,0.0319711830713374,0.23656230824423,0.260815529146529,-3.12754381332211,0.0534116921611493,0.15901951982059
0.996666666666667,0.031968899869002,0.236520070788782,0.260305764573265,-3.12815568225935,0.053148799413908,0.158938676576962
1,0.0319666166666667,0.236477833333333,0.259796,-3.1287675511966,0.0528859066666667,0.158857833333333
