Time,J0,J1,J2,J3,J4,J5,J6
0.29126,-2.09962,-1.57086,-1.82036,1.57076,-8.37485e-05,3.16202e-322,-0.785384
0.29921,-2.09963,-1.57086,-1.82036,1.57078,-8.37485e-05,3.16202e-322,-0.785384
0.307255,-2.0996,-1.57089,-1.8203,1.57075,-8.37485e-05,3.16202e-322,-0.785431
0.315253,-2.09965,-1.57091,-1.82034,1.57072,-0.00010759,3.16202e-322,-0.785407
0.32328,-2.09959,-1.57088,-1.82032,1.57076,-8.37485e-05,3.16202e-322,-0.785431
0.331293,-2.0996,-1.57086,-1.82028,1.57077,-0.000119511,3.16202e-322,-0.785407
0.339325,-2.09959,-1.57088,-1.82032,1.57078,-9.56694e-05,3.16202e-322,-0.785372
0.347279,-2.09962,-1.57091,-1.82032,1.57078,-0.00010759,3.16202e-322,-0.785431
0.355262,-2.0996,-1.57089,-1.8203,1.57074,-0.000119511,3.16202e-322,-0.785419
0.363263,-2.0996,-1.57085,-1.82033,1.57072,-0.00010759,3.16202e-322,-0.785407
0.371278,-2.09962,-1.57089,-1.82029,1.57075,-7.18276e-05,3.16202e-322,-0.785395
0.379276,-2.09962,-1.57088,-1.82032,1.57076,-0.000131432,3.16202e-322,-0.785443
0.38725,-2.09961,-1.57089,-1.82033,1.57075,-9.56694e-05,3.16202e-322,-0.785443
0.395296,-2.09961,-1.57089,-1.82032,1.57072,-9.56694e-05,3.16202e-322,-0.785407
0.403304,-2.09961,-1.57086,-1.8203,1.57075,-8.37485e-05,3.16202e-322,-0.785407
0.411181,-2.09962,-1.57089,-1.8203,1.57075,-9.56694e-05,3.16202e-322,-0.785419
0.419171,-2.0996,-1.57089,-1.82033,1.57076,-0.00010759,3.16202e-322,-0.785407
0.427209,-2.0996,-1.57088,-1.8203,1.57072,-9.56694e-05,3.16202e-322,-0.785407
0.435212,-2.0996,-1.57088,-1.82034,1.57074,-9.56694e-05,3.16202e-322,-0.785395
0.443196,-2.09965,-1.57082,-1.82033,1.57076,-9.56694e-05,3.16202e-322,-0.785419
0.451242,-2.09961,-1.57091,-1.82029,1.57076,-0.00010759,3.16202e-322,-0.785431
0.459224,-2.09961,-1.57086,-1.82029,1.57074,-0.00010759,3.16202e-322,-0.785395
0.467218,-2.0996,-1.57088,-1.82032,1.57077,-8.37485e-05,3.16202e-322,-0.785407
0.475248,-2.09961,-1.57091,-1.8203,1.57075,-0.00010759,3.16202e-322,-0.785443
0.483254,-2.09961,-1.57086,-1.82033,1.57075,-8.37485e-05,3.16202e-322,-0.785407
0.491288,-2.09961,-1.57088,-1.8203,1.57076,-9.56694e-05,3.16202e-322,-0.785395
0.499267,-2.0996,-1.57086,-1.8203,1.57075,-0.00010759,3.16202e-322,-0.785384
0.507216,-2.09962,-1.57087,-1.82029,1.57074,-9.56694e-05,3.16202e-322,-0.785419
0.51517,-2.09957,-1.57089,-1.82032,1.5708,-8.37485e-05,3.16202e-322,-0.785395
0.523179,-2.0996,-1.57083,-1.82027,1.57078,-9.56694e-05,3.16202e-322,-0.785431
0.531159,-2.09965,-1.57087,-1.82029,1.57074,-0.000119511,3.16202e-322,-0.785407
0.539164,-2.09962,-1.57087,-1.82028,1.57076,-9.56694e-05,3.16202e-322,-0.785395
0.547208,-2.09959,-1.57086,-1.8203,1.57074,-7.18276e-05,3.16202e-322,-0.785407
0.555209,-2.09957,-1.57088,-1.82029,1.57081,-9.56694e-05,3.16202e-322,-0.785407
0.563204,-2.09959,-1.57088,-1.82028,1.57078,-9.56694e-05,3.16202e-322,-0.785395
0.571207,-2.09959,-1.57087,-1.82029,1.57077,-7.18276e-05,3.16202e-322,-0.785443
0.579217,-2.09961,-1.57087,-1.82032,1.57077,-8.37485e-05,3.16202e-322,-0.785419
0.587233,-2.0996,-1.57086,-1.82029,1.57075,-9.56694e-05,3.16202e-322,-0.785407
0.595237,-2.0996,-1.57091,-1.82032,1.57077,-9.56694e-05,3.16202e-322,-0.785407
0.603257,-2.09963,-1.57086,-1.8203,1.57074,-0.000119511,3.16202e-322,-0.785384
0.611168,-2.09961,-1.57087,-1.82033,1.57074,-9.56694e-05,3.16202e-322,-0.785395
0.619188,-2.09963,-1.57085,-1.82029,1.57074,-9.56694e-05,3.16202e-322,-0.785407
0.627168,-2.09961,-1.57087,-1.82029,1.57077,-9.56694e-05,3.16202e-322,-0.785395
0.635202,-2.09963,-1.57086,-1.82029,1.57075,-0.000131432,3.16202e-322,-0.785431
0.643187,-2.09962,-1.57089,-1.82033,1.57075,-5.99066e-05,3.16202e-322,-0.785407
0.651224,-2.09959,-1.57088,-1.82033,1.57076,-0.000119511,3.16202e-322,-0.785407
0.659273,-2.09961,-1.57089,-1.82029,1.57072,-0.00010759,3.16202e-322,-0.78536
0.667274,-2.0996,-1.57087,-1.82032,1.57077,-5.99066e-05,3.16202e-322,-0.785419
0.675306,-2.0996,-1.57088,-1.82029,1.57076,-0.00010759,3.16202e-322,-0.785419
0.683261,-2.09957,-1.57086,-1.82032,1.57076,-9.56694e-05,3.16202e-322,-0.785395
0.691261,-2.0996,-1.57089,-1.82032,1.57076,-0.00010759,3.16202e-322,-0.785384
0.699293,-2.09961,-1.57091,-1.82033,1.5708,-8.37485e-05,3.16202e-322,-0.785431
0.707153,-2.0996,-1.57089,-1.82033,1.57076,-9.56694e-05,3.16202e-322,-0.785395
0.715173,-2.09963,-1.57089,-1.82028,1.57074,-0.00010759,3.16202e-322,-0.785407
0.723199,-2.09961,-1.57088,-1.8203,1.57076,-9.56694e-05,3.16202e-322,-0.785407
0.731198,-2.09962,-1.57087,-1.8203,1.57075,-0.000119511,3.16202e-322,-0.785419
0.739235,-2.0996,-1.57087,-1.82029,1.57075,-0.00010759,3.16202e-322,-0.785395
0.74722,-2.0996,-1.57086,-1.82033,1.57077,-9.56694e-05,3.16202e-322,-0.785407
0.755223,-2.09961,-1.57091,-1.82032,1.57076,-9.56694e-05,3.16202e-322,-0.785372
0.763242,-2.09962,-1.57089,-1.82033,1.57077,-8.37485e-05,3.16202e-322,-0.785384
0.771235,-2.09959,-1.57089,-1.82029,1.57076,-9.56694e-05,3.16202e-322,-0.785407
0.779291,-2.09961,-1.57091,-1.8203,1.57074,-9.56694e-05,3.16202e-322,-0.785407
0.787325,-2.09963,-1.57091,-1.82028,1.57077,-7.18276e-05,3.16202e-322,-0.785431
0.79531,-2.09965,-1.57089,-1.8203,1.57078,-9.56694e-05,3.16202e-322,-0.785384
0.803295,-2.09957,-1.57087,-1.82029,1.57075,-9.56694e-05,3.16202e-322,-0.785419
0.81116,-2.09961,-1.57089,-1.82033,1.57076,-8.37485e-05,3.16202e-322,-0.785395
0.819152,-2.09962,-1.57091,-1.82033,1.57072,-8.37485e-05,3.16202e-322,-0.785407
0.827154,-2.09961,-1.57087,-1.82034,1.57078,-0.000119511,3.16202e-322,-0.785407
0.835188,-2.0996,-1.57089,-1.82033,1.57075,-0.00010759,3.16202e-322,-0.785443
0.843203,-2.09962,-1.57088,-1.8203,1.57077,-9.56694e-05,3.16202e-322,-0.785419
0.851272,-2.09961,-1.57088,-1.82034,1.57076,-0.000131432,3.16202e-322,-0.785384
0.859283,-2.09959,-1.57086,-1.8203,1.57074,-8.37485e-05,3.16202e-322,-0.785419
0.867352,-2.09962,-1.57085,-1.82032,1.57075,-9.56694e-05,3.16202e-322,-0.785395
0.875327,-2.0996,-1.57085,-1.82028,1.57078,-0.000119511,3.16202e-322,-0.785419
0.883293,-2.09961,-1.57085,-1.82036,1.57078,-7.18276e-05,3.16202e-322,-0.785431
0.891345,-2.09961,-1.57085,-1.82058,1.57076,-7.18276e-05,3.16202e-322,-0.785443
0.899304,-2.09966,-1.57085,-1.82082,1.5708,-9.56694e-05,3.16202e-322,-0.785479
0.907257,-2.09965,-1.57083,-1.82084,1.5708,-8.37485e-05,3.16202e-322,-0.785491
0.915237,-2.09963,-1.57081,-1.82089,1.57081,-9.56694e-05,3.16202e-322,-0.785503
0.923231,-2.09965,-1.57082,-1.82089,1.5708,-7.18276e-05,3.16202e-322,-0.785503
0.931242,-2.09965,-1.57081,-1.8209,1.57083,-9.56694e-05,3.16202e-322,-0.785527
0.939262,-2.09963,-1.57083,-1.82087,1.5708,-8.37485e-05,3.16202e-322,-0.785527
0.94728,-2.09962,-1.57083,-1.82089,1.57081,-9.56694e-05,3.16202e-322,-0.785527
0.955255,-2.09962,-1.57085,-1.82094,1.57082,-7.18276e-05,3.16202e-322,-0.785503
0.963287,-2.09966,-1.57082,-1.82091,1.57083,-8.37485e-05,3.16202e-322,-0.785467
0.971269,-2.09965,-1.57085,-1.82087,1.57081,-0.00010759,3.16202e-322,-0.785515
0.979289,-2.09963,-1.57083,-1.8209,1.5708,-8.37485e-05,3.16202e-322,-0.785515
0.987268,-2.09962,-1.57083,-1.82093,1.57077,-0.00010759,3.16202e-322,-0.785515
0.995253,-2.09965,-1.5708,-1.8209,1.5708,-7.18276e-05,3.16202e-322,-0.785539
1.00321,-2.0996,-1.57081,-1.8209,1.57082,-9.56694e-05,3.16202e-322,-0.785515
1.01115,-2.09961,-1.57083,-1.82088,1.57081,-5.99066e-05,3.16202e-322,-0.785527
1.01922,-2.09961,-1.57082,-1.82093,1.57083,-9.56694e-05,3.16202e-322,-0.785515
1.02727,-2.09966,-1.57081,-1.8209,1.57081,-9.56694e-05,3.16202e-322,-0.785515
1.03526,-2.09962,-1.57083,-1.8209,1.57077,-0.000119511,3.16202e-322,-0.785515
1.04329,-2.09962,-1.57083,-1.82093,1.57077,-7.18276e-05,3.16202e-322,-0.785539
1.05133,-2.09963,-1.5708,-1.8209,1.57078,-7.18276e-05,3.16202e-322,-0.785503
1.05931,-2.09963,-1.57085,-1.82091,1.57077,-7.18276e-05,3.16202e-322,-0.785515
1.06731,-2.09965,-1.57083,-1.82091,1.57083,-7.18276e-05,3.16202e-322,-0.785503
1.07533,-2.09966,-1.57082,-1.82091,1.57082,-8.37485e-05,3.16202e-322,-0.785539
1.08331,-2.09966,-1.5708,-1.82093,1.5708,-9.56694e-05,3.16202e-322,-0.785551
1.09127,-2.09965,-1.57081,-1.82089,1.5708,-0.00010759,3.16202e-322,-0.785551
1.09934,-2.09963,-1.57083,-1.82091,1.5708,-5.99066e-05,3.16202e-322,-0.785539
1.10723,-2.09962,-1.57083,-1.82093,1.57077,-8.37485e-05,3.16202e-322,-0.785527
1.11516,-2.09963,-1.57085,-1.8209,1.57082,-7.18276e-05,3.16202e-322,-0.785539
1.12321,-2.09965,-1.5708,-1.82093,1.57086,-8.37485e-05,3.16202e-322,-0.785491
1.13126,-2.09961,-1.57083,-1.8209,1.5708,-8.37485e-05,3.16202e-322,-0.785551
1.13922,-2.09961,-1.57081,-1.82091,1.57078,-5.99066e-05,3.16202e-322,-0.785527
1.14723,-2.09965,-1.57082,-1.8209,1.57082,-8.37485e-05,3.16202e-322,-0.785491
1.15531,-2.09965,-1.57082,-1.82091,1.57083,-9.56694e-05,3.16202e-322,-0.785551
1.16328,-2.09965,-1.57083,-1.8209,1.57081,-7.18276e-05,3.16202e-322,-0.785527
1.1713,-2.09965,-1.57081,-1.82093,1.57081,-9.56694e-05,3.16202e-322,-0.785527
1.17928,-2.09963,-1.57081,-1.8209,1.57082,-5.99066e-05,3.16202e-322,-0.785551
1.18727,-2.09965,-1.57085,-1.82091,1.57084,-7.18276e-05,3.16202e-322,-0.785539
1.19532,-2.09963,-1.57082,-1.82094,1.57082,-4.79857e-05,3.16202e-322,-0.785527
1.20318,-2.09962,-1.5708,-1.82089,1.57086,-9.56694e-05,3.16202e-322,-0.785539
1.21126,-2.09965,-1.57081,-1.8209,1.57081,-0.00010759,3.16202e-322,-0.785539
1.21927,-2.09963,-1.57083,-1.82089,1.5708,-8.37485e-05,3.16202e-322,-0.785527
1.22724,-2.09962,-1.57081,-1.82093,1.57084,-9.56694e-05,3.16202e-322,-0.785527
1.23528,-2.09962,-1.57081,-1.82091,1.5708,-9.56694e-05,3.16202e-322,-0.785539
1.24325,-2.09965,-1.57081,-1.8209,1.57081,-0.00010759,3.16202e-322,-0.785527
1.25127,-2.09963,-1.57083,-1.82094,1.5708,-8.37485e-05,3.16202e-322,-0.785515
1.25931,-2.09965,-1.57081,-1.82089,1.57081,-8.37485e-05,3.16202e-322,-0.785551
1.2673,-2.09963,-1.57082,-1.8209,1.57082,-9.56694e-05,3.16202e-322,-0.785539
1.27527,-2.09965,-1.57081,-1.8209,1.57082,-7.18276e-05,3.16202e-322,-0.785515
1.28327,-2.09963,-1.57083,-1.82088,1.57081,-5.99066e-05,3.16202e-322,-0.785527
1.29131,-2.09962,-1.57081,-1.8209,1.57083,-8.37485e-05,3.16202e-322,-0.785527
1.29932,-2.09963,-1.57083,-1.82087,1.57083,-0.00010759,3.16202e-322,-0.785551
1.30715,-2.09962,-1.57085,-1.82094,1.5708,-7.18276e-05,3.16202e-322,-0.785503
1.31515,-2.09963,-1.57082,-1.82094,1.57083,-8.37485e-05,3.16202e-322,-0.785551
1.32317,-2.09965,-1.57083,-1.82094,1.57081,-8.37485e-05,3.16202e-322,-0.785551
1.33119,-2.09962,-1.57081,-1.82089,1.57082,-7.18276e-05,3.16202e-322,-0.785539
1.33926,-2.09962,-1.57086,-1.8209,1.5708,-0.00010759,3.16202e-322,-0.785539
1.34731,-2.09963,-1.57079,-1.82093,1.57082,-8.37485e-05,3.16202e-322,-0.785527
1.35529,-2.09962,-1.57081,-1.82089,1.57082,-9.56694e-05,3.16202e-322,-0.785551
1.36333,-2.09965,-1.5708,-1.82089,1.57077,-9.56694e-05,3.16202e-322,-0.785539
1.37132,-2.09961,-1.57082,-1.82093,1.57081,-5.99066e-05,3.16202e-322,-0.785551
1.3793,-2.09963,-1.5708,-1.82093,1.5708,-5.99066e-05,3.16202e-322,-0.785563
1.38728,-2.09961,-1.57083,-1.82091,1.57083,-7.18276e-05,3.16202e-322,-0.785527
1.39526,-2.09961,-1.57081,-1.82087,1.57084,-8.37485e-05,3.16202e-322,-0.785563
1.40325,-2.09965,-1.57083,-1.82091,1.57083,-7.18276e-05,3.16202e-322,-0.785563
1.41115,-2.09962,-1.57079,-1.82088,1.57083,-8.37485e-05,3.16202e-322,-0.785503
1.41911,-2.0996,-1.57081,-1.8209,1.57082,-7.18276e-05,3.16202e-322,-0.785539
1.42719,-2.09962,-1.57083,-1.82091,1.57083,-9.56694e-05,3.16202e-322,-0.785539
1.43515,-2.09963,-1.57081,-1.82088,1.57081,-0.00010759,3.16202e-322,-0.785587
1.44318,-2.0996,-1.57082,-1.82091,1.57083,-7.18276e-05,3.16202e-322,-0.785539
1.45121,-2.09962,-1.57081,-1.82093,1.57081,-7.18276e-05,3.16202e-322,-0.785587
1.45921,-2.09965,-1.57082,-1.82093,1.57082,-5.99066e-05,3.16202e-322,-0.785575
1.46725,-2.09961,-1.57082,-1.8209,1.57082,-7.18276e-05,3.16202e-322,-0.785551
1.47525,-2.09966,-1.57086,-1.82094,1.57083,-4.79857e-05,3.16202e-322,-0.785587
1.4833,-2.0996,-1.57081,-1.8209,1.57086,-8.37485e-05,3.16202e-322,-0.785539
1.49125,-2.09963,-1.57079,-1.82089,1.57084,-7.18276e-05,3.16202e-322,-0.785551
1.49931,-2.0996,-1.57081,-1.82091,1.57084,-5.99066e-05,3.16202e-322,-0.785527
1.50725,-2.09965,-1.57083,-1.8209,1.57084,-8.37485e-05,3.16202e-322,-0.785611
1.51517,-2.09961,-1.57081,-1.8209,1.57087,-7.18276e-05,3.16202e-322,-0.785563
1.52321,-2.09962,-1.5708,-1.82091,1.57082,-7.18276e-05,3.16202e-322,-0.785539
1.53119,-2.0996,-1.5708,-1.82091,1.57082,-8.37485e-05,3.16202e-322,-0.785539
1.53923,-2.09962,-1.57079,-1.82093,1.57084,-8.37485e-05,3.16202e-322,-0.785563
1.54722,-2.09962,-1.57082,-1.82091,1.57084,-9.56694e-05,3.16202e-322,-0.785551
1.55528,-2.09965,-1.57079,-1.82094,1.57081,-9.56694e-05,3.16202e-322,-0.785575
1.56331,-2.09962,-1.57082,-1.82089,1.57084,-8.37485e-05,3.16202e-322,-0.785575
1.57124,-2.09963,-1.57081,-1.82089,1.57083,-8.37485e-05,3.16202e-322,-0.785611
1.5793,-2.09965,-1.5708,-1.82089,1.57084,-8.37485e-05,3.16202e-322,-0.785587
1.58727,-2.09963,-1.5708,-1.82094,1.57084,-5.99066e-05,3.16202e-322,-0.785539
1.59525,-2.09961,-1.5708,-1.8209,1.57084,-8.37485e-05,3.16202e-322,-0.785575
1.60313,-2.09961,-1.57083,-1.82089,1.57087,-8.37485e-05,3.16202e-322,-0.785575
1.61115,-2.09962,-1.57082,-1.8209,1.57083,-5.99066e-05,3.16202e-322,-0.785563
1.61917,-2.09963,-1.57079,-1.8209,1.57083,-7.18276e-05,3.16202e-322,-0.785599
1.62717,-2.0996,-1.57082,-1.82093,1.57081,-0.000119511,3.16202e-322,-0.785575
1.63519,-2.09962,-1.57082,-1.82091,1.57084,-9.56694e-05,3.16202e-322,-0.785587
1.6432,-2.09961,-1.57083,-1.82093,1.57083,-8.37485e-05,3.16202e-322,-0.785563
1.65123,-2.09965,-1.5708,-1.82091,1.57084,-7.18276e-05,3.16202e-322,-0.785575
1.65918,-2.09961,-1.57077,-1.8209,1.57084,-0.00010759,3.16202e-322,-0.785599
1.66722,-2.09962,-1.57077,-1.82093,1.57082,-5.99066e-05,3.16202e-322,-0.785611
1.67521,-2.09966,-1.57083,-1.8209,1.57086,-7.18276e-05,3.16202e-322,-0.785587
1.68317,-2.09963,-1.57077,-1.82094,1.57083,-5.99066e-05,3.16202e-322,-0.785575
1.69124,-2.0996,-1.57079,-1.82089,1.57086,-7.18276e-05,3.16202e-322,-0.785623
1.69927,-2.09959,-1.57077,-1.8209,1.57084,-8.37485e-05,3.16202e-322,-0.785611
1.70722,-2.0996,-1.5708,-1.8209,1.57082,-9.56694e-05,3.16202e-322,-0.785635
1.71517,-2.09963,-1.57073,-1.8209,1.57083,-0.00010759,3.16202e-322,-0.785623
1.72309,-2.09955,-1.57076,-1.82088,1.57082,-9.56694e-05,3.16202e-322,-0.785611
1.73112,-2.09963,-1.57077,-1.82089,1.57084,-5.99066e-05,3.16202e-322,-0.785635
1.73918,-2.0996,-1.57074,-1.82087,1.57084,-9.56694e-05,3.16202e-322,-0.785647
1.74718,-2.09961,-1.57075,-1.82091,1.57083,-0.000119511,3.16202e-322,-0.785635
1.7552,-2.09957,-1.57074,-1.82088,1.57083,-7.18276e-05,3.16202e-322,-0.785659
1.76324,-2.09957,-1.57074,-1.82091,1.57087,-9.56694e-05,3.16202e-322,-0.785694
1.77123,-2.09957,-1.57074,-1.8209,1.57082,-0.00010759,3.16202e-322,-0.785731
1.77932,-2.09956,-1.57077,-1.82087,1.57084,-9.56694e-05,3.16202e-322,-0.785827
1.78725,-2.09957,-1.57074,-1.82088,1.57081,-0.000119511,3.16202e-322,-0.785958
1.79527,-2.09956,-1.57074,-1.82087,1.57084,-7.18276e-05,3.16202e-322,-0.78609
1.8032,-2.09954,-1.57071,-1.8209,1.57082,-8.37485e-05,3.16202e-322,-0.786197
1.81123,-2.09954,-1.5707,-1.8209,1.57081,-7.18276e-05,3.16202e-322,-0.78633
1.81927,-2.09951,-1.57067,-1.82091,1.5708,-9.56694e-05,3.16202e-322,-0.786437
1.82725,-2.09955,-1.57069,-1.82084,1.57084,-0.000131432,3.16202e-322,-0.786569
1.83526,-2.09949,-1.57068,-1.8209,1.57084,-9.56694e-05,3.16202e-322,-0.786724
1.84325,-2.09949,-1.57067,-1.82087,1.57082,-0.00010759,3.16202e-322,-0.78682
1.85126,-2.09951,-1.57063,-1.82089,1.57087,-0.00010759,3.16202e-322,-0.786904
1.85923,-2.0995,-1.57054,-1.82084,1.57084,-0.00014383,3.16202e-322,-0.787012
1.86724,-2.0995,-1.57043,-1.82083,1.57086,-9.56694e-05,3.16202e-322,-0.787108
1.87524,-2.09946,-1.57031,-1.82089,1.57082,-9.56694e-05,3.16202e-322,-0.787252
1.88327,-2.09947,-1.57024,-1.82089,1.57086,-0.000119511,3.16202e-322,-0.7873
1.89122,-2.09943,-1.57008,-1.82087,1.57084,-8.37485e-05,3.16202e-322,-0.787455
1.89933,-2.09942,-1.56997,-1.82088,1.57084,-0.00010759,3.16202e-322,-0.787635
1.90714,-2.09938,-1.56985,-1.82087,1.57087,-0.00014383,3.16202e-322,-0.787863
1.91516,-2.09935,-1.56971,-1.82087,1.57087,-0.000119511,3.16202e-322,-0.78815
1.92322,-2.09934,-1.56962,-1.82088,1.57092,-0.00014383,3.16202e-322,-0.788413
1.93116,-2.09937,-1.56946,-1.82085,1.57089,-0.000119511,3.16202e-322,-0.788629
1.93923,-2.09934,-1.56931,-1.82091,1.57095,-0.00010759,3.16202e-322,-0.788953
1.94727,-2.0993,-1.56917,-1.82089,1.57098,-0.000155751,3.16202e-322,-0.789348
1.95524,-2.0993,-1.56892,-1.82087,1.571,-0.000131432,3.16202e-322,-0.789767
1.96319,-2.09919,-1.56875,-1.82087,1.57101,-0.000131432,3.16202e-322,-0.79033
1.97121,-2.09895,-1.56851,-1.82087,1.57105,-0.00014383,3.16202e-322,-0.790845
1.9793,-2.09874,-1.56832,-1.82087,1.57106,-0.000131432,3.16202e-322,-0.791467
1.98724,-2.09839,-1.56807,-1.82087,1.57106,-0.00014383,3.16202e-322,-0.792126
1.99525,-2.09791,-1.56783,-1.82088,1.57106,-0.000155751,3.16202e-322,-0.792881
2.00326,-2.09737,-1.56758,-1.82087,1.57116,-0.000131432,3.16202e-322,-0.793708
2.01111,-2.09679,-1.56731,-1.82084,1.57112,-0.000155751,3.16202e-322,-0.794678
2.01916,-2.09608,-1.56703,-1.82084,1.57118,-0.000131432,3.16202e-322,-0.7956
2.02715,-2.0954,-1.56668,-1.82087,1.57117,-0.00014383,3.16202e-322,-0.796714
2.03521,-2.0946,-1.5664,-1.82084,1.57122,-0.00014383,3.16202e-322,-0.798031
2.04315,-2.09365,-1.56601,-1.82089,1.57131,-0.000167672,3.16202e-322,-0.799493
2.05125,-2.09262,-1.56561,-1.82085,1.57139,-0.000119511,3.16202e-322,-0.801205
2.05924,-2.09124,-1.56519,-1.82084,1.57147,-0.000119511,3.16202e-322,-0.802906
2.06724,-2.08946,-1.56474,-1.82084,1.5716,-0.000131432,3.16202e-322,-0.80481
2.07526,-2.08737,-1.56433,-1.82084,1.57172,-0.000131432,3.16202e-322,-0.806882
2.0833,-2.08495,-1.56393,-1.82082,1.57179,-0.00014383,3.16202e-322,-0.809134
2.09127,-2.08216,-1.56343,-1.82085,1.57193,-0.000119511,3.16202e-322,-0.811709
2.09924,-2.07896,-1.563,-1.82085,1.57205,-0.000119511,3.16202e-322,-0.814548
2.10719,-2.0756,-1.56261,-1.82082,1.5722,-0.000131432,3.16202e-322,-0.81765
2.11521,-2.07207,-1.5622,-1.82083,1.57244,-0.000119511,3.16202e-322,-0.820859
2.1233,-2.06849,-1.56184,-1.82082,1.57269,-0.00010759,3.16202e-322,-0.824297
2.13124,-2.06477,-1.56146,-1.82081,1.57301,-0.00014383,3.16202e-322,-0.827854
2.13929,-2.06079,-1.56107,-1.82084,1.57332,-0.000155751,3.16202e-322,-0.831543
2.14727,-2.05648,-1.56058,-1.82085,1.57361,-0.00010759,3.16202e-322,-0.835388
2.15529,-2.05201,-1.56002,-1.82085,1.57396,-9.56694e-05,3.16202e-322,-0.8394
2.16326,-2.04727,-1.55939,-1.82084,1.5742,-8.37485e-05,3.16202e-322,-0.843604
2.17123,-2.04245,-1.55882,-1.82083,1.57446,-9.56694e-05,3.16202e-322,-0.848048
2.17933,-2.03776,-1.55825,-1.82083,1.57478,-0.000119511,3.16202e-322,-0.852647
2.18724,-2.03302,-1.55769,-1.82083,1.5751,-0.00010759,3.16202e-322,-0.857342
2.19525,-2.02813,-1.55708,-1.82083,1.5756,-9.56694e-05,3.16202e-322,-0.862037
2.20315,-2.02304,-1.55646,-1.82088,1.57617,-8.37485e-05,3.16202e-322,-0.866768
2.21119,-2.01787,-1.55588,-1.82087,1.57684,-0.000119511,3.16202e-322,-0.871571
2.21916,-2.01268,-1.55515,-1.82085,1.57747,-9.56694e-05,3.16202e-322,-0.876697
2.22714,-2.0076,-1.55445,-1.82085,1.57821,-0.000119511,3.16202e-322,-0.881991
2.2352,-2.00257,-1.55376,-1.82084,1.57902,-7.18276e-05,3.16202e-322,-0.887417
2.24318,-1.99754,-1.55309,-1.82083,1.57999,-9.56694e-05,3.16202e-322,-0.892807
2.25121,-1.99242,-1.55245,-1.82085,1.58102,-8.37485e-05,3.16202e-322,-0.898053
2.25927,-1.98736,-1.55183,-1.82088,1.58234,-9.56694e-05,3.16202e-322,-0.903131
2.26723,-1.98224,-1.55118,-1.82085,1.58384,-8.37485e-05,3.16202e-322,-0.908413
2.27531,-1.97724,-1.55051,-1.82082,1.58547,-8.37485e-05,3.16202e-322,-0.913959
2.28324,-1.97239,-1.54984,-1.82083,1.58728,-9.56694e-05,3.16202e-322,-0.919648
2.29122,-1.96744,-1.54911,-1.82084,1.58919,-9.56694e-05,3.16202e-322,-0.925386
2.29927,-1.9624,-1.54839,-1.82083,1.59131,-0.000131432,3.16202e-322,-0.930859
2.30713,-1.95725,-1.54765,-1.82084,1.59344,-5.99066e-05,3.16202e-322,-0.936237
2.31508,-1.95191,-1.54697,-1.82085,1.59577,-5.99066e-05,3.16202e-322,-0.941758
2.32307,-1.94669,-1.54626,-1.82088,1.59821,-8.37485e-05,3.16202e-322,-0.947328
2.33112,-1.94168,-1.54556,-1.82085,1.60078,-8.37485e-05,3.16202e-322,-0.952957
2.33911,-1.93665,-1.54479,-1.82085,1.60348,-5.99066e-05,3.16202e-322,-0.958515
2.34712,-1.9316,-1.54389,-1.82087,1.60621,-9.56694e-05,3.16202e-322,-0.963869
2.35512,-1.9265,-1.54299,-1.82087,1.60916,-7.18276e-05,3.16202e-322,-0.969223
2.3632,-1.92139,-1.54204,-1.82089,1.61221,-7.18276e-05,3.16202e-322,-0.974709
2.37118,-1.91647,-1.54087,-1.82082,1.61537,-2.3667e-05,3.16202e-322,-0.980254
2.37916,-1.91181,-1.53957,-1.82085,1.61863,-5.99066e-05,3.16202e-322,-0.98562
2.38717,-1.90724,-1.53807,-1.82087,1.62202,-5.99066e-05,3.16202e-322,-0.990843
2.39516,-1.90276,-1.53637,-1.82091,1.62545,-2.3667e-05,3.16202e-322,-0.995754
2.4032,-1.89827,-1.53458,-1.82088,1.62896,0,3.16202e-322,-1.00076
2.41121,-1.89396,-1.53252,-1.8209,1.63249,0,3.16202e-322,-1.0061
2.41925,-1.88969,-1.53031,-1.82091,1.63601,1.19842e-05,3.16202e-322,-1.01121
2.42717,-1.88566,-1.52801,-1.82088,1.63948,4.75624e-05,3.16202e-322,-1.0162
2.43525,-1.88179,-1.52562,-1.8209,1.64297,3.55782e-05,3.16202e-322,-1.02098
2.44325,-1.8781,-1.52306,-1.82089,1.64639,5.95466e-05,3.16202e-322,-1.02551
2.45129,-1.87439,-1.52042,-1.82094,1.64977,0.000131077,3.16202e-322,-1.02994
2.45923,-1.87059,-1.51774,-1.82094,1.65291,0.00016703,3.16202e-322,-1.03445
2.46722,-1.86685,-1.51497,-1.82094,1.6559,0.000226951,3.16202e-322,-1.03901
2.47525,-1.86307,-1.51205,-1.82091,1.65879,0.000310841,3.16202e-322,-1.0435
2.48321,-1.85933,-1.509,-1.82093,1.66147,0.00040634,3.16202e-322,-1.04789
2.49116,-1.85565,-1.50578,-1.8209,1.66394,0.000538167,3.16202e-322,-1.05207
2.49927,-1.85221,-1.50253,-1.82093,1.6662,0.000693962,3.16202e-322,-1.05601
2.50713,-1.84878,-1.49916,-1.82095,1.66817,0.000849382,3.16202e-322,-1.05982
2.51518,-1.84541,-1.49578,-1.82091,1.66998,0.000993193,3.16202e-322,-1.06376
2.52316,-1.84213,-1.49227,-1.82094,1.67153,0.0012325,3.16202e-322,-1.06773
2.53124,-1.83881,-1.48875,-1.82094,1.67287,0.00143623,3.16202e-322,-1.07167
2.53929,-1.83547,-1.48534,-1.82091,1.67415,0.00175906,3.16202e-322,-1.07556
2.54725,-1.83218,-1.48183,-1.82091,1.67527,0.00210623,3.16202e-322,-1.07923
2.55523,-1.8289,-1.47831,-1.82095,1.67617,0.00248935,3.16202e-322,-1.08276
2.56327,-1.82571,-1.47467,-1.82095,1.67692,0.00299194,3.16202e-322,-1.08609
2.57127,-1.82271,-1.47105,-1.82093,1.67752,0.00355445,3.16202e-322,-1.08931
2.57925,-1.82005,-1.46741,-1.82096,1.67786,0.0043087,3.16202e-322,-1.09265
2.5872,-1.81755,-1.46374,-1.82095,1.678,0.00517007,3.16202e-322,-1.0961
2.59522,-1.81523,-1.46009,-1.82097,1.67799,0.00616364,3.16202e-322,-1.09952
2.60315,-1.81302,-1.45648,-1.82095,1.67797,0.00742048,3.16202e-322,-1.10279
2.61109,-1.81088,-1.45297,-1.82094,1.6779,0.00882076,3.16202e-322,-1.106
2.61913,-1.80868,-1.44942,-1.82094,1.67795,0.0106162,3.16202e-322,-1.10906
2.62714,-1.80656,-1.4459,-1.82097,1.67791,0.0127228,3.16202e-322,-1.11205
2.63513,-1.80443,-1.44233,-1.821,1.67791,0.0151881,3.16202e-322,-1.11505
2.64315,-1.80234,-1.43875,-1.82099,1.67797,0.0179052,3.16202e-322,-1.11798
2.65115,-1.80024,-1.43518,-1.82102,1.67796,0.0209331,3.16202e-322,-1.12084
2.65923,-1.79817,-1.43164,-1.821,1.67799,0.0241527,3.16202e-322,-1.12381
2.66719,-1.79614,-1.42803,-1.82099,1.67796,0.0275521,3.16202e-322,-1.12684
2.67524,-1.79404,-1.42459,-1.82102,1.678,0.0312028,3.16202e-322,-1.12974
2.68322,-1.79203,-1.42117,-1.821,1.67802,0.0348771,3.16202e-322,-1.13262
2.69122,-1.79007,-1.41775,-1.82101,1.67803,0.0387076,3.16202e-322,-1.13542
2.69921,-1.78812,-1.41424,-1.82101,1.67805,0.0425492,3.16202e-322,-1.13832
2.70714,-1.78627,-1.41065,-1.82102,1.67799,0.0464995,3.16202e-322,-1.14121
2.71517,-1.78444,-1.40702,-1.82099,1.67803,0.0504611,3.16202e-322,-1.14416
2.7232,-1.78271,-1.40333,-1.82103,1.67802,0.0545548,3.16202e-322,-1.14706
2.73123,-1.78091,-1.39962,-1.82107,1.67801,0.0586725,3.16202e-322,-1.14996
2.7392,-1.77914,-1.39592,-1.821,1.67803,0.0629213,3.16202e-322,-1.15287
2.74729,-1.77722,-1.39221,-1.82103,1.67805,0.0670866,3.16202e-322,-1.15577
2.7553,-1.77527,-1.38846,-1.82103,1.67803,0.0712878,3.16202e-322,-1.15876
2.76321,-1.77322,-1.38473,-1.82103,1.67803,0.0755493,3.16202e-322,-1.16184
2.77122,-1.77121,-1.38088,-1.82102,1.67801,0.0799662,3.16202e-322,-1.16485
2.77928,-1.76911,-1.3771,-1.82106,1.67799,0.0845026,3.16202e-322,-1.16789
2.78722,-1.76696,-1.37322,-1.82105,1.67802,0.0890035,3.16202e-322,-1.17098
2.79527,-1.76484,-1.36947,-1.82106,1.67802,0.0936114,3.16202e-322,-1.17417
2.80317,-1.76275,-1.36561,-1.82112,1.67802,0.0981961,3.16202e-322,-1.17736
2.81109,-1.7608,-1.36178,-1.82111,1.67796,0.102828,3.16202e-322,-1.18048
2.81908,-1.75892,-1.35802,-1.82112,1.67801,0.107652,3.16202e-322,-1.18369
2.82715,-1.75716,-1.35423,-1.82113,1.67799,0.1125,3.16202e-322,-1.18691
2.83516,-1.75544,-1.35043,-1.8212,1.67796,0.117348,3.16202e-322,-1.19031
2.84312,-1.75385,-1.34662,-1.82125,1.67797,0.122232,3.16202e-322,-1.19374
2.85116,-1.75234,-1.34291,-1.82135,1.67796,0.127104,3.16202e-322,-1.19709
2.85922,-1.75082,-1.33921,-1.82154,1.678,0.131904,3.16202e-322,-1.20056
2.86718,-1.7492,-1.33551,-1.8218,1.67796,0.136632,3.16202e-322,-1.20398
2.87525,-1.74746,-1.33189,-1.82223,1.67799,0.14136,3.16202e-322,-1.20739
2.8832,-1.7456,-1.32831,-1.8227,1.67797,0.146173,3.16202e-322,-1.21082
2.89121,-1.74367,-1.3247,-1.82321,1.67796,0.150949,3.16202e-322,-1.21422
2.89926,-1.74155,-1.32114,-1.82387,1.678,0.155689,3.16202e-322,-1.21768
2.90711,-1.73935,-1.31754,-1.82456,1.67795,0.16037,3.16202e-322,-1.22123
2.91514,-1.73714,-1.31395,-1.82514,1.67803,0.164931,3.16202e-322,-1.22488
2.92308,-1.73486,-1.31042,-1.82581,1.678,0.169443,3.16202e-322,-1.22846
2.93109,-1.73265,-1.30694,-1.82632,1.67797,0.174076,3.16202e-322,-1.23209
2.93907,-1.73043,-1.30354,-1.82689,1.67796,0.178541,3.16202e-322,-1.23575
2.94709,-1.72803,-1.30014,-1.82769,1.67796,0.183007,3.16202e-322,-1.23922
2.95509,-1.72571,-1.29691,-1.82852,1.6779,0.187519,3.16202e-322,-1.24271
2.96311,-1.72345,-1.29368,-1.82943,1.6779,0.191925,3.16202e-322,-1.24611
2.97113,-1.72114,-1.29054,-1.83045,1.67791,0.196283,3.16202e-322,-1.24956
2.97914,-1.71881,-1.28737,-1.83148,1.67782,0.200592,3.16202e-322,-1.25302
2.98721,-1.71634,-1.28434,-1.83263,1.67781,0.204974,3.16202e-322,-1.25641
2.9952,-1.71373,-1.28135,-1.83387,1.67772,0.209355,3.16202e-322,-1.25978
3.00315,-1.71098,-1.27848,-1.83524,1.67772,0.213557,3.16202e-322,-1.263
3.01111,-1.70811,-1.27575,-1.83669,1.67771,0.217711,3.16202e-322,-1.26609
3.01916,-1.705,-1.27317,-1.83821,1.67767,0.221733,3.16202e-322,-1.26916
3.02714,-1.70178,-1.27068,-1.8399,1.67753,0.225732,3.16202e-322,-1.2721
3.03514,-1.69851,-1.26842,-1.84158,1.67746,0.229635,3.16202e-322,-1.27503
3.04314,-1.69524,-1.26628,-1.84336,1.67743,0.23355,3.16202e-322,-1.27783
3.05118,-1.69198,-1.26427,-1.84526,1.67741,0.237381,3.16202e-322,-1.28057
3.05917,-1.68868,-1.2623,-1.84712,1.67735,0.241092,3.16202e-322,-1.28327
3.06715,-1.68534,-1.26051,-1.84909,1.67731,0.244659,3.16202e-322,-1.2859
3.07512,-1.68171,-1.25887,-1.85105,1.67731,0.248095,3.16202e-322,-1.28843
3.08312,-1.6778,-1.25725,-1.85303,1.67732,0.251352,3.16202e-322,-1.29087
3.09112,-1.67383,-1.25569,-1.85505,1.67731,0.254476,3.16202e-322,-1.29325
3.09914,-1.6697,-1.25428,-1.85717,1.6773,0.257374,3.16202e-322,-1.29565
3.10707,-1.6655,-1.25296,-1.85931,1.67729,0.260175,3.16202e-322,-1.29793
3.11511,-1.6614,-1.2517,-1.86142,1.67725,0.262773,3.16202e-322,-1.30006
3.1231,-1.65725,-1.25059,-1.86361,1.67726,0.265275,3.16202e-322,-1.30215
3.13122,-1.65299,-1.24952,-1.86578,1.67726,0.267682,3.16202e-322,-1.30398
3.13921,-1.64864,-1.24857,-1.86796,1.67723,0.26986,3.16202e-322,-1.30573
3.14721,-1.64406,-1.24775,-1.87026,1.67722,0.271931,3.16202e-322,-1.30732
3.1553,-1.63933,-1.24702,-1.87257,1.67712,0.273727,3.16202e-322,-1.3088
3.16323,-1.6346,-1.24639,-1.87496,1.67711,0.27532,3.16202e-322,-1.3101
3.17119,-1.62997,-1.246,-1.87739,1.67706,0.27678,3.16202e-322,-1.31142
3.1792,-1.62545,-1.24576,-1.87988,1.67701,0.278061,3.16202e-322,-1.31264
3.1872,-1.62089,-1.24565,-1.88234,1.67698,0.279091,3.16202e-322,-1.31379
3.19517,-1.61614,-1.24566,-1.8849,1.67696,0.279977,3.16202e-322,-1.3149
3.2031,-1.61134,-1.24572,-1.88743,1.67682,0.280599,3.16202e-322,-1.31596
3.21105,-1.60646,-1.24571,-1.89,1.67669,0.28103,3.16202e-322,-1.31695
3.2191,-1.60176,-1.24571,-1.89257,1.67632,0.281222,3.16202e-322,-1.31772
3.22712,-1.5973,-1.24566,-1.8951,1.67598,0.281234,3.16202e-322,-1.31846
3.23512,-1.59296,-1.24564,-1.89772,1.67555,0.281246,3.16202e-322,-1.31903
3.24315,-1.58863,-1.24566,-1.90038,1.67508,0.281222,3.16202e-322,-1.31946
3.25117,-1.58426,-1.24565,-1.90307,1.67466,0.281234,3.16202e-322,-1.31974
3.25919,-1.57999,-1.24564,-1.9058,1.67433,0.281198,3.16202e-322,-1.31989
3.2673,-1.57571,-1.2456,-1.90864,1.67406,0.281258,3.16202e-322,-1.31998
3.27528,-1.57154,-1.24564,-1.9115,1.67383,0.281246,3.16202e-322,-1.31994
3.2832,-1.56757,-1.24564,-1.91437,1.67367,0.281234,3.16202e-322,-1.31996
3.29119,-1.56377,-1.24561,-1.91719,1.67349,0.281246,3.16202e-322,-1.31991
3.2993,-1.56001,-1.24555,-1.92011,1.67338,0.281198,3.16202e-322,-1.31995
3.30716,-1.5562,-1.24559,-1.92292,1.67322,0.28121,3.16202e-322,-1.31995
3.31511,-1.55239,-1.2456,-1.92574,1.67301,0.281246,3.16202e-322,-1.31998
3.32318,-1.54868,-1.24558,-1.92859,1.67282,0.28121,3.16202e-322,-1.31997
3.33113,-1.54507,-1.24563,-1.93143,1.67259,0.281198,3.16202e-322,-1.32
3.33921,-1.54148,-1.24559,-1.9343,1.67242,0.281234,3.16202e-322,-1.32004
3.34718,-1.53804,-1.24558,-1.93717,1.67232,0.281234,3.16202e-322,-1.31998
3.35521,-1.53472,-1.2456,-1.94006,1.67215,0.281246,3.16202e-322,-1.31998
3.36319,-1.53159,-1.2456,-1.94299,1.67197,0.281246,3.16202e-322,-1.31996
3.37122,-1.52849,-1.2456,-1.94591,1.67182,0.281222,3.16202e-322,-1.32001
3.37926,-1.52538,-1.24561,-1.94874,1.67159,0.281258,3.16202e-322,-1.31996
3.38716,-1.52219,-1.24563,-1.95164,1.67132,0.281246,3.16202e-322,-1.31997
3.39521,-1.51902,-1.24561,-1.95453,1.67103,0.281246,3.16202e-322,-1.32001
3.40318,-1.51578,-1.24563,-1.95744,1.67067,0.281258,3.16202e-322,-1.31997
3.41105,-1.51261,-1.2456,-1.96034,1.67036,0.281258,3.16202e-322,-1.32
3.4191,-1.50946,-1.24561,-1.96318,1.67,0.281258,3.16202e-322,-1.32001
3.42711,-1.50649,-1.24561,-1.96595,1.66962,0.281246,3.16202e-322,-1.31997
3.43514,-1.50372,-1.24558,-1.96867,1.66913,0.281246,3.16202e-322,-1.32001
3.44318,-1.5011,-1.24563,-1.97137,1.66859,0.281246,3.16202e-322,-1.31997
3.45122,-1.49847,-1.24561,-1.97403,1.66799,0.28127,3.16202e-322,-1.31997
3.45916,-1.49585,-1.24559,-1.97669,1.66732,0.281246,3.16202e-322,-1.31997
3.46721,-1.49311,-1.24559,-1.97932,1.66658,0.281246,3.16202e-322,-1.32001
3.47517,-1.49035,-1.2456,-1.98193,1.66586,0.281222,3.16202e-322,-1.31996
3.48317,-1.48761,-1.24564,-1.98455,1.66508,0.281282,3.16202e-322,-1.31998
3.49118,-1.48486,-1.24563,-1.98713,1.66422,0.281258,3.16202e-322,-1.31998
3.49919,-1.4821,-1.24564,-1.98966,1.66336,0.281258,3.16202e-322,-1.31998
3.50709,-1.47942,-1.24566,-1.99222,1.66252,0.281258,3.16202e-322,-1.32
3.51505,-1.47689,-1.24561,-1.99457,1.66165,0.28127,3.16202e-322,-1.31997
3.52305,-1.47446,-1.24561,-1.99695,1.66067,0.281282,3.16202e-322,-1.31998
3.53111,-1.47218,-1.24563,-1.99922,1.65966,0.281258,3.16202e-322,-1.32
3.53912,-1.46991,-1.2456,-2.00152,1.65851,0.28127,3.16202e-322,-1.32
3.54712,-1.46765,-1.24563,-2.00376,1.65729,0.281282,3.16202e-322,-1.32
3.55518,-1.46539,-1.24561,-2.00589,1.65593,0.281294,3.16202e-322,-1.31997
3.56313,-1.46298,-1.24564,-2.00797,1.65458,0.28127,3.16202e-322,-1.31996
3.57117,-1.46054,-1.24564,-2.01,1.65321,0.281306,3.16202e-322,-1.31998
3.57924,-1.45805,-1.24565,-2.01193,1.65184,0.281306,3.16202e-322,-1.31996
3.58721,-1.45561,-1.24565,-2.01381,1.65052,0.281294,3.16202e-322,-1.31997
3.59517,-1.45313,-1.24564,-2.01565,1.64925,0.281294,3.16202e-322,-1.31998
3.60321,-1.45077,-1.24564,-2.0174,1.64802,0.28133,3.16202e-322,-1.31997
3.61116,-1.4485,-1.24567,-2.01905,1.64691,0.281366,3.16202e-322,-1.31998
3.61919,-1.4465,-1.24561,-2.02064,1.64575,0.281354,3.16202e-322,-1.31996
3.62716,-1.44457,-1.24567,-2.02213,1.6448,0.281342,3.16202e-322,-1.32
3.63521,-1.44301,-1.24566,-2.02351,1.64384,0.28133,3.16202e-322,-1.31998
3.6432,-1.44164,-1.24561,-2.02474,1.64299,0.28133,3.16202e-322,-1.31994
3.65122,-1.4405,-1.24565,-2.02586,1.64216,0.281342,3.16202e-322,-1.31992
3.65919,-1.43954,-1.24566,-2.02688,1.64143,0.281354,3.16202e-322,-1.31997
3.66723,-1.43876,-1.24566,-2.0277,1.64079,0.281354,3.16202e-322,-1.31998
3.67519,-1.43798,-1.24566,-2.02853,1.64036,0.281389,3.16202e-322,-1.31996
3.68319,-1.43741,-1.24565,-2.02921,1.63998,0.281354,3.16202e-322,-1.31998
3.69119,-1.43704,-1.24564,-2.02982,1.63972,0.281354,3.16202e-322,-1.31995
3.69917,-1.43692,-1.24563,-2.03029,1.63963,0.281354,3.16202e-322,-1.31996
3.70709,-1.43687,-1.24566,-2.03057,1.63953,0.281342,3.16202e-322,-1.31997
3.71506,-1.43687,-1.24564,-2.03089,1.63953,0.281366,3.16202e-322,-1.31995
3.72308,-1.43686,-1.24565,-2.03109,1.63953,0.281342,3.16202e-322,-1.31995
3.73109,-1.43688,-1.24563,-2.03119,1.63953,0.281377,3.16202e-322,-1.31995
3.73912,-1.43688,-1.24563,-2.03121,1.63957,0.281366,3.16202e-322,-1.31995
3.7471,-1.43688,-1.24564,-2.03122,1.63954,0.281366,3.16202e-322,-1.31996
3.75516,-1.43687,-1.24563,-2.03122,1.63953,0.281389,3.16202e-322,-1.31991
3.76316,-1.43684,-1.24565,-2.0312,1.63954,0.281389,3.16202e-322,-1.31996
3.77116,-1.43691,-1.24564,-2.03121,1.63957,0.281354,3.16202e-322,-1.31996
3.77917,-1.4369,-1.24564,-2.03122,1.63951,0.281377,3.16202e-322,-1.31996
3.78719,-1.43688,-1.24566,-2.03121,1.63953,0.281354,3.16202e-322,-1.31996
3.79517,-1.4369,-1.24569,-2.0312,1.63954,0.281377,3.16202e-322,-1.31994
3.80317,-1.4369,-1.24564,-2.03116,1.63955,0.281377,3.16202e-322,-1.31997
3.81104,-1.4369,-1.2457,-2.0312,1.63957,0.281354,3.16202e-322,-1.31992
3.81911,-1.43684,-1.24564,-2.03122,1.63955,0.281366,3.16202e-322,-1.31995
3.8271,-1.43688,-1.24565,-2.03122,1.63954,0.281366,3.16202e-322,-1.31995
3.83512,-1.43686,-1.24563,-2.0312,1.63952,0.281342,3.16202e-322,-1.31997
3.84314,-1.4369,-1.24565,-2.03121,1.63953,0.281354,3.16202e-322,-1.31998
3.85118,-1.43692,-1.24564,-2.0312,1.63951,0.281354,3.16202e-322,-1.32
3.85919,-1.43685,-1.24564,-2.03121,1.63952,0.281354,3.16202e-322,-1.31997
3.86718,-1.43686,-1.24567,-2.03122,1.63954,0.28133,3.16202e-322,-1.31994
3.87512,-1.43688,-1.24563,-2.03119,1.63953,0.281306,3.16202e-322,-1.32
3.8832,-1.43687,-1.24567,-2.03116,1.63953,0.28133,3.16202e-322,-1.31996
3.89119,-1.43688,-1.24565,-2.0312,1.63952,0.281354,3.16202e-322,-1.32
3.89924,-1.43685,-1.24566,-2.03121,1.63955,0.28133,3.16202e-322,-1.32001
3.90711,-1.43687,-1.24564,-2.03124,1.63954,0.281342,3.16202e-322,-1.32
3.91514,-1.43687,-1.2457,-2.0312,1.63953,0.281342,3.16202e-322,-1.31998
3.92313,-1.4369,-1.24564,-2.03122,1.63954,0.281342,3.16202e-322,-1.32
3.9312,-1.4369,-1.24563,-2.03124,1.63952,0.28133,3.16202e-322,-1.31995
3.93919,-1.43688,-1.24564,-2.0312,1.63953,0.281306,3.16202e-322,-1.31997
3.94718,-1.4369,-1.24566,-2.0312,1.63954,0.28133,3.16202e-322,-1.31997
3.95519,-1.43687,-1.24567,-2.03122,1.63953,0.28133,3.16202e-322,-1.31995
3.9632,-1.43688,-1.24565,-2.03121,1.63951,0.281306,3.16202e-322,-1.31997
3.97115,-1.4369,-1.24563,-2.03121,1.63954,0.28133,3.16202e-322,-1.31997
3.97922,-1.4369,-1.24565,-2.0312,1.63953,0.28133,3.16202e-322,-1.32
3.98716,-1.43693,-1.24561,-2.03118,1.63955,0.281306,3.16202e-322,-1.32
3.99522,-1.43688,-1.24565,-2.03122,1.63955,0.281318,3.16202e-322,-1.31997
4.00308,-1.4369,-1.24563,-2.03121,1.63955,0.281306,3.16202e-322,-1.31997
4.01106,-1.4369,-1.24565,-2.03122,1.63955,0.281318,3.16202e-322,-1.32
4.01906,-1.43687,-1.24567,-2.03124,1.63957,0.281294,3.16202e-322,-1.31997
4.02707,-1.43691,-1.24565,-2.03118,1.63955,0.281258,3.16202e-322,-1.32
4.0351,-1.43691,-1.24567,-2.0312,1.63955,0.28133,3.16202e-322,-1.32
4.04309,-1.43692,-1.24563,-2.03121,1.63955,0.281294,3.16202e-322,-1.31998
4.05113,-1.43688,-1.24563,-2.03124,1.63955,0.281294,3.16202e-322,-1.31998
4.05917,-1.4369,-1.24564,-2.03121,1.63953,0.281282,3.16202e-322,-1.31996
4.06718,-1.43691,-1.24566,-2.03118,1.63957,0.281306,3.16202e-322,-1.31997
4.07518,-1.43694,-1.24564,-2.03125,1.63955,0.281294,3.16202e-322,-1.31998
4.08316,-1.43691,-1.24561,-2.03121,1.63955,0.281294,3.16202e-322,-1.32
4.09123,-1.43691,-1.24565,-2.03122,1.63954,0.281318,3.16202e-322,-1.31994
4.09916,-1.43688,-1.24566,-2.03121,1.63961,0.281282,3.16202e-322,-1.31997
4.10715,-1.43692,-1.24564,-2.0312,1.63958,0.281294,3.16202e-322,-1.31997
4.11507,-1.43691,-1.24561,-2.0312,1.63955,0.281306,3.16202e-322,-1.31995
4.12299,-1.43687,-1.24565,-2.0312,1.63957,0.28127,3.16202e-322,-1.31996
4.13105,-1.43688,-1.24566,-2.03122,1.63958,0.281258,3.16202e-322,-1.31995
4.13909,-1.43692,-1.24565,-2.0312,1.63958,0.281294,3.16202e-322,-1.32001
4.14711,-1.43693,-1.24564,-2.03118,1.63957,0.281282,3.16202e-322,-1.31992
4.15507,-1.43694,-1.24565,-2.03119,1.63954,0.28127,3.16202e-322,-1.31994
4.16315,-1.43692,-1.24567,-2.0312,1.63954,0.281282,3.16202e-322,-1.31994
4.17114,-1.43691,-1.24566,-2.03122,1.63958,0.281282,3.16202e-322,-1.31995
4.17918,-1.4369,-1.24566,-2.03124,1.63957,0.28127,3.16202e-322,-1.32
4.18714,-1.43693,-1.24563,-2.03122,1.63958,0.281282,3.16202e-322,-1.31995
4.19519,-1.43692,-1.24564,-2.03119,1.63959,0.281258,3.16202e-322,-1.31998
4.2031,-1.43691,-1.24563,-2.03118,1.63957,0.281258,3.16202e-322,-1.31994
4.21108,-1.43692,-1.24564,-2.03122,1.63958,0.28127,3.16202e-322,-1.31996
4.21918,-1.43692,-1.24565,-2.03118,1.63954,0.281282,3.16202e-322,-1.31997
4.22718,-1.4369,-1.24566,-2.03121,1.63957,0.281294,3.16202e-322,-1.31996
4.23517,-1.43693,-1.24567,-2.03119,1.63959,0.28127,3.16202e-322,-1.32
4.24319,-1.43692,-1.24564,-2.03119,1.63955,0.281282,3.16202e-322,-1.31996
4.25116,-1.43692,-1.24569,-2.0312,1.63955,0.28127,3.16202e-322,-1.31996
4.25921,-1.43693,-1.24564,-2.03121,1.63955,0.281282,3.16202e-322,-1.31996
4.26719,-1.43693,-1.24565,-2.03122,1.63958,0.281258,3.16202e-322,-1.31998
4.27515,-1.43692,-1.24565,-2.03124,1.63955,0.28127,3.16202e-322,-1.31992
4.28319,-1.43696,-1.24566,-2.03122,1.63952,0.28127,3.16202e-322,-1.31996
4.29116,-1.43696,-1.24571,-2.03121,1.63954,0.281246,3.16202e-322,-1.32
4.29917,-1.43691,-1.24567,-2.03124,1.63954,0.281282,3.16202e-322,-1.32001
4.30707,-1.43694,-1.24567,-2.03125,1.63957,0.281294,3.16202e-322,-1.31995
4.31506,-1.43696,-1.24567,-2.03122,1.63958,0.281282,3.16202e-322,-1.31997
4.32307,-1.43697,-1.24564,-2.03125,1.63954,0.28127,3.16202e-322,-1.31995
4.33104,-1.43694,-1.24566,-2.03121,1.63958,0.281282,3.16202e-322,-1.31994
4.33912,-1.43692,-1.24565,-2.03124,1.63957,0.281234,3.16202e-322,-1.31995
4.34715,-1.43696,-1.24569,-2.03122,1.63958,0.281258,3.16202e-322,-1.31998
4.35515,-1.43692,-1.24565,-2.03119,1.63957,0.281258,3.16202e-322,-1.31995
4.36316,-1.43692,-1.24566,-2.03121,1.63957,0.281282,3.16202e-322,-1.31997
4.37118,-1.43697,-1.24564,-2.03118,1.63959,0.281282,3.16202e-322,-1.31996
4.37916,-1.43691,-1.24565,-2.03122,1.63955,0.28127,3.16202e-322,-1.31994
4.38719,-1.43692,-1.24567,-2.03124,1.63955,0.281282,3.16202e-322,-1.32
4.39515,-1.43697,-1.24567,-2.03125,1.63957,0.281234,3.16202e-322,-1.31995
4.40317,-1.43697,-1.24572,-2.03122,1.63955,0.281246,3.16202e-322,-1.31998
4.41104,-1.43693,-1.2457,-2.0312,1.63954,0.281234,3.16202e-322,-1.31997
4.41901,-1.43696,-1.24569,-2.03121,1.63959,0.281246,3.16202e-322,-1.32
4.42712,-1.43696,-1.24566,-2.03121,1.63957,0.281282,3.16202e-322,-1.31995
4.43508,-1.43693,-1.24569,-2.03122,1.63958,0.28127,3.16202e-322,-1.31996
4.44308,-1.43694,-1.24566,-2.03122,1.63957,0.281258,3.16202e-322,-1.31992
4.45115,-1.43698,-1.24567,-2.0312,1.63959,0.281234,3.16202e-322,-1.31995
4.4591,-1.43692,-1.24567,-2.03121,1.63959,0.281258,3.16202e-322,-1.31996
4.46713,-1.43698,-1.24566,-2.03124,1.63955,0.28127,3.16202e-322,-1.31995
4.47521,-1.43694,-1.2457,-2.03124,1.63957,0.28127,3.16202e-322,-1.31994
4.48314,-1.43696,-1.24567,-2.03122,1.63953,0.28127,3.16202e-322,-1.31996
4.49116,-1.43698,-1.24566,-2.03125,1.63958,0.281234,3.16202e-322,-1.31994
4.49923,-1.43696,-1.24569,-2.03122,1.63959,0.281282,3.16202e-322,-1.31995
4.50704,-1.43697,-1.24571,-2.03122,1.63955,0.281282,3.16202e-322,-1.31996
4.51509,-1.43693,-1.24566,-2.03121,1.63958,0.281282,3.16202e-322,-1.31995
4.52312,-1.43696,-1.24569,-2.0312,1.63954,0.281234,3.16202e-322,-1.31995
4.53114,-1.43699,-1.24569,-2.03126,1.63957,0.281234,3.16202e-322,-1.31994
4.53909,-1.43697,-1.2457,-2.03122,1.63955,0.281246,3.16202e-322,-1.31995
4.54716,-1.43691,-1.24569,-2.0312,1.63955,0.281258,3.16202e-322,-1.31991
4.55512,-1.43696,-1.24571,-2.03122,1.63959,0.28127,3.16202e-322,-1.31994
4.56318,-1.43694,-1.2457,-2.03125,1.63955,0.281282,3.16202e-322,-1.31996
4.57117,-1.43693,-1.24567,-2.03125,1.63954,0.281258,3.16202e-322,-1.31995
4.57915,-1.43696,-1.24571,-2.03124,1.63957,0.28127,3.16202e-322,-1.31994
4.58717,-1.43696,-1.2457,-2.03119,1.63955,0.28127,3.16202e-322,-1.31995
4.59517,-1.43698,-1.2457,-2.03121,1.63957,0.28127,3.16202e-322,-1.31995
4.60316,-1.43697,-1.24572,-2.03125,1.63955,0.281258,3.16202e-322,-1.31989
4.61107,-1.43693,-1.24571,-2.03121,1.63955,0.28127,3.16202e-322,-1.31997
4.61909,-1.43694,-1.24569,-2.0312,1.63955,0.281258,3.16202e-322,-1.31992
4.62712,-1.43694,-1.24572,-2.03125,1.63951,0.281258,3.16202e-322,-1.31995
4.63511,-1.43697,-1.2457,-2.03122,1.63955,0.281234,3.16202e-322,-1.31995
4.64316,-1.43697,-1.24569,-2.03122,1.63957,0.281282,3.16202e-322,-1.31995
4.65113,-1.43697,-1.24572,-2.03121,1.63955,0.281282,3.16202e-322,-1.31997
4.65917,-1.43698,-1.24571,-2.0312,1.63958,0.28127,3.16202e-322,-1.31997
4.66717,-1.43693,-1.24571,-2.03119,1.63953,0.281222,3.16202e-322,-1.31995
4.67514,-1.43697,-1.24571,-2.0312,1.63958,0.281246,3.16202e-322,-1.31995
4.68317,-1.43696,-1.2457,-2.03122,1.63954,0.281246,3.16202e-322,-1.31992
4.69116,-1.43694,-1.24573,-2.03122,1.63955,0.28127,3.16202e-322,-1.31995
4.69918,-1.43696,-1.2457,-2.03124,1.63958,0.281246,3.16202e-322,-1.31994
4.70708,-1.43698,-1.24571,-2.03122,1.63955,0.281246,3.16202e-322,-1.31991
4.71499,-1.43699,-1.24567,-2.03119,1.63957,0.281234,3.16202e-322,-1.31996
4.72301,-1.43698,-1.24571,-2.0312,1.63953,0.28127,3.16202e-322,-1.31995
4.73107,-1.43692,-1.24571,-2.03121,1.63957,0.281258,3.16202e-322,-1.31996
4.7391,-1.43692,-1.2457,-2.03122,1.63952,0.281282,3.16202e-322,-1.31994
4.74715,-1.43696,-1.24571,-2.03121,1.63955,0.281234,3.16202e-322,-1.31992
4.7552,-1.43696,-1.24569,-2.03122,1.63963,0.281294,3.16202e-322,-1.31996
4.76318,-1.43697,-1.2457,-2.03121,1.63958,0.281222,3.16202e-322,-1.31996
4.77118,-1.43698,-1.24569,-2.03119,1.63955,0.281258,3.16202e-322,-1.31997
4.77919,-1.43696,-1.2457,-2.03124,1.63957,0.281234,3.16202e-322,-1.31996
4.78714,-1.43697,-1.24571,-2.0312,1.63957,0.281246,3.16202e-322,-1.31992
4.79514,-1.43696,-1.2457,-2.0312,1.63958,0.281246,3.16202e-322,-1.31992
4.80311,-1.43693,-1.24571,-2.03124,1.63953,0.281282,3.16202e-322,-1.31997
4.81105,-1.43697,-1.24567,-2.03122,1.63958,0.281246,3.16202e-322,-1.31996
4.81912,-1.43697,-1.2457,-2.03122,1.63953,0.281258,3.16202e-322,-1.31994
4.82711,-1.43697,-1.24569,-2.03119,1.63957,0.28127,3.16202e-322,-1.31991
4.83513,-1.43693,-1.2457,-2.03122,1.63955,0.281282,3.16202e-322,-1.31995
4.84314,-1.43696,-1.2457,-2.03118,1.63954,0.28127,3.16202e-322,-1.31992
4.85113,-1.43696,-1.24571,-2.0312,1.63955,0.281282,3.16202e-322,-1.31994
4.85914,-1.43694,-1.24567,-2.0312,1.6396,0.281258,3.16202e-322,-1.31992
4.86715,-1.43699,-1.2457,-2.0312,1.63953,0.281246,3.16202e-322,-1.31996
4.87515,-1.43694,-1.24571,-2.0312,1.63959,0.281222,3.16202e-322,-1.31994
4.88315,-1.43698,-1.2457,-2.03119,1.63959,0.281246,3.16202e-322,-1.31995
4.89113,-1.43696,-1.24571,-2.03122,1.63957,0.28127,3.16202e-322,-1.31997
4.89915,-1.43696,-1.24567,-2.0312,1.63955,0.281258,3.16202e-322,-1.31994
4.90701,-1.43697,-1.24569,-2.03122,1.63958,0.281198,3.16202e-322,-1.31992
4.91506,-1.43693,-1.24571,-2.03119,1.63957,0.281294,3.16202e-322,-1.31995
4.92305,-1.43694,-1.2457,-2.0312,1.63959,0.281258,3.16202e-322,-1.31996
4.93109,-1.43694,-1.24573,-2.03119,1.63958,0.281234,3.16202e-322,-1.31997
4.93919,-1.43697,-1.2457,-2.0312,1.6396,0.281258,3.16202e-322,-1.31994
4.94709,-1.43699,-1.24567,-2.0312,1.63955,0.281222,3.16202e-322,-1.31994
4.95514,-1.43697,-1.24567,-2.03122,1.63955,0.28121,3.16202e-322,-1.31994
4.9631,-1.43698,-1.24572,-2.03122,1.63955,0.281258,3.16202e-322,-1.31996
4.97115,-1.43696,-1.24569,-2.03121,1.63959,0.281234,3.16202e-322,-1.31991
4.97913,-1.43696,-1.24572,-2.03121,1.63955,0.281258,3.16202e-322,-1.31995
4.98719,-1.43693,-1.2457,-2.03122,1.63957,0.281222,3.16202e-322,-1.31991
4.99513,-1.43694,-1.24569,-2.03119,1.63959,0.281246,3.16202e-322,-1.31992
5.00313,-1.43694,-1.24572,-2.03119,1.63955,0.281222,3.16202e-322,-1.31992
5.01107,-1.43698,-1.2457,-2.0312,1.63958,0.281258,3.16202e-322,-1.31995
5.01901,-1.43696,-1.2457,-2.03124,1.63957,0.28127,3.16202e-322,-1.31995
5.02698,-1.43697,-1.24571,-2.03121,1.63957,0.281258,3.16202e-322,-1.31995
5.03506,-1.43698,-1.24572,-2.03122,1.63957,0.281258,3.16202e-322,-1.31994
5.04302,-1.43694,-1.24571,-2.0312,1.63958,0.281246,3.16202e-322,-1.31991
5.05104,-1.43698,-1.24572,-2.03122,1.63955,0.281234,3.16202e-322,-1.3199
5.05905,-1.437,-1.24567,-2.03121,1.63954,0.281246,3.16202e-322,-1.31994
5.06708,-1.43698,-1.24571,-2.0312,1.63958,0.281234,3.16202e-322,-1.31991
5.07508,-1.43696,-1.24572,-2.03125,1.63958,0.281222,3.16202e-322,-1.31996
5.08306,-1.43696,-1.24571,-2.03121,1.63957,0.28127,3.16202e-322,-1.31991
5.09111,-1.43696,-1.24571,-2.03122,1.63958,0.281234,3.16202e-322,-1.31994
5.09911,-1.43698,-1.2457,-2.03122,1.63955,0.281222,3.16202e-322,-1.31992
5.10702,-1.43698,-1.24571,-2.03121,1.63958,0.281258,3.16202e-322,-1.31994
5.11506,-1.43699,-1.2457,-2.0312,1.63957,0.281234,3.16202e-322,-1.3199
5.12307,-1.43697,-1.24571,-2.03122,1.63958,0.281258,3.16202e-322,-1.31992
5.13106,-1.43693,-1.2457,-2.0312,1.63955,0.281246,3.16202e-322,-1.31992
5.13909,-1.43699,-1.24569,-2.0312,1.63958,0.281222,3.16202e-322,-1.31995
5.14709,-1.43699,-1.24573,-2.03124,1.63959,0.281222,3.16202e-322,-1.31998
5.15511,-1.43696,-1.24567,-2.0312,1.63957,0.281258,3.16202e-322,-1.31995
5.16313,-1.437,-1.24569,-2.03121,1.63955,0.281246,3.16202e-322,-1.31994
5.17118,-1.43698,-1.24572,-2.03121,1.63955,0.281234,3.16202e-322,-1.31991
5.17913,-1.43698,-1.24569,-2.03121,1.63958,0.281246,3.16202e-322,-1.31992
5.18713,-1.43699,-1.24573,-2.03119,1.63955,0.281258,3.16202e-322,-1.31992
5.19511,-1.43694,-1.24572,-2.0312,1.63958,0.281246,3.16202e-322,-1.31995
5.20304,-1.43697,-1.24572,-2.0312,1.63955,0.28127,3.16202e-322,-1.3199
5.21103,-1.43698,-1.24572,-2.03118,1.63955,0.281258,3.16202e-322,-1.31995
5.21905,-1.43697,-1.2457,-2.0312,1.63957,0.28121,3.16202e-322,-1.3199
5.22711,-1.43697,-1.24571,-2.0312,1.6396,0.281258,3.16202e-322,-1.31992
5.23506,-1.43698,-1.24571,-2.03122,1.63959,0.281246,3.16202e-322,-1.31995
5.24311,-1.43697,-1.24571,-2.03122,1.63958,0.281222,3.16202e-322,-1.31995
5.25113,-1.43698,-1.2457,-2.03124,1.63958,0.281246,3.16202e-322,-1.31995
5.25913,-1.43696,-1.2457,-2.03121,1.63959,0.281234,3.16202e-322,-1.31992
5.26715,-1.43693,-1.24571,-2.03124,1.63959,0.281282,3.16202e-322,-1.31994
5.27509,-1.43701,-1.24573,-2.03124,1.6396,0.281282,3.16202e-322,-1.31995
5.28316,-1.43698,-1.24571,-2.03121,1.63961,0.281258,3.16202e-322,-1.31995
5.29111,-1.43696,-1.24569,-2.03122,1.63958,0.281258,3.16202e-322,-1.31991
5.29915,-1.43697,-1.24573,-2.03121,1.63959,0.281282,3.16202e-322,-1.31992
5.307,-1.43693,-1.24572,-2.03122,1.63959,0.281246,3.16202e-322,-1.31994
5.31504,-1.43698,-1.2457,-2.03124,1.63958,0.281246,3.16202e-322,-1.31995
5.323,-1.43697,-1.2457,-2.03122,1.6396,0.28127,3.16202e-322,-1.31994
5.33104,-1.43698,-1.24571,-2.03122,1.63958,0.281234,3.16202e-322,-1.31992
5.33906,-1.43698,-1.24571,-2.03121,1.63961,0.281234,3.16202e-322,-1.31994
5.34708,-1.43696,-1.24569,-2.03119,1.63957,0.281246,3.16202e-322,-1.31994
5.35514,-1.43697,-1.24573,-2.0312,1.63958,0.281258,3.16202e-322,-1.31997
5.3632,-1.43698,-1.24569,-2.03122,1.6396,0.281222,3.16202e-322,-1.31996
5.37116,-1.437,-1.24571,-2.03121,1.63959,0.281258,3.16202e-322,-1.31996
5.37909,-1.437,-1.24567,-2.03119,1.63958,0.281282,3.16202e-322,-1.31992
5.38712,-1.43699,-1.24572,-2.0312,1.63958,0.281222,3.16202e-322,-1.31997
5.39513,-1.43698,-1.24572,-2.03122,1.63958,0.281258,3.16202e-322,-1.31992
5.40306,-1.437,-1.24567,-2.03122,1.63957,0.281246,3.16202e-322,-1.31996
5.41105,-1.43694,-1.2457,-2.03122,1.63959,0.281234,3.16202e-322,-1.31992
5.41902,-1.43696,-1.24565,-2.03118,1.63958,0.28127,3.16202e-322,-1.31994
5.427,-1.43696,-1.24567,-2.03122,1.63958,0.28127,3.16202e-322,-1.31992
5.435,-1.43699,-1.24572,-2.03119,1.63961,0.28127,3.16202e-322,-1.31994
5.44302,-1.43698,-1.2457,-2.03119,1.63957,0.281258,3.16202e-322,-1.31992
5.45112,-1.43699,-1.24567,-2.0312,1.63959,0.281246,3.16202e-322,-1.31992
5.45915,-1.43698,-1.24569,-2.03119,1.63957,0.281246,3.16202e-322,-1.31995
5.46716,-1.43699,-1.24572,-2.03118,1.6396,0.28121,3.16202e-322,-1.31994
5.47505,-1.43697,-1.24569,-2.03122,1.63959,0.281222,3.16202e-322,-1.31991
5.48307,-1.43697,-1.2457,-2.0312,1.63958,0.281258,3.16202e-322,-1.31992
5.49108,-1.43697,-1.24569,-2.03119,1.63961,0.281246,3.16202e-322,-1.31997
5.49914,-1.43697,-1.24569,-2.03124,1.63955,0.281234,3.16202e-322,-1.31995
