Time,X,Y,Z,R,P,Y
0.226765,0.0207905,0.443831,0.25924,3.14156,-0.000411167,-0.00018263
0.234743,0.0207905,0.443831,0.25924,3.14156,-0.000411167,-0.00018263
0.242813,0.0207905,0.443831,0.25924,3.14156,-0.000411167,-0.00018263
0.250794,0.0207905,0.443831,0.25924,3.14156,-0.000411167,-0.00018263
0.2588,0.0207905,0.443831,0.25924,3.14156,-0.000411167,-0.00018263
0.266791,0.0207905,0.443831,0.25924,3.14156,-0.000411167,-0.00018263
0.274943,0.0207905,0.443831,0.25924,3.14156,-0.000411167,-0.00018263
0.282808,0.0207905,0.443831,0.25924,3.14156,-0.000411167,-0.00018263
0.290891,0.0207905,0.443831,0.25924,3.14156,-0.000411167,-0.00018263
0.298868,0.0207905,0.443831,0.25924,3.14156,-0.000411167,-0.00018263
0.306682,0.0207975,0.443822,0.25927,-3.14157,-0.000399076,-0.000194546
0.314717,0.0207975,0.443822,0.25927,-3.14157,-0.000399076,-0.000194546
0.322837,0.0207975,0.443822,0.25927,-3.14157,-0.000399076,-0.000194546
0.33076,0.0207975,0.443822,0.25927,-3.14157,-0.000399076,-0.000194546
0.338848,0.0207975,0.443822,0.25927,-3.14157,-0.000399076,-0.000194546
0.346897,0.0207975,0.443822,0.25927,-3.14157,-0.000399076,-0.000194546
0.354834,0.0207975,0.443822,0.25927,-3.14157,-0.000399076,-0.000194546
0.362843,0.0207975,0.443822,0.25927,-3.14157,-0.000399076,-0.000194546
0.370844,0.0207975,0.443822,0.25927,-3.14157,-0.000399076,-0.000194546
0.378884,0.0207975,0.443822,0.25927,-3.14157,-0.000399076,-0.000194546
0.386814,0.0207975,0.443822,0.25927,-3.14157,-0.000399076,-0.000194546
0.394797,0.0207975,0.443822,0.25927,-3.14157,-0.000399076,-0.000194546
0.402766,0.0208375,0.443807,0.259374,-3.14131,-0.000345145,-0.000290614
0.410797,0.0208375,0.443807,0.259374,-3.14131,-0.000345145,-0.000290614
0.418698,0.0208375,0.443807,0.259374,-3.14131,-0.000345145,-0.000290614
0.426828,0.0208375,0.443807,0.259374,-3.14131,-0.000345145,-0.000290614
0.43471,0.0208375,0.443807,0.259374,-3.14131,-0.000345145,-0.000290614
0.442859,0.0208375,0.443807,0.259374,-3.14131,-0.000345145,-0.000290614
0.450754,0.0208375,0.443807,0.259374,-3.14131,-0.000345145,-0.000290614
0.458828,0.0208375,0.443807,0.259374,-3.14131,-0.000345145,-0.000290614
0.466855,0.0208375,0.443807,0.259374,-3.14131,-0.000345145,-0.000290614
0.474781,0.0208375,0.443807,0.259374,-3.14131,-0.000345145,-0.000290614
0.482745,0.0208375,0.443807,0.259374,-3.14131,-0.000345145,-0.000290614
0.490782,0.0208375,0.443807,0.259374,-3.14131,-0.000345145,-0.000290614
0.498772,0.0208375,0.443807,0.259374,-3.14131,-0.000345145,-0.000290614
0.506693,0.0210221,0.443789,0.259421,-3.14119,-0.000343909,-0.000757335
0.514726,0.0210221,0.443789,0.259421,-3.14119,-0.000343909,-0.000757335
0.522793,0.0210221,0.443789,0.259421,-3.14119,-0.000343909,-0.000757335
0.530737,0.0210221,0.443789,0.259421,-3.14119,-0.000343909,-0.000757335
0.53879,0.0210221,0.443789,0.259421,-3.14119,-0.000343909,-0.000757335
0.546898,0.0210221,0.443789,0.259421,-3.14119,-0.000343909,-0.000757335
0.554888,0.0210221,0.443789,0.259421,-3.14119,-0.000343909,-0.000757335
0.562897,0.0210221,0.443789,0.259421,-3.14119,-0.000343909,-0.000757335
0.570824,0.0210221,0.443789,0.259421,-3.14119,-0.000343909,-0.000757335
0.578876,0.0210221,0.443789,0.259421,-3.14119,-0.000343909,-0.000757335
0.586839,0.0210221,0.443789,0.259421,-3.14119,-0.000343909,-0.000757335
0.594836,0.0210221,0.443789,0.259421,-3.14119,-0.000343909,-0.000757335
0.602762,0.0212252,0.443499,0.259858,-3.14058,-0.00017142,-0.0014377
0.610776,0.0212252,0.443499,0.259858,-3.14058,-0.00017142,-0.0014377
0.618781,0.0212252,0.443499,0.259858,-3.14058,-0.00017142,-0.0014377
0.626823,0.0212252,0.443499,0.259858,-3.14058,-0.00017142,-0.0014377
0.634736,0.0212252,0.443499,0.259858,-3.14058,-0.00017142,-0.0014377
0.642864,0.0212252,0.443499,0.259858,-3.14058,-0.00017142,-0.0014377
0.650789,0.0212252,0.443499,0.259858,-3.14058,-0.00017142,-0.0014377
0.658854,0.0212252,0.443499,0.259858,-3.14058,-0.00017142,-0.0014377
0.666829,0.0212252,0.443499,0.259858,-3.14058,-0.00017142,-0.0014377
0.674911,0.0212252,0.443499,0.259858,-3.14058,-0.00017142,-0.0014377
0.682828,0.0212252,0.443499,0.259858,-3.14058,-0.00017142,-0.0014377
0.690818,0.0212252,0.443499,0.259858,-3.14058,-0.00017142,-0.0014377
0.6988,0.0212252,0.443499,0.259858,-3.14058,-0.00017142,-0.0014377
0.706671,0.0226048,0.442079,0.264027,-3.13208,0.00226833,-0.00405346
0.714707,0.0226048,0.442079,0.264027,-3.13208,0.00226833,-0.00405346
0.722835,0.0226048,0.442079,0.264027,-3.13208,0.00226833,-0.00405346
0.730842,0.0226048,0.442079,0.264027,-3.13208,0.00226833,-0.00405346
0.738819,0.0226048,0.442079,0.264027,-3.13208,0.00226833,-0.00405346
0.746872,0.0226048,0.442079,0.264027,-3.13208,0.00226833,-0.00405346
0.754814,0.0226048,0.442079,0.264027,-3.13208,0.00226833,-0.00405346
0.762827,0.0226048,0.442079,0.264027,-3.13208,0.00226833,-0.00405346
0.770782,0.0226048,0.442079,0.264027,-3.13208,0.00226833,-0.00405346
0.778879,0.0226048,0.442079,0.264027,-3.13208,0.00226833,-0.00405346
0.786781,0.0226048,0.442079,0.264027,-3.13208,0.00226833,-0.00405346
0.794838,0.0226048,0.442079,0.264027,-3.13208,0.00226833,-0.00405346
0.802733,0.023836,0.43779,0.27759,-3.10301,0.0129732,-0.00535454
0.810692,0.023836,0.43779,0.27759,-3.10301,0.0129732,-0.00535454
0.818658,0.023836,0.43779,0.27759,-3.10301,0.0129732,-0.00535454
0.826751,0.023836,0.43779,0.27759,-3.10301,0.0129732,-0.00535454
0.834717,0.0240637,0.435872,0.28202,-3.09449,0.0165427,-0.00510375
0.842713,0.0240637,0.435872,0.28202,-3.09449,0.0165427,-0.00510375
0.850736,0.0240637,0.435872,0.28202,-3.09449,0.0165427,-0.00510375
0.85881,0.0240637,0.435872,0.28202,-3.09449,0.0165427,-0.00510375
0.866819,0.0240637,0.435872,0.28202,-3.09449,0.0165427,-0.00510375
0.87484,0.0240637,0.435872,0.28202,-3.09449,0.0165427,-0.00510375
0.882835,0.0240637,0.435872,0.28202,-3.09449,0.0165427,-0.00510375
0.890819,0.0240637,0.435872,0.28202,-3.09449,0.0165427,-0.00510375
0.898807,0.0240637,0.435872,0.28202,-3.09449,0.0165427,-0.00510375
0.906744,0.0255901,0.424438,0.298439,-3.06829,0.0309619,-0.00370234
0.914702,0.0255901,0.424438,0.298439,-3.06829,0.0309619,-0.00370234
0.922829,0.0255901,0.424438,0.298439,-3.06829,0.0309619,-0.00370234
0.930784,0.0255901,0.424438,0.298439,-3.06829,0.0309619,-0.00370234
0.938784,0.0255901,0.424438,0.298439,-3.06829,0.0309619,-0.00370234
0.946837,0.0255901,0.424438,0.298439,-3.06829,0.0309619,-0.00370234
0.954772,0.0255901,0.424438,0.298439,-3.06829,0.0309619,-0.00370234
0.962733,0.0255901,0.424438,0.298439,-3.06829,0.0309619,-0.00370234
0.970817,0.0255901,0.424438,0.298439,-3.06829,0.0309619,-0.00370234
0.978795,0.0255901,0.424438,0.298439,-3.06829,0.0309619,-0.00370234
0.986777,0.0255901,0.424438,0.298439,-3.06829,0.0309619,-0.00370234
0.994755,0.0255901,0.424438,0.298439,-3.06829,0.0309619,-0.00370234
1.00274,0.0276751,0.408421,0.309619,-3.05912,0.0462779,-0.00205414
1.01068,0.0276751,0.408421,0.309619,-3.05912,0.0462779,-0.00205414
1.01871,0.0276751,0.408421,0.309619,-3.05912,0.0462779,-0.00205414
1.02676,0.0276751,0.408421,0.309619,-3.05912,0.0462779,-0.00205414
1.03472,0.0276751,0.408421,0.309619,-3.05912,0.0462779,-0.00205414
1.04283,0.0276751,0.408421,0.309619,-3.05912,0.0462779,-0.00205414
1.05073,0.0276751,0.408421,0.309619,-3.05912,0.0462779,-0.00205414
1.05881,0.0276751,0.408421,0.309619,-3.05912,0.0462779,-0.00205414
1.06676,0.0276751,0.408421,0.309619,-3.05912,0.0462779,-0.00205414
1.0749,0.0276751,0.408421,0.309619,-3.05912,0.0462779,-0.00205414
1.08279,0.0276751,0.408421,0.309619,-3.05912,0.0462779,-0.00205414
1.09084,0.0276751,0.408421,0.309619,-3.05912,0.0462779,-0.00205414
1.09881,0.0276751,0.408421,0.309619,-3.05912,0.0462779,-0.00205414
1.10672,0.0303827,0.394347,0.314618,-3.05972,0.0475301,-0.00179414
1.11466,0.0303827,0.394347,0.314618,-3.05972,0.0475301,-0.00179414
1.12269,0.0303827,0.394347,0.314618,-3.05972,0.0475301,-0.00179414
1.13075,0.0303827,0.394347,0.314618,-3.05972,0.0475301,-0.00179414
1.13872,0.0303827,0.394347,0.314618,-3.05972,0.0475301,-0.00179414
1.14675,0.0303827,0.394347,0.314618,-3.05972,0.0475301,-0.00179414
1.15471,0.0303827,0.394347,0.314618,-3.05972,0.0475301,-0.00179414
1.16272,0.0303827,0.394347,0.314618,-3.05972,0.0475301,-0.00179414
1.17079,0.0303827,0.394347,0.314618,-3.05972,0.0475301,-0.00179414
1.17884,0.0303827,0.394347,0.314618,-3.05972,0.0475301,-0.00179414
1.18678,0.0303827,0.394347,0.314618,-3.05972,0.0475301,-0.00179414
1.19477,0.0303827,0.394347,0.314618,-3.05972,0.0475301,-0.00179414
1.20279,0.0368317,0.36226,0.323688,-3.05665,0.0477972,-0.000610015
1.2107,0.0368317,0.36226,0.323688,-3.05665,0.0477972,-0.000610015
1.2187,0.0368317,0.36226,0.323688,-3.05665,0.0477972,-0.000610015
1.22678,0.0368317,0.36226,0.323688,-3.05665,0.0477972,-0.000610015
1.23468,0.0368317,0.36226,0.323688,-3.05665,0.0477972,-0.000610015
1.24274,0.0368317,0.36226,0.323688,-3.05665,0.0477972,-0.000610015
1.25082,0.0368317,0.36226,0.323688,-3.05665,0.0477972,-0.000610015
1.2588,0.0368317,0.36226,0.323688,-3.05665,0.0477972,-0.000610015
1.26677,0.0368317,0.36226,0.323688,-3.05665,0.0477972,-0.000610015
1.27481,0.0368317,0.36226,0.323688,-3.05665,0.0477972,-0.000610015
1.28281,0.0368317,0.36226,0.323688,-3.05665,0.0477972,-0.000610015
1.29078,0.0368317,0.36226,0.323688,-3.05665,0.0477972,-0.000610015
1.29874,0.0368317,0.36226,0.323688,-3.05665,0.0477972,-0.000610015
1.30668,0.040942,0.339572,0.331292,-3.0429,0.0552515,0.00119868
1.31462,0.040942,0.339572,0.331292,-3.0429,0.0552515,0.00119868
1.32267,0.040942,0.339572,0.331292,-3.0429,0.0552515,0.00119868
1.33073,0.040942,0.339572,0.331292,-3.0429,0.0552515,0.00119868
1.33868,0.040942,0.339572,0.331292,-3.0429,0.0552515,0.00119868
1.34676,0.040942,0.339572,0.331292,-3.0429,0.0552515,0.00119868
1.3548,0.040942,0.339572,0.331292,-3.0429,0.0552515,0.00119868
1.36277,0.040942,0.339572,0.331292,-3.0429,0.0552515,0.00119868
1.37077,0.040942,0.339572,0.331292,-3.0429,0.0552515,0.00119868
1.37889,0.040942,0.339572,0.331292,-3.0429,0.0552515,0.00119868
1.38678,0.040942,0.339572,0.331292,-3.0429,0.0552515,0.00119868
1.39476,0.040942,0.339572,0.331292,-3.0429,0.0552515,0.00119868
1.40278,0.0429084,0.322717,0.335361,-3.0353,0.0726441,0.0059627
1.41068,0.0429084,0.322717,0.335361,-3.0353,0.0726441,0.0059627
1.41864,0.0429084,0.322717,0.335361,-3.0353,0.0726441,0.0059627
1.42679,0.0429084,0.322717,0.335361,-3.0353,0.0726441,0.0059627
1.43473,0.0429084,0.322717,0.335361,-3.0353,0.0726441,0.0059627
1.44284,0.0429084,0.322717,0.335361,-3.0353,0.0726441,0.0059627
1.45083,0.0429084,0.322717,0.335361,-3.0353,0.0726441,0.0059627
1.45884,0.0429084,0.322717,0.335361,-3.0353,0.0726441,0.0059627
1.46684,0.0429084,0.322717,0.335361,-3.0353,0.0726441,0.0059627
1.47483,0.0429084,0.322717,0.335361,-3.0353,0.0726441,0.0059627
1.48289,0.0429084,0.322717,0.335361,-3.0353,0.0726441,0.0059627
1.49079,0.0429084,0.322717,0.335361,-3.0353,0.0726441,0.0059627
1.49882,0.0429084,0.322717,0.335361,-3.0353,0.0726441,0.0059627
1.50673,0.0445198,0.30268,0.33458,-3.03903,0.0948495,0.0237218
1.51474,0.0445198,0.30268,0.33458,-3.03903,0.0948495,0.0237218
1.52272,0.0445198,0.30268,0.33458,-3.03903,0.0948495,0.0237218
1.53083,0.0445198,0.30268,0.33458,-3.03903,0.0948495,0.0237218
1.53872,0.0445198,0.30268,0.33458,-3.03903,0.0948495,0.0237218
1.5469,0.0445198,0.30268,0.33458,-3.03903,0.0948495,0.0237218
1.5548,0.0445198,0.30268,0.33458,-3.03903,0.0948495,0.0237218
1.56278,0.0445198,0.30268,0.33458,-3.03903,0.0948495,0.0237218
1.57077,0.0445198,0.30268,0.33458,-3.03903,0.0948495,0.0237218
1.57882,0.0445198,0.30268,0.33458,-3.03903,0.0948495,0.0237218
1.58673,0.0445198,0.30268,0.33458,-3.03903,0.0948495,0.0237218
1.59475,0.0445198,0.30268,0.33458,-3.03903,0.0948495,0.0237218
1.60273,0.0470236,0.28735,0.325676,-3.06042,0.0898245,0.051225
1.61064,0.0470236,0.28735,0.325676,-3.06042,0.0898245,0.051225
1.6187,0.0470236,0.28735,0.325676,-3.06042,0.0898245,0.051225
1.62675,0.0481489,0.281403,0.318688,-3.07993,0.0859893,0.0596482
1.63469,0.0481489,0.281403,0.318688,-3.07993,0.0859893,0.0596482
1.64272,0.0481489,0.281403,0.318688,-3.07993,0.0859893,0.0596482
1.65075,0.0481489,0.281403,0.318688,-3.07993,0.0859893,0.0596482
1.65874,0.0481489,0.281403,0.318688,-3.07993,0.0859893,0.0596482
1.66675,0.0481489,0.281403,0.318688,-3.07993,0.0859893,0.0596482
1.6748,0.0481489,0.281403,0.318688,-3.07993,0.0859893,0.0596482
1.6828,0.0481489,0.281403,0.318688,-3.07993,0.0859893,0.0596482
1.69076,0.0481489,0.281403,0.318688,-3.07993,0.0859893,0.0596482
1.69877,0.0481489,0.281403,0.318688,-3.07993,0.0859893,0.0596482
1.70673,0.049421,0.274085,0.306957,-3.11529,0.0803078,0.0629001
1.7146,0.049421,0.274085,0.306957,-3.11529,0.0803078,0.0629001
1.72264,0.049421,0.274085,0.306957,-3.11529,0.0803078,0.0629001
1.73069,0.049421,0.274085,0.306957,-3.11529,0.0803078,0.0629001
1.73863,0.049421,0.274085,0.306957,-3.11529,0.0803078,0.0629001
1.74671,0.049421,0.274085,0.306957,-3.11529,0.0803078,0.0629001
1.7547,0.049421,0.274085,0.306957,-3.11529,0.0803078,0.0629001
1.76268,0.049421,0.274085,0.306957,-3.11529,0.0803078,0.0629001
1.77075,0.049421,0.274085,0.306957,-3.11529,0.0803078,0.0629001
1.77876,0.049421,0.274085,0.306957,-3.11529,0.0803078,0.0629001
1.78675,0.049421,0.274085,0.306957,-3.11529,0.0803078,0.0629001
1.79477,0.049421,0.274085,0.306957,-3.11529,0.0803078,0.0629001
1.80277,0.0504954,0.265972,0.292481,3.12276,0.0736417,0.0619531
1.81065,0.0504954,0.265972,0.292481,3.12276,0.0736417,0.0619531
1.81865,0.0504954,0.265972,0.292481,3.12276,0.0736417,0.0619531
1.82672,0.0504954,0.265972,0.292481,3.12276,0.0736417,0.0619531
1.83467,0.0504954,0.265972,0.292481,3.12276,0.0736417,0.0619531
1.84273,0.0504954,0.265972,0.292481,3.12276,0.0736417,0.0619531
1.85073,0.0504954,0.265972,0.292481,3.12276,0.0736417,0.0619531
1.8587,0.0504954,0.265972,0.292481,3.12276,0.0736417,0.0619531
1.8667,0.0504954,0.265972,0.292481,3.12276,0.0736417,0.0619531
1.87478,0.0504954,0.265972,0.292481,3.12276,0.0736417,0.0619531
1.88274,0.0504954,0.265972,0.292481,3.12276,0.0736417,0.0619531
1.89073,0.0504954,0.265972,0.292481,3.12276,0.0736417,0.0619531
1.89871,0.0504954,0.265972,0.292481,3.12276,0.0736417,0.0619531
1.90667,0.0507081,0.259562,0.281516,3.08849,0.0686975,0.0641328
1.91459,0.0507081,0.259562,0.281516,3.08849,0.0686975,0.0641328
1.92265,0.0507081,0.259562,0.281516,3.08849,0.0686975,0.0641328
1.93068,0.0507081,0.259562,0.281516,3.08849,0.0686975,0.0641328
1.93866,0.0507081,0.259562,0.281516,3.08849,0.0686975,0.0641328
1.94671,0.0507081,0.259562,0.281516,3.08849,0.0686975,0.0641328
1.95467,0.0507081,0.259562,0.281516,3.08849,0.0686975,0.0641328
1.96269,0.0507081,0.259562,0.281516,3.08849,0.0686975,0.0641328
1.97075,0.0507081,0.259562,0.281516,3.08849,0.0686975,0.0641328
1.97878,0.0507081,0.259562,0.281516,3.08849,0.0686975,0.0641328
1.98677,0.0507081,0.259562,0.281516,3.08849,0.0686975,0.0641328
1.99477,0.0507081,0.259562,0.281516,3.08849,0.0686975,0.0641328
2.00274,0.0494971,0.255835,0.275217,3.06872,0.0655466,0.0710699
2.01065,0.0494971,0.255835,0.275217,3.06872,0.0655466,0.0710699
2.01865,0.0494971,0.255835,0.275217,3.06872,0.0655466,0.0710699
2.02668,0.0494971,0.255835,0.275217,3.06872,0.0655466,0.0710699
2.03465,0.0494971,0.255835,0.275217,3.06872,0.0655466,0.0710699
2.04269,0.0473971,0.254371,0.271337,3.05704,0.0637098,0.0803001
2.0507,0.0473971,0.254371,0.271337,3.05704,0.0637098,0.0803001
2.05874,0.0473971,0.254371,0.271337,3.05704,0.0637098,0.0803001
2.0667,0.0473971,0.254371,0.271337,3.05704,0.0637098,0.0803001
2.07486,0.0473971,0.254371,0.271337,3.05704,0.0637098,0.0803001
2.08279,0.0473971,0.254371,0.271337,3.05704,0.0637098,0.0803001
2.09083,0.0473971,0.254371,0.271337,3.05704,0.0637098,0.0803001
2.09879,0.0473971,0.254371,0.271337,3.05704,0.0637098,0.0803001
2.10669,0.0428561,0.253566,0.265348,3.04698,0.0621143,0.0986257
2.11463,0.0428561,0.253566,0.265348,3.04698,0.0621143,0.0986257
2.12272,0.0428561,0.253566,0.265348,3.04698,0.0621143,0.0986257
2.1308,0.0428561,0.253566,0.265348,3.04698,0.0621143,0.0986257
2.13875,0.0428561,0.253566,0.265348,3.04698,0.0621143,0.0986257
2.14681,0.0428561,0.253566,0.265348,3.04698,0.0621143,0.0986257
2.15479,0.0428561,0.253566,0.265348,3.04698,0.0621143,0.0986257
2.16278,0.0428561,0.253566,0.265348,3.04698,0.0621143,0.0986257
2.17073,0.0428561,0.253566,0.265348,3.04698,0.0621143,0.0986257
2.17874,0.0428561,0.253566,0.265348,3.04698,0.0621143,0.0986257
2.18669,0.0428561,0.253566,0.265348,3.04698,0.0621143,0.0986257
2.19472,0.0428561,0.253566,0.265348,3.04698,0.0621143,0.0986257
2.2027,0.040422,0.254773,0.263304,3.06401,0.0647147,0.10695
2.21067,0.040422,0.254773,0.263304,3.06401,0.0647147,0.10695
2.21863,0.040422,0.254773,0.263304,3.06401,0.0647147,0.10695
2.22675,0.040422,0.254773,0.263304,3.06401,0.0647147,0.10695
2.23471,0.040422,0.254773,0.263304,3.06401,0.0647147,0.10695
2.24277,0.040422,0.254773,0.263304,3.06401,0.0647147,0.10695
2.25076,0.040422,0.254773,0.263304,3.06401,0.0647147,0.10695
2.25876,0.040422,0.254773,0.263304,3.06401,0.0647147,0.10695
2.26681,0.040422,0.254773,0.263304,3.06401,0.0647147,0.10695
2.27489,0.040422,0.254773,0.263304,3.06401,0.0647147,0.10695
2.28285,0.040422,0.254773,0.263304,3.06401,0.0647147,0.10695
2.29076,0.040422,0.254773,0.263304,3.06401,0.0647147,0.10695
2.29875,0.040422,0.254773,0.263304,3.06401,0.0647147,0.10695
2.30665,0.039925,0.25653,0.262796,3.09084,0.0690003,0.108901
2.31462,0.039925,0.25653,0.262796,3.09084,0.0690003,0.108901
2.32268,0.039925,0.25653,0.262796,3.09084,0.0690003,0.108901
2.33073,0.039925,0.25653,0.262796,3.09084,0.0690003,0.108901
2.33876,0.039925,0.25653,0.262796,3.09084,0.0690003,0.108901
2.34675,0.039925,0.25653,0.262796,3.09084,0.0690003,0.108901
2.35481,0.039925,0.25653,0.262796,3.09084,0.0690003,0.108901
2.36276,0.039925,0.25653,0.262796,3.09084,0.0690003,0.108901
2.37073,0.039925,0.25653,0.262796,3.09084,0.0690003,0.108901
2.37886,0.039925,0.25653,0.262796,3.09084,0.0690003,0.108901
2.38673,0.039925,0.25653,0.262796,3.09084,0.0690003,0.108901
2.39481,0.039925,0.25653,0.262796,3.09084,0.0690003,0.108901
2.40286,0.039912,0.256106,0.259383,3.09488,0.0708261,0.109271
2.4107,0.039912,0.256106,0.259383,3.09488,0.0708261,0.109271
2.41865,0.039912,0.256106,0.259383,3.09488,0.0708261,0.109271
2.4268,0.039912,0.256106,0.259383,3.09488,0.0708261,0.109271
2.4347,0.039912,0.256106,0.259383,3.09488,0.0708261,0.109271
2.44272,0.039912,0.256106,0.259383,3.09488,0.0708261,0.109271
2.45075,0.039912,0.256106,0.259383,3.09488,0.0708261,0.109271
2.45866,0.039912,0.256106,0.259383,3.09488,0.0708261,0.109271
2.46668,0.039912,0.256106,0.259383,3.09488,0.0708261,0.109271
2.47482,0.039912,0.256106,0.259383,3.09488,0.0708261,0.109271
2.48276,0.039912,0.256106,0.259383,3.09488,0.0708261,0.109271
2.49075,0.039912,0.256106,0.259383,3.09488,0.0708261,0.109271
2.49873,0.039912,0.256106,0.259383,3.09488,0.0708261,0.109271
2.50661,0.040015,0.255409,0.256482,3.09554,0.0721413,0.10924
2.51462,0.040015,0.255409,0.256482,3.09554,0.0721413,0.10924
2.52262,0.040015,0.255409,0.256482,3.09554,0.0721413,0.10924
2.53068,0.040015,0.255409,0.256482,3.09554,0.0721413,0.10924
2.53866,0.040015,0.255409,0.256482,3.09554,0.0721413,0.10924
2.5467,0.040015,0.255409,0.256482,3.09554,0.0721413,0.10924
2.55472,0.040015,0.255409,0.256482,3.09554,0.0721413,0.10924
2.5627,0.040015,0.255409,0.256482,3.09554,0.0721413,0.10924
2.57073,0.040015,0.255409,0.256482,3.09554,0.0721413,0.10924
2.57871,0.040015,0.255409,0.256482,3.09554,0.0721413,0.10924
2.5867,0.040015,0.255409,0.256482,3.09554,0.0721413,0.10924
2.59472,0.040015,0.255409,0.256482,3.09554,0.0721413,0.10924
2.60274,0.0400127,0.255374,0.25651,3.09561,0.0721874,0.109244
2.6106,0.0400127,0.255374,0.25651,3.09561,0.0721874,0.109244
2.6186,0.0400127,0.255374,0.25651,3.09561,0.0721874,0.109244
2.62664,0.0400127,0.255374,0.25651,3.09561,0.0721874,0.109244
2.63463,0.0400127,0.255374,0.25651,3.09561,0.0721874,0.109244
2.64265,0.0400127,0.255374,0.25651,3.09561,0.0721874,0.109244
2.65071,0.0400127,0.255374,0.25651,3.09561,0.0721874,0.109244
2.65867,0.0400127,0.255374,0.25651,3.09561,0.0721874,0.109244
2.66667,0.0400127,0.255374,0.25651,3.09561,0.0721874,0.109244
2.67472,0.0400127,0.255374,0.25651,3.09561,0.0721874,0.109244
2.68274,0.0400127,0.255374,0.25651,3.09561,0.0721874,0.109244
2.69069,0.0400127,0.255374,0.25651,3.09561,0.0721874,0.109244
2.69869,0.0400127,0.255374,0.25651,3.09561,0.0721874,0.109244
2.70662,0.0400289,0.255364,0.256479,3.09548,0.0721802,0.109198
2.71463,0.0400289,0.255364,0.256479,3.09548,0.0721802,0.109198
2.72266,0.0400289,0.255364,0.256479,3.09548,0.0721802,0.109198
2.73073,0.0400289,0.255364,0.256479,3.09548,0.0721802,0.109198
2.73872,0.0400289,0.255364,0.256479,3.09548,0.0721802,0.109198
2.74666,0.0400289,0.255364,0.256479,3.09548,0.0721802,0.109198
2.75476,0.0400289,0.255364,0.256479,3.09548,0.0721802,0.109198
2.76269,0.0400289,0.255364,0.256479,3.09548,0.0721802,0.109198
2.77065,0.0400289,0.255364,0.256479,3.09548,0.0721802,0.109198
2.77874,0.0400289,0.255364,0.256479,3.09548,0.0721802,0.109198
2.78672,0.0400289,0.255364,0.256479,3.09548,0.0721802,0.109198
2.79468,0.0400289,0.255364,0.256479,3.09548,0.0721802,0.109198
2.80272,0.0400166,0.255363,0.256471,3.0954,0.0722163,0.109261
2.8106,0.0400166,0.255363,0.256471,3.0954,0.0722163,0.109261
2.81861,0.0400166,0.255363,0.256471,3.0954,0.0722163,0.109261
2.82671,0.0400166,0.255363,0.256471,3.0954,0.0722163,0.109261
2.83466,0.0400166,0.255363,0.256471,3.0954,0.0722163,0.109261
2.84268,0.0400166,0.255363,0.256471,3.0954,0.0722163,0.109261
2.85075,0.0400166,0.255363,0.256471,3.0954,0.0722163,0.109261
2.85871,0.0400166,0.255363,0.256471,3.0954,0.0722163,0.109261
2.86679,0.0400166,0.255363,0.256471,3.0954,0.0722163,0.109261
2.87486,0.0400166,0.255363,0.256471,3.0954,0.0722163,0.109261
2.8828,0.0400166,0.255363,0.256471,3.0954,0.0722163,0.109261
2.89076,0.0400166,0.255363,0.256471,3.0954,0.0722163,0.109261
2.89886,0.0400166,0.255363,0.256471,3.0954,0.0722163,0.109261
2.90676,0.0400175,0.255365,0.256513,3.09553,0.072325,0.109317
2.91463,0.0400175,0.255365,0.256513,3.09553,0.072325,0.109317
2.92268,0.0400175,0.255365,0.256513,3.09553,0.072325,0.109317
2.93065,0.0400175,0.255365,0.256513,3.09553,0.072325,0.109317
2.93869,0.0400175,0.255365,0.256513,3.09553,0.072325,0.109317
2.94672,0.0400175,0.255365,0.256513,3.09553,0.072325,0.109317
2.9548,0.0400175,0.255365,0.256513,3.09553,0.072325,0.109317
2.96279,0.0400175,0.255365,0.256513,3.09553,0.072325,0.109317
2.97071,0.0400175,0.255365,0.256513,3.09553,0.072325,0.109317
2.97879,0.0400175,0.255365,0.256513,3.09553,0.072325,0.109317
2.98667,0.0400175,0.255365,0.256513,3.09553,0.072325,0.109317
2.99475,0.0400175,0.255365,0.256513,3.09553,0.072325,0.109317
3.00272,0.0400318,0.25538,0.256546,3.09564,0.0724026,0.109215
3.0107,0.0400318,0.25538,0.256546,3.09564,0.0724026,0.109215
3.01868,0.0400318,0.25538,0.256546,3.09564,0.0724026,0.109215
3.02669,0.0400318,0.25538,0.256546,3.09564,0.0724026,0.109215
3.03467,0.0400318,0.25538,0.256546,3.09564,0.0724026,0.109215
3.04271,0.0400318,0.25538,0.256546,3.09564,0.0724026,0.109215
3.0508,0.0400318,0.25538,0.256546,3.09564,0.0724026,0.109215
3.05876,0.0400318,0.25538,0.256546,3.09564,0.0724026,0.109215
3.06674,0.0400318,0.25538,0.256546,3.09564,0.0724026,0.109215
3.07479,0.0400318,0.25538,0.256546,3.09564,0.0724026,0.109215
3.08277,0.0400318,0.25538,0.256546,3.09564,0.0724026,0.109215
3.0907,0.0400318,0.25538,0.256546,3.09564,0.0724026,0.109215
3.09877,0.0400318,0.25538,0.256546,3.09564,0.0724026,0.109215
3.10669,0.0400298,0.25538,0.256569,3.09575,0.0724059,0.109211
3.11458,0.0400298,0.25538,0.256569,3.09575,0.0724059,0.109211
3.12263,0.0400298,0.25538,0.256569,3.09575,0.0724059,0.109211
3.13069,0.0400298,0.25538,0.256569,3.09575,0.0724059,0.109211
3.13869,0.0400298,0.25538,0.256569,3.09575,0.0724059,0.109211
3.14672,0.0400298,0.25538,0.256569,3.09575,0.0724059,0.109211
3.1548,0.0400298,0.25538,0.256569,3.09575,0.0724059,0.109211
3.1628,0.0400298,0.25538,0.256569,3.09575,0.0724059,0.109211
3.17075,0.0400298,0.25538,0.256569,3.09575,0.0724059,0.109211
3.17876,0.0400298,0.25538,0.256569,3.09575,0.0724059,0.109211
3.18674,0.0400298,0.25538,0.256569,3.09575,0.0724059,0.109211
3.19475,0.0400298,0.25538,0.256569,3.09575,0.0724059,0.109211
3.20277,0.0400314,0.255381,0.256558,3.0957,0.0724118,0.109219
3.21062,0.0400314,0.255381,0.256558,3.0957,0.0724118,0.109219
3.2192,0.0400314,0.255381,0.256558,3.0957,0.0724118,0.109219
3.2267,0.0400314,0.255381,0.256558,3.0957,0.0724118,0.109219
3.2347,0.0400314,0.255381,0.256558,3.0957,0.0724118,0.109219
3.24272,0.0400314,0.255381,0.256558,3.0957,0.0724118,0.109219
3.25079,0.0400314,0.255381,0.256558,3.0957,0.0724118,0.109219
3.25881,0.0400314,0.255381,0.256558,3.0957,0.0724118,0.109219
3.26676,0.0400314,0.255381,0.256558,3.0957,0.0724118,0.109219
3.27471,0.0400314,0.255381,0.256558,3.0957,0.0724118,0.109219
3.28266,0.0400314,0.255381,0.256558,3.0957,0.0724118,0.109219
3.29066,0.0400314,0.255381,0.256558,3.0957,0.0724118,0.109219
3.29868,0.0400314,0.255381,0.256558,3.0957,0.0724118,0.109219
3.30672,0.0400283,0.255382,0.256553,3.09567,0.072372,0.109278
3.31463,0.0400283,0.255382,0.256553,3.09567,0.072372,0.109278
3.32268,0.0400283,0.255382,0.256553,3.09567,0.072372,0.109278
3.33072,0.0400283,0.255382,0.256553,3.09567,0.072372,0.109278
3.3387,0.0400283,0.255382,0.256553,3.09567,0.072372,0.109278
3.34679,0.0400283,0.255382,0.256553,3.09567,0.072372,0.109278
3.35475,0.0400283,0.255382,0.256553,3.09567,0.072372,0.109278
3.36275,0.0400283,0.255382,0.256553,3.09567,0.072372,0.109278
3.37075,0.0400283,0.255382,0.256553,3.09567,0.072372,0.109278
3.37877,0.0400283,0.255382,0.256553,3.09567,0.072372,0.109278
3.38669,0.0400283,0.255382,0.256553,3.09567,0.072372,0.109278
3.39477,0.0400283,0.255382,0.256553,3.09567,0.072372,0.109278
3.40263,0.0400383,0.255375,0.256558,3.09573,0.0722823,0.109238
3.41064,0.0400383,0.255375,0.256558,3.09573,0.0722823,0.109238
3.41866,0.0400383,0.255375,0.256558,3.09573,0.0722823,0.109238
3.42672,0.0400383,0.255375,0.256558,3.09573,0.0722823,0.109238
3.4347,0.0400383,0.255375,0.256558,3.09573,0.0722823,0.109238
3.44273,0.0400383,0.255375,0.256558,3.09573,0.0722823,0.109238
3.45076,0.0400383,0.255375,0.256558,3.09573,0.0722823,0.109238
3.45876,0.0400383,0.255375,0.256558,3.09573,0.0722823,0.109238
3.46681,0.0400383,0.255375,0.256558,3.09573,0.0722823,0.109238
3.47479,0.0400383,0.255375,0.256558,3.09573,0.0722823,0.109238
3.48278,0.0400383,0.255375,0.256558,3.09573,0.0722823,0.109238
3.49076,0.0400383,0.255375,0.256558,3.09573,0.0722823,0.109238
3.49876,0.0400383,0.255375,0.256558,3.09573,0.0722823,0.109238
3.50657,0.0400304,0.255383,0.256538,3.09566,0.0722732,0.109293
3.51468,0.0400304,0.255383,0.256538,3.09566,0.0722732,0.109293
3.52262,0.0400304,0.255383,0.256538,3.09566,0.0722732,0.109293
3.53067,0.0400304,0.255383,0.256538,3.09566,0.0722732,0.109293
3.53863,0.0400304,0.255383,0.256538,3.09566,0.0722732,0.109293
3.5467,0.0400304,0.255383,0.256538,3.09566,0.0722732,0.109293
3.55475,0.0400304,0.255383,0.256538,3.09566,0.0722732,0.109293
3.56274,0.0400304,0.255383,0.256538,3.09566,0.0722732,0.109293
3.57075,0.0400304,0.255383,0.256538,3.09566,0.0722732,0.109293
3.57872,0.0400304,0.255383,0.256538,3.09566,0.0722732,0.109293
3.58678,0.0400304,0.255383,0.256538,3.09566,0.0722732,0.109293
3.59473,0.0400304,0.255383,0.256538,3.09566,0.0722732,0.109293
3.60269,0.0400387,0.255374,0.256542,3.09572,0.0722827,0.109285
3.6107,0.0400387,0.255374,0.256542,3.09572,0.0722827,0.109285
3.61863,0.0400387,0.255374,0.256542,3.09572,0.0722827,0.109285
3.62675,0.0400387,0.255374,0.256542,3.09572,0.0722827,0.109285
3.63474,0.0400387,0.255374,0.256542,3.09572,0.0722827,0.109285
3.64267,0.0400387,0.255374,0.256542,3.09572,0.0722827,0.109285
3.65079,0.0400387,0.255374,0.256542,3.09572,0.0722827,0.109285
3.65874,0.0400387,0.255374,0.256542,3.09572,0.0722827,0.109285
3.66675,0.0400387,0.255374,0.256542,3.09572,0.0722827,0.109285
3.67473,0.0400387,0.255374,0.256542,3.09572,0.0722827,0.109285
3.68276,0.0400387,0.255374,0.256542,3.09572,0.0722827,0.109285
3.69069,0.0400387,0.255374,0.256542,3.09572,0.0722827,0.109285
3.69877,0.0400387,0.255374,0.256542,3.09572,0.0722827,0.109285
3.70655,0.0400361,0.255376,0.256541,3.09568,0.0723009,0.109281
3.71458,0.0400361,0.255376,0.256541,3.09568,0.0723009,0.109281
3.72259,0.0400361,0.255376,0.256541,3.09568,0.0723009,0.109281
3.73066,0.0400361,0.255376,0.256541,3.09568,0.0723009,0.109281
3.73862,0.0400361,0.255376,0.256541,3.09568,0.0723009,0.109281
3.74667,0.0400361,0.255376,0.256541,3.09568,0.0723009,0.109281
3.75477,0.0400361,0.255376,0.256541,3.09568,0.0723009,0.109281
3.76276,0.0400361,0.255376,0.256541,3.09568,0.0723009,0.109281
3.77071,0.0400361,0.255376,0.256541,3.09568,0.0723009,0.109281
3.77874,0.0400361,0.255376,0.256541,3.09568,0.0723009,0.109281
3.78673,0.0400361,0.255376,0.256541,3.09568,0.0723009,0.109281
3.7947,0.0400361,0.255376,0.256541,3.09568,0.0723009,0.109281
3.80271,0.0400367,0.255371,0.256541,3.09571,0.0722797,0.109272
3.81055,0.0400367,0.255371,0.256541,3.09571,0.0722797,0.109272
3.81859,0.0400367,0.255371,0.256541,3.09571,0.0722797,0.109272
3.82662,0.0400367,0.255371,0.256541,3.09571,0.0722797,0.109272
3.83467,0.0400367,0.255371,0.256541,3.09571,0.0722797,0.109272
3.84267,0.0400367,0.255371,0.256541,3.09571,0.0722797,0.109272
3.85072,0.0400367,0.255371,0.256541,3.09571,0.0722797,0.109272
3.85868,0.0400367,0.255371,0.256541,3.09571,0.0722797,0.109272
3.86672,0.0400367,0.255371,0.256541,3.09571,0.0722797,0.109272
3.87473,0.0400367,0.255371,0.256541,3.09571,0.0722797,0.109272
3.8827,0.0400367,0.255371,0.256541,3.09571,0.0722797,0.109272
3.89068,0.0400367,0.255371,0.256541,3.09571,0.0722797,0.109272
3.89872,0.0400367,0.255371,0.256541,3.09571,0.0722797,0.109272
3.90658,0.0400286,0.255375,0.256542,3.09572,0.0722922,0.109272
3.9147,0.0400286,0.255375,0.256542,3.09572,0.0722922,0.109272
3.92268,0.0400286,0.255375,0.256542,3.09572,0.0722922,0.109272
3.93065,0.0400286,0.255375,0.256542,3.09572,0.0722922,0.109272
3.93872,0.0400286,0.255375,0.256542,3.09572,0.0722922,0.109272
3.94669,0.0400286,0.255375,0.256542,3.09572,0.0722922,0.109272
3.95479,0.0400286,0.255375,0.256542,3.09572,0.0722922,0.109272
3.96274,0.0400286,0.255375,0.256542,3.09572,0.0722922,0.109272
3.97078,0.0400286,0.255375,0.256542,3.09572,0.0722922,0.109272
3.97882,0.0400286,0.255375,0.256542,3.09572,0.0722922,0.109272
3.98672,0.0400286,0.255375,0.256542,3.09572,0.0722922,0.109272
3.99473,0.0400286,0.255375,0.256542,3.09572,0.0722922,0.109272
4.00264,0.0400376,0.255379,0.256534,3.09569,0.0722406,0.109272
4.01056,0.0400376,0.255379,0.256534,3.09569,0.0722406,0.109272
4.01862,0.0400376,0.255379,0.256534,3.09569,0.0722406,0.109272
4.02665,0.0400376,0.255379,0.256534,3.09569,0.0722406,0.109272
4.0347,0.0400376,0.255379,0.256534,3.09569,0.0722406,0.109272
4.04268,0.0400376,0.255379,0.256534,3.09569,0.0722406,0.109272
4.05069,0.0400376,0.255379,0.256534,3.09569,0.0722406,0.109272
4.05875,0.0400376,0.255379,0.256534,3.09569,0.0722406,0.109272
4.06672,0.0400376,0.255379,0.256534,3.09569,0.0722406,0.109272
4.07476,0.0400376,0.255379,0.256534,3.09569,0.0722406,0.109272
4.08263,0.0400376,0.255379,0.256534,3.09569,0.0722406,0.109272
4.09066,0.0400376,0.255379,0.256534,3.09569,0.0722406,0.109272
4.09868,0.0400376,0.255379,0.256534,3.09569,0.0722406,0.109272
4.10659,0.0400388,0.255378,0.256532,3.09568,0.072227,0.109272
4.11457,0.0400388,0.255378,0.256532,3.09568,0.072227,0.109272
4.12257,0.0400388,0.255378,0.256532,3.09568,0.072227,0.109272
4.13062,0.0400388,0.255378,0.256532,3.09568,0.072227,0.109272
4.13866,0.0400388,0.255378,0.256532,3.09568,0.072227,0.109272
4.14665,0.0400388,0.255378,0.256532,3.09568,0.072227,0.109272
4.15477,0.0400388,0.255378,0.256532,3.09568,0.072227,0.109272
4.16267,0.0400388,0.255378,0.256532,3.09568,0.072227,0.109272
4.17072,0.0400388,0.255378,0.256532,3.09568,0.072227,0.109272
4.17867,0.0400388,0.255378,0.256532,3.09568,0.072227,0.109272
4.18676,0.0400388,0.255378,0.256532,3.09568,0.072227,0.109272
4.19469,0.0400388,0.255378,0.256532,3.09568,0.072227,0.109272
4.20265,0.0400347,0.255374,0.25655,3.09573,0.0722951,0.109273
4.21062,0.0400347,0.255374,0.25655,3.09573,0.0722951,0.109273
4.21861,0.0400347,0.255374,0.25655,3.09573,0.0722951,0.109273
4.22672,0.0400347,0.255374,0.25655,3.09573,0.0722951,0.109273
4.23473,0.0400347,0.255374,0.25655,3.09573,0.0722951,0.109273
4.24269,0.0400347,0.255374,0.25655,3.09573,0.0722951,0.109273
4.25067,0.0400347,0.255374,0.25655,3.09573,0.0722951,0.109273
4.25879,0.0400347,0.255374,0.25655,3.09573,0.0722951,0.109273
4.26677,0.0400347,0.255374,0.25655,3.09573,0.0722951,0.109273
4.27471,0.0400347,0.255374,0.25655,3.09573,0.0722951,0.109273
4.28272,0.0400347,0.255374,0.25655,3.09573,0.0722951,0.109273
4.29078,0.0400347,0.255374,0.25655,3.09573,0.0722951,0.109273
4.29855,0.0400347,0.255374,0.25655,3.09573,0.0722951,0.109273
