Time,X,Y,Z,R,P,Y
0.240556,0.0208543,0.443548,0.25818,3.13812,-0.00113894,-5.48911e-05
0.248585,0.0208543,0.443548,0.25818,3.13812,-0.00113894,-5.48911e-05
0.256663,0.0208543,0.443548,0.25818,3.13812,-0.00113894,-5.48911e-05
0.264635,0.0208543,0.443548,0.25818,3.13812,-0.00113894,-5.48911e-05
0.272697,0.0208543,0.443548,0.25818,3.13812,-0.00113894,-5.48911e-05
0.280683,0.0208543,0.443548,0.25818,3.13812,-0.00113894,-5.48911e-05
0.288841,0.0208543,0.443548,0.25818,3.13812,-0.00113894,-5.48911e-05
0.296712,0.0208543,0.443548,0.25818,3.13812,-0.00113894,-5.48911e-05
0.304649,0.0208631,0.443531,0.258118,3.13792,-0.0011813,-0.000102227
0.312644,0.0208631,0.443531,0.258118,3.13792,-0.0011813,-0.000102227
0.320713,0.0208631,0.443531,0.258118,3.13792,-0.0011813,-0.000102227
0.328622,0.0208631,0.443531,0.258118,3.13792,-0.0011813,-0.000102227
0.336659,0.0208631,0.443531,0.258118,3.13792,-0.0011813,-0.000102227
0.344654,0.0208631,0.443531,0.258118,3.13792,-0.0011813,-0.000102227
0.352704,0.0208631,0.443531,0.258118,3.13792,-0.0011813,-0.000102227
0.360687,0.0208631,0.443531,0.258118,3.13792,-0.0011813,-0.000102227
0.368601,0.0208631,0.443531,0.258118,3.13792,-0.0011813,-0.000102227
0.376685,0.0208631,0.443531,0.258118,3.13792,-0.0011813,-0.000102227
0.384641,0.0208631,0.443531,0.258118,3.13792,-0.0011813,-0.000102227
0.392698,0.0208585,0.443528,0.258123,3.13791,-0.00118393,-0.000114253
0.400606,0.0208684,0.44352,0.258125,3.13791,-0.00122158,-0.000101989
0.408606,0.0208684,0.44352,0.258125,3.13791,-0.00122158,-0.000101989
0.416514,0.0208684,0.44352,0.258125,3.13791,-0.00122158,-0.000101989
0.42459,0.0208684,0.44352,0.258125,3.13791,-0.00122158,-0.000101989
0.432618,0.0208684,0.44352,0.258125,3.13791,-0.00122158,-0.000101989
0.440596,0.0208684,0.44352,0.258125,3.13791,-0.00122158,-0.000101989
0.448602,0.0208684,0.44352,0.258125,3.13791,-0.00122158,-0.000101989
0.456634,0.0208684,0.44352,0.258125,3.13791,-0.00122158,-0.000101989
0.464632,0.0208684,0.44352,0.258125,3.13791,-0.00122158,-0.000101989
0.472651,0.0208684,0.44352,0.258125,3.13791,-0.00122158,-0.000101989
0.480685,0.0208684,0.44352,0.258125,3.13791,-0.00122158,-0.000101989
0.488687,0.0208684,0.44352,0.258125,3.13791,-0.00122158,-0.000101989
0.496679,0.0208684,0.44352,0.258125,3.13791,-0.00122158,-0.000101989
0.504578,0.0208606,0.443523,0.258105,3.13786,-0.00120823,-0.000126028
0.512544,0.0208606,0.443523,0.258105,3.13786,-0.00120823,-0.000126028
0.520499,0.0208606,0.443523,0.258105,3.13786,-0.00120823,-0.000126028
0.528621,0.0208606,0.443523,0.258105,3.13786,-0.00120823,-0.000126028
0.536558,0.0208606,0.443523,0.258105,3.13786,-0.00120823,-0.000126028
0.544585,0.0208606,0.443523,0.258105,3.13786,-0.00120823,-0.000126028
0.552619,0.0208606,0.443523,0.258105,3.13786,-0.00120823,-0.000126028
0.560637,0.0208606,0.443523,0.258105,3.13786,-0.00120823,-0.000126028
0.568654,0.0208606,0.443523,0.258105,3.13786,-0.00120823,-0.000126028
0.57673,0.0208606,0.443523,0.258105,3.13786,-0.00120823,-0.000126028
0.584738,0.0208606,0.443523,0.258105,3.13786,-0.00120823,-0.000126028
0.59273,0.0208606,0.443523,0.258105,3.13786,-0.00120823,-0.000126028
0.600712,0.0208564,0.443529,0.258122,3.13792,-0.00115797,-0.000102345
0.608645,0.0208564,0.443529,0.258122,3.13792,-0.00115797,-0.000102345
0.616586,0.0208564,0.443529,0.258122,3.13792,-0.00115797,-0.000102345
0.624776,0.0208564,0.443529,0.258122,3.13792,-0.00115797,-0.000102345
0.632775,0.0208564,0.443529,0.258122,3.13792,-0.00115797,-0.000102345
0.640689,0.0208564,0.443529,0.258122,3.13792,-0.00115797,-0.000102345
0.648639,0.0208564,0.443529,0.258122,3.13792,-0.00115797,-0.000102345
0.656744,0.0208564,0.443529,0.258122,3.13792,-0.00115797,-0.000102345
0.664651,0.0208564,0.443529,0.258122,3.13792,-0.00115797,-0.000102345
0.672646,0.0208564,0.443529,0.258122,3.13792,-0.00115797,-0.000102345
0.680734,0.0208564,0.443529,0.258122,3.13792,-0.00115797,-0.000102345
0.688737,0.0208564,0.443529,0.258122,3.13792,-0.00115797,-0.000102345
0.696707,0.0208564,0.443529,0.258122,3.13792,-0.00115797,-0.000102345
0.704666,0.02086,0.443526,0.258131,3.13794,-0.00119075,-0.00011423
0.71254,0.02086,0.443526,0.258131,3.13794,-0.00119075,-0.00011423
0.720559,0.02086,0.443526,0.258131,3.13794,-0.00119075,-0.00011423
0.728633,0.02086,0.443526,0.258131,3.13794,-0.00119075,-0.00011423
0.73663,0.02086,0.443526,0.258131,3.13794,-0.00119075,-0.00011423
0.744614,0.02086,0.443526,0.258131,3.13794,-0.00119075,-0.00011423
0.75259,0.02086,0.443526,0.258131,3.13794,-0.00119075,-0.00011423
0.760599,0.02086,0.443526,0.258131,3.13794,-0.00119075,-0.00011423
0.768582,0.02086,0.443526,0.258131,3.13794,-0.00119075,-0.00011423
0.776702,0.02086,0.443526,0.258131,3.13794,-0.00119075,-0.00011423
0.784666,0.02086,0.443526,0.258131,3.13794,-0.00119075,-0.00011423
0.792721,0.02086,0.443526,0.258131,3.13794,-0.00119075,-0.00011423
0.800629,0.0208659,0.443522,0.258126,3.1379,-0.00119819,-0.000126069
0.808535,0.0208659,0.443522,0.258126,3.1379,-0.00119819,-0.000126069
0.816541,0.0208659,0.443522,0.258126,3.1379,-0.00119819,-0.000126069
0.824519,0.0208659,0.443522,0.258126,3.1379,-0.00119819,-0.000126069
0.832588,0.0208659,0.443522,0.258126,3.1379,-0.00119819,-0.000126069
0.840625,0.0208659,0.443522,0.258126,3.1379,-0.00119819,-0.000126069
0.848584,0.0208659,0.443522,0.258126,3.1379,-0.00119819,-0.000126069
0.856615,0.0208659,0.443522,0.258126,3.1379,-0.00119819,-0.000126069
0.864631,0.0208659,0.443522,0.258126,3.1379,-0.00119819,-0.000126069
0.872609,0.0208659,0.443522,0.258126,3.1379,-0.00119819,-0.000126069
0.880639,0.0208659,0.443522,0.258126,3.1379,-0.00119819,-0.000126069
0.888701,0.0208659,0.443522,0.258126,3.1379,-0.00119819,-0.000126069
0.89675,0.0208659,0.443522,0.258126,3.1379,-0.00119819,-0.000126069
0.904642,0.0208686,0.443525,0.258131,3.13793,-0.00116715,-0.000126148
0.912566,0.0208686,0.443525,0.258131,3.13793,-0.00116715,-0.000126148
0.920601,0.0208686,0.443525,0.258131,3.13793,-0.00116715,-0.000126148
0.928671,0.0208686,0.443525,0.258131,3.13793,-0.00116715,-0.000126148
0.936616,0.0208686,0.443525,0.258131,3.13793,-0.00116715,-0.000126148
0.944608,0.0208686,0.443525,0.258131,3.13793,-0.00116715,-0.000126148
0.952657,0.0208686,0.443525,0.258131,3.13793,-0.00116715,-0.000126148
0.960622,0.0208686,0.443525,0.258131,3.13793,-0.00116715,-0.000126148
0.968487,0.0208686,0.443525,0.258131,3.13793,-0.00116715,-0.000126148
0.976557,0.0208686,0.443525,0.258131,3.13793,-0.00116715,-0.000126148
0.984631,0.0208686,0.443525,0.258131,3.13793,-0.00116715,-0.000126148
0.99271,0.0208686,0.443525,0.258131,3.13793,-0.00116715,-0.000126148
1.0006,0.0208577,0.443522,0.258117,3.13787,-0.00116789,-0.000114213
1.00857,0.0208577,0.443522,0.258117,3.13787,-0.00116789,-0.000114213
1.01655,0.0208577,0.443522,0.258117,3.13787,-0.00116789,-0.000114213
1.02462,0.0208577,0.443522,0.258117,3.13787,-0.00116789,-0.000114213
1.03264,0.0208577,0.443522,0.258117,3.13787,-0.00116789,-0.000114213
1.04063,0.0208577,0.443522,0.258117,3.13787,-0.00116789,-0.000114213
1.0486,0.0208577,0.443522,0.258117,3.13787,-0.00116789,-0.000114213
1.05663,0.0208577,0.443522,0.258117,3.13787,-0.00116789,-0.000114213
1.06449,0.0208577,0.443522,0.258117,3.13787,-0.00116789,-0.000114213
1.07246,0.0208577,0.443522,0.258117,3.13787,-0.00116789,-0.000114213
1.08056,0.0208577,0.443522,0.258117,3.13787,-0.00116789,-0.000114213
1.08861,0.0208577,0.443522,0.258117,3.13787,-0.00116789,-0.000114213
1.09678,0.0208577,0.443522,0.258117,3.13787,-0.00116789,-0.000114213
1.10455,0.0208499,0.443529,0.258138,3.13796,-0.00119737,-6.64437e-05
1.11248,0.0208499,0.443529,0.258138,3.13796,-0.00119737,-6.64437e-05
1.12052,0.0208499,0.443529,0.258138,3.13796,-0.00119737,-6.64437e-05
1.12862,0.0208499,0.443529,0.258138,3.13796,-0.00119737,-6.64437e-05
1.1367,0.0208499,0.443529,0.258138,3.13796,-0.00119737,-6.64437e-05
1.14462,0.0208499,0.443529,0.258138,3.13796,-0.00119737,-6.64437e-05
1.15265,0.0208499,0.443529,0.258138,3.13796,-0.00119737,-6.64437e-05
1.16067,0.0208499,0.443529,0.258138,3.13796,-0.00119737,-6.64437e-05
1.16862,0.0208499,0.443529,0.258138,3.13796,-0.00119737,-6.64437e-05
1.17662,0.0208499,0.443529,0.258138,3.13796,-0.00119737,-6.64437e-05
1.18468,0.0208499,0.443529,0.258138,3.13796,-0.00119737,-6.64437e-05
1.19273,0.0208499,0.443529,0.258138,3.13796,-0.00119737,-6.64437e-05
1.20065,0.0208604,0.443524,0.25812,3.13789,-0.00120053,-9.0161e-05
1.2086,0.0208604,0.443524,0.25812,3.13789,-0.00120053,-9.0161e-05
1.21668,0.0208604,0.443524,0.25812,3.13789,-0.00120053,-9.0161e-05
1.2246,0.0208604,0.443524,0.25812,3.13789,-0.00120053,-9.0161e-05
1.23269,0.0208604,0.443524,0.25812,3.13789,-0.00120053,-9.0161e-05
1.24068,0.0208604,0.443524,0.25812,3.13789,-0.00120053,-9.0161e-05
1.24864,0.0208604,0.443524,0.25812,3.13789,-0.00120053,-9.0161e-05
1.25667,0.0208604,0.443524,0.25812,3.13789,-0.00120053,-9.0161e-05
1.26466,0.0208604,0.443524,0.25812,3.13789,-0.00120053,-9.0161e-05
1.2727,0.0208604,0.443524,0.25812,3.13789,-0.00120053,-9.0161e-05
1.28067,0.0208604,0.443524,0.25812,3.13789,-0.00120053,-9.0161e-05
1.28863,0.0208604,0.443524,0.25812,3.13789,-0.00120053,-9.0161e-05
1.29676,0.0208604,0.443524,0.25812,3.13789,-0.00120053,-9.0161e-05
1.30461,0.0208596,0.443528,0.258136,3.13796,-0.0011857,-9.03118e-05
1.31245,0.0208596,0.443528,0.258136,3.13796,-0.0011857,-9.03118e-05
1.32053,0.0208596,0.443528,0.258136,3.13796,-0.0011857,-9.03118e-05
1.3285,0.0208596,0.443528,0.258136,3.13796,-0.0011857,-9.03118e-05
1.33657,0.0208596,0.443528,0.258136,3.13796,-0.0011857,-9.03118e-05
1.34457,0.0208596,0.443528,0.258136,3.13796,-0.0011857,-9.03118e-05
1.35253,0.0208596,0.443528,0.258136,3.13796,-0.0011857,-9.03118e-05
1.36059,0.0208596,0.443528,0.258136,3.13796,-0.0011857,-9.03118e-05
1.3686,0.0208596,0.443528,0.258136,3.13796,-0.0011857,-9.03118e-05
1.3766,0.0208596,0.443528,0.258136,3.13796,-0.0011857,-9.03118e-05
1.38469,0.0208596,0.443528,0.258136,3.13796,-0.0011857,-9.03118e-05
1.39275,0.0208596,0.443528,0.258136,3.13796,-0.0011857,-9.03118e-05
1.40072,0.0208881,0.443521,0.258129,3.13793,-0.00120489,-0.000161748
1.40853,0.0208881,0.443521,0.258129,3.13793,-0.00120489,-0.000161748
1.41649,0.0208881,0.443521,0.258129,3.13793,-0.00120489,-0.000161748
1.42454,0.0208881,0.443521,0.258129,3.13793,-0.00120489,-0.000161748
1.43257,0.0208881,0.443521,0.258129,3.13793,-0.00120489,-0.000161748
1.44062,0.0208881,0.443521,0.258129,3.13793,-0.00120489,-0.000161748
1.44861,0.0208881,0.443521,0.258129,3.13793,-0.00120489,-0.000161748
1.45664,0.0208881,0.443521,0.258129,3.13793,-0.00120489,-0.000161748
1.46465,0.0208881,0.443521,0.258129,3.13793,-0.00120489,-0.000161748
1.47258,0.0208881,0.443521,0.258129,3.13793,-0.00120489,-0.000161748
1.48071,0.0208881,0.443521,0.258129,3.13793,-0.00120489,-0.000161748
1.48866,0.0208881,0.443521,0.258129,3.13793,-0.00120489,-0.000161748
1.49666,0.0208881,0.443521,0.258129,3.13793,-0.00120489,-0.000161748
1.50461,0.0210942,0.443492,0.258203,3.13809,-0.00117074,-0.000617258
1.51254,0.0210942,0.443492,0.258203,3.13809,-0.00117074,-0.000617258
1.52052,0.0210942,0.443492,0.258203,3.13809,-0.00117074,-0.000617258
1.52863,0.0210942,0.443492,0.258203,3.13809,-0.00117074,-0.000617258
1.53668,0.0210942,0.443492,0.258203,3.13809,-0.00117074,-0.000617258
1.54468,0.0210942,0.443492,0.258203,3.13809,-0.00117074,-0.000617258
1.5526,0.0210942,0.443492,0.258203,3.13809,-0.00117074,-0.000617258
1.56063,0.0210942,0.443492,0.258203,3.13809,-0.00117074,-0.000617258
1.56864,0.0210942,0.443492,0.258203,3.13809,-0.00117074,-0.000617258
1.57661,0.0210942,0.443492,0.258203,3.13809,-0.00117074,-0.000617258
1.58474,0.0210942,0.443492,0.258203,3.13809,-0.00117074,-0.000617258
1.59271,0.0210942,0.443492,0.258203,3.13809,-0.00117074,-0.000617258
1.60065,0.0230296,0.443006,0.259837,-3.14138,-0.00043433,-0.00479734
1.60846,0.0230296,0.443006,0.259837,-3.14138,-0.00043433,-0.00479734
1.6165,0.0230296,0.443006,0.259837,-3.14138,-0.00043433,-0.00479734
1.62449,0.0230296,0.443006,0.259837,-3.14138,-0.00043433,-0.00479734
1.63257,0.0230296,0.443006,0.259837,-3.14138,-0.00043433,-0.00479734
1.64058,0.0230296,0.443006,0.259837,-3.14138,-0.00043433,-0.00479734
1.64864,0.0230296,0.443006,0.259837,-3.14138,-0.00043433,-0.00479734
1.65664,0.0230296,0.443006,0.259837,-3.14138,-0.00043433,-0.00479734
1.66466,0.0230296,0.443006,0.259837,-3.14138,-0.00043433,-0.00479734
1.67259,0.0230296,0.443006,0.259837,-3.14138,-0.00043433,-0.00479734
1.68064,0.0230296,0.443006,0.259837,-3.14138,-0.00043433,-0.00479734
1.68863,0.0230296,0.443006,0.259837,-3.14138,-0.00043433,-0.00479734
1.69668,0.0230296,0.443006,0.259837,-3.14138,-0.00043433,-0.00479734
1.70453,0.0253833,0.441454,0.265434,-3.1287,0.00225113,-0.00946407
1.71249,0.0253833,0.441454,0.265434,-3.1287,0.00225113,-0.00946407
1.72044,0.0253833,0.441454,0.265434,-3.1287,0.00225113,-0.00946407
1.72852,0.0253833,0.441454,0.265434,-3.1287,0.00225113,-0.00946407
1.73661,0.0253833,0.441454,0.265434,-3.1287,0.00225113,-0.00946407
1.74463,0.0253833,0.441454,0.265434,-3.1287,0.00225113,-0.00946407
1.75262,0.0253833,0.441454,0.265434,-3.1287,0.00225113,-0.00946407
1.76066,0.0253833,0.441454,0.265434,-3.1287,0.00225113,-0.00946407
1.76858,0.0253833,0.441454,0.265434,-3.1287,0.00225113,-0.00946407
1.77667,0.0253833,0.441454,0.265434,-3.1287,0.00225113,-0.00946407
1.78468,0.0253833,0.441454,0.265434,-3.1287,0.00225113,-0.00946407
1.79264,0.0253833,0.441454,0.265434,-3.1287,0.00225113,-0.00946407
1.80063,0.0272779,0.438043,0.2768,-3.10396,0.00753486,-0.0121319
1.80844,0.0272779,0.438043,0.2768,-3.10396,0.00753486,-0.0121319
1.81645,0.0272779,0.438043,0.2768,-3.10396,0.00753486,-0.0121319
1.82449,0.0272779,0.438043,0.2768,-3.10396,0.00753486,-0.0121319
1.83252,0.0272779,0.438043,0.2768,-3.10396,0.00753486,-0.0121319
1.84055,0.0272779,0.438043,0.2768,-3.10396,0.00753486,-0.0121319
1.84865,0.0272779,0.438043,0.2768,-3.10396,0.00753486,-0.0121319
1.85662,0.0272779,0.438043,0.2768,-3.10396,0.00753486,-0.0121319
1.8646,0.0272779,0.438043,0.2768,-3.10396,0.00753486,-0.0121319
1.87263,0.0272779,0.438043,0.2768,-3.10396,0.00753486,-0.0121319
1.88063,0.0272779,0.438043,0.2768,-3.10396,0.00753486,-0.0121319
1.88862,0.0272779,0.438043,0.2768,-3.10396,0.00753486,-0.0121319
1.89667,0.0272779,0.438043,0.2768,-3.10396,0.00753486,-0.0121319
1.90455,0.0296371,0.429453,0.301657,-3.04949,0.0192711,-0.0129809
1.91255,0.0296371,0.429453,0.301657,-3.04949,0.0192711,-0.0129809
1.92056,0.0296371,0.429453,0.301657,-3.04949,0.0192711,-0.0129809
1.92856,0.0296371,0.429453,0.301657,-3.04949,0.0192711,-0.0129809
1.93659,0.0296371,0.429453,0.301657,-3.04949,0.0192711,-0.0129809
1.94467,0.0296371,0.429453,0.301657,-3.04949,0.0192711,-0.0129809
1.9526,0.0296371,0.429453,0.301657,-3.04949,0.0192711,-0.0129809
1.96058,0.0296371,0.429453,0.301657,-3.04949,0.0192711,-0.0129809
1.96862,0.0296371,0.429453,0.301657,-3.04949,0.0192711,-0.0129809
1.97657,0.0296371,0.429453,0.301657,-3.04949,0.0192711,-0.0129809
1.98459,0.0296371,0.429453,0.301657,-3.04949,0.0192711,-0.0129809
1.99264,0.0296371,0.429453,0.301657,-3.04949,0.0192711,-0.0129809
2.00058,0.0319561,0.415454,0.326913,-3.00511,0.0320284,-0.00930598
2.0085,0.0319561,0.415454,0.326913,-3.00511,0.0320284,-0.00930598
2.01641,0.0319561,0.415454,0.326913,-3.00511,0.0320284,-0.00930598
2.02444,0.0319561,0.415454,0.326913,-3.00511,0.0320284,-0.00930598
2.03248,0.0319561,0.415454,0.326913,-3.00511,0.0320284,-0.00930598
2.04054,0.0319561,0.415454,0.326913,-3.00511,0.0320284,-0.00930598
2.04859,0.0319561,0.415454,0.326913,-3.00511,0.0320284,-0.00930598
2.05659,0.0319561,0.415454,0.326913,-3.00511,0.0320284,-0.00930598
2.06459,0.0319561,0.415454,0.326913,-3.00511,0.0320284,-0.00930598
2.07256,0.0319561,0.415454,0.326913,-3.00511,0.0320284,-0.00930598
2.08061,0.0319561,0.415454,0.326913,-3.00511,0.0320284,-0.00930598
2.08858,0.0319561,0.415454,0.326913,-3.00511,0.0320284,-0.00930598
2.09664,0.0319561,0.415454,0.326913,-3.00511,0.0320284,-0.00930598
2.10449,0.0364735,0.391602,0.348551,-3.00176,0.0330487,-0.00305799
2.11247,0.0364735,0.391602,0.348551,-3.00176,0.0330487,-0.00305799
2.1204,0.0364735,0.391602,0.348551,-3.00176,0.0330487,-0.00305799
2.12842,0.0364735,0.391602,0.348551,-3.00176,0.0330487,-0.00305799
2.13649,0.0364735,0.391602,0.348551,-3.00176,0.0330487,-0.00305799
2.14451,0.0364735,0.391602,0.348551,-3.00176,0.0330487,-0.00305799
2.15251,0.0364735,0.391602,0.348551,-3.00176,0.0330487,-0.00305799
2.1605,0.0364735,0.391602,0.348551,-3.00176,0.0330487,-0.00305799
2.16849,0.0364735,0.391602,0.348551,-3.00176,0.0330487,-0.00305799
2.1765,0.0364735,0.391602,0.348551,-3.00176,0.0330487,-0.00305799
2.18459,0.0364735,0.391602,0.348551,-3.00176,0.0330487,-0.00305799
2.19258,0.0364735,0.391602,0.348551,-3.00176,0.0330487,-0.00305799
2.20061,0.0396851,0.370272,0.364305,-2.99763,0.0445858,-0.00121484
2.20847,0.0396851,0.370272,0.364305,-2.99763,0.0445858,-0.00121484
2.21648,0.0396851,0.370272,0.364305,-2.99763,0.0445858,-0.00121484
2.22448,0.0396851,0.370272,0.364305,-2.99763,0.0445858,-0.00121484
2.23254,0.0396851,0.370272,0.364305,-2.99763,0.0445858,-0.00121484
2.2405,0.0396851,0.370272,0.364305,-2.99763,0.0445858,-0.00121484
2.24854,0.0396851,0.370272,0.364305,-2.99763,0.0445858,-0.00121484
2.25661,0.0396851,0.370272,0.364305,-2.99763,0.0445858,-0.00121484
2.26459,0.0396851,0.370272,0.364305,-2.99763,0.0445858,-0.00121484
2.27262,0.0396851,0.370272,0.364305,-2.99763,0.0445858,-0.00121484
2.28066,0.0396851,0.370272,0.364305,-2.99763,0.0445858,-0.00121484
2.28865,0.0396851,0.370272,0.364305,-2.99763,0.0445858,-0.00121484
2.29662,0.0396851,0.370272,0.364305,-2.99763,0.0445858,-0.00121484
2.30456,0.042126,0.347376,0.381976,-2.97557,0.0719189,0.00404092
2.31252,0.042126,0.347376,0.381976,-2.97557,0.0719189,0.00404092
2.32052,0.042126,0.347376,0.381976,-2.97557,0.0719189,0.00404092
2.3285,0.042126,0.347376,0.381976,-2.97557,0.0719189,0.00404092
2.33658,0.042126,0.347376,0.381976,-2.97557,0.0719189,0.00404092
2.34464,0.042126,0.347376,0.381976,-2.97557,0.0719189,0.00404092
2.35258,0.042126,0.347376,0.381976,-2.97557,0.0719189,0.00404092
2.3606,0.042126,0.347376,0.381976,-2.97557,0.0719189,0.00404092
2.36863,0.042126,0.347376,0.381976,-2.97557,0.0719189,0.00404092
2.37657,0.042126,0.347376,0.381976,-2.97557,0.0719189,0.00404092
2.38462,0.042126,0.347376,0.381976,-2.97557,0.0719189,0.00404092
2.39262,0.042126,0.347376,0.381976,-2.97557,0.0719189,0.00404092
2.40062,0.0445645,0.325512,0.396469,-2.95364,0.0955611,0.0125349
2.40847,0.0445645,0.325512,0.396469,-2.95364,0.0955611,0.0125349
2.41643,0.0445645,0.325512,0.396469,-2.95364,0.0955611,0.0125349
2.42442,0.0445645,0.325512,0.396469,-2.95364,0.0955611,0.0125349
2.43253,0.0445645,0.325512,0.396469,-2.95364,0.0955611,0.0125349
2.44052,0.0445645,0.325512,0.396469,-2.95364,0.0955611,0.0125349
2.44854,0.0445645,0.325512,0.396469,-2.95364,0.0955611,0.0125349
2.45656,0.0445645,0.325512,0.396469,-2.95364,0.0955611,0.0125349
2.46453,0.0445645,0.325512,0.396469,-2.95364,0.0955611,0.0125349
2.47259,0.0445645,0.325512,0.396469,-2.95364,0.0955611,0.0125349
2.48064,0.0445645,0.325512,0.396469,-2.95364,0.0955611,0.0125349
2.48862,0.0445645,0.325512,0.396469,-2.95364,0.0955611,0.0125349
2.49665,0.0445645,0.325512,0.396469,-2.95364,0.0955611,0.0125349
2.50456,0.0463084,0.307862,0.400975,-2.95787,0.109914,0.027686
2.51251,0.0463084,0.307862,0.400975,-2.95787,0.109914,0.027686
2.52052,0.0463084,0.307862,0.400975,-2.95787,0.109914,0.027686
2.52852,0.0463084,0.307862,0.400975,-2.95787,0.109914,0.027686
2.53659,0.0463084,0.307862,0.400975,-2.95787,0.109914,0.027686
2.54464,0.0463084,0.307862,0.400975,-2.95787,0.109914,0.027686
2.55261,0.0463084,0.307862,0.400975,-2.95787,0.109914,0.027686
2.56061,0.0463084,0.307862,0.400975,-2.95787,0.109914,0.027686
2.5686,0.0463084,0.307862,0.400975,-2.95787,0.109914,0.027686
2.57655,0.0463084,0.307862,0.400975,-2.95787,0.109914,0.027686
2.58461,0.0463084,0.307862,0.400975,-2.95787,0.109914,0.027686
2.59257,0.0463084,0.307862,0.400975,-2.95787,0.109914,0.027686
2.60064,0.0478678,0.296689,0.395215,-2.98523,0.108764,0.0374572
2.60847,0.0478678,0.296689,0.395215,-2.98523,0.108764,0.0374572
2.61642,0.0478678,0.296689,0.395215,-2.98523,0.108764,0.0374572
2.62444,0.0478678,0.296689,0.395215,-2.98523,0.108764,0.0374572
2.63255,0.0478678,0.296689,0.395215,-2.98523,0.108764,0.0374572
2.64051,0.0478678,0.296689,0.395215,-2.98523,0.108764,0.0374572
2.64852,0.0478678,0.296689,0.395215,-2.98523,0.108764,0.0374572
2.65655,0.0478678,0.296689,0.395215,-2.98523,0.108764,0.0374572
2.66458,0.0478678,0.296689,0.395215,-2.98523,0.108764,0.0374572
2.67259,0.0481995,0.294791,0.3927,-2.99374,0.107305,0.0368114
2.68063,0.0481995,0.294791,0.3927,-2.99374,0.107305,0.0368114
2.68866,0.0481995,0.294791,0.3927,-2.99374,0.107305,0.0368114
2.69665,0.0481995,0.294791,0.3927,-2.99374,0.107305,0.0368114
2.70453,0.0491497,0.289296,0.379131,-3.03676,0.100211,0.0328341
2.71252,0.0491497,0.289296,0.379131,-3.03676,0.100211,0.0328341
2.72043,0.0491497,0.289296,0.379131,-3.03676,0.100211,0.0328341
2.72844,0.0491497,0.289296,0.379131,-3.03676,0.100211,0.0328341
2.73646,0.0491497,0.289296,0.379131,-3.03676,0.100211,0.0328341
2.74448,0.0491497,0.289296,0.379131,-3.03676,0.100211,0.0328341
2.75245,0.0491497,0.289296,0.379131,-3.03676,0.100211,0.0328341
2.76048,0.0491497,0.289296,0.379131,-3.03676,0.100211,0.0328341
2.76848,0.0491497,0.289296,0.379131,-3.03676,0.100211,0.0328341
2.77645,0.0491497,0.289296,0.379131,-3.03676,0.100211,0.0328341
2.78454,0.0491497,0.289296,0.379131,-3.03676,0.100211,0.0328341
2.79249,0.0491497,0.289296,0.379131,-3.03676,0.100211,0.0328341
2.80062,0.0499466,0.283214,0.364754,-3.08274,0.0953994,0.0291945
2.80845,0.0499466,0.283214,0.364754,-3.08274,0.0953994,0.0291945
2.81654,0.0499466,0.283214,0.364754,-3.08274,0.0953994,0.0291945
2.82454,0.0499466,0.283214,0.364754,-3.08274,0.0953994,0.0291945
2.83256,0.0499466,0.283214,0.364754,-3.08274,0.0953994,0.0291945
2.84052,0.0499466,0.283214,0.364754,-3.08274,0.0953994,0.0291945
2.84848,0.0499466,0.283214,0.364754,-3.08274,0.0953994,0.0291945
2.85646,0.0499466,0.283214,0.364754,-3.08274,0.0953994,0.0291945
2.86449,0.0499466,0.283214,0.364754,-3.08274,0.0953994,0.0291945
2.87251,0.0499466,0.283214,0.364754,-3.08274,0.0953994,0.0291945
2.88047,0.0499466,0.283214,0.364754,-3.08274,0.0953994,0.0291945
2.88855,0.0499466,0.283214,0.364754,-3.08274,0.0953994,0.0291945
2.89658,0.0499466,0.283214,0.364754,-3.08274,0.0953994,0.0291945
2.90446,0.0507937,0.275141,0.35207,-3.12141,0.0898651,0.0286316
2.91242,0.0507937,0.275141,0.35207,-3.12141,0.0898651,0.0286316
2.92047,0.0507937,0.275141,0.35207,-3.12141,0.0898651,0.0286316
2.92843,0.0507937,0.275141,0.35207,-3.12141,0.0898651,0.0286316
2.93649,0.0507937,0.275141,0.35207,-3.12141,0.0898651,0.0286316
2.94449,0.0507937,0.275141,0.35207,-3.12141,0.0898651,0.0286316
2.95248,0.0507937,0.275141,0.35207,-3.12141,0.0898651,0.0286316
2.9605,0.0507937,0.275141,0.35207,-3.12141,0.0898651,0.0286316
2.9685,0.0507937,0.275141,0.35207,-3.12141,0.0898651,0.0286316
2.97654,0.0507937,0.275141,0.35207,-3.12141,0.0898651,0.0286316
2.98457,0.0507937,0.275141,0.35207,-3.12141,0.0898651,0.0286316
2.99257,0.0507937,0.275141,0.35207,-3.12141,0.0898651,0.0286316
3.00058,0.0507227,0.265456,0.340766,3.13128,0.0888974,0.0355085
3.00845,0.0507227,0.265456,0.340766,3.13128,0.0888974,0.0355085
3.01641,0.0507227,0.265456,0.340766,3.13128,0.0888974,0.0355085
3.0244,0.0507227,0.265456,0.340766,3.13128,0.0888974,0.0355085
3.03242,0.0507227,0.265456,0.340766,3.13128,0.0888974,0.0355085
3.04042,0.0507227,0.265456,0.340766,3.13128,0.0888974,0.0355085
3.04844,0.0507227,0.265456,0.340766,3.13128,0.0888974,0.0355085
3.05654,0.0507227,0.265456,0.340766,3.13128,0.0888974,0.0355085
3.06453,0.0507227,0.265456,0.340766,3.13128,0.0888974,0.0355085
3.07258,0.0507227,0.265456,0.340766,3.13128,0.0888974,0.0355085
3.08057,0.0507227,0.265456,0.340766,3.13128,0.0888974,0.0355085
3.08857,0.0507227,0.265456,0.340766,3.13128,0.0888974,0.0355085
3.09662,0.0507227,0.265456,0.340766,3.13128,0.0888974,0.0355085
3.10446,0.0491763,0.255356,0.328901,3.1062,0.10258,0.0430363
3.11251,0.0491763,0.255356,0.328901,3.1062,0.10258,0.0430363
3.12048,0.0491763,0.255356,0.328901,3.1062,0.10258,0.0430363
3.12855,0.0491763,0.255356,0.328901,3.1062,0.10258,0.0430363
3.13659,0.0491763,0.255356,0.328901,3.1062,0.10258,0.0430363
3.14462,0.0491763,0.255356,0.328901,3.1062,0.10258,0.0430363
3.1526,0.0491763,0.255356,0.328901,3.1062,0.10258,0.0430363
3.16052,0.0491763,0.255356,0.328901,3.1062,0.10258,0.0430363
3.16861,0.0491763,0.255356,0.328901,3.1062,0.10258,0.0430363
3.1766,0.0491763,0.255356,0.328901,3.1062,0.10258,0.0430363
3.18462,0.0486846,0.25298,0.326043,3.10266,0.106678,0.0451395
3.19258,0.0486846,0.25298,0.326043,3.10266,0.106678,0.0451395
3.20068,0.0455674,0.245671,0.315581,3.10935,0.111832,0.0644191
3.2084,0.0455674,0.245671,0.315581,3.10935,0.111832,0.0644191
3.21644,0.0455674,0.245671,0.315581,3.10935,0.111832,0.0644191
3.2245,0.0455674,0.245671,0.315581,3.10935,0.111832,0.0644191
3.23262,0.0455674,0.245671,0.315581,3.10935,0.111832,0.0644191
3.24058,0.0455674,0.245671,0.315581,3.10935,0.111832,0.0644191
3.24852,0.0455674,0.245671,0.315581,3.10935,0.111832,0.0644191
3.25658,0.0455674,0.245671,0.315581,3.10935,0.111832,0.0644191
3.26456,0.0455674,0.245671,0.315581,3.10935,0.111832,0.0644191
3.2726,0.0455674,0.245671,0.315581,3.10935,0.111832,0.0644191
3.28054,0.0455674,0.245671,0.315581,3.10935,0.111832,0.0644191
3.28854,0.0455674,0.245671,0.315581,3.10935,0.111832,0.0644191
3.29659,0.0455674,0.245671,0.315581,3.10935,0.111832,0.0644191
3.30456,0.0425636,0.240622,0.3061,3.132,0.114023,0.0858752
3.31243,0.0425636,0.240622,0.3061,3.132,0.114023,0.0858752
3.32046,0.0425636,0.240622,0.3061,3.132,0.114023,0.0858752
3.32847,0.0425636,0.240622,0.3061,3.132,0.114023,0.0858752
3.33653,0.0425636,0.240622,0.3061,3.132,0.114023,0.0858752
3.34451,0.0425636,0.240622,0.3061,3.132,0.114023,0.0858752
3.35252,0.0425636,0.240622,0.3061,3.132,0.114023,0.0858752
3.36058,0.0425636,0.240622,0.3061,3.132,0.114023,0.0858752
3.36856,0.0425636,0.240622,0.3061,3.132,0.114023,0.0858752
3.37661,0.0425636,0.240622,0.3061,3.132,0.114023,0.0858752
3.38458,0.0425636,0.240622,0.3061,3.132,0.114023,0.0858752
3.39255,0.0425636,0.240622,0.3061,3.132,0.114023,0.0858752
3.40053,0.039647,0.237804,0.295872,-3.13274,0.112904,0.105054
3.40853,0.039647,0.237804,0.295872,-3.13274,0.112904,0.105054
3.41647,0.039647,0.237804,0.295872,-3.13274,0.112904,0.105054
3.42457,0.039647,0.237804,0.295872,-3.13274,0.112904,0.105054
3.43261,0.039647,0.237804,0.295872,-3.13274,0.112904,0.105054
3.44058,0.039647,0.237804,0.295872,-3.13274,0.112904,0.105054
3.44861,0.039647,0.237804,0.295872,-3.13274,0.112904,0.105054
3.45661,0.039647,0.237804,0.295872,-3.13274,0.112904,0.105054
3.46465,0.039647,0.237804,0.295872,-3.13274,0.112904,0.105054
3.47259,0.039647,0.237804,0.295872,-3.13274,0.112904,0.105054
3.48062,0.039647,0.237804,0.295872,-3.13274,0.112904,0.105054
3.4886,0.039647,0.237804,0.295872,-3.13274,0.112904,0.105054
3.49653,0.039647,0.237804,0.295872,-3.13274,0.112904,0.105054
3.5046,0.0389213,0.237633,0.285246,-3.12461,0.0931461,0.115469
3.51245,0.0389213,0.237633,0.285246,-3.12461,0.0931461,0.115469
3.52046,0.0389213,0.237633,0.285246,-3.12461,0.0931461,0.115469
3.52847,0.0389213,0.237633,0.285246,-3.12461,0.0931461,0.115469
3.53653,0.0389213,0.237633,0.285246,-3.12461,0.0931461,0.115469
3.54453,0.0389213,0.237633,0.285246,-3.12461,0.0931461,0.115469
3.55257,0.0389213,0.237633,0.285246,-3.12461,0.0931461,0.115469
3.56055,0.0389213,0.237633,0.285246,-3.12461,0.0931461,0.115469
3.56855,0.0389213,0.237633,0.285246,-3.12461,0.0931461,0.115469
3.57658,0.0389213,0.237633,0.285246,-3.12461,0.0931461,0.115469
3.58454,0.0389213,0.237633,0.285246,-3.12461,0.0931461,0.115469
3.59252,0.0389213,0.237633,0.285246,-3.12461,0.0931461,0.115469
3.60065,0.0401231,0.237103,0.276071,-3.12424,0.0759526,0.115174
3.6084,0.0401231,0.237103,0.276071,-3.12424,0.0759526,0.115174
3.61636,0.0401231,0.237103,0.276071,-3.12424,0.0759526,0.115174
3.6244,0.0401231,0.237103,0.276071,-3.12424,0.0759526,0.115174
3.63245,0.0401231,0.237103,0.276071,-3.12424,0.0759526,0.115174
3.6404,0.0401231,0.237103,0.276071,-3.12424,0.0759526,0.115174
3.6484,0.0401231,0.237103,0.276071,-3.12424,0.0759526,0.115174
3.65642,0.0401231,0.237103,0.276071,-3.12424,0.0759526,0.115174
3.66439,0.0401231,0.237103,0.276071,-3.12424,0.0759526,0.115174
3.67242,0.0401231,0.237103,0.276071,-3.12424,0.0759526,0.115174
3.68046,0.0401231,0.237103,0.276071,-3.12424,0.0759526,0.115174
3.68847,0.0401231,0.237103,0.276071,-3.12424,0.0759526,0.115174
3.69649,0.0401231,0.237103,0.276071,-3.12424,0.0759526,0.115174
3.70454,0.0395478,0.235281,0.267045,-3.13531,0.0777766,0.118053
3.71238,0.0395478,0.235281,0.267045,-3.13531,0.0777766,0.118053
3.72037,0.0395478,0.235281,0.267045,-3.13531,0.0777766,0.118053
3.72841,0.0395478,0.235281,0.267045,-3.13531,0.0777766,0.118053
3.73641,0.0395478,0.235281,0.267045,-3.13531,0.0777766,0.118053
3.74448,0.0395478,0.235281,0.267045,-3.13531,0.0777766,0.118053
3.75249,0.0395478,0.235281,0.267045,-3.13531,0.0777766,0.118053
3.76047,0.0395478,0.235281,0.267045,-3.13531,0.0777766,0.118053
3.76847,0.0395478,0.235281,0.267045,-3.13531,0.0777766,0.118053
3.77645,0.0395478,0.235281,0.267045,-3.13531,0.0777766,0.118053
3.7845,0.0395478,0.235281,0.267045,-3.13531,0.0777766,0.118053
3.79244,0.0395478,0.235281,0.267045,-3.13531,0.0777766,0.118053
3.80056,0.0393311,0.233996,0.262225,3.1379,0.0757129,0.119817
3.80844,0.0393311,0.233996,0.262225,3.1379,0.0757129,0.119817
3.81639,0.0393311,0.233996,0.262225,3.1379,0.0757129,0.119817
3.82447,0.0393311,0.233996,0.262225,3.1379,0.0757129,0.119817
3.83246,0.0393311,0.233996,0.262225,3.1379,0.0757129,0.119817
3.84046,0.0393311,0.233996,0.262225,3.1379,0.0757129,0.119817
3.84849,0.0393311,0.233996,0.262225,3.1379,0.0757129,0.119817
3.85653,0.0393311,0.233996,0.262225,3.1379,0.0757129,0.119817
3.86447,0.0393311,0.233996,0.262225,3.1379,0.0757129,0.119817
3.87247,0.0393311,0.233996,0.262225,3.1379,0.0757129,0.119817
3.88048,0.0393311,0.233996,0.262225,3.1379,0.0757129,0.119817
3.88849,0.0393311,0.233996,0.262225,3.1379,0.0757129,0.119817
3.89647,0.0393311,0.233996,0.262225,3.1379,0.0757129,0.119817
3.9046,0.0393054,0.232686,0.258603,3.1259,0.0734125,0.119593
3.9124,0.0393054,0.232686,0.258603,3.1259,0.0734125,0.119593
3.92039,0.0393054,0.232686,0.258603,3.1259,0.0734125,0.119593
3.9284,0.0393054,0.232686,0.258603,3.1259,0.0734125,0.119593
3.93643,0.0393054,0.232686,0.258603,3.1259,0.0734125,0.119593
3.94443,0.0393054,0.232686,0.258603,3.1259,0.0734125,0.119593
3.95247,0.0393054,0.232686,0.258603,3.1259,0.0734125,0.119593
3.9605,0.0393054,0.232686,0.258603,3.1259,0.0734125,0.119593
3.96852,0.0393054,0.232686,0.258603,3.1259,0.0734125,0.119593
3.97651,0.0393054,0.232686,0.258603,3.1259,0.0734125,0.119593
3.98458,0.0393054,0.232686,0.258603,3.1259,0.0734125,0.119593
3.99255,0.0393054,0.232686,0.258603,3.1259,0.0734125,0.119593
4.00057,0.0390417,0.232621,0.258273,3.12486,0.07331,0.119983
4.00846,0.0390417,0.232621,0.258273,3.12486,0.07331,0.119983
4.01652,0.0390417,0.232621,0.258273,3.12486,0.07331,0.119983
4.02452,0.0390417,0.232621,0.258273,3.12486,0.07331,0.119983
4.03254,0.0390417,0.232621,0.258273,3.12486,0.07331,0.119983
4.04054,0.0390417,0.232621,0.258273,3.12486,0.07331,0.119983
4.04851,0.0390417,0.232621,0.258273,3.12486,0.07331,0.119983
4.05657,0.0390417,0.232621,0.258273,3.12486,0.07331,0.119983
4.06454,0.0390417,0.232621,0.258273,3.12486,0.07331,0.119983
4.07248,0.0390417,0.232621,0.258273,3.12486,0.07331,0.119983
4.0805,0.0390417,0.232621,0.258273,3.12486,0.07331,0.119983
4.08855,0.0390417,0.232621,0.258273,3.12486,0.07331,0.119983
4.0965,0.0390417,0.232621,0.258273,3.12486,0.07331,0.119983
4.10455,0.0388236,0.23275,0.258328,3.12577,0.073426,0.120701
4.11238,0.0388236,0.23275,0.258328,3.12577,0.073426,0.120701
4.12045,0.0388236,0.23275,0.258328,3.12577,0.073426,0.120701
4.12841,0.0388236,0.23275,0.258328,3.12577,0.073426,0.120701
4.13649,0.0388236,0.23275,0.258328,3.12577,0.073426,0.120701
4.14452,0.0388236,0.23275,0.258328,3.12577,0.073426,0.120701
4.15249,0.0388236,0.23275,0.258328,3.12577,0.073426,0.120701
4.16059,0.0387048,0.232887,0.258388,3.12679,0.0735727,0.120936
4.16855,0.0387048,0.232887,0.258388,3.12679,0.0735727,0.120936
4.1765,0.0387048,0.232887,0.258388,3.12679,0.0735727,0.120936
4.18457,0.0387048,0.232887,0.258388,3.12679,0.0735727,0.120936
4.19259,0.0387048,0.232887,0.258388,3.12679,0.0735727,0.120936
4.20062,0.0384532,0.233215,0.258463,3.12889,0.0739412,0.120885
4.20836,0.0384532,0.233215,0.258463,3.12889,0.0739412,0.120885
4.21633,0.0384532,0.233215,0.258463,3.12889,0.0739412,0.120885
4.22433,0.0384532,0.233215,0.258463,3.12889,0.0739412,0.120885
4.23249,0.0384532,0.233215,0.258463,3.12889,0.0739412,0.120885
4.24049,0.0384532,0.233215,0.258463,3.12889,0.0739412,0.120885
4.24845,0.0384532,0.233215,0.258463,3.12889,0.0739412,0.120885
4.25643,0.0384532,0.233215,0.258463,3.12889,0.0739412,0.120885
4.26448,0.0384532,0.233215,0.258463,3.12889,0.0739412,0.120885
4.2725,0.0384532,0.233215,0.258463,3.12889,0.0739412,0.120885
4.28048,0.0384532,0.233215,0.258463,3.12889,0.0739412,0.120885
4.28854,0.0384532,0.233215,0.258463,3.12889,0.0739412,0.120885
4.29653,0.0384532,0.233215,0.258463,3.12889,0.0739412,0.120885
4.30453,0.0381117,0.233387,0.257833,3.12812,0.0737864,0.122184
4.31245,0.0381117,0.233387,0.257833,3.12812,0.0737864,0.122184
4.3205,0.0381117,0.233387,0.257833,3.12812,0.0737864,0.122184
4.32849,0.0381117,0.233387,0.257833,3.12812,0.0737864,0.122184
4.3366,0.0381117,0.233387,0.257833,3.12812,0.0737864,0.122184
4.34465,0.0381117,0.233387,0.257833,3.12812,0.0737864,0.122184
4.35255,0.0381117,0.233387,0.257833,3.12812,0.0737864,0.122184
4.3605,0.0381117,0.233387,0.257833,3.12812,0.0737864,0.122184
4.36851,0.0381117,0.233387,0.257833,3.12812,0.0737864,0.122184
4.37648,0.0381117,0.233387,0.257833,3.12812,0.0737864,0.122184
4.3845,0.0381117,0.233387,0.257833,3.12812,0.0737864,0.122184
4.39254,0.0381117,0.233387,0.257833,3.12812,0.0737864,0.122184
4.40057,0.0381298,0.232948,0.256271,3.1259,0.0734139,0.122557
4.40845,0.0381298,0.232948,0.256271,3.1259,0.0734139,0.122557
4.41647,0.0381298,0.232948,0.256271,3.1259,0.0734139,0.122557
4.42444,0.0381298,0.232948,0.256271,3.1259,0.0734139,0.122557
4.43252,0.0381298,0.232948,0.256271,3.1259,0.0734139,0.122557
4.44054,0.0381298,0.232948,0.256271,3.1259,0.0734139,0.122557
4.44854,0.0381298,0.232948,0.256271,3.1259,0.0734139,0.122557
4.45651,0.0381298,0.232948,0.256271,3.1259,0.0734139,0.122557
4.46447,0.0381298,0.232948,0.256271,3.1259,0.0734139,0.122557
4.47252,0.0381298,0.232948,0.256271,3.1259,0.0734139,0.122557
4.48039,0.0381298,0.232948,0.256271,3.1259,0.0734139,0.122557
4.48842,0.0381298,0.232948,0.256271,3.1259,0.0734139,0.122557
4.49642,0.0381298,0.232948,0.256271,3.1259,0.0734139,0.122557
4.50447,0.0381286,0.232947,0.256281,3.12598,0.0734786,0.122564
4.51239,0.0381286,0.232947,0.256281,3.12598,0.0734786,0.122564
4.52034,0.0381286,0.232947,0.256281,3.12598,0.0734786,0.122564
4.52857,0.0381286,0.232947,0.256281,3.12598,0.0734786,0.122564
4.53648,0.0381286,0.232947,0.256281,3.12598,0.0734786,0.122564
4.54445,0.0381286,0.232947,0.256281,3.12598,0.0734786,0.122564
4.55247,0.0381286,0.232947,0.256281,3.12598,0.0734786,0.122564
4.56049,0.0381286,0.232947,0.256281,3.12598,0.0734786,0.122564
4.56852,0.0381286,0.232947,0.256281,3.12598,0.0734786,0.122564
4.57644,0.0381286,0.232947,0.256281,3.12598,0.0734786,0.122564
4.58462,0.0381286,0.232947,0.256281,3.12598,0.0734786,0.122564
4.5926,0.0381286,0.232947,0.256281,3.12598,0.0734786,0.122564
4.60068,0.0381389,0.232947,0.256275,3.12597,0.073513,0.122586
4.60849,0.0381389,0.232947,0.256275,3.12597,0.073513,0.122586
4.61645,0.0381389,0.232947,0.256275,3.12597,0.073513,0.122586
4.62444,0.0381389,0.232947,0.256275,3.12597,0.073513,0.122586
4.63243,0.0381389,0.232947,0.256275,3.12597,0.073513,0.122586
4.64051,0.0381389,0.232947,0.256275,3.12597,0.073513,0.122586
4.64855,0.0381389,0.232947,0.256275,3.12597,0.073513,0.122586
4.65655,0.0381389,0.232947,0.256275,3.12597,0.073513,0.122586
4.66452,0.0381389,0.232947,0.256275,3.12597,0.073513,0.122586
4.67257,0.0381389,0.232947,0.256275,3.12597,0.073513,0.122586
4.68051,0.0381389,0.232947,0.256275,3.12597,0.073513,0.122586
4.68846,0.0381389,0.232947,0.256275,3.12597,0.073513,0.122586
4.69652,0.0381389,0.232947,0.256275,3.12597,0.073513,0.122586
4.70452,0.0381381,0.232943,0.256305,3.12604,0.0736724,0.12258
4.71233,0.0381381,0.232943,0.256305,3.12604,0.0736724,0.12258
4.72037,0.0381381,0.232943,0.256305,3.12604,0.0736724,0.12258
4.72841,0.0381381,0.232943,0.256305,3.12604,0.0736724,0.12258
4.7364,0.0381381,0.232943,0.256305,3.12604,0.0736724,0.12258
4.74447,0.0381381,0.232943,0.256305,3.12604,0.0736724,0.12258
4.75248,0.0381381,0.232943,0.256305,3.12604,0.0736724,0.12258
4.76044,0.0381381,0.232943,0.256305,3.12604,0.0736724,0.12258
4.76849,0.0381381,0.232943,0.256305,3.12604,0.0736724,0.12258
4.77647,0.0381381,0.232943,0.256305,3.12604,0.0736724,0.12258
4.78453,0.0381381,0.232943,0.256305,3.12604,0.0736724,0.12258
4.79249,0.0381381,0.232943,0.256305,3.12604,0.0736724,0.12258
4.80055,0.0381485,0.232922,0.256392,3.12639,0.0737826,0.122593
4.80845,0.0381485,0.232922,0.256392,3.12639,0.0737826,0.122593
4.81635,0.0381485,0.232922,0.256392,3.12639,0.0737826,0.122593
4.82434,0.0381485,0.232922,0.256392,3.12639,0.0737826,0.122593
4.8324,0.0381485,0.232922,0.256392,3.12639,0.0737826,0.122593
4.84047,0.0381485,0.232922,0.256392,3.12639,0.0737826,0.122593
4.84851,0.0381485,0.232922,0.256392,3.12639,0.0737826,0.122593
4.85651,0.0381485,0.232922,0.256392,3.12639,0.0737826,0.122593
4.86448,0.0381485,0.232922,0.256392,3.12639,0.0737826,0.122593
4.87247,0.0381485,0.232922,0.256392,3.12639,0.0737826,0.122593
4.88044,0.0381485,0.232922,0.256392,3.12639,0.0737826,0.122593
4.88856,0.0381485,0.232922,0.256392,3.12639,0.0737826,0.122593
4.89651,0.0381485,0.232922,0.256392,3.12639,0.0737826,0.122593
4.90457,0.0381426,0.232929,0.2564,3.1264,0.0737964,0.122594
4.91242,0.0381426,0.232929,0.2564,3.1264,0.0737964,0.122594
4.92049,0.0381426,0.232929,0.2564,3.1264,0.0737964,0.122594
4.9285,0.0381426,0.232929,0.2564,3.1264,0.0737964,0.122594
4.93643,0.0381426,0.232929,0.2564,3.1264,0.0737964,0.122594
4.94454,0.0381426,0.232929,0.2564,3.1264,0.0737964,0.122594
4.95253,0.0381426,0.232929,0.2564,3.1264,0.0737964,0.122594
4.96071,0.0381426,0.232929,0.2564,3.1264,0.0737964,0.122594
4.96852,0.0381426,0.232929,0.2564,3.1264,0.0737964,0.122594
4.97649,0.0381426,0.232929,0.2564,3.1264,0.0737964,0.122594
4.9845,0.0381426,0.232929,0.2564,3.1264,0.0737964,0.122594
4.9925,0.0381426,0.232929,0.2564,3.1264,0.0737964,0.122594
5.00054,0.0381431,0.232932,0.256405,3.12641,0.0738105,0.122583
5.00845,0.0381431,0.232932,0.256405,3.12641,0.0738105,0.122583
5.01648,0.0381431,0.232932,0.256405,3.12641,0.0738105,0.122583
5.02441,0.0381431,0.232932,0.256405,3.12641,0.0738105,0.122583
5.03248,0.0381431,0.232932,0.256405,3.12641,0.0738105,0.122583
5.04051,0.0381431,0.232932,0.256405,3.12641,0.0738105,0.122583
5.04853,0.0381431,0.232932,0.256405,3.12641,0.0738105,0.122583
5.05655,0.0381431,0.232932,0.256405,3.12641,0.0738105,0.122583
5.0645,0.0381431,0.232932,0.256405,3.12641,0.0738105,0.122583
5.07243,0.0381431,0.232932,0.256405,3.12641,0.0738105,0.122583
5.08049,0.0381431,0.232932,0.256405,3.12641,0.0738105,0.122583
5.08862,0.0381431,0.232932,0.256405,3.12641,0.0738105,0.122583
5.09649,0.0381451,0.232933,0.256399,3.12639,0.0737827,0.122581
5.10456,0.0381487,0.232931,0.256415,3.12646,0.0738188,0.122551
5.11232,0.0381487,0.232931,0.256415,3.12646,0.0738188,0.122551
5.12043,0.0381487,0.232931,0.256415,3.12646,0.0738188,0.122551
5.12842,0.0381487,0.232931,0.256415,3.12646,0.0738188,0.122551
5.13641,0.0381487,0.232931,0.256415,3.12646,0.0738188,0.122551
5.14452,0.0381487,0.232931,0.256415,3.12646,0.0738188,0.122551
5.15252,0.0381487,0.232931,0.256415,3.12646,0.0738188,0.122551
5.16049,0.0381487,0.232931,0.256415,3.12646,0.0738188,0.122551
5.16845,0.0381487,0.232931,0.256415,3.12646,0.0738188,0.122551
5.1765,0.0381487,0.232931,0.256415,3.12646,0.0738188,0.122551
5.1845,0.0381487,0.232931,0.256415,3.12646,0.0738188,0.122551
5.19261,0.0381487,0.232931,0.256415,3.12646,0.0738188,0.122551
5.2005,0.0381446,0.232934,0.256416,3.12644,0.0737907,0.122561
5.20853,0.0381446,0.232934,0.256416,3.12644,0.0737907,0.122561
5.21644,0.0381446,0.232934,0.256416,3.12644,0.0737907,0.122561
5.22447,0.0381446,0.232934,0.256416,3.12644,0.0737907,0.122561
5.23248,0.0381446,0.232934,0.256416,3.12644,0.0737907,0.122561
5.24055,0.0381446,0.232934,0.256416,3.12644,0.0737907,0.122561
5.24845,0.0381446,0.232934,0.256416,3.12644,0.0737907,0.122561
5.25649,0.0381446,0.232934,0.256416,3.12644,0.0737907,0.122561
5.26447,0.0381446,0.232934,0.256416,3.12644,0.0737907,0.122561
5.27251,0.0381446,0.232934,0.256416,3.12644,0.0737907,0.122561
5.28049,0.0381446,0.232934,0.256416,3.12644,0.0737907,0.122561
5.28856,0.0381446,0.232934,0.256416,3.12644,0.0737907,0.122561
5.29654,0.0381446,0.232934,0.256416,3.12644,0.0737907,0.122561
5.30448,0.0381451,0.232931,0.256397,3.12635,0.0738116,0.122554
5.31241,0.0381451,0.232931,0.256397,3.12635,0.0738116,0.122554
5.32034,0.0381451,0.232931,0.256397,3.12635,0.0738116,0.122554
5.32842,0.0381451,0.232931,0.256397,3.12635,0.0738116,0.122554
5.33639,0.0381451,0.232931,0.256397,3.12635,0.0738116,0.122554
5.34447,0.0381451,0.232931,0.256397,3.12635,0.0738116,0.122554
5.35244,0.0381451,0.232931,0.256397,3.12635,0.0738116,0.122554
5.36051,0.0381451,0.232931,0.256397,3.12635,0.0738116,0.122554
5.36849,0.0381451,0.232931,0.256397,3.12635,0.0738116,0.122554
5.37645,0.0381451,0.232931,0.256397,3.12635,0.0738116,0.122554
5.38452,0.0381451,0.232931,0.256397,3.12635,0.0738116,0.122554
5.39249,0.0381451,0.232931,0.256397,3.12635,0.0738116,0.122554
5.40048,0.0381429,0.232933,0.25641,3.12644,0.0738164,0.122561
5.40838,0.0381429,0.232933,0.25641,3.12644,0.0738164,0.122561
5.41634,0.0381429,0.232933,0.25641,3.12644,0.0738164,0.122561
5.42433,0.0381429,0.232933,0.25641,3.12644,0.0738164,0.122561
5.43239,0.0381429,0.232933,0.25641,3.12644,0.0738164,0.122561
5.44048,0.0381429,0.232933,0.25641,3.12644,0.0738164,0.122561
5.44843,0.0381429,0.232933,0.25641,3.12644,0.0738164,0.122561
5.45646,0.0381429,0.232933,0.25641,3.12644,0.0738164,0.122561
5.46452,0.0381429,0.232933,0.25641,3.12644,0.0738164,0.122561
5.47246,0.0381429,0.232933,0.25641,3.12644,0.0738164,0.122561
5.48049,0.0381429,0.232933,0.25641,3.12644,0.0738164,0.122561
5.48861,0.0381429,0.232933,0.25641,3.12644,0.0738164,0.122561
5.49652,0.0381429,0.232933,0.25641,3.12644,0.0738164,0.122561
5.50454,0.0381471,0.232935,0.256403,3.12641,0.0737866,0.122547
5.51249,0.0381471,0.232935,0.256403,3.12641,0.0737866,0.122547
5.52044,0.0381471,0.232935,0.256403,3.12641,0.0737866,0.122547
5.52843,0.0381471,0.232935,0.256403,3.12641,0.0737866,0.122547
5.53639,0.0381471,0.232935,0.256403,3.12641,0.0737866,0.122547
5.54449,0.0381471,0.232935,0.256403,3.12641,0.0737866,0.122547
5.55246,0.0381471,0.232935,0.256403,3.12641,0.0737866,0.122547
5.5605,0.0381471,0.232935,0.256403,3.12641,0.0737866,0.122547
5.56849,0.0381471,0.232935,0.256403,3.12641,0.0737866,0.122547
5.57643,0.0381471,0.232935,0.256403,3.12641,0.0737866,0.122547
5.58448,0.0381471,0.232935,0.256403,3.12641,0.0737866,0.122547
5.59256,0.0381471,0.232935,0.256403,3.12641,0.0737866,0.122547
5.6005,0.0381507,0.232926,0.256402,3.1264,0.0737723,0.122534
5.60837,0.0381507,0.232926,0.256402,3.1264,0.0737723,0.122534
5.61641,0.0381507,0.232926,0.256402,3.1264,0.0737723,0.122534
5.6244,0.0381507,0.232926,0.256402,3.1264,0.0737723,0.122534
5.63244,0.0381507,0.232926,0.256402,3.1264,0.0737723,0.122534
5.64043,0.0381507,0.232926,0.256402,3.1264,0.0737723,0.122534
5.64849,0.0381507,0.232926,0.256402,3.1264,0.0737723,0.122534
5.65649,0.0381507,0.232926,0.256402,3.1264,0.0737723,0.122534
5.66448,0.0381507,0.232926,0.256402,3.1264,0.0737723,0.122534
5.6725,0.0381507,0.232926,0.256402,3.1264,0.0737723,0.122534
5.68051,0.0381507,0.232926,0.256402,3.1264,0.0737723,0.122534
5.68849,0.0381507,0.232926,0.256402,3.1264,0.0737723,0.122534
5.69649,0.0381469,0.232929,0.256392,3.12636,0.0738023,0.122579
5.70453,0.0381445,0.232935,0.256401,3.12641,0.0737864,0.122547
5.71241,0.0381445,0.232935,0.256401,3.12641,0.0737864,0.122547
5.72032,0.0381445,0.232935,0.256401,3.12641,0.0737864,0.122547
5.72832,0.0381445,0.232935,0.256401,3.12641,0.0737864,0.122547
5.73632,0.0381445,0.232935,0.256401,3.12641,0.0737864,0.122547
5.74436,0.0381445,0.232935,0.256401,3.12641,0.0737864,0.122547
5.75238,0.0381445,0.232935,0.256401,3.12641,0.0737864,0.122547
5.7604,0.0381445,0.232935,0.256401,3.12641,0.0737864,0.122547
5.76847,0.0381445,0.232935,0.256401,3.12641,0.0737864,0.122547
5.7764,0.0381445,0.232935,0.256401,3.12641,0.0737864,0.122547
5.78446,0.0381445,0.232935,0.256401,3.12641,0.0737864,0.122547
5.79246,0.0381445,0.232935,0.256401,3.12641,0.0737864,0.122547
5.80055,0.0381505,0.23293,0.256398,3.12636,0.0737529,0.122579
5.80842,0.0381505,0.23293,0.256398,3.12636,0.0737529,0.122579
5.81639,0.0381505,0.23293,0.256398,3.12636,0.0737529,0.122579
5.82438,0.0381505,0.23293,0.256398,3.12636,0.0737529,0.122579
5.83236,0.0381505,0.23293,0.256398,3.12636,0.0737529,0.122579
5.84037,0.0381505,0.23293,0.256398,3.12636,0.0737529,0.122579
5.84836,0.0381505,0.23293,0.256398,3.12636,0.0737529,0.122579
5.85641,0.0381505,0.23293,0.256398,3.12636,0.0737529,0.122579
5.86442,0.0381505,0.23293,0.256398,3.12636,0.0737529,0.122579
5.87245,0.0381505,0.23293,0.256398,3.12636,0.0737529,0.122579
5.88046,0.0381505,0.23293,0.256398,3.12636,0.0737529,0.122579
5.88843,0.0381505,0.23293,0.256398,3.12636,0.0737529,0.122579
5.89639,0.0381505,0.23293,0.256398,3.12636,0.0737529,0.122579
5.90448,0.0381443,0.232928,0.256416,3.12647,0.0738204,0.122551
5.91234,0.0381443,0.232928,0.256416,3.12647,0.0738204,0.122551
5.92039,0.0381443,0.232928,0.256416,3.12647,0.0738204,0.122551
5.92835,0.0381443,0.232928,0.256416,3.12647,0.0738204,0.122551
5.93643,0.0381443,0.232928,0.256416,3.12647,0.0738204,0.122551
5.94443,0.0381443,0.232928,0.256416,3.12647,0.0738204,0.122551
5.95243,0.0381443,0.232928,0.256416,3.12647,0.0738204,0.122551
5.96044,0.0381443,0.232928,0.256416,3.12647,0.0738204,0.122551
5.96848,0.0381443,0.232928,0.256416,3.12647,0.0738204,0.122551
5.97642,0.0381443,0.232928,0.256416,3.12647,0.0738204,0.122551
5.9845,0.0381443,0.232928,0.256416,3.12647,0.0738204,0.122551
5.9925,0.0381443,0.232928,0.256416,3.12647,0.0738204,0.122551
6.00046,0.0381436,0.232929,0.256398,3.1264,0.073784,0.122546
6.00839,0.0381436,0.232929,0.256398,3.1264,0.073784,0.122546
6.01628,0.0381436,0.232929,0.256398,3.1264,0.073784,0.122546
6.02434,0.0381436,0.232929,0.256398,3.1264,0.073784,0.122546
6.03237,0.0381436,0.232929,0.256398,3.1264,0.073784,0.122546
6.04038,0.0381436,0.232929,0.256398,3.1264,0.073784,0.122546
6.04838,0.0381436,0.232929,0.256398,3.1264,0.073784,0.122546
6.0564,0.0381436,0.232929,0.256398,3.1264,0.073784,0.122546
6.06441,0.0381436,0.232929,0.256398,3.1264,0.073784,0.122546
6.07247,0.0381436,0.232929,0.256398,3.1264,0.073784,0.122546
6.08043,0.0381436,0.232929,0.256398,3.1264,0.073784,0.122546
6.08842,0.0381436,0.232929,0.256398,3.1264,0.073784,0.122546
6.09645,0.0381436,0.232929,0.256398,3.1264,0.073784,0.122546
6.10442,0.0381449,0.232927,0.256405,3.1264,0.073808,0.122558
6.11249,0.0381449,0.232927,0.256405,3.1264,0.073808,0.122558
6.12043,0.0381449,0.232927,0.256405,3.1264,0.073808,0.122558
6.12842,0.0381449,0.232927,0.256405,3.1264,0.073808,0.122558
6.13646,0.0381449,0.232927,0.256405,3.1264,0.073808,0.122558
6.14442,0.0381449,0.232927,0.256405,3.1264,0.073808,0.122558
6.15247,0.0381449,0.232927,0.256405,3.1264,0.073808,0.122558
6.1605,0.0381449,0.232927,0.256405,3.1264,0.073808,0.122558
6.1684,0.0381449,0.232927,0.256405,3.1264,0.073808,0.122558
6.17652,0.0381435,0.232934,0.256394,3.1264,0.0737962,0.122558
6.18446,0.0381435,0.232934,0.256394,3.1264,0.0737962,0.122558
6.19245,0.0381435,0.232934,0.256394,3.1264,0.0737962,0.122558
6.20052,0.0381488,0.232929,0.256395,3.12639,0.0737829,0.122581
6.20835,0.0381488,0.232929,0.256395,3.12639,0.0737829,0.122581
6.21635,0.0381488,0.232929,0.256395,3.12639,0.0737829,0.122581
6.22441,0.0381488,0.232929,0.256395,3.12639,0.0737829,0.122581
6.23237,0.0381488,0.232929,0.256395,3.12639,0.0737829,0.122581
6.24041,0.0381488,0.232929,0.256395,3.12639,0.0737829,0.122581
6.24848,0.0381488,0.232929,0.256395,3.12639,0.0737829,0.122581
6.2564,0.0381488,0.232929,0.256395,3.12639,0.0737829,0.122581
6.26443,0.0381488,0.232929,0.256395,3.12639,0.0737829,0.122581
6.27245,0.0381488,0.232929,0.256395,3.12639,0.0737829,0.122581
6.28043,0.0381488,0.232929,0.256395,3.12639,0.0737829,0.122581
6.28846,0.0381488,0.232929,0.256395,3.12639,0.0737829,0.122581
6.2964,0.0381488,0.232929,0.256395,3.12639,0.0737829,0.122581
6.30436,0.038142,0.232927,0.256407,3.12643,0.0738141,0.122572
6.31244,0.038142,0.232927,0.256407,3.12643,0.0738141,0.122572
6.32037,0.038142,0.232927,0.256407,3.12643,0.0738141,0.122572
6.32835,0.038142,0.232927,0.256407,3.12643,0.0738141,0.122572
6.33641,0.038142,0.232927,0.256407,3.12643,0.0738141,0.122572
6.34435,0.038142,0.232927,0.256407,3.12643,0.0738141,0.122572
6.3524,0.038142,0.232927,0.256407,3.12643,0.0738141,0.122572
6.36034,0.038142,0.232927,0.256407,3.12643,0.0738141,0.122572
6.36842,0.038142,0.232927,0.256407,3.12643,0.0738141,0.122572
6.37644,0.038142,0.232927,0.256407,3.12643,0.0738141,0.122572
6.38447,0.038142,0.232927,0.256407,3.12643,0.0738141,0.122572
6.39244,0.038142,0.232927,0.256407,3.12643,0.0738141,0.122572
6.40044,0.0381559,0.232923,0.2564,3.12638,0.0737804,0.122545
6.40838,0.0381559,0.232923,0.2564,3.12638,0.0737804,0.122545
6.41635,0.0381559,0.232923,0.2564,3.12638,0.0737804,0.122545
6.42444,0.0381559,0.232923,0.2564,3.12638,0.0737804,0.122545
6.4324,0.0381559,0.232923,0.2564,3.12638,0.0737804,0.122545
6.44044,0.0381559,0.232923,0.2564,3.12638,0.0737804,0.122545
6.44845,0.0381559,0.232923,0.2564,3.12638,0.0737804,0.122545
6.45644,0.0381559,0.232923,0.2564,3.12638,0.0737804,0.122545
6.46452,0.0381559,0.232923,0.2564,3.12638,0.0737804,0.122545
6.47244,0.0381559,0.232923,0.2564,3.12638,0.0737804,0.122545
6.48048,0.0381559,0.232923,0.2564,3.12638,0.0737804,0.122545
6.48846,0.0381559,0.232923,0.2564,3.12638,0.0737804,0.122545
6.49648,0.0381559,0.232923,0.2564,3.12638,0.0737804,0.122545
6.50444,0.0381459,0.23293,0.256405,3.1264,0.0737844,0.122558
6.51234,0.0381459,0.23293,0.256405,3.1264,0.0737844,0.122558
6.52035,0.0381459,0.23293,0.256405,3.1264,0.0737844,0.122558
6.52838,0.0381459,0.23293,0.256405,3.1264,0.0737844,0.122558
6.53637,0.0381459,0.23293,0.256405,3.1264,0.0737844,0.122558
6.54438,0.0381459,0.23293,0.256405,3.1264,0.0737844,0.122558
6.5524,0.0381459,0.23293,0.256405,3.1264,0.0737844,0.122558
6.56034,0.0381459,0.23293,0.256405,3.1264,0.0737844,0.122558
6.56834,0.0381459,0.23293,0.256405,3.1264,0.0737844,0.122558
6.57638,0.0381459,0.23293,0.256405,3.1264,0.0737844,0.122558
6.58449,0.0381459,0.23293,0.256405,3.1264,0.0737844,0.122558
6.59252,0.0381459,0.23293,0.256405,3.1264,0.0737844,0.122558
