Time,X,Y,Z,R,P,Y
0.294787,0,0,0,0,0,0
0.302691,0.0208281,0.44357,0.258231,3.13834,-0.00101868,-0.000127766
0.310748,0.0208281,0.44357,0.258231,3.13834,-0.00101868,-0.000127766
0.318755,0.0208281,0.44357,0.258231,3.13834,-0.00101868,-0.000127766
0.326737,0.0208281,0.44357,0.258231,3.13834,-0.00101868,-0.000127766
0.334853,0.0208281,0.44357,0.258231,3.13834,-0.00101868,-0.000127766
0.342759,0.0208281,0.44357,0.258231,3.13834,-0.00101868,-0.000127766
0.350854,0.0208281,0.44357,0.258231,3.13834,-0.00101868,-0.000127766
0.358765,0.0208281,0.44357,0.258231,3.13834,-0.00101868,-0.000127766
0.366799,0.0208281,0.44357,0.258231,3.13834,-0.00101868,-0.000127766
0.374898,0.0208281,0.44357,0.258231,3.13834,-0.00101868,-0.000127766
0.382845,0.0208281,0.44357,0.258231,3.13834,-0.00101868,-0.000127766
0.390861,0.0208281,0.44357,0.258231,3.13834,-0.00101868,-0.000127766
0.398819,0.0208281,0.44357,0.258231,3.13834,-0.00101868,-0.000127766
0.40672,0.0208281,0.44357,0.258231,3.13834,-0.00101868,-0.000127766
0.414693,0.0208281,0.44357,0.258231,3.13834,-0.00101868,-0.000127766
0.422677,0.0208281,0.44357,0.258231,3.13834,-0.00101868,-0.000127766
0.43075,0.0208281,0.44357,0.258231,3.13834,-0.00101868,-0.000127766
0.438775,0.0208281,0.44357,0.258231,3.13834,-0.00101868,-0.000127766
0.446791,0.0208281,0.44357,0.258231,3.13834,-0.00101868,-0.000127766
0.454792,0.0208281,0.44357,0.258231,3.13834,-0.00101868,-0.000127766
0.462837,0.0208281,0.44357,0.258231,3.13834,-0.00101868,-0.000127766
0.470798,0.0208281,0.44357,0.258231,3.13834,-0.00101868,-0.000127766
0.478841,0.0208281,0.44357,0.258231,3.13834,-0.00101868,-0.000127766
0.486853,0.0208281,0.44357,0.258231,3.13834,-0.00101868,-0.000127766
0.494925,0.0208281,0.44357,0.258231,3.13834,-0.00101868,-0.000127766
0.502736,0.0208281,0.44357,0.258231,3.13834,-0.00101868,-0.000127766
0.510799,0.0208281,0.44357,0.258231,3.13834,-0.00101868,-0.000127766
0.518811,0.0208281,0.44357,0.258231,3.13834,-0.00101868,-0.000127766
0.526842,0.0208281,0.44357,0.258231,3.13834,-0.00101868,-0.000127766
0.534785,0.0208281,0.44357,0.258231,3.13834,-0.00101868,-0.000127766
0.542814,0.0208281,0.44357,0.258231,3.13834,-0.00101868,-0.000127766
0.550867,0.0208281,0.44357,0.258231,3.13834,-0.00101868,-0.000127766
0.5588,0.0208281,0.44357,0.258231,3.13834,-0.00101868,-0.000127766
0.566788,0.0208281,0.44357,0.258231,3.13834,-0.00101868,-0.000127766
0.574824,0.0208281,0.44357,0.258231,3.13834,-0.00101868,-0.000127766
0.582907,0.0208281,0.44357,0.258231,3.13834,-0.00101868,-0.000127766
0.590843,0.0208281,0.44357,0.258231,3.13834,-0.00101868,-0.000127766
0.59878,0.0208281,0.44357,0.258231,3.13834,-0.00101868,-0.000127766
0.606783,0.0208281,0.44357,0.258231,3.13834,-0.00101868,-0.000127766
0.614863,0.0208281,0.44357,0.258231,3.13834,-0.00101868,-0.000127766
0.622792,0.0208281,0.44357,0.258231,3.13834,-0.00101868,-0.000127766
0.630839,0.0208281,0.44357,0.258231,3.13834,-0.00101868,-0.000127766
0.638758,0.0208281,0.44357,0.258231,3.13834,-0.00101868,-0.000127766
0.646844,0.0208281,0.44357,0.258231,3.13834,-0.00101868,-0.000127766
0.654805,0.0208281,0.44357,0.258231,3.13834,-0.00101868,-0.000127766
0.662782,0.0208281,0.44357,0.258231,3.13834,-0.00101868,-0.000127766
0.670862,0.0208281,0.44357,0.258231,3.13834,-0.00101868,-0.000127766
0.678814,0.0208281,0.44357,0.258231,3.13834,-0.00101868,-0.000127766
0.686862,0.0208281,0.44357,0.258231,3.13834,-0.00101868,-0.000127766
0.69489,0.0208281,0.44357,0.258231,3.13834,-0.00101868,-0.000127766
0.70283,0.0208281,0.44357,0.258231,3.13834,-0.00101868,-0.000127766
0.710789,0.0208281,0.44357,0.258231,3.13834,-0.00101868,-0.000127766
0.718841,0.0208281,0.44357,0.258231,3.13834,-0.00101868,-0.000127766
0.726857,0.0208281,0.44357,0.258231,3.13834,-0.00101868,-0.000127766
0.734831,0.0208281,0.44357,0.258231,3.13834,-0.00101868,-0.000127766
0.742803,0.0208281,0.44357,0.258231,3.13834,-0.00101868,-0.000127766
0.750844,0.0208281,0.44357,0.258231,3.13834,-0.00101868,-0.000127766
0.758831,0.0208281,0.44357,0.258231,3.13834,-0.00101868,-0.000127766
0.76683,0.0208281,0.44357,0.258231,3.13834,-0.00101868,-0.000127766
0.774803,0.0208281,0.44357,0.258231,3.13834,-0.00101868,-0.000127766
0.782885,0.0208281,0.44357,0.258231,3.13834,-0.00101868,-0.000127766
0.790855,0.0208281,0.44357,0.258231,3.13834,-0.00101868,-0.000127766
0.798835,0.0208281,0.44357,0.258231,3.13834,-0.00101868,-0.000127766
0.806729,0.0208281,0.44357,0.258231,3.13834,-0.00101868,-0.000127766
0.814768,0.0208281,0.44357,0.258231,3.13834,-0.00101868,-0.000127766
0.822749,0.0208281,0.44357,0.258231,3.13834,-0.00101868,-0.000127766
0.830878,0.0208281,0.44357,0.258231,3.13834,-0.00101868,-0.000127766
0.838808,0.0208281,0.44357,0.258231,3.13834,-0.00101868,-0.000127766
0.846838,0.0208281,0.44357,0.258231,3.13834,-0.00101868,-0.000127766
0.854812,0.0208281,0.44357,0.258231,3.13834,-0.00101868,-0.000127766
0.862814,0.0208281,0.44357,0.258231,3.13834,-0.00101868,-0.000127766
0.870751,0.0208281,0.44357,0.258231,3.13834,-0.00101868,-0.000127766
0.878772,0.0208281,0.44357,0.258231,3.13834,-0.00101868,-0.000127766
0.88679,0.0208281,0.44357,0.258231,3.13834,-0.00101868,-0.000127766
0.894857,0.0208281,0.44357,0.258231,3.13834,-0.00101868,-0.000127766
0.902787,0.0208281,0.44357,0.258231,3.13834,-0.00101868,-0.000127766
0.910812,0.0208281,0.44357,0.258231,3.13834,-0.00101868,-0.000127766
0.918796,0.0208281,0.44357,0.258231,3.13834,-0.00101868,-0.000127766
0.926771,0.0208281,0.44357,0.258231,3.13834,-0.00101868,-0.000127766
0.934835,0.0208281,0.44357,0.258231,3.13834,-0.00101868,-0.000127766
0.942758,0.0208281,0.44357,0.258231,3.13834,-0.00101868,-0.000127766
0.950806,0.0208281,0.44357,0.258231,3.13834,-0.00101868,-0.000127766
0.958858,0.0208281,0.44357,0.258231,3.13834,-0.00101868,-0.000127766
0.966805,0.0208281,0.44357,0.258231,3.13834,-0.00101868,-0.000127766
0.974776,0.0208281,0.44357,0.258231,3.13834,-0.00101868,-0.000127766
0.982833,0.0208281,0.44357,0.258231,3.13834,-0.00101868,-0.000127766
0.990917,0.0208281,0.44357,0.258231,3.13834,-0.00101868,-0.000127766
0.998839,0.0208281,0.44357,0.258231,3.13834,-0.00101868,-0.000127766
1.00677,0.0208281,0.44357,0.258231,3.13834,-0.00101868,-0.000127766
1.01475,0.0208281,0.44357,0.258231,3.13834,-0.00101868,-0.000127766
1.02277,0.0208281,0.44357,0.258231,3.13834,-0.00101868,-0.000127766
1.03083,0.0208281,0.44357,0.258231,3.13834,-0.00101868,-0.000127766
1.03882,0.0208281,0.44357,0.258231,3.13834,-0.00101868,-0.000127766
1.04678,0.0208281,0.44357,0.258231,3.13834,-0.00101868,-0.000127766
1.0548,0.0208281,0.44357,0.258231,3.13834,-0.00101868,-0.000127766
1.0628,0.0208281,0.44357,0.258231,3.13834,-0.00101868,-0.000127766
1.0707,0.0208281,0.44357,0.258231,3.13834,-0.00101868,-0.000127766
1.07882,0.0208281,0.44357,0.258231,3.13834,-0.00101868,-0.000127766
1.08679,0.0208281,0.44357,0.258231,3.13834,-0.00101868,-0.000127766
1.09487,0.0208281,0.44357,0.258231,3.13834,-0.00101868,-0.000127766
1.10281,0.0208281,0.44357,0.258231,3.13834,-0.00101868,-0.000127766
1.11079,0.0208281,0.44357,0.258231,3.13834,-0.00101868,-0.000127766
1.11882,0.0208281,0.44357,0.258231,3.13834,-0.00101868,-0.000127766
1.12681,0.0208281,0.44357,0.258231,3.13834,-0.00101868,-0.000127766
1.1348,0.0208281,0.44357,0.258231,3.13834,-0.00101868,-0.000127766
1.14281,0.0208281,0.44357,0.258231,3.13834,-0.00101868,-0.000127766
1.1508,0.0208281,0.44357,0.258231,3.13834,-0.00101868,-0.000127766
1.15871,0.0208281,0.44357,0.258231,3.13834,-0.00101868,-0.000127766
1.16676,0.0208281,0.44357,0.258231,3.13834,-0.00101868,-0.000127766
1.17477,0.0208281,0.44357,0.258231,3.13834,-0.00101868,-0.000127766
1.18279,0.0208281,0.44357,0.258231,3.13834,-0.00101868,-0.000127766
1.19082,0.0208281,0.44357,0.258231,3.13834,-0.00101868,-0.000127766
1.19874,0.0208281,0.44357,0.258231,3.13834,-0.00101868,-0.000127766
1.20688,0.0208281,0.44357,0.258231,3.13834,-0.00101868,-0.000127766
1.21484,0.0208281,0.44357,0.258231,3.13834,-0.00101868,-0.000127766
1.2228,0.0208281,0.44357,0.258231,3.13834,-0.00101868,-0.000127766
1.23084,0.0208281,0.44357,0.258231,3.13834,-0.00101868,-0.000127766
1.23879,0.0208281,0.44357,0.258231,3.13834,-0.00101868,-0.000127766
1.24678,0.0208281,0.44357,0.258231,3.13834,-0.00101868,-0.000127766
1.25479,0.0208281,0.44357,0.258231,3.13834,-0.00101868,-0.000127766
1.26274,0.0208281,0.44357,0.258231,3.13834,-0.00101868,-0.000127766
1.27074,0.0208281,0.44357,0.258231,3.13834,-0.00101868,-0.000127766
1.27874,0.0208281,0.44357,0.258231,3.13834,-0.00101868,-0.000127766
1.28675,0.0208281,0.44357,0.258231,3.13834,-0.00101868,-0.000127766
1.29486,0.0208281,0.44357,0.258231,3.13834,-0.00101868,-0.000127766
1.30277,0.0208215,0.443567,0.258228,3.1383,-0.00100288,-0.0001398
1.31061,0.0208215,0.443567,0.258228,3.1383,-0.00100288,-0.0001398
1.31862,0.0208215,0.443567,0.258228,3.1383,-0.00100288,-0.0001398
1.32665,0.0208215,0.443567,0.258228,3.1383,-0.00100288,-0.0001398
1.33466,0.0208215,0.443567,0.258228,3.1383,-0.00100288,-0.0001398
1.34267,0.0208215,0.443567,0.258228,3.1383,-0.00100288,-0.0001398
1.35068,0.0208215,0.443567,0.258228,3.1383,-0.00100288,-0.0001398
1.35871,0.0208215,0.443567,0.258228,3.1383,-0.00100288,-0.0001398
1.36673,0.0208215,0.443567,0.258228,3.1383,-0.00100288,-0.0001398
1.37472,0.0208215,0.443567,0.258228,3.1383,-0.00100288,-0.0001398
1.38276,0.0208215,0.443567,0.258228,3.1383,-0.00100288,-0.0001398
1.39081,0.0208215,0.443567,0.258228,3.1383,-0.00100288,-0.0001398
1.39874,0.0208215,0.443567,0.258228,3.1383,-0.00100288,-0.0001398
1.40669,0.0208351,0.443566,0.258249,3.13838,-0.00102314,-0.000163652
1.41467,0.0208351,0.443566,0.258249,3.13838,-0.00102314,-0.000163652
1.4226,0.0208351,0.443566,0.258249,3.13838,-0.00102314,-0.000163652
1.43062,0.0208351,0.443566,0.258249,3.13838,-0.00102314,-0.000163652
1.43864,0.0208351,0.443566,0.258249,3.13838,-0.00102314,-0.000163652
1.44666,0.0208351,0.443566,0.258249,3.13838,-0.00102314,-0.000163652
1.45469,0.0208351,0.443566,0.258249,3.13838,-0.00102314,-0.000163652
1.4627,0.0208351,0.443566,0.258249,3.13838,-0.00102314,-0.000163652
1.47069,0.0208351,0.443566,0.258249,3.13838,-0.00102314,-0.000163652
1.47869,0.0208351,0.443566,0.258249,3.13838,-0.00102314,-0.000163652
1.48676,0.0208351,0.443566,0.258249,3.13838,-0.00102314,-0.000163652
1.49483,0.0208351,0.443566,0.258249,3.13838,-0.00102314,-0.000163652
1.50282,0.0208543,0.443554,0.258224,3.13829,-0.00105476,-0.00016316
1.51077,0.0208543,0.443554,0.258224,3.13829,-0.00105476,-0.00016316
1.51872,0.0208543,0.443554,0.258224,3.13829,-0.00105476,-0.00016316
1.52666,0.0208543,0.443554,0.258224,3.13829,-0.00105476,-0.00016316
1.53475,0.0208543,0.443554,0.258224,3.13829,-0.00105476,-0.00016316
1.54272,0.0208543,0.443554,0.258224,3.13829,-0.00105476,-0.00016316
1.55073,0.0208543,0.443554,0.258224,3.13829,-0.00105476,-0.00016316
1.55882,0.0208543,0.443554,0.258224,3.13829,-0.00105476,-0.00016316
1.56673,0.0208543,0.443554,0.258224,3.13829,-0.00105476,-0.00016316
1.57477,0.0208543,0.443554,0.258224,3.13829,-0.00105476,-0.00016316
1.58271,0.0208543,0.443554,0.258224,3.13829,-0.00105476,-0.00016316
1.59081,0.0208543,0.443554,0.258224,3.13829,-0.00105476,-0.00016316
1.59876,0.0208543,0.443554,0.258224,3.13829,-0.00105476,-0.00016316
1.60674,0.0209018,0.443528,0.258298,3.13843,-0.0010258,-0.000283017
1.61477,0.0209018,0.443528,0.258298,3.13843,-0.0010258,-0.000283017
1.62272,0.0209018,0.443528,0.258298,3.13843,-0.0010258,-0.000283017
1.63075,0.0209018,0.443528,0.258298,3.13843,-0.0010258,-0.000283017
1.63871,0.0209018,0.443528,0.258298,3.13843,-0.0010258,-0.000283017
1.64673,0.0209018,0.443528,0.258298,3.13843,-0.0010258,-0.000283017
1.65472,0.0209018,0.443528,0.258298,3.13843,-0.0010258,-0.000283017
1.66275,0.0209018,0.443528,0.258298,3.13843,-0.0010258,-0.000283017
1.67075,0.0209018,0.443528,0.258298,3.13843,-0.0010258,-0.000283017
1.67874,0.0209018,0.443528,0.258298,3.13843,-0.0010258,-0.000283017
1.68671,0.0209018,0.443528,0.258298,3.13843,-0.0010258,-0.000283017
1.69478,0.0209018,0.443528,0.258298,3.13843,-0.0010258,-0.000283017
1.70279,0.0213178,0.443409,0.258733,3.13947,-0.00096835,-0.0011571
1.7107,0.0213178,0.443409,0.258733,3.13947,-0.00096835,-0.0011571
1.71867,0.0213178,0.443409,0.258733,3.13947,-0.00096835,-0.0011571
1.72671,0.0213178,0.443409,0.258733,3.13947,-0.00096835,-0.0011571
1.73476,0.0213178,0.443409,0.258733,3.13947,-0.00096835,-0.0011571
1.74275,0.0213178,0.443409,0.258733,3.13947,-0.00096835,-0.0011571
1.75074,0.0213178,0.443409,0.258733,3.13947,-0.00096835,-0.0011571
1.7587,0.0213178,0.443409,0.258733,3.13947,-0.00096835,-0.0011571
1.76688,0.0213178,0.443409,0.258733,3.13947,-0.00096835,-0.0011571
1.77476,0.0213178,0.443409,0.258733,3.13947,-0.00096835,-0.0011571
1.78292,0.0213178,0.443409,0.258733,3.13947,-0.00096835,-0.0011571
1.79086,0.0213178,0.443409,0.258733,3.13947,-0.00096835,-0.0011571
1.79879,0.0213178,0.443409,0.258733,3.13947,-0.00096835,-0.0011571
1.80669,0.0224706,0.443147,0.259617,3.14156,-0.000865207,-0.00361313
1.8147,0.0224706,0.443147,0.259617,3.14156,-0.000865207,-0.00361313
1.82263,0.0224706,0.443147,0.259617,3.14156,-0.000865207,-0.00361313
1.83068,0.0224706,0.443147,0.259617,3.14156,-0.000865207,-0.00361313
1.83875,0.0224706,0.443147,0.259617,3.14156,-0.000865207,-0.00361313
1.84672,0.0224706,0.443147,0.259617,3.14156,-0.000865207,-0.00361313
1.85476,0.0224706,0.443147,0.259617,3.14156,-0.000865207,-0.00361313
1.86276,0.0224706,0.443147,0.259617,3.14156,-0.000865207,-0.00361313
1.87078,0.0224706,0.443147,0.259617,3.14156,-0.000865207,-0.00361313
1.87869,0.0224706,0.443147,0.259617,3.14156,-0.000865207,-0.00361313
1.88681,0.0224706,0.443147,0.259617,3.14156,-0.000865207,-0.00361313
1.89485,0.0224706,0.443147,0.259617,3.14156,-0.000865207,-0.00361313
1.90279,0.0257102,0.442034,0.263319,-3.13326,0.000963043,-0.0105064
1.9108,0.0257102,0.442034,0.263319,-3.13326,0.000963043,-0.0105064
1.91877,0.0257102,0.442034,0.263319,-3.13326,0.000963043,-0.0105064
1.92679,0.0257102,0.442034,0.263319,-3.13326,0.000963043,-0.0105064
1.93489,0.0257102,0.442034,0.263319,-3.13326,0.000963043,-0.0105064
1.94279,0.0257102,0.442034,0.263319,-3.13326,0.000963043,-0.0105064
1.9508,0.0257102,0.442034,0.263319,-3.13326,0.000963043,-0.0105064
1.95882,0.0257102,0.442034,0.263319,-3.13326,0.000963043,-0.0105064
1.96683,0.0257102,0.442034,0.263319,-3.13326,0.000963043,-0.0105064
1.97481,0.0257102,0.442034,0.263319,-3.13326,0.000963043,-0.0105064
1.98287,0.0257102,0.442034,0.263319,-3.13326,0.000963043,-0.0105064
1.99082,0.0257102,0.442034,0.263319,-3.13326,0.000963043,-0.0105064
1.99884,0.0257102,0.442034,0.263319,-3.13326,0.000963043,-0.0105064
2.00676,0.0302541,0.438342,0.275392,-3.10651,0.00659397,-0.0191944
2.01465,0.0302541,0.438342,0.275392,-3.10651,0.00659397,-0.0191944
2.02269,0.0302541,0.438342,0.275392,-3.10651,0.00659397,-0.0191944
2.03067,0.0302541,0.438342,0.275392,-3.10651,0.00659397,-0.0191944
2.03872,0.0302541,0.438342,0.275392,-3.10651,0.00659397,-0.0191944
2.04671,0.0302541,0.438342,0.275392,-3.10651,0.00659397,-0.0191944
2.05475,0.0302541,0.438342,0.275392,-3.10651,0.00659397,-0.0191944
2.06276,0.0302541,0.438342,0.275392,-3.10651,0.00659397,-0.0191944
2.07075,0.0302541,0.438342,0.275392,-3.10651,0.00659397,-0.0191944
2.07878,0.0302541,0.438342,0.275392,-3.10651,0.00659397,-0.0191944
2.08681,0.0302541,0.438342,0.275392,-3.10651,0.00659397,-0.0191944
2.0948,0.0302541,0.438342,0.275392,-3.10651,0.00659397,-0.0191944
2.10274,0.0359349,0.425386,0.311261,-3.02789,0.0233199,-0.0244505
2.11064,0.0359349,0.425386,0.311261,-3.02789,0.0233199,-0.0244505
2.11865,0.0359349,0.425386,0.311261,-3.02789,0.0233199,-0.0244505
2.12665,0.0359349,0.425386,0.311261,-3.02789,0.0233199,-0.0244505
2.1347,0.0359349,0.425386,0.311261,-3.02789,0.0233199,-0.0244505
2.14268,0.0359349,0.425386,0.311261,-3.02789,0.0233199,-0.0244505
2.15075,0.0359349,0.425386,0.311261,-3.02789,0.0233199,-0.0244505
2.15873,0.0359349,0.425386,0.311261,-3.02789,0.0233199,-0.0244505
2.16674,0.0359349,0.425386,0.311261,-3.02789,0.0233199,-0.0244505
2.17482,0.0359349,0.425386,0.311261,-3.02789,0.0233199,-0.0244505
2.18269,0.0359349,0.425386,0.311261,-3.02789,0.0233199,-0.0244505
2.19076,0.0359349,0.425386,0.311261,-3.02789,0.0233199,-0.0244505
2.19881,0.0359349,0.425386,0.311261,-3.02789,0.0233199,-0.0244505
2.2067,0.0379275,0.414718,0.330269,-2.99851,0.0292317,-0.0219231
2.21472,0.0379275,0.414718,0.330269,-2.99851,0.0292317,-0.0219231
2.22278,0.0379275,0.414718,0.330269,-2.99851,0.0292317,-0.0219231
2.23069,0.0379275,0.414718,0.330269,-2.99851,0.0292317,-0.0219231
2.23871,0.0379275,0.414718,0.330269,-2.99851,0.0292317,-0.0219231
2.24677,0.0379275,0.414718,0.330269,-2.99851,0.0292317,-0.0219231
2.25472,0.0379275,0.414718,0.330269,-2.99851,0.0292317,-0.0219231
2.26273,0.0379275,0.414718,0.330269,-2.99851,0.0292317,-0.0219231
2.2707,0.0379275,0.414718,0.330269,-2.99851,0.0292317,-0.0219231
2.27878,0.0379275,0.414718,0.330269,-2.99851,0.0292317,-0.0219231
2.28682,0.0379275,0.414718,0.330269,-2.99851,0.0292317,-0.0219231
2.29478,0.0379275,0.414718,0.330269,-2.99851,0.0292317,-0.0219231
2.30269,0.0413796,0.395075,0.350042,-3.0004,0.0287522,-0.0166422
2.31068,0.0413796,0.395075,0.350042,-3.0004,0.0287522,-0.0166422
2.31862,0.0413796,0.395075,0.350042,-3.0004,0.0287522,-0.0166422
2.3267,0.0413796,0.395075,0.350042,-3.0004,0.0287522,-0.0166422
2.33471,0.0413796,0.395075,0.350042,-3.0004,0.0287522,-0.0166422
2.34271,0.0413796,0.395075,0.350042,-3.0004,0.0287522,-0.0166422
2.35077,0.0413796,0.395075,0.350042,-3.0004,0.0287522,-0.0166422
2.35874,0.0413796,0.395075,0.350042,-3.0004,0.0287522,-0.0166422
2.36675,0.0413796,0.395075,0.350042,-3.0004,0.0287522,-0.0166422
2.37473,0.0413796,0.395075,0.350042,-3.0004,0.0287522,-0.0166422
2.38279,0.0413796,0.395075,0.350042,-3.0004,0.0287522,-0.0166422
2.3907,0.0413796,0.395075,0.350042,-3.0004,0.0287522,-0.0166422
2.39884,0.0413796,0.395075,0.350042,-3.0004,0.0287522,-0.0166422
2.40674,0.0451212,0.370839,0.364582,-3.0341,0.0288066,-0.0115845
2.41461,0.0451212,0.370839,0.364582,-3.0341,0.0288066,-0.0115845
2.42265,0.0451212,0.370839,0.364582,-3.0341,0.0288066,-0.0115845
2.43072,0.0451212,0.370839,0.364582,-3.0341,0.0288066,-0.0115845
2.43871,0.0451212,0.370839,0.364582,-3.0341,0.0288066,-0.0115845
2.44669,0.0451212,0.370839,0.364582,-3.0341,0.0288066,-0.0115845
2.45474,0.0451212,0.370839,0.364582,-3.0341,0.0288066,-0.0115845
2.46272,0.0451212,0.370839,0.364582,-3.0341,0.0288066,-0.0115845
2.47068,0.0451212,0.370839,0.364582,-3.0341,0.0288066,-0.0115845
2.47878,0.0451212,0.370839,0.364582,-3.0341,0.0288066,-0.0115845
2.48671,0.0451212,0.370839,0.364582,-3.0341,0.0288066,-0.0115845
2.49479,0.0451212,0.370839,0.364582,-3.0341,0.0288066,-0.0115845
2.50266,0.0483356,0.338012,0.382937,-3.06197,0.0548373,-0.000627772
2.51065,0.0483356,0.338012,0.382937,-3.06197,0.0548373,-0.000627772
2.51867,0.0483356,0.338012,0.382937,-3.06197,0.0548373,-0.000627772
2.52672,0.0483356,0.338012,0.382937,-3.06197,0.0548373,-0.000627772
2.53474,0.0483356,0.338012,0.382937,-3.06197,0.0548373,-0.000627772
2.54271,0.0483356,0.338012,0.382937,-3.06197,0.0548373,-0.000627772
2.55066,0.0483356,0.338012,0.382937,-3.06197,0.0548373,-0.000627772
2.55868,0.0483356,0.338012,0.382937,-3.06197,0.0548373,-0.000627772
2.56669,0.0483356,0.338012,0.382937,-3.06197,0.0548373,-0.000627772
2.57471,0.0483356,0.338012,0.382937,-3.06197,0.0548373,-0.000627772
2.583,0.0483356,0.338012,0.382937,-3.06197,0.0548373,-0.000627772
2.59073,0.0483356,0.338012,0.382937,-3.06197,0.0548373,-0.000627772
2.59879,0.0483356,0.338012,0.382937,-3.06197,0.0548373,-0.000627772
2.60666,0.0491985,0.313099,0.3957,-3.05887,0.0961354,0.0305849
2.61462,0.0491985,0.313099,0.3957,-3.05887,0.0961354,0.0305849
2.62261,0.0491985,0.313099,0.3957,-3.05887,0.0961354,0.0305849
2.63069,0.0491985,0.313099,0.3957,-3.05887,0.0961354,0.0305849
2.63871,0.0491985,0.313099,0.3957,-3.05887,0.0961354,0.0305849
2.64674,0.0491985,0.313099,0.3957,-3.05887,0.0961354,0.0305849
2.65473,0.0491985,0.313099,0.3957,-3.05887,0.0961354,0.0305849
2.6627,0.0491985,0.313099,0.3957,-3.05887,0.0961354,0.0305849
2.67068,0.0491985,0.313099,0.3957,-3.05887,0.0961354,0.0305849
2.67871,0.0491985,0.313099,0.3957,-3.05887,0.0961354,0.0305849
2.68679,0.0491985,0.313099,0.3957,-3.05887,0.0961354,0.0305849
2.69483,0.0491985,0.313099,0.3957,-3.05887,0.0961354,0.0305849
2.70272,0.0503818,0.298152,0.399975,-3.04802,0.112229,0.0631798
2.71072,0.0503818,0.298152,0.399975,-3.04802,0.112229,0.0631798
2.71858,0.0503818,0.298152,0.399975,-3.04802,0.112229,0.0631798
2.72664,0.0503818,0.298152,0.399975,-3.04802,0.112229,0.0631798
2.73468,0.0503818,0.298152,0.399975,-3.04802,0.112229,0.0631798
2.74267,0.0503818,0.298152,0.399975,-3.04802,0.112229,0.0631798
2.75066,0.0503818,0.298152,0.399975,-3.04802,0.112229,0.0631798
2.75868,0.0503818,0.298152,0.399975,-3.04802,0.112229,0.0631798
2.76675,0.0503818,0.298152,0.399975,-3.04802,0.112229,0.0631798
2.7747,0.0503818,0.298152,0.399975,-3.04802,0.112229,0.0631798
2.78273,0.0503818,0.298152,0.399975,-3.04802,0.112229,0.0631798
2.79075,0.0503818,0.298152,0.399975,-3.04802,0.112229,0.0631798
2.79882,0.0503818,0.298152,0.399975,-3.04802,0.112229,0.0631798
2.80666,0.0533499,0.278023,0.386918,-3.08279,0.110561,0.102958
2.81472,0.0533499,0.278023,0.386918,-3.08279,0.110561,0.102958
2.82266,0.0533499,0.278023,0.386918,-3.08279,0.110561,0.102958
2.83072,0.0533499,0.278023,0.386918,-3.08279,0.110561,0.102958
2.83881,0.0533499,0.278023,0.386918,-3.08279,0.110561,0.102958
2.84673,0.0533499,0.278023,0.386918,-3.08279,0.110561,0.102958
2.85473,0.0533499,0.278023,0.386918,-3.08279,0.110561,0.102958
2.86273,0.0533499,0.278023,0.386918,-3.08279,0.110561,0.102958
2.87063,0.0533499,0.278023,0.386918,-3.08279,0.110561,0.102958
2.87872,0.0533499,0.278023,0.386918,-3.08279,0.110561,0.102958
2.88684,0.0533499,0.278023,0.386918,-3.08279,0.110561,0.102958
2.89474,0.0533499,0.278023,0.386918,-3.08279,0.110561,0.102958
2.90269,0.0545921,0.270146,0.366381,3.14083,0.105469,0.102733
2.91068,0.0545921,0.270146,0.366381,3.14083,0.105469,0.102733
2.91861,0.0545921,0.270146,0.366381,3.14083,0.105469,0.102733
2.92671,0.0545921,0.270146,0.366381,3.14083,0.105469,0.102733
2.93479,0.0545921,0.270146,0.366381,3.14083,0.105469,0.102733
2.94272,0.0545921,0.270146,0.366381,3.14083,0.105469,0.102733
2.95072,0.0545921,0.270146,0.366381,3.14083,0.105469,0.102733
2.95871,0.0545921,0.270146,0.366381,3.14083,0.105469,0.102733
2.96677,0.0545921,0.270146,0.366381,3.14083,0.105469,0.102733
2.97474,0.0545921,0.270146,0.366381,3.14083,0.105469,0.102733
2.98284,0.0545921,0.270146,0.366381,3.14083,0.105469,0.102733
2.99078,0.0545921,0.270146,0.366381,3.14083,0.105469,0.102733
2.99881,0.0545921,0.270146,0.366381,3.14083,0.105469,0.102733
3.00674,0.0551415,0.266513,0.350951,3.1116,0.103058,0.100131
3.01458,0.0551415,0.266513,0.350951,3.1116,0.103058,0.100131
3.02259,0.0551415,0.266513,0.350951,3.1116,0.103058,0.100131
3.03062,0.0551415,0.266513,0.350951,3.1116,0.103058,0.100131
3.03873,0.0551415,0.266513,0.350951,3.1116,0.103058,0.100131
3.04672,0.0551415,0.266513,0.350951,3.1116,0.103058,0.100131
3.05466,0.0551415,0.266513,0.350951,3.1116,0.103058,0.100131
3.06273,0.0551415,0.266513,0.350951,3.1116,0.103058,0.100131
3.07071,0.0551415,0.266513,0.350951,3.1116,0.103058,0.100131
3.07873,0.0551415,0.266513,0.350951,3.1116,0.103058,0.100131
3.08674,0.0551415,0.266513,0.350951,3.1116,0.103058,0.100131
3.09481,0.0551415,0.266513,0.350951,3.1116,0.103058,0.100131
3.10273,0.0549492,0.263817,0.333802,3.11781,0.103448,0.103624
3.11059,0.0549492,0.263817,0.333802,3.11781,0.103448,0.103624
3.11863,0.0549492,0.263817,0.333802,3.11781,0.103448,0.103624
3.12667,0.0549492,0.263817,0.333802,3.11781,0.103448,0.103624
3.1348,0.0549492,0.263817,0.333802,3.11781,0.103448,0.103624
3.14274,0.0549492,0.263817,0.333802,3.11781,0.103448,0.103624
3.15077,0.0549492,0.263817,0.333802,3.11781,0.103448,0.103624
3.15868,0.0549492,0.263817,0.333802,3.11781,0.103448,0.103624
3.16673,0.0549492,0.263817,0.333802,3.11781,0.103448,0.103624
3.1748,0.0549492,0.263817,0.333802,3.11781,0.103448,0.103624
3.18274,0.0549492,0.263817,0.333802,3.11781,0.103448,0.103624
3.19078,0.0549492,0.263817,0.333802,3.11781,0.103448,0.103624
3.19886,0.0549492,0.263817,0.333802,3.11781,0.103448,0.103624
3.20663,0.0541081,0.261799,0.315142,-3.12956,0.106278,0.11239
3.2147,0.0541081,0.261799,0.315142,-3.12956,0.106278,0.11239
3.2227,0.0541081,0.261799,0.315142,-3.12956,0.106278,0.11239
3.23071,0.0541081,0.261799,0.315142,-3.12956,0.106278,0.11239
3.23882,0.0541081,0.261799,0.315142,-3.12956,0.106278,0.11239
3.24675,0.0541081,0.261799,0.315142,-3.12956,0.106278,0.11239
3.25472,0.0541081,0.261799,0.315142,-3.12956,0.106278,0.11239
3.2627,0.0541081,0.261799,0.315142,-3.12956,0.106278,0.11239
3.27076,0.0541081,0.261799,0.315142,-3.12956,0.106278,0.11239
3.27874,0.0541081,0.261799,0.315142,-3.12956,0.106278,0.11239
3.28671,0.0541081,0.261799,0.315142,-3.12956,0.106278,0.11239
3.29474,0.0541081,0.261799,0.315142,-3.12956,0.106278,0.11239
3.30276,0.0526896,0.260421,0.298221,-3.12683,0.106563,0.11948
3.31057,0.0526896,0.260421,0.298221,-3.12683,0.106563,0.11948
3.31858,0.0526896,0.260421,0.298221,-3.12683,0.106563,0.11948
3.32666,0.0526896,0.260421,0.298221,-3.12683,0.106563,0.11948
3.33463,0.0526896,0.260421,0.298221,-3.12683,0.106563,0.11948
3.34265,0.0526896,0.260421,0.298221,-3.12683,0.106563,0.11948
3.35064,0.0526896,0.260421,0.298221,-3.12683,0.106563,0.11948
3.35868,0.0526896,0.260421,0.298221,-3.12683,0.106563,0.11948
3.36668,0.0526896,0.260421,0.298221,-3.12683,0.106563,0.11948
3.37472,0.0526896,0.260421,0.298221,-3.12683,0.106563,0.11948
3.3827,0.0526896,0.260421,0.298221,-3.12683,0.106563,0.11948
3.39075,0.0526896,0.260421,0.298221,-3.12683,0.106563,0.11948
3.39877,0.0526896,0.260421,0.298221,-3.12683,0.106563,0.11948
3.40663,0.0517235,0.258581,0.282508,-3.13768,0.105668,0.123741
3.41468,0.0517235,0.258581,0.282508,-3.13768,0.105668,0.123741
3.42265,0.0517235,0.258581,0.282508,-3.13768,0.105668,0.123741
3.43069,0.0517235,0.258581,0.282508,-3.13768,0.105668,0.123741
3.43869,0.0517235,0.258581,0.282508,-3.13768,0.105668,0.123741
3.44672,0.0517235,0.258581,0.282508,-3.13768,0.105668,0.123741
3.45469,0.0517235,0.258581,0.282508,-3.13768,0.105668,0.123741
3.46272,0.0517235,0.258581,0.282508,-3.13768,0.105668,0.123741
3.47068,0.0517235,0.258581,0.282508,-3.13768,0.105668,0.123741
3.47871,0.0517235,0.258581,0.282508,-3.13768,0.105668,0.123741
3.48675,0.0517235,0.258581,0.282508,-3.13768,0.105668,0.123741
3.49477,0.0517235,0.258581,0.282508,-3.13768,0.105668,0.123741
3.50279,0.0514829,0.256469,0.271733,3.13494,0.104804,0.125368
3.51058,0.0514829,0.256469,0.271733,3.13494,0.104804,0.125368
3.51859,0.0514829,0.256469,0.271733,3.13494,0.104804,0.125368
3.52664,0.0514829,0.256469,0.271733,3.13494,0.104804,0.125368
3.53468,0.0514829,0.256469,0.271733,3.13494,0.104804,0.125368
3.54265,0.0514829,0.256469,0.271733,3.13494,0.104804,0.125368
3.5506,0.0514829,0.256469,0.271733,3.13494,0.104804,0.125368
3.55867,0.0514829,0.256469,0.271733,3.13494,0.104804,0.125368
3.56671,0.0514829,0.256469,0.271733,3.13494,0.104804,0.125368
3.57472,0.0514829,0.256469,0.271733,3.13494,0.104804,0.125368
3.58266,0.0514829,0.256469,0.271733,3.13494,0.104804,0.125368
3.59072,0.0514829,0.256469,0.271733,3.13494,0.104804,0.125368
3.59874,0.0514829,0.256469,0.271733,3.13494,0.104804,0.125368
3.60658,0.0508825,0.254421,0.264093,3.12151,0.103772,0.128184
3.61459,0.0508825,0.254421,0.264093,3.12151,0.103772,0.128184
3.62263,0.0508825,0.254421,0.264093,3.12151,0.103772,0.128184
3.63065,0.0508825,0.254421,0.264093,3.12151,0.103772,0.128184
3.63873,0.0508825,0.254421,0.264093,3.12151,0.103772,0.128184
3.64677,0.0508825,0.254421,0.264093,3.12151,0.103772,0.128184
3.65476,0.0508825,0.254421,0.264093,3.12151,0.103772,0.128184
3.66269,0.0508825,0.254421,0.264093,3.12151,0.103772,0.128184
3.67072,0.0508825,0.254421,0.264093,3.12151,0.103772,0.128184
3.67868,0.0508825,0.254421,0.264093,3.12151,0.103772,0.128184
3.68674,0.0508825,0.254421,0.264093,3.12151,0.103772,0.128184
3.69475,0.0508825,0.254421,0.264093,3.12151,0.103772,0.128184
3.70275,0.0497375,0.252914,0.259838,3.10699,0.102615,0.132695
3.71063,0.0497375,0.252914,0.259838,3.10699,0.102615,0.132695
3.71866,0.0497375,0.252914,0.259838,3.10699,0.102615,0.132695
3.72667,0.0497375,0.252914,0.259838,3.10699,0.102615,0.132695
3.73474,0.0497375,0.252914,0.259838,3.10699,0.102615,0.132695
3.74277,0.0497375,0.252914,0.259838,3.10699,0.102615,0.132695
3.75074,0.0497375,0.252914,0.259838,3.10699,0.102615,0.132695
3.75872,0.0497375,0.252914,0.259838,3.10699,0.102615,0.132695
3.76673,0.0497375,0.252914,0.259838,3.10699,0.102615,0.132695
3.77471,0.0497375,0.252914,0.259838,3.10699,0.102615,0.132695
3.78269,0.0497375,0.252914,0.259838,3.10699,0.102615,0.132695
3.79077,0.0497375,0.252914,0.259838,3.10699,0.102615,0.132695
3.7988,0.0497375,0.252914,0.259838,3.10699,0.102615,0.132695
3.80666,0.0482745,0.251985,0.256719,3.09743,0.101283,0.138451
3.81456,0.0482745,0.251985,0.256719,3.09743,0.101283,0.138451
3.82256,0.0482745,0.251985,0.256719,3.09743,0.101283,0.138451
3.83062,0.0482745,0.251985,0.256719,3.09743,0.101283,0.138451
3.83865,0.0482745,0.251985,0.256719,3.09743,0.101283,0.138451
3.84668,0.0482745,0.251985,0.256719,3.09743,0.101283,0.138451
3.85472,0.0482745,0.251985,0.256719,3.09743,0.101283,0.138451
3.86276,0.0482745,0.251985,0.256719,3.09743,0.101283,0.138451
3.87072,0.0482745,0.251985,0.256719,3.09743,0.101283,0.138451
3.87874,0.0482745,0.251985,0.256719,3.09743,0.101283,0.138451
3.88682,0.0482745,0.251985,0.256719,3.09743,0.101283,0.138451
3.89471,0.0482745,0.251985,0.256719,3.09743,0.101283,0.138451
3.90274,0.047415,0.252199,0.256664,3.09766,0.0999872,0.139505
3.91063,0.047415,0.252199,0.256664,3.09766,0.0999872,0.139505
3.91859,0.047415,0.252199,0.256664,3.09766,0.0999872,0.139505
3.92662,0.047415,0.252199,0.256664,3.09766,0.0999872,0.139505
3.93468,0.047415,0.252199,0.256664,3.09766,0.0999872,0.139505
3.94265,0.047415,0.252199,0.256664,3.09766,0.0999872,0.139505
3.95067,0.047415,0.252199,0.256664,3.09766,0.0999872,0.139505
3.95869,0.047415,0.252199,0.256664,3.09766,0.0999872,0.139505
3.9667,0.047415,0.252199,0.256664,3.09766,0.0999872,0.139505
3.97468,0.047415,0.252199,0.256664,3.09766,0.0999872,0.139505
3.98262,0.047415,0.252199,0.256664,3.09766,0.0999872,0.139505
3.99077,0.047415,0.252199,0.256664,3.09766,0.0999872,0.139505
3.99879,0.047415,0.252199,0.256664,3.09766,0.0999872,0.139505
4.00671,0.0473614,0.252204,0.25663,3.09732,0.0997574,0.137836
4.01458,0.0473614,0.252204,0.25663,3.09732,0.0997574,0.137836
4.02265,0.0473614,0.252204,0.25663,3.09732,0.0997574,0.137836
4.03066,0.0473614,0.252204,0.25663,3.09732,0.0997574,0.137836
4.03874,0.0473614,0.252204,0.25663,3.09732,0.0997574,0.137836
4.04663,0.0473614,0.252204,0.25663,3.09732,0.0997574,0.137836
4.05472,0.0473614,0.252204,0.25663,3.09732,0.0997574,0.137836
4.06264,0.0473614,0.252204,0.25663,3.09732,0.0997574,0.137836
4.07074,0.0473614,0.252204,0.25663,3.09732,0.0997574,0.137836
4.07865,0.0473614,0.252204,0.25663,3.09732,0.0997574,0.137836
4.08668,0.0473614,0.252204,0.25663,3.09732,0.0997574,0.137836
4.09466,0.0473614,0.252204,0.25663,3.09732,0.0997574,0.137836
4.10272,0.0473727,0.252208,0.256616,3.09724,0.0998512,0.13786
4.11059,0.0473727,0.252208,0.256616,3.09724,0.0998512,0.13786
4.1186,0.0473727,0.252208,0.256616,3.09724,0.0998512,0.13786
4.12663,0.0473727,0.252208,0.256616,3.09724,0.0998512,0.13786
4.13461,0.0473727,0.252208,0.256616,3.09724,0.0998512,0.13786
4.14269,0.0473727,0.252208,0.256616,3.09724,0.0998512,0.13786
4.15063,0.0473727,0.252208,0.256616,3.09724,0.0998512,0.13786
4.15866,0.0473727,0.252208,0.256616,3.09724,0.0998512,0.13786
4.16659,0.0473727,0.252208,0.256616,3.09724,0.0998512,0.13786
4.17459,0.0473727,0.252208,0.256616,3.09724,0.0998512,0.13786
4.1826,0.0473727,0.252208,0.256616,3.09724,0.0998512,0.13786
4.1906,0.0473727,0.252208,0.256616,3.09724,0.0998512,0.13786
4.19868,0.0473727,0.252208,0.256616,3.09724,0.0998512,0.13786
4.20667,0.0473764,0.252212,0.256651,3.09737,0.0999111,0.137847
4.21461,0.0473764,0.252212,0.256651,3.09737,0.0999111,0.137847
4.2225,0.0473764,0.252212,0.256651,3.09737,0.0999111,0.137847
4.23054,0.0473764,0.252212,0.256651,3.09737,0.0999111,0.137847
4.23867,0.0473764,0.252212,0.256651,3.09737,0.0999111,0.137847
4.24662,0.0473764,0.252212,0.256651,3.09737,0.0999111,0.137847
4.25469,0.0473764,0.252212,0.256651,3.09737,0.0999111,0.137847
4.26267,0.0473764,0.252212,0.256651,3.09737,0.0999111,0.137847
4.27065,0.0473764,0.252212,0.256651,3.09737,0.0999111,0.137847
4.27863,0.0473764,0.252212,0.256651,3.09737,0.0999111,0.137847
4.28668,0.0473764,0.252212,0.256651,3.09737,0.0999111,0.137847
4.29468,0.0473764,0.252212,0.256651,3.09737,0.0999111,0.137847
4.30274,0.0473673,0.252214,0.25664,3.0973,0.0999048,0.137876
4.31069,0.0473673,0.252214,0.25664,3.0973,0.0999048,0.137876
4.31867,0.0473673,0.252214,0.25664,3.0973,0.0999048,0.137876
4.32672,0.0473673,0.252214,0.25664,3.0973,0.0999048,0.137876
4.33468,0.0473673,0.252214,0.25664,3.0973,0.0999048,0.137876
4.3427,0.0473673,0.252214,0.25664,3.0973,0.0999048,0.137876
4.35068,0.0473673,0.252214,0.25664,3.0973,0.0999048,0.137876
4.35878,0.0473673,0.252214,0.25664,3.0973,0.0999048,0.137876
4.36668,0.0473673,0.252214,0.25664,3.0973,0.0999048,0.137876
4.37467,0.0473673,0.252214,0.25664,3.0973,0.0999048,0.137876
4.3827,0.0473673,0.252214,0.25664,3.0973,0.0999048,0.137876
4.39066,0.0473673,0.252214,0.25664,3.0973,0.0999048,0.137876
4.39869,0.0473673,0.252214,0.25664,3.0973,0.0999048,0.137876
4.40665,0.047359,0.25222,0.256658,3.09741,0.0999275,0.137934
4.41464,0.047359,0.25222,0.256658,3.09741,0.0999275,0.137934
4.42262,0.047359,0.25222,0.256658,3.09741,0.0999275,0.137934
4.43067,0.047359,0.25222,0.256658,3.09741,0.0999275,0.137934
4.43871,0.047359,0.25222,0.256658,3.09741,0.0999275,0.137934
4.44669,0.047359,0.25222,0.256658,3.09741,0.0999275,0.137934
4.45469,0.047359,0.25222,0.256658,3.09741,0.0999275,0.137934
4.46268,0.047359,0.25222,0.256658,3.09741,0.0999275,0.137934
4.47065,0.047359,0.25222,0.256658,3.09741,0.0999275,0.137934
4.47864,0.047359,0.25222,0.256658,3.09741,0.0999275,0.137934
4.48669,0.047359,0.25222,0.256658,3.09741,0.0999275,0.137934
4.49465,0.047359,0.25222,0.256658,3.09741,0.0999275,0.137934
4.50275,0.0473654,0.252225,0.25667,3.09743,0.0999405,0.137876
4.51071,0.0473654,0.252225,0.25667,3.09743,0.0999405,0.137876
4.51851,0.0473654,0.252225,0.25667,3.09743,0.0999405,0.137876
4.52654,0.0473654,0.252225,0.25667,3.09743,0.0999405,0.137876
4.53455,0.0473654,0.252225,0.25667,3.09743,0.0999405,0.137876
4.54259,0.0473654,0.252225,0.25667,3.09743,0.0999405,0.137876
4.55061,0.0473654,0.252225,0.25667,3.09743,0.0999405,0.137876
4.55865,0.0473654,0.252225,0.25667,3.09743,0.0999405,0.137876
4.56674,0.0473654,0.252225,0.25667,3.09743,0.0999405,0.137876
4.5747,0.0473654,0.252225,0.25667,3.09743,0.0999405,0.137876
4.58264,0.0473654,0.252225,0.25667,3.09743,0.0999405,0.137876
4.59068,0.0473654,0.252225,0.25667,3.09743,0.0999405,0.137876
4.59868,0.0473654,0.252225,0.25667,3.09743,0.0999405,0.137876
4.60674,0.0473584,0.252223,0.25666,3.0974,0.0999259,0.13792
4.61454,0.0473584,0.252223,0.25666,3.0974,0.0999259,0.13792
4.62252,0.0473584,0.252223,0.25666,3.0974,0.0999259,0.13792
4.63059,0.0473584,0.252223,0.25666,3.0974,0.0999259,0.13792
4.63861,0.0473584,0.252223,0.25666,3.0974,0.0999259,0.13792
4.64665,0.0473584,0.252223,0.25666,3.0974,0.0999259,0.13792
4.65458,0.0473584,0.252223,0.25666,3.0974,0.0999259,0.13792
4.66271,0.0473584,0.252223,0.25666,3.0974,0.0999259,0.13792
4.6707,0.0473584,0.252223,0.25666,3.0974,0.0999259,0.13792
4.67868,0.0473584,0.252223,0.25666,3.0974,0.0999259,0.13792
4.6867,0.0473584,0.252223,0.25666,3.0974,0.0999259,0.13792
4.69467,0.0473584,0.252223,0.25666,3.0974,0.0999259,0.13792
4.70273,0.0473744,0.252225,0.256672,3.09742,0.0999037,0.137853
4.7107,0.0473744,0.252225,0.256672,3.09742,0.0999037,0.137853
4.71867,0.0473744,0.252225,0.256672,3.09742,0.0999037,0.137853
4.72667,0.0473744,0.252225,0.256672,3.09742,0.0999037,0.137853
4.73466,0.0473744,0.252225,0.256672,3.09742,0.0999037,0.137853
4.74275,0.0473744,0.252225,0.256672,3.09742,0.0999037,0.137853
4.75067,0.0473744,0.252225,0.256672,3.09742,0.0999037,0.137853
4.75864,0.0473744,0.252225,0.256672,3.09742,0.0999037,0.137853
4.76672,0.0473744,0.252225,0.256672,3.09742,0.0999037,0.137853
4.77463,0.0473744,0.252225,0.256672,3.09742,0.0999037,0.137853
4.78262,0.0473744,0.252225,0.256672,3.09742,0.0999037,0.137853
4.79067,0.0473744,0.252225,0.256672,3.09742,0.0999037,0.137853
4.79867,0.0473744,0.252225,0.256672,3.09742,0.0999037,0.137853
4.80663,0.0473822,0.252216,0.256667,3.09741,0.0999014,0.137803
4.81454,0.0473822,0.252216,0.256667,3.09741,0.0999014,0.137803
4.82261,0.0473822,0.252216,0.256667,3.09741,0.0999014,0.137803
4.83063,0.0473822,0.252216,0.256667,3.09741,0.0999014,0.137803
4.83871,0.0473822,0.252216,0.256667,3.09741,0.0999014,0.137803
4.84672,0.0473822,0.252216,0.256667,3.09741,0.0999014,0.137803
4.85472,0.0473822,0.252216,0.256667,3.09741,0.0999014,0.137803
4.86265,0.0473822,0.252216,0.256667,3.09741,0.0999014,0.137803
4.87073,0.0473822,0.252216,0.256667,3.09741,0.0999014,0.137803
4.87866,0.0473822,0.252216,0.256667,3.09741,0.0999014,0.137803
4.88676,0.0473822,0.252216,0.256667,3.09741,0.0999014,0.137803
4.89469,0.0473822,0.252216,0.256667,3.09741,0.0999014,0.137803
4.90272,0.0473724,0.252221,0.256668,3.09741,0.099902,0.137851
4.91053,0.0473724,0.252221,0.256668,3.09741,0.099902,0.137851
4.91853,0.0473724,0.252221,0.256668,3.09741,0.099902,0.137851
4.92658,0.0473724,0.252221,0.256668,3.09741,0.099902,0.137851
4.93458,0.0473724,0.252221,0.256668,3.09741,0.099902,0.137851
4.94265,0.0473724,0.252221,0.256668,3.09741,0.099902,0.137851
4.95068,0.0473724,0.252221,0.256668,3.09741,0.099902,0.137851
4.95868,0.0473724,0.252221,0.256668,3.09741,0.099902,0.137851
4.96667,0.0473724,0.252221,0.256668,3.09741,0.099902,0.137851
4.97466,0.0473724,0.252221,0.256668,3.09741,0.099902,0.137851
4.98269,0.0473724,0.252221,0.256668,3.09741,0.099902,0.137851
4.9907,0.0473724,0.252221,0.256668,3.09741,0.099902,0.137851
4.99867,0.0473724,0.252221,0.256668,3.09741,0.099902,0.137851
5.00675,0.0473667,0.252224,0.256655,3.09738,0.0999244,0.137872
5.0146,0.0473667,0.252224,0.256655,3.09738,0.0999244,0.137872
5.02266,0.0473667,0.252224,0.256655,3.09738,0.0999244,0.137872
5.03067,0.0473667,0.252224,0.256655,3.09738,0.0999244,0.137872
5.03869,0.0473667,0.252224,0.256655,3.09738,0.0999244,0.137872
5.04667,0.0473667,0.252224,0.256655,3.09738,0.0999244,0.137872
5.05461,0.0473667,0.252224,0.256655,3.09738,0.0999244,0.137872
5.06268,0.0473667,0.252224,0.256655,3.09738,0.0999244,0.137872
5.07063,0.0473667,0.252224,0.256655,3.09738,0.0999244,0.137872
5.07866,0.0473667,0.252224,0.256655,3.09738,0.0999244,0.137872
5.08667,0.0473667,0.252224,0.256655,3.09738,0.0999244,0.137872
5.09459,0.0473667,0.252224,0.256655,3.09738,0.0999244,0.137872
5.10275,0.0473764,0.25222,0.256666,3.09742,0.0999285,0.137863
5.11054,0.0473764,0.25222,0.256666,3.09742,0.0999285,0.137863
5.11854,0.0473764,0.25222,0.256666,3.09742,0.0999285,0.137863
5.12656,0.0473764,0.25222,0.256666,3.09742,0.0999285,0.137863
5.13457,0.0473764,0.25222,0.256666,3.09742,0.0999285,0.137863
5.14263,0.0473764,0.25222,0.256666,3.09742,0.0999285,0.137863
5.1506,0.0473764,0.25222,0.256666,3.09742,0.0999285,0.137863
5.15861,0.0473764,0.25222,0.256666,3.09742,0.0999285,0.137863
5.16659,0.0473764,0.25222,0.256666,3.09742,0.0999285,0.137863
5.17467,0.0473764,0.25222,0.256666,3.09742,0.0999285,0.137863
5.18256,0.0473764,0.25222,0.256666,3.09742,0.0999285,0.137863
5.19059,0.0473764,0.25222,0.256666,3.09742,0.0999285,0.137863
5.19867,0.0473764,0.25222,0.256666,3.09742,0.0999285,0.137863
5.20675,0.0473723,0.252225,0.256667,3.09741,0.0999281,0.137886
5.21451,0.0473723,0.252225,0.256667,3.09741,0.0999281,0.137886
5.22252,0.0473723,0.252225,0.256667,3.09741,0.0999281,0.137886
5.2306,0.0473723,0.252225,0.256667,3.09741,0.0999281,0.137886
5.23863,0.0473723,0.252225,0.256667,3.09741,0.0999281,0.137886
5.24665,0.0473723,0.252225,0.256667,3.09741,0.0999281,0.137886
5.25466,0.0473723,0.252225,0.256667,3.09741,0.0999281,0.137886
5.26272,0.0473723,0.252225,0.256667,3.09741,0.0999281,0.137886
5.27069,0.0473723,0.252225,0.256667,3.09741,0.0999281,0.137886
5.27866,0.0473723,0.252225,0.256667,3.09741,0.0999281,0.137886
5.28667,0.0473723,0.252225,0.256667,3.09741,0.0999281,0.137886
5.29465,0.0473723,0.252225,0.256667,3.09741,0.0999281,0.137886
5.30269,0.0473633,0.252226,0.25667,3.09743,0.0999291,0.1379
5.31059,0.0473633,0.252226,0.25667,3.09743,0.0999291,0.1379
5.31854,0.0473633,0.252226,0.25667,3.09743,0.0999291,0.1379
5.3266,0.0473633,0.252226,0.25667,3.09743,0.0999291,0.1379
5.33459,0.0473633,0.252226,0.25667,3.09743,0.0999291,0.1379
5.34263,0.0473633,0.252226,0.25667,3.09743,0.0999291,0.1379
5.35059,0.0473633,0.252226,0.25667,3.09743,0.0999291,0.1379
5.35867,0.0473633,0.252226,0.25667,3.09743,0.0999291,0.1379
5.36663,0.0473633,0.252226,0.25667,3.09743,0.0999291,0.1379
5.37463,0.0473633,0.252226,0.25667,3.09743,0.0999291,0.1379
5.38261,0.0473633,0.252226,0.25667,3.09743,0.0999291,0.1379
5.39065,0.0473633,0.252226,0.25667,3.09743,0.0999291,0.1379
5.39859,0.0473633,0.252226,0.25667,3.09743,0.0999291,0.1379
5.40658,0.0473721,0.252221,0.256663,3.09741,0.0999383,0.13785
5.41448,0.0473721,0.252221,0.256663,3.09741,0.0999383,0.13785
5.42249,0.0473721,0.252221,0.256663,3.09741,0.0999383,0.13785
5.43055,0.0473721,0.252221,0.256663,3.09741,0.0999383,0.13785
5.43862,0.0473721,0.252221,0.256663,3.09741,0.0999383,0.13785
5.44664,0.0473721,0.252221,0.256663,3.09741,0.0999383,0.13785
5.45465,0.0473721,0.252221,0.256663,3.09741,0.0999383,0.13785
5.46259,0.0473721,0.252221,0.256663,3.09741,0.0999383,0.13785
5.47066,0.0473721,0.252221,0.256663,3.09741,0.0999383,0.13785
5.47868,0.0473721,0.252221,0.256663,3.09741,0.0999383,0.13785
5.48671,0.0473721,0.252221,0.256663,3.09741,0.0999383,0.13785
5.49459,0.0473721,0.252221,0.256663,3.09741,0.0999383,0.13785
5.50264,0.0473678,0.252224,0.256668,3.09744,0.0999177,0.137878
5.51058,0.0473678,0.252224,0.256668,3.09744,0.0999177,0.137878
5.51847,0.0473678,0.252224,0.256668,3.09744,0.0999177,0.137878
5.52656,0.0473678,0.252224,0.256668,3.09744,0.0999177,0.137878
5.53458,0.0473678,0.252224,0.256668,3.09744,0.0999177,0.137878
5.54262,0.0473678,0.252224,0.256668,3.09744,0.0999177,0.137878
5.55057,0.0473678,0.252224,0.256668,3.09744,0.0999177,0.137878
5.55869,0.0473678,0.252224,0.256668,3.09744,0.0999177,0.137878
5.56659,0.0473678,0.252224,0.256668,3.09744,0.0999177,0.137878
5.57463,0.0473678,0.252224,0.256668,3.09744,0.0999177,0.137878
5.58269,0.0473678,0.252224,0.256668,3.09744,0.0999177,0.137878
5.59066,0.0473678,0.252224,0.256668,3.09744,0.0999177,0.137878
5.59859,0.0473678,0.252224,0.256668,3.09744,0.0999177,0.137878
5.60658,0.0473712,0.25223,0.256692,3.09755,0.099904,0.137913
5.61456,0.0473712,0.25223,0.256692,3.09755,0.099904,0.137913
5.6226,0.0473712,0.25223,0.256692,3.09755,0.099904,0.137913
5.63063,0.0473712,0.25223,0.256692,3.09755,0.099904,0.137913
5.63863,0.0473712,0.25223,0.256692,3.09755,0.099904,0.137913
5.64663,0.0473712,0.25223,0.256692,3.09755,0.099904,0.137913
5.65456,0.0473712,0.25223,0.256692,3.09755,0.099904,0.137913
5.66263,0.0473712,0.25223,0.256692,3.09755,0.099904,0.137913
5.67065,0.0473712,0.25223,0.256692,3.09755,0.099904,0.137913
5.67859,0.0473712,0.25223,0.256692,3.09755,0.099904,0.137913
5.68671,0.0473712,0.25223,0.256692,3.09755,0.099904,0.137913
5.69462,0.0473712,0.25223,0.256692,3.09755,0.099904,0.137913
5.70262,0.0473665,0.252225,0.256668,3.09743,0.0999281,0.137865
5.71052,0.0473665,0.252225,0.256668,3.09743,0.0999281,0.137865
5.71855,0.0473665,0.252225,0.256668,3.09743,0.0999281,0.137865
5.72655,0.0473665,0.252225,0.256668,3.09743,0.0999281,0.137865
5.73461,0.0473665,0.252225,0.256668,3.09743,0.0999281,0.137865
5.74261,0.0473665,0.252225,0.256668,3.09743,0.0999281,0.137865
5.7506,0.0473665,0.252225,0.256668,3.09743,0.0999281,0.137865
5.75863,0.0473665,0.252225,0.256668,3.09743,0.0999281,0.137865
5.76662,0.0473665,0.252225,0.256668,3.09743,0.0999281,0.137865
5.77458,0.0473665,0.252225,0.256668,3.09743,0.0999281,0.137865
5.78261,0.0473665,0.252225,0.256668,3.09743,0.0999281,0.137865
5.79063,0.0473665,0.252225,0.256668,3.09743,0.0999281,0.137865
5.79857,0.0473665,0.252225,0.256668,3.09743,0.0999281,0.137865
5.80667,0.0473758,0.252219,0.256668,3.09742,0.0999041,0.137864
5.81452,0.0473758,0.252219,0.256668,3.09742,0.0999041,0.137864
5.82243,0.0473758,0.252219,0.256668,3.09742,0.0999041,0.137864
5.83049,0.0473758,0.252219,0.256668,3.09742,0.0999041,0.137864
5.83857,0.0473758,0.252219,0.256668,3.09742,0.0999041,0.137864
5.84658,0.0473758,0.252219,0.256668,3.09742,0.0999041,0.137864
5.85456,0.0473758,0.252219,0.256668,3.09742,0.0999041,0.137864
5.86257,0.0473758,0.252219,0.256668,3.09742,0.0999041,0.137864
5.87058,0.0473758,0.252219,0.256668,3.09742,0.0999041,0.137864
5.87864,0.0473758,0.252219,0.256668,3.09742,0.0999041,0.137864
5.88665,0.0473758,0.252219,0.256668,3.09742,0.0999041,0.137864
5.89468,0.0473758,0.252219,0.256668,3.09742,0.0999041,0.137864
5.90432,0.0473769,0.252222,0.256662,3.09739,0.0999129,0.137848
5.9106,0.0473769,0.252222,0.256662,3.09739,0.0999129,0.137848
5.91856,0.0473769,0.252222,0.256662,3.09739,0.0999129,0.137848
5.9266,0.0473769,0.252222,0.256662,3.09739,0.0999129,0.137848
5.93462,0.0473769,0.252222,0.256662,3.09739,0.0999129,0.137848
5.9427,0.0473769,0.252222,0.256662,3.09739,0.0999129,0.137848
5.95066,0.0473769,0.252222,0.256662,3.09739,0.0999129,0.137848
5.95864,0.0473769,0.252222,0.256662,3.09739,0.0999129,0.137848
5.96661,0.0473769,0.252222,0.256662,3.09739,0.0999129,0.137848
5.97461,0.0473769,0.252222,0.256662,3.09739,0.0999129,0.137848
5.9827,0.0473769,0.252222,0.256662,3.09739,0.0999129,0.137848
5.99064,0.0473769,0.252222,0.256662,3.09739,0.0999129,0.137848
5.99863,0.0473769,0.252222,0.256662,3.09739,0.0999129,0.137848
6.00654,0.0473705,0.252224,0.256661,3.09741,0.099915,0.137874
6.01451,0.0473705,0.252224,0.256661,3.09741,0.099915,0.137874
6.02253,0.0473705,0.252224,0.256661,3.09741,0.099915,0.137874
6.03052,0.0473705,0.252224,0.256661,3.09741,0.099915,0.137874
6.0386,0.0473705,0.252224,0.256661,3.09741,0.099915,0.137874
6.0466,0.0473705,0.252224,0.256661,3.09741,0.099915,0.137874
6.0546,0.0473705,0.252224,0.256661,3.09741,0.099915,0.137874
6.06262,0.0473705,0.252224,0.256661,3.09741,0.099915,0.137874
6.07063,0.0473705,0.252224,0.256661,3.09741,0.099915,0.137874
6.07862,0.0473705,0.252224,0.256661,3.09741,0.099915,0.137874
6.08659,0.0473705,0.252224,0.256661,3.09741,0.099915,0.137874
6.09463,0.0473705,0.252224,0.256661,3.09741,0.099915,0.137874
6.10257,0.0473735,0.252224,0.256658,3.09739,0.099913,0.13786
6.11058,0.0473735,0.252224,0.256658,3.09739,0.099913,0.13786
6.11846,0.0473735,0.252224,0.256658,3.09739,0.099913,0.13786
6.12651,0.0473735,0.252224,0.256658,3.09739,0.099913,0.13786
6.13454,0.0473735,0.252224,0.256658,3.09739,0.099913,0.13786
6.14258,0.0473735,0.252224,0.256658,3.09739,0.099913,0.13786
6.15057,0.0473735,0.252224,0.256658,3.09739,0.099913,0.13786
6.15856,0.0473735,0.252224,0.256658,3.09739,0.099913,0.13786
6.16667,0.0473735,0.252224,0.256658,3.09739,0.099913,0.13786
6.17458,0.0473735,0.252224,0.256658,3.09739,0.099913,0.13786
6.1826,0.0473735,0.252224,0.256658,3.09739,0.099913,0.13786
6.19061,0.0473735,0.252224,0.256658,3.09739,0.099913,0.13786
6.19859,0.0473735,0.252224,0.256658,3.09739,0.099913,0.13786
6.20663,0.0473727,0.252224,0.256664,3.09742,0.0998912,0.137853
6.21466,0.0473727,0.252224,0.256664,3.09742,0.0998912,0.137853
6.2226,0.0473727,0.252224,0.256664,3.09742,0.0998912,0.137853
6.23055,0.0473727,0.252224,0.256664,3.09742,0.0998912,0.137853
6.23867,0.0473727,0.252224,0.256664,3.09742,0.0998912,0.137853
6.24667,0.0473727,0.252224,0.256664,3.09742,0.0998912,0.137853
6.25462,0.0473727,0.252224,0.256664,3.09742,0.0998912,0.137853
6.26261,0.0473727,0.252224,0.256664,3.09742,0.0998912,0.137853
6.27058,0.0473727,0.252224,0.256664,3.09742,0.0998912,0.137853
6.27862,0.0473727,0.252224,0.256664,3.09742,0.0998912,0.137853
6.28663,0.0473727,0.252224,0.256664,3.09742,0.0998912,0.137853
6.29463,0.0473727,0.252224,0.256664,3.09742,0.0998912,0.137853
6.30264,0.0473787,0.252223,0.256664,3.09742,0.0998912,0.137829
6.3105,0.0473787,0.252223,0.256664,3.09742,0.0998912,0.137829
6.31853,0.0473787,0.252223,0.256664,3.09742,0.0998912,0.137829
6.32652,0.0473787,0.252223,0.256664,3.09742,0.0998912,0.137829
6.33453,0.0473787,0.252223,0.256664,3.09742,0.0998912,0.137829
6.34263,0.0473787,0.252223,0.256664,3.09742,0.0998912,0.137829
6.3506,0.0473787,0.252223,0.256664,3.09742,0.0998912,0.137829
6.35856,0.0473787,0.252223,0.256664,3.09742,0.0998912,0.137829
6.36656,0.0473787,0.252223,0.256664,3.09742,0.0998912,0.137829
6.37453,0.0473787,0.252223,0.256664,3.09742,0.0998912,0.137829
6.38247,0.0473787,0.252223,0.256664,3.09742,0.0998912,0.137829
6.39046,0.0473787,0.252223,0.256664,3.09742,0.0998912,0.137829
6.39857,0.0473787,0.252223,0.256664,3.09742,0.0998912,0.137829
