Time,X,Y,Z,R,P,Y
0.274788,0.020771,0.443849,0.259143,3.14131,-0.000462675,-0.000110794
0.282812,0.020771,0.443849,0.259143,3.14131,-0.000462675,-0.000110794
0.290741,0.020771,0.443849,0.259143,3.14131,-0.000462675,-0.000110794
0.298809,0.020771,0.443849,0.259143,3.14131,-0.000462675,-0.000110794
0.306715,0.0207723,0.443848,0.259148,3.14132,-0.000472031,-0.000146757
0.314842,0.0207723,0.443848,0.259148,3.14132,-0.000472031,-0.000146757
0.322907,0.0207723,0.443848,0.259148,3.14132,-0.000472031,-0.000146757
0.330855,0.0207723,0.443848,0.259148,3.14132,-0.000472031,-0.000146757
0.338853,0.0207723,0.443848,0.259148,3.14132,-0.000472031,-0.000146757
0.346811,0.0207723,0.443848,0.259148,3.14132,-0.000472031,-0.000146757
0.354829,0.0207723,0.443848,0.259148,3.14132,-0.000472031,-0.000146757
0.362967,0.0207723,0.443848,0.259148,3.14132,-0.000472031,-0.000146757
0.370753,0.0207723,0.443848,0.259148,3.14132,-0.000472031,-0.000146757
0.378813,0.0207723,0.443848,0.259148,3.14132,-0.000472031,-0.000146757
0.386788,0.0207723,0.443848,0.259148,3.14132,-0.000472031,-0.000146757
0.39479,0.0207723,0.443848,0.259148,3.14132,-0.000472031,-0.000146757
0.402695,0.0207854,0.443845,0.259162,3.14138,-0.00048549,-0.000182603
0.410761,0.0207854,0.443845,0.259162,3.14138,-0.00048549,-0.000182603
0.418786,0.0207854,0.443845,0.259162,3.14138,-0.00048549,-0.000182603
0.426826,0.0207854,0.443845,0.259162,3.14138,-0.00048549,-0.000182603
0.434866,0.0207854,0.443845,0.259162,3.14138,-0.00048549,-0.000182603
0.442835,0.0207854,0.443845,0.259162,3.14138,-0.00048549,-0.000182603
0.450832,0.0207854,0.443845,0.259162,3.14138,-0.00048549,-0.000182603
0.458902,0.0207854,0.443845,0.259162,3.14138,-0.00048549,-0.000182603
0.466783,0.0207854,0.443845,0.259162,3.14138,-0.00048549,-0.000182603
0.474764,0.0207854,0.443845,0.259162,3.14138,-0.00048549,-0.000182603
0.482852,0.0207854,0.443845,0.259162,3.14138,-0.00048549,-0.000182603
0.490746,0.0207854,0.443845,0.259162,3.14138,-0.00048549,-0.000182603
0.498835,0.0207854,0.443845,0.259162,3.14138,-0.00048549,-0.000182603
0.506745,0.0207674,0.443851,0.259164,3.14141,-0.00046631,-0.000134926
0.514713,0.0207674,0.443851,0.259164,3.14141,-0.00046631,-0.000134926
0.522704,0.0207674,0.443851,0.259164,3.14141,-0.00046631,-0.000134926
0.530761,0.0207674,0.443851,0.259164,3.14141,-0.00046631,-0.000134926
0.538773,0.0207674,0.443851,0.259164,3.14141,-0.00046631,-0.000134926
0.546791,0.0207674,0.443851,0.259164,3.14141,-0.00046631,-0.000134926
0.554754,0.0207674,0.443851,0.259164,3.14141,-0.00046631,-0.000134926
0.562819,0.0207674,0.443851,0.259164,3.14141,-0.00046631,-0.000134926
0.570831,0.0207674,0.443851,0.259164,3.14141,-0.00046631,-0.000134926
0.578779,0.0207674,0.443851,0.259164,3.14141,-0.00046631,-0.000134926
0.586759,0.0207674,0.443851,0.259164,3.14141,-0.00046631,-0.000134926
0.594753,0.0207674,0.443851,0.259164,3.14141,-0.00046631,-0.000134926
0.602737,0.0207696,0.443856,0.259153,3.14139,-0.000445201,-0.00013489
0.610755,0.0207696,0.443856,0.259153,3.14139,-0.000445201,-0.00013489
0.618796,0.0207696,0.443856,0.259153,3.14139,-0.000445201,-0.00013489
0.626779,0.0207696,0.443856,0.259153,3.14139,-0.000445201,-0.00013489
0.634823,0.0207696,0.443856,0.259153,3.14139,-0.000445201,-0.00013489
0.642801,0.0207696,0.443856,0.259153,3.14139,-0.000445201,-0.00013489
0.650752,0.0207696,0.443856,0.259153,3.14139,-0.000445201,-0.00013489
0.658825,0.0207696,0.443856,0.259153,3.14139,-0.000445201,-0.00013489
0.666801,0.0207696,0.443856,0.259153,3.14139,-0.000445201,-0.00013489
0.674768,0.0207696,0.443856,0.259153,3.14139,-0.000445201,-0.00013489
0.682832,0.0207696,0.443856,0.259153,3.14139,-0.000445201,-0.00013489
0.690706,0.0207696,0.443856,0.259153,3.14139,-0.000445201,-0.00013489
0.698769,0.0207696,0.443856,0.259153,3.14139,-0.000445201,-0.00013489
0.706717,0.0208,0.443613,0.258329,3.1387,-0.00102889,-8.09209e-05
0.714712,0.0208,0.443613,0.258329,3.1387,-0.00102889,-8.09209e-05
0.722713,0.0208,0.443613,0.258329,3.1387,-0.00102889,-8.09209e-05
0.730721,0.0208,0.443613,0.258329,3.1387,-0.00102889,-8.09209e-05
0.738759,0.0208,0.443613,0.258329,3.1387,-0.00102889,-8.09209e-05
0.746763,0.0208,0.443613,0.258329,3.1387,-0.00102889,-8.09209e-05
0.754807,0.0208,0.443613,0.258329,3.1387,-0.00102889,-8.09209e-05
0.762828,0.0208,0.443613,0.258329,3.1387,-0.00102889,-8.09209e-05
0.77078,0.0208,0.443613,0.258329,3.1387,-0.00102889,-8.09209e-05
0.778745,0.0208,0.443613,0.258329,3.1387,-0.00102889,-8.09209e-05
0.786739,0.0208,0.443613,0.258329,3.1387,-0.00102889,-8.09209e-05
0.794729,0.0208,0.443613,0.258329,3.1387,-0.00102889,-8.09209e-05
0.802697,0.0207993,0.443585,0.258224,3.13837,-0.00108683,-9.16528e-05
0.810795,0.0207993,0.443585,0.258224,3.13837,-0.00108683,-9.16528e-05
0.818709,0.0207993,0.443585,0.258224,3.13837,-0.00108683,-9.16528e-05
0.82675,0.0207993,0.443585,0.258224,3.13837,-0.00108683,-9.16528e-05
0.834764,0.0207993,0.443585,0.258224,3.13837,-0.00108683,-9.16528e-05
0.842723,0.0207993,0.443585,0.258224,3.13837,-0.00108683,-9.16528e-05
0.850796,0.0207993,0.443585,0.258224,3.13837,-0.00108683,-9.16528e-05
0.858836,0.0207993,0.443585,0.258224,3.13837,-0.00108683,-9.16528e-05
0.866864,0.0207993,0.443585,0.258224,3.13837,-0.00108683,-9.16528e-05
0.874778,0.0207993,0.443585,0.258224,3.13837,-0.00108683,-9.16528e-05
0.882806,0.0207993,0.443585,0.258224,3.13837,-0.00108683,-9.16528e-05
0.890698,0.0207993,0.443585,0.258224,3.13837,-0.00108683,-9.16528e-05
0.898735,0.0207993,0.443585,0.258224,3.13837,-0.00108683,-9.16528e-05
0.906692,0.0208197,0.443584,0.258202,3.13828,-0.00109229,-0.000115753
0.914776,0.0208197,0.443584,0.258202,3.13828,-0.00109229,-0.000115753
0.92272,0.0208197,0.443584,0.258202,3.13828,-0.00109229,-0.000115753
0.930746,0.0208197,0.443584,0.258202,3.13828,-0.00109229,-0.000115753
0.93882,0.0208197,0.443584,0.258202,3.13828,-0.00109229,-0.000115753
0.946726,0.0208197,0.443584,0.258202,3.13828,-0.00109229,-0.000115753
0.954718,0.0208197,0.443584,0.258202,3.13828,-0.00109229,-0.000115753
0.962787,0.0208197,0.443584,0.258202,3.13828,-0.00109229,-0.000115753
0.970774,0.0208197,0.443584,0.258202,3.13828,-0.00109229,-0.000115753
0.978737,0.0208197,0.443584,0.258202,3.13828,-0.00109229,-0.000115753
0.986761,0.0208197,0.443584,0.258202,3.13828,-0.00109229,-0.000115753
0.994793,0.0208197,0.443584,0.258202,3.13828,-0.00109229,-0.000115753
1.00274,0.0208165,0.443584,0.258194,3.13829,-0.00111586,-0.000115721
1.01071,0.0208165,0.443584,0.258194,3.13829,-0.00111586,-0.000115721
1.01874,0.0208165,0.443584,0.258194,3.13829,-0.00111586,-0.000115721
1.02673,0.0208165,0.443584,0.258194,3.13829,-0.00111586,-0.000115721
1.03471,0.0208165,0.443584,0.258194,3.13829,-0.00111586,-0.000115721
1.04279,0.0208165,0.443584,0.258194,3.13829,-0.00111586,-0.000115721
1.05079,0.0208165,0.443584,0.258194,3.13829,-0.00111586,-0.000115721
1.05879,0.0208165,0.443584,0.258194,3.13829,-0.00111586,-0.000115721
1.06684,0.0208165,0.443584,0.258194,3.13829,-0.00111586,-0.000115721
1.07479,0.0208165,0.443584,0.258194,3.13829,-0.00111586,-0.000115721
1.08276,0.0208165,0.443584,0.258194,3.13829,-0.00111586,-0.000115721
1.09074,0.0208165,0.443584,0.258194,3.13829,-0.00111586,-0.000115721
1.09879,0.0208165,0.443584,0.258194,3.13829,-0.00111586,-0.000115721
1.10666,0.020806,0.443579,0.258224,3.13836,-0.00108936,-9.19929e-05
1.11476,0.020806,0.443579,0.258224,3.13836,-0.00108936,-9.19929e-05
1.12265,0.020806,0.443579,0.258224,3.13836,-0.00108936,-9.19929e-05
1.13068,0.020806,0.443579,0.258224,3.13836,-0.00108936,-9.19929e-05
1.13868,0.020806,0.443579,0.258224,3.13836,-0.00108936,-9.19929e-05
1.14673,0.020806,0.443579,0.258224,3.13836,-0.00108936,-9.19929e-05
1.15472,0.020806,0.443579,0.258224,3.13836,-0.00108936,-9.19929e-05
1.1628,0.020806,0.443579,0.258224,3.13836,-0.00108936,-9.19929e-05
1.17077,0.020806,0.443579,0.258224,3.13836,-0.00108936,-9.19929e-05
1.17875,0.020806,0.443579,0.258224,3.13836,-0.00108936,-9.19929e-05
1.18673,0.020806,0.443579,0.258224,3.13836,-0.00108936,-9.19929e-05
1.19476,0.020806,0.443579,0.258224,3.13836,-0.00108936,-9.19929e-05
1.2028,0.0208267,0.443574,0.25821,3.13829,-0.00115356,-0.00012747
1.21081,0.0208267,0.443574,0.25821,3.13829,-0.00115356,-0.00012747
1.21881,0.0208267,0.443574,0.25821,3.13829,-0.00115356,-0.00012747
1.22669,0.0208267,0.443574,0.25821,3.13829,-0.00115356,-0.00012747
1.23475,0.0208267,0.443574,0.25821,3.13829,-0.00115356,-0.00012747
1.24278,0.0208267,0.443574,0.25821,3.13829,-0.00115356,-0.00012747
1.25075,0.0208267,0.443574,0.25821,3.13829,-0.00115356,-0.00012747
1.25875,0.0208267,0.443574,0.25821,3.13829,-0.00115356,-0.00012747
1.26683,0.0208267,0.443574,0.25821,3.13829,-0.00115356,-0.00012747
1.27477,0.0208267,0.443574,0.25821,3.13829,-0.00115356,-0.00012747
1.28276,0.0208267,0.443574,0.25821,3.13829,-0.00115356,-0.00012747
1.29076,0.0208267,0.443574,0.25821,3.13829,-0.00115356,-0.00012747
1.29876,0.0208267,0.443574,0.25821,3.13829,-0.00115356,-0.00012747
1.30677,0.0208061,0.443584,0.258196,3.13828,-0.00111847,-0.000127821
1.31465,0.0208061,0.443584,0.258196,3.13828,-0.00111847,-0.000127821
1.32265,0.0208061,0.443584,0.258196,3.13828,-0.00111847,-0.000127821
1.33064,0.0208061,0.443584,0.258196,3.13828,-0.00111847,-0.000127821
1.33871,0.0208061,0.443584,0.258196,3.13828,-0.00111847,-0.000127821
1.34673,0.0208061,0.443584,0.258196,3.13828,-0.00111847,-0.000127821
1.35471,0.0208061,0.443584,0.258196,3.13828,-0.00111847,-0.000127821
1.36278,0.0208061,0.443584,0.258196,3.13828,-0.00111847,-0.000127821
1.3708,0.0208061,0.443584,0.258196,3.13828,-0.00111847,-0.000127821
1.37873,0.0208061,0.443584,0.258196,3.13828,-0.00111847,-0.000127821
1.38673,0.0208061,0.443584,0.258196,3.13828,-0.00111847,-0.000127821
1.39479,0.0208061,0.443584,0.258196,3.13828,-0.00111847,-0.000127821
1.40277,0.0207978,0.443582,0.258221,3.13835,-0.00112687,-5.56011e-05
1.41073,0.0207978,0.443582,0.258221,3.13835,-0.00112687,-5.56011e-05
1.4188,0.0207978,0.443582,0.258221,3.13835,-0.00112687,-5.56011e-05
1.42674,0.0207978,0.443582,0.258221,3.13835,-0.00112687,-5.56011e-05
1.43467,0.0207978,0.443582,0.258221,3.13835,-0.00112687,-5.56011e-05
1.44277,0.0207978,0.443582,0.258221,3.13835,-0.00112687,-5.56011e-05
1.45077,0.0207978,0.443582,0.258221,3.13835,-0.00112687,-5.56011e-05
1.45875,0.0207978,0.443582,0.258221,3.13835,-0.00112687,-5.56011e-05
1.46684,0.0207978,0.443582,0.258221,3.13835,-0.00112687,-5.56011e-05
1.47482,0.0207978,0.443582,0.258221,3.13835,-0.00112687,-5.56011e-05
1.48281,0.0207978,0.443582,0.258221,3.13835,-0.00112687,-5.56011e-05
1.4908,0.0207978,0.443582,0.258221,3.13835,-0.00112687,-5.56011e-05
1.4988,0.0207978,0.443582,0.258221,3.13835,-0.00112687,-5.56011e-05
1.50672,0.0208072,0.443583,0.258217,3.13835,-0.00111514,-7.99633e-05
1.5148,0.0208072,0.443583,0.258217,3.13835,-0.00111514,-7.99633e-05
1.52276,0.0208072,0.443583,0.258217,3.13835,-0.00111514,-7.99633e-05
1.53076,0.0208072,0.443583,0.258217,3.13835,-0.00111514,-7.99633e-05
1.53879,0.0208072,0.443583,0.258217,3.13835,-0.00111514,-7.99633e-05
1.54684,0.0208072,0.443583,0.258217,3.13835,-0.00111514,-7.99633e-05
1.55481,0.0208072,0.443583,0.258217,3.13835,-0.00111514,-7.99633e-05
1.56285,0.0208072,0.443583,0.258217,3.13835,-0.00111514,-7.99633e-05
1.57076,0.0208072,0.443583,0.258217,3.13835,-0.00111514,-7.99633e-05
1.57871,0.0208072,0.443583,0.258217,3.13835,-0.00111514,-7.99633e-05
1.58677,0.0208072,0.443583,0.258217,3.13835,-0.00111514,-7.99633e-05
1.59479,0.0208072,0.443583,0.258217,3.13835,-0.00111514,-7.99633e-05
1.60274,0.0208118,0.443581,0.258231,3.13838,-0.00109618,-0.000103948
1.61075,0.0208118,0.443581,0.258231,3.13838,-0.00109618,-0.000103948
1.6187,0.0208118,0.443581,0.258231,3.13838,-0.00109618,-0.000103948
1.6267,0.0208118,0.443581,0.258231,3.13838,-0.00109618,-0.000103948
1.63473,0.0208118,0.443581,0.258231,3.13838,-0.00109618,-0.000103948
1.6428,0.0208118,0.443581,0.258231,3.13838,-0.00109618,-0.000103948
1.6508,0.0208118,0.443581,0.258231,3.13838,-0.00109618,-0.000103948
1.65879,0.0208118,0.443581,0.258231,3.13838,-0.00109618,-0.000103948
1.66679,0.0208118,0.443581,0.258231,3.13838,-0.00109618,-0.000103948
1.6748,0.0208118,0.443581,0.258231,3.13838,-0.00109618,-0.000103948
1.68276,0.0208118,0.443581,0.258231,3.13838,-0.00109618,-0.000103948
1.69079,0.0208118,0.443581,0.258231,3.13838,-0.00109618,-0.000103948
1.69874,0.0208118,0.443581,0.258231,3.13838,-0.00109618,-0.000103948
1.70665,0.0208086,0.443572,0.258206,3.13828,-0.00111855,-7.97802e-05
1.71476,0.0208086,0.443572,0.258206,3.13828,-0.00111855,-7.97802e-05
1.72266,0.0208086,0.443572,0.258206,3.13828,-0.00111855,-7.97802e-05
1.73075,0.0208086,0.443572,0.258206,3.13828,-0.00111855,-7.97802e-05
1.73876,0.0208086,0.443572,0.258206,3.13828,-0.00111855,-7.97802e-05
1.74676,0.0208086,0.443572,0.258206,3.13828,-0.00111855,-7.97802e-05
1.75478,0.0208086,0.443572,0.258206,3.13828,-0.00111855,-7.97802e-05
1.76278,0.0208086,0.443572,0.258206,3.13828,-0.00111855,-7.97802e-05
1.77076,0.0208086,0.443572,0.258206,3.13828,-0.00111855,-7.97802e-05
1.77877,0.0208086,0.443572,0.258206,3.13828,-0.00111855,-7.97802e-05
1.78673,0.0208086,0.443572,0.258206,3.13828,-0.00111855,-7.97802e-05
1.79471,0.0208086,0.443572,0.258206,3.13828,-0.00111855,-7.97802e-05
1.80273,0.0208414,0.443534,0.258184,3.13816,-0.00113219,-0.000162816
1.81069,0.0208414,0.443534,0.258184,3.13816,-0.00113219,-0.000162816
1.81866,0.0208414,0.443534,0.258184,3.13816,-0.00113219,-0.000162816
1.82666,0.0208414,0.443534,0.258184,3.13816,-0.00113219,-0.000162816
1.83469,0.0208414,0.443534,0.258184,3.13816,-0.00113219,-0.000162816
1.84275,0.0208414,0.443534,0.258184,3.13816,-0.00113219,-0.000162816
1.85076,0.0208414,0.443534,0.258184,3.13816,-0.00113219,-0.000162816
1.85882,0.0208414,0.443534,0.258184,3.13816,-0.00113219,-0.000162816
1.86678,0.0208414,0.443534,0.258184,3.13816,-0.00113219,-0.000162816
1.87476,0.0208414,0.443534,0.258184,3.13816,-0.00113219,-0.000162816
1.88276,0.0208414,0.443534,0.258184,3.13816,-0.00113219,-0.000162816
1.89075,0.0208414,0.443534,0.258184,3.13816,-0.00113219,-0.000162816
1.89874,0.0208414,0.443534,0.258184,3.13816,-0.00113219,-0.000162816
1.90667,0.0209532,0.443425,0.258625,3.13917,-0.000983183,-0.000367171
1.91473,0.0209532,0.443425,0.258625,3.13917,-0.000983183,-0.000367171
1.92273,0.0209532,0.443425,0.258625,3.13917,-0.000983183,-0.000367171
1.93075,0.0209532,0.443425,0.258625,3.13917,-0.000983183,-0.000367171
1.93877,0.0209532,0.443425,0.258625,3.13917,-0.000983183,-0.000367171
1.9468,0.0209532,0.443425,0.258625,3.13917,-0.000983183,-0.000367171
1.95476,0.0209532,0.443425,0.258625,3.13917,-0.000983183,-0.000367171
1.96286,0.0209532,0.443425,0.258625,3.13917,-0.000983183,-0.000367171
1.97075,0.0209532,0.443425,0.258625,3.13917,-0.000983183,-0.000367171
1.97876,0.0209532,0.443425,0.258625,3.13917,-0.000983183,-0.000367171
1.98671,0.0209532,0.443425,0.258625,3.13917,-0.000983183,-0.000367171
1.99483,0.0209532,0.443425,0.258625,3.13917,-0.000983183,-0.000367171
2.00273,0.022037,0.442844,0.260784,-3.13912,2.28193e-07,-0.00255937
2.01068,0.022037,0.442844,0.260784,-3.13912,2.28193e-07,-0.00255937
2.01871,0.022037,0.442844,0.260784,-3.13912,2.28193e-07,-0.00255937
2.02668,0.022037,0.442844,0.260784,-3.13912,2.28193e-07,-0.00255937
2.03473,0.022037,0.442844,0.260784,-3.13912,2.28193e-07,-0.00255937
2.04274,0.022037,0.442844,0.260784,-3.13912,2.28193e-07,-0.00255937
2.05074,0.022037,0.442844,0.260784,-3.13912,2.28193e-07,-0.00255937
2.05879,0.022037,0.442844,0.260784,-3.13912,2.28193e-07,-0.00255937
2.06679,0.022037,0.442844,0.260784,-3.13912,2.28193e-07,-0.00255937
2.07479,0.022037,0.442844,0.260784,-3.13912,2.28193e-07,-0.00255937
2.08278,0.022037,0.442844,0.260784,-3.13912,2.28193e-07,-0.00255937
2.09076,0.022037,0.442844,0.260784,-3.13912,2.28193e-07,-0.00255937
2.09874,0.022037,0.442844,0.260784,-3.13912,2.28193e-07,-0.00255937
2.10668,0.0245684,0.440743,0.268274,-3.12239,0.00350573,-0.00739743
2.11478,0.0245684,0.440743,0.268274,-3.12239,0.00350573,-0.00739743
2.12268,0.0245684,0.440743,0.268274,-3.12239,0.00350573,-0.00739743
2.13073,0.0245684,0.440743,0.268274,-3.12239,0.00350573,-0.00739743
2.13874,0.0245684,0.440743,0.268274,-3.12239,0.00350573,-0.00739743
2.14672,0.0245684,0.440743,0.268274,-3.12239,0.00350573,-0.00739743
2.15475,0.0245684,0.440743,0.268274,-3.12239,0.00350573,-0.00739743
2.1628,0.0245684,0.440743,0.268274,-3.12239,0.00350573,-0.00739743
2.17075,0.0245684,0.440743,0.268274,-3.12239,0.00350573,-0.00739743
2.17871,0.0245684,0.440743,0.268274,-3.12239,0.00350573,-0.00739743
2.18675,0.0245684,0.440743,0.268274,-3.12239,0.00350573,-0.00739743
2.19473,0.0245684,0.440743,0.268274,-3.12239,0.00350573,-0.00739743
2.20272,0.0280923,0.435244,0.285328,-3.08617,0.0110198,-0.0127003
2.21073,0.0280923,0.435244,0.285328,-3.08617,0.0110198,-0.0127003
2.21876,0.0280923,0.435244,0.285328,-3.08617,0.0110198,-0.0127003
2.2267,0.0280923,0.435244,0.285328,-3.08617,0.0110198,-0.0127003
2.23475,0.0280923,0.435244,0.285328,-3.08617,0.0110198,-0.0127003
2.24274,0.0280923,0.435244,0.285328,-3.08617,0.0110198,-0.0127003
2.25076,0.0280923,0.435244,0.285328,-3.08617,0.0110198,-0.0127003
2.25873,0.0280923,0.435244,0.285328,-3.08617,0.0110198,-0.0127003
2.26681,0.0280923,0.435244,0.285328,-3.08617,0.0110198,-0.0127003
2.27472,0.0280923,0.435244,0.285328,-3.08617,0.0110198,-0.0127003
2.28275,0.0280923,0.435244,0.285328,-3.08617,0.0110198,-0.0127003
2.29072,0.0280923,0.435244,0.285328,-3.08617,0.0110198,-0.0127003
2.29878,0.0280923,0.435244,0.285328,-3.08617,0.0110198,-0.0127003
2.30815,0.0328704,0.421367,0.314471,-3.04261,0.0195122,-0.0168931
2.31472,0.0328704,0.421367,0.314471,-3.04261,0.0195122,-0.0168931
2.32265,0.0328704,0.421367,0.314471,-3.04261,0.0195122,-0.0168931
2.3307,0.0328704,0.421367,0.314471,-3.04261,0.0195122,-0.0168931
2.33876,0.0328704,0.421367,0.314471,-3.04261,0.0195122,-0.0168931
2.3467,0.0328704,0.421367,0.314471,-3.04261,0.0195122,-0.0168931
2.35474,0.0328704,0.421367,0.314471,-3.04261,0.0195122,-0.0168931
2.36285,0.0328704,0.421367,0.314471,-3.04261,0.0195122,-0.0168931
2.3708,0.0328704,0.421367,0.314471,-3.04261,0.0195122,-0.0168931
2.37873,0.0328704,0.421367,0.314471,-3.04261,0.0195122,-0.0168931
2.38668,0.0328704,0.421367,0.314471,-3.04261,0.0195122,-0.0168931
2.39473,0.0328704,0.421367,0.314471,-3.04261,0.0195122,-0.0168931
2.40271,0.0366428,0.403077,0.336761,-3.04627,0.0183486,-0.016953
2.4107,0.0366428,0.403077,0.336761,-3.04627,0.0183486,-0.016953
2.41875,0.0366428,0.403077,0.336761,-3.04627,0.0183486,-0.016953
2.42675,0.0366428,0.403077,0.336761,-3.04627,0.0183486,-0.016953
2.43468,0.0366428,0.403077,0.336761,-3.04627,0.0183486,-0.016953
2.44273,0.0366428,0.403077,0.336761,-3.04627,0.0183486,-0.016953
2.45073,0.0366428,0.403077,0.336761,-3.04627,0.0183486,-0.016953
2.45877,0.0366428,0.403077,0.336761,-3.04627,0.0183486,-0.016953
2.46672,0.0366428,0.403077,0.336761,-3.04627,0.0183486,-0.016953
2.47473,0.0366428,0.403077,0.336761,-3.04627,0.0183486,-0.016953
2.48273,0.0366428,0.403077,0.336761,-3.04627,0.0183486,-0.016953
2.4907,0.0366428,0.403077,0.336761,-3.04627,0.0183486,-0.016953
2.49874,0.0366428,0.403077,0.336761,-3.04627,0.0183486,-0.016953
2.50662,0.0397779,0.386551,0.352029,-3.06264,0.014933,-0.0167349
2.51473,0.0397779,0.386551,0.352029,-3.06264,0.014933,-0.0167349
2.52267,0.0397779,0.386551,0.352029,-3.06264,0.014933,-0.0167349
2.53072,0.0397779,0.386551,0.352029,-3.06264,0.014933,-0.0167349
2.53869,0.0397779,0.386551,0.352029,-3.06264,0.014933,-0.0167349
2.54675,0.0397779,0.386551,0.352029,-3.06264,0.014933,-0.0167349
2.55474,0.0397779,0.386551,0.352029,-3.06264,0.014933,-0.0167349
2.56277,0.0397779,0.386551,0.352029,-3.06264,0.014933,-0.0167349
2.57071,0.0397779,0.386551,0.352029,-3.06264,0.014933,-0.0167349
2.57871,0.0397779,0.386551,0.352029,-3.06264,0.014933,-0.0167349
2.58674,0.0397779,0.386551,0.352029,-3.06264,0.014933,-0.0167349
2.59467,0.0397779,0.386551,0.352029,-3.06264,0.014933,-0.0167349
2.60269,0.0453423,0.352752,0.381425,-3.07218,0.0218659,-0.00712773
2.61063,0.0453423,0.352752,0.381425,-3.07218,0.0218659,-0.00712773
2.61868,0.0453423,0.352752,0.381425,-3.07218,0.0218659,-0.00712773
2.62663,0.0453423,0.352752,0.381425,-3.07218,0.0218659,-0.00712773
2.63465,0.0453423,0.352752,0.381425,-3.07218,0.0218659,-0.00712773
2.64267,0.0453423,0.352752,0.381425,-3.07218,0.0218659,-0.00712773
2.65068,0.0453423,0.352752,0.381425,-3.07218,0.0218659,-0.00712773
2.6587,0.0453423,0.352752,0.381425,-3.07218,0.0218659,-0.00712773
2.66674,0.0453423,0.352752,0.381425,-3.07218,0.0218659,-0.00712773
2.6747,0.0453423,0.352752,0.381425,-3.07218,0.0218659,-0.00712773
2.68268,0.0453423,0.352752,0.381425,-3.07218,0.0218659,-0.00712773
2.69066,0.0453423,0.352752,0.381425,-3.07218,0.0218659,-0.00712773
2.69872,0.0453423,0.352752,0.381425,-3.07218,0.0218659,-0.00712773
2.70663,0.0470229,0.332848,0.39564,-3.06333,0.0468172,0.0167497
2.71475,0.0470229,0.332848,0.39564,-3.06333,0.0468172,0.0167497
2.72271,0.0470229,0.332848,0.39564,-3.06333,0.0468172,0.0167497
2.73069,0.0470229,0.332848,0.39564,-3.06333,0.0468172,0.0167497
2.73871,0.0470229,0.332848,0.39564,-3.06333,0.0468172,0.0167497
2.74675,0.0470229,0.332848,0.39564,-3.06333,0.0468172,0.0167497
2.75474,0.0470229,0.332848,0.39564,-3.06333,0.0468172,0.0167497
2.76276,0.0470229,0.332848,0.39564,-3.06333,0.0468172,0.0167497
2.7708,0.0470229,0.332848,0.39564,-3.06333,0.0468172,0.0167497
2.77871,0.0470229,0.332848,0.39564,-3.06333,0.0468172,0.0167497
2.78673,0.0470229,0.332848,0.39564,-3.06333,0.0468172,0.0167497
2.7947,0.0470229,0.332848,0.39564,-3.06333,0.0468172,0.0167497
2.8026,0.04794,0.320075,0.400944,-3.053,0.0642628,0.0381187
2.81059,0.04794,0.320075,0.400944,-3.053,0.0642628,0.0381187
2.81873,0.04794,0.320075,0.400944,-3.053,0.0642628,0.0381187
2.82664,0.04794,0.320075,0.400944,-3.053,0.0642628,0.0381187
2.83468,0.04794,0.320075,0.400944,-3.053,0.0642628,0.0381187
2.84271,0.04794,0.320075,0.400944,-3.053,0.0642628,0.0381187
2.85072,0.04794,0.320075,0.400944,-3.053,0.0642628,0.0381187
2.85874,0.04794,0.320075,0.400944,-3.053,0.0642628,0.0381187
2.86676,0.04794,0.320075,0.400944,-3.053,0.0642628,0.0381187
2.87462,0.04794,0.320075,0.400944,-3.053,0.0642628,0.0381187
2.88271,0.04794,0.320075,0.400944,-3.053,0.0642628,0.0381187
2.89074,0.04794,0.320075,0.400944,-3.053,0.0642628,0.0381187
2.89872,0.04794,0.320075,0.400944,-3.053,0.0642628,0.0381187
2.9066,0.0498439,0.304472,0.398387,-3.06318,0.0724999,0.064016
2.91475,0.0498439,0.304472,0.398387,-3.06318,0.0724999,0.064016
2.92266,0.0498439,0.304472,0.398387,-3.06318,0.0724999,0.064016
2.93066,0.0498439,0.304472,0.398387,-3.06318,0.0724999,0.064016
2.93871,0.0498439,0.304472,0.398387,-3.06318,0.0724999,0.064016
2.94672,0.0498439,0.304472,0.398387,-3.06318,0.0724999,0.064016
2.9547,0.0498439,0.304472,0.398387,-3.06318,0.0724999,0.064016
2.96271,0.0498439,0.304472,0.398387,-3.06318,0.0724999,0.064016
2.97075,0.0498439,0.304472,0.398387,-3.06318,0.0724999,0.064016
2.97869,0.0498439,0.304472,0.398387,-3.06318,0.0724999,0.064016
2.98669,0.0498439,0.304472,0.398387,-3.06318,0.0724999,0.064016
2.99465,0.0498439,0.304472,0.398387,-3.06318,0.0724999,0.064016
3.00269,0.0527827,0.287766,0.382315,-3.11185,0.0657323,0.079123
3.01064,0.0527827,0.287766,0.382315,-3.11185,0.0657323,0.079123
3.0187,0.0527827,0.287766,0.382315,-3.11185,0.0657323,0.079123
3.02664,0.0527827,0.287766,0.382315,-3.11185,0.0657323,0.079123
3.03472,0.0527827,0.287766,0.382315,-3.11185,0.0657323,0.079123
3.04268,0.0527827,0.287766,0.382315,-3.11185,0.0657323,0.079123
3.05063,0.0527827,0.287766,0.382315,-3.11185,0.0657323,0.079123
3.05867,0.0527827,0.287766,0.382315,-3.11185,0.0657323,0.079123
3.06666,0.0527827,0.287766,0.382315,-3.11185,0.0657323,0.079123
3.07469,0.0527827,0.287766,0.382315,-3.11185,0.0657323,0.079123
3.08266,0.0527827,0.287766,0.382315,-3.11185,0.0657323,0.079123
3.09069,0.0527827,0.287766,0.382315,-3.11185,0.0657323,0.079123
3.09865,0.0527827,0.287766,0.382315,-3.11185,0.0657323,0.079123
3.10656,0.0536717,0.278647,0.365833,-3.13637,0.0672382,0.0795181
3.11465,0.0536717,0.278647,0.365833,-3.13637,0.0672382,0.0795181
3.12265,0.0536717,0.278647,0.365833,-3.13637,0.0672382,0.0795181
3.13059,0.0536717,0.278647,0.365833,-3.13637,0.0672382,0.0795181
3.13862,0.0536717,0.278647,0.365833,-3.13637,0.0672382,0.0795181
3.14669,0.0536717,0.278647,0.365833,-3.13637,0.0672382,0.0795181
3.15465,0.0536717,0.278647,0.365833,-3.13637,0.0672382,0.0795181
3.16271,0.0536717,0.278647,0.365833,-3.13637,0.0672382,0.0795181
3.17074,0.0536717,0.278647,0.365833,-3.13637,0.0672382,0.0795181
3.17871,0.0536717,0.278647,0.365833,-3.13637,0.0672382,0.0795181
3.18668,0.0536717,0.278647,0.365833,-3.13637,0.0672382,0.0795181
3.19469,0.0536717,0.278647,0.365833,-3.13637,0.0672382,0.0795181
3.2027,0.0526875,0.27323,0.349725,-3.12459,0.0785314,0.0851642
3.21057,0.0526875,0.27323,0.349725,-3.12459,0.0785314,0.0851642
3.21865,0.0526875,0.27323,0.349725,-3.12459,0.0785314,0.0851642
3.22658,0.0526875,0.27323,0.349725,-3.12459,0.0785314,0.0851642
3.23463,0.0526875,0.27323,0.349725,-3.12459,0.0785314,0.0851642
3.24268,0.0526875,0.27323,0.349725,-3.12459,0.0785314,0.0851642
3.25069,0.0526875,0.27323,0.349725,-3.12459,0.0785314,0.0851642
3.25877,0.0526875,0.27323,0.349725,-3.12459,0.0785314,0.0851642
3.26679,0.0526875,0.27323,0.349725,-3.12459,0.0785314,0.0851642
3.27469,0.0526875,0.27323,0.349725,-3.12459,0.0785314,0.0851642
3.28269,0.0526875,0.27323,0.349725,-3.12459,0.0785314,0.0851642
3.29067,0.0526875,0.27323,0.349725,-3.12459,0.0785314,0.0851642
3.29866,0.0526875,0.27323,0.349725,-3.12459,0.0785314,0.0851642
3.30661,0.0510137,0.268484,0.333463,-3.10383,0.0872585,0.0952522
3.31473,0.0510137,0.268484,0.333463,-3.10383,0.0872585,0.0952522
3.3227,0.0510137,0.268484,0.333463,-3.10383,0.0872585,0.0952522
3.33068,0.0510137,0.268484,0.333463,-3.10383,0.0872585,0.0952522
3.33871,0.0510137,0.268484,0.333463,-3.10383,0.0872585,0.0952522
3.34675,0.0510137,0.268484,0.333463,-3.10383,0.0872585,0.0952522
3.35467,0.0510137,0.268484,0.333463,-3.10383,0.0872585,0.0952522
3.36269,0.0510137,0.268484,0.333463,-3.10383,0.0872585,0.0952522
3.37075,0.0510137,0.268484,0.333463,-3.10383,0.0872585,0.0952522
3.37871,0.0510137,0.268484,0.333463,-3.10383,0.0872585,0.0952522
3.38666,0.0510137,0.268484,0.333463,-3.10383,0.0872585,0.0952522
3.39468,0.0510137,0.268484,0.333463,-3.10383,0.0872585,0.0952522
3.40266,0.048128,0.261724,0.315831,-3.10521,0.0868509,0.112308
3.41057,0.048128,0.261724,0.315831,-3.10521,0.0868509,0.112308
3.41863,0.048128,0.261724,0.315831,-3.10521,0.0868509,0.112308
3.4266,0.048128,0.261724,0.315831,-3.10521,0.0868509,0.112308
3.43458,0.048128,0.261724,0.315831,-3.10521,0.0868509,0.112308
3.44263,0.048128,0.261724,0.315831,-3.10521,0.0868509,0.112308
3.45064,0.048128,0.261724,0.315831,-3.10521,0.0868509,0.112308
3.45869,0.048128,0.261724,0.315831,-3.10521,0.0868509,0.112308
3.46673,0.048128,0.261724,0.315831,-3.10521,0.0868509,0.112308
3.47469,0.048128,0.261724,0.315831,-3.10521,0.0868509,0.112308
3.48269,0.048128,0.261724,0.315831,-3.10521,0.0868509,0.112308
3.49067,0.048128,0.261724,0.315831,-3.10521,0.0868509,0.112308
3.49871,0.048128,0.261724,0.315831,-3.10521,0.0868509,0.112308
3.50656,0.0411956,0.250249,0.295656,-3.12692,0.0840028,0.150308
3.51457,0.0411956,0.250249,0.295656,-3.12692,0.0840028,0.150308
3.52266,0.0411956,0.250249,0.295656,-3.12692,0.0840028,0.150308
3.53065,0.0411956,0.250249,0.295656,-3.12692,0.0840028,0.150308
3.53858,0.0411956,0.250249,0.295656,-3.12692,0.0840028,0.150308
3.54667,0.0411956,0.250249,0.295656,-3.12692,0.0840028,0.150308
3.55462,0.0411956,0.250249,0.295656,-3.12692,0.0840028,0.150308
3.56276,0.0411956,0.250249,0.295656,-3.12692,0.0840028,0.150308
3.57068,0.0411956,0.250249,0.295656,-3.12692,0.0840028,0.150308
3.57869,0.0411956,0.250249,0.295656,-3.12692,0.0840028,0.150308
3.58669,0.0411956,0.250249,0.295656,-3.12692,0.0840028,0.150308
3.59466,0.0411956,0.250249,0.295656,-3.12692,0.0840028,0.150308
3.60273,0.0357688,0.241105,0.286475,-3.12045,0.0828233,0.184667
3.61059,0.0357688,0.241105,0.286475,-3.12045,0.0828233,0.184667
3.61865,0.0357688,0.241105,0.286475,-3.12045,0.0828233,0.184667
3.62662,0.0357688,0.241105,0.286475,-3.12045,0.0828233,0.184667
3.63463,0.0357688,0.241105,0.286475,-3.12045,0.0828233,0.184667
3.64267,0.0357688,0.241105,0.286475,-3.12045,0.0828233,0.184667
3.65072,0.0357688,0.241105,0.286475,-3.12045,0.0828233,0.184667
3.65869,0.0357688,0.241105,0.286475,-3.12045,0.0828233,0.184667
3.66668,0.0357688,0.241105,0.286475,-3.12045,0.0828233,0.184667
3.6747,0.0357688,0.241105,0.286475,-3.12045,0.0828233,0.184667
3.68269,0.0357688,0.241105,0.286475,-3.12045,0.0828233,0.184667
3.69067,0.0357688,0.241105,0.286475,-3.12045,0.0828233,0.184667
3.69871,0.0357688,0.241105,0.286475,-3.12045,0.0828233,0.184667
3.70662,0.0322684,0.233667,0.27966,-3.1044,0.077147,0.212541
3.71461,0.0322684,0.233667,0.27966,-3.1044,0.077147,0.212541
3.72257,0.0322684,0.233667,0.27966,-3.1044,0.077147,0.212541
3.73069,0.0322684,0.233667,0.27966,-3.1044,0.077147,0.212541
3.73861,0.0322684,0.233667,0.27966,-3.1044,0.077147,0.212541
3.74673,0.0322684,0.233667,0.27966,-3.1044,0.077147,0.212541
3.75467,0.0322684,0.233667,0.27966,-3.1044,0.077147,0.212541
3.7627,0.0322684,0.233667,0.27966,-3.1044,0.077147,0.212541
3.77072,0.0322684,0.233667,0.27966,-3.1044,0.077147,0.212541
3.77872,0.0322684,0.233667,0.27966,-3.1044,0.077147,0.212541
3.78669,0.0322684,0.233667,0.27966,-3.1044,0.077147,0.212541
3.79467,0.0322684,0.233667,0.27966,-3.1044,0.077147,0.212541
3.80264,0.0321745,0.227824,0.272324,-3.09611,0.0531065,0.22767
3.81058,0.0321745,0.227824,0.272324,-3.09611,0.0531065,0.22767
3.81864,0.0321745,0.227824,0.272324,-3.09611,0.0531065,0.22767
3.82658,0.0321745,0.227824,0.272324,-3.09611,0.0531065,0.22767
3.83461,0.0321745,0.227824,0.272324,-3.09611,0.0531065,0.22767
3.84267,0.0321745,0.227824,0.272324,-3.09611,0.0531065,0.22767
3.85067,0.0321745,0.227824,0.272324,-3.09611,0.0531065,0.22767
3.85865,0.0321745,0.227824,0.272324,-3.09611,0.0531065,0.22767
3.86667,0.0321745,0.227824,0.272324,-3.09611,0.0531065,0.22767
3.8747,0.0321745,0.227824,0.272324,-3.09611,0.0531065,0.22767
3.8827,0.0321745,0.227824,0.272324,-3.09611,0.0531065,0.22767
3.89057,0.0321745,0.227824,0.272324,-3.09611,0.0531065,0.22767
3.89858,0.0321745,0.227824,0.272324,-3.09611,0.0531065,0.22767
3.90657,0.0331093,0.224228,0.264789,-3.08989,0.0333336,0.236857
3.91466,0.0331093,0.224228,0.264789,-3.08989,0.0333336,0.236857
3.92267,0.0331093,0.224228,0.264789,-3.08989,0.0333336,0.236857
3.93069,0.0331093,0.224228,0.264789,-3.08989,0.0333336,0.236857
3.93878,0.0331093,0.224228,0.264789,-3.08989,0.0333336,0.236857
3.94669,0.0331093,0.224228,0.264789,-3.08989,0.0333336,0.236857
3.95475,0.0331093,0.224228,0.264789,-3.08989,0.0333336,0.236857
3.96268,0.0331093,0.224228,0.264789,-3.08989,0.0333336,0.236857
3.9707,0.0331093,0.224228,0.264789,-3.08989,0.0333336,0.236857
3.97873,0.0331093,0.224228,0.264789,-3.08989,0.0333336,0.236857
3.98669,0.0331093,0.224228,0.264789,-3.08989,0.0333336,0.236857
3.99463,0.0331093,0.224228,0.264789,-3.08989,0.0333336,0.236857
4.00264,0.0333466,0.223287,0.256553,-3.0802,0.0334231,0.238262
4.01054,0.0333466,0.223287,0.256553,-3.0802,0.0334231,0.238262
4.01856,0.0333466,0.223287,0.256553,-3.0802,0.0334231,0.238262
4.02658,0.0333466,0.223287,0.256553,-3.0802,0.0334231,0.238262
4.0346,0.0333466,0.223287,0.256553,-3.0802,0.0334231,0.238262
4.04264,0.0333466,0.223287,0.256553,-3.0802,0.0334231,0.238262
4.05065,0.0333466,0.223287,0.256553,-3.0802,0.0334231,0.238262
4.05874,0.0333466,0.223287,0.256553,-3.0802,0.0334231,0.238262
4.06671,0.0333466,0.223287,0.256553,-3.0802,0.0334231,0.238262
4.07464,0.0333466,0.223287,0.256553,-3.0802,0.0334231,0.238262
4.08268,0.0333466,0.223287,0.256553,-3.0802,0.0334231,0.238262
4.09071,0.0333466,0.223287,0.256553,-3.0802,0.0334231,0.238262
4.09867,0.0333466,0.223287,0.256553,-3.0802,0.0334231,0.238262
4.10657,0.0333473,0.223287,0.25599,-3.07602,0.033937,0.238322
4.11452,0.0333473,0.223287,0.25599,-3.07602,0.033937,0.238322
4.12255,0.0333473,0.223287,0.25599,-3.07602,0.033937,0.238322
4.13057,0.0333473,0.223287,0.25599,-3.07602,0.033937,0.238322
4.13862,0.0333473,0.223287,0.25599,-3.07602,0.033937,0.238322
4.14661,0.0333473,0.223287,0.25599,-3.07602,0.033937,0.238322
4.15462,0.0333473,0.223287,0.25599,-3.07602,0.033937,0.238322
4.16267,0.0333473,0.223287,0.25599,-3.07602,0.033937,0.238322
4.17067,0.0333473,0.223287,0.25599,-3.07602,0.033937,0.238322
4.17865,0.0333473,0.223287,0.25599,-3.07602,0.033937,0.238322
4.18664,0.0333473,0.223287,0.25599,-3.07602,0.033937,0.238322
4.19469,0.0333473,0.223287,0.25599,-3.07602,0.033937,0.238322
4.2027,0.0333435,0.223292,0.255969,-3.07611,0.0339503,0.238333
4.21063,0.0333435,0.223292,0.255969,-3.07611,0.0339503,0.238333
4.21861,0.0333435,0.223292,0.255969,-3.07611,0.0339503,0.238333
4.22663,0.0333435,0.223292,0.255969,-3.07611,0.0339503,0.238333
4.23459,0.0333435,0.223292,0.255969,-3.07611,0.0339503,0.238333
4.24265,0.0333435,0.223292,0.255969,-3.07611,0.0339503,0.238333
4.25066,0.0333435,0.223292,0.255969,-3.07611,0.0339503,0.238333
4.25871,0.0333435,0.223292,0.255969,-3.07611,0.0339503,0.238333
4.26669,0.0333435,0.223292,0.255969,-3.07611,0.0339503,0.238333
4.27467,0.0333435,0.223292,0.255969,-3.07611,0.0339503,0.238333
4.28264,0.0333435,0.223292,0.255969,-3.07611,0.0339503,0.238333
4.29066,0.0333435,0.223292,0.255969,-3.07611,0.0339503,0.238333
4.29865,0.0333435,0.223292,0.255969,-3.07611,0.0339503,0.238333
4.30655,0.0333425,0.223293,0.255934,-3.07631,0.0339603,0.23834
4.31466,0.0333425,0.223293,0.255934,-3.07631,0.0339603,0.23834
4.32269,0.0333425,0.223293,0.255934,-3.07631,0.0339603,0.23834
4.33059,0.0333425,0.223293,0.255934,-3.07631,0.0339603,0.23834
4.33869,0.0333425,0.223293,0.255934,-3.07631,0.0339603,0.23834
4.34666,0.0333425,0.223293,0.255934,-3.07631,0.0339603,0.23834
4.35468,0.0333425,0.223293,0.255934,-3.07631,0.0339603,0.23834
4.3627,0.0333425,0.223293,0.255934,-3.07631,0.0339603,0.23834
4.37072,0.0333425,0.223293,0.255934,-3.07631,0.0339603,0.23834
4.37866,0.0333425,0.223293,0.255934,-3.07631,0.0339603,0.23834
4.38663,0.0333425,0.223293,0.255934,-3.07631,0.0339603,0.23834
4.39464,0.0333425,0.223293,0.255934,-3.07631,0.0339603,0.23834
4.40264,0.0333547,0.223297,0.25594,-3.07628,0.0340082,0.23832
4.41051,0.0333547,0.223297,0.25594,-3.07628,0.0340082,0.23832
4.41865,0.0333547,0.223297,0.25594,-3.07628,0.0340082,0.23832
4.42664,0.0333547,0.223297,0.25594,-3.07628,0.0340082,0.23832
4.4346,0.0333547,0.223297,0.25594,-3.07628,0.0340082,0.23832
4.44258,0.0333547,0.223297,0.25594,-3.07628,0.0340082,0.23832
4.45064,0.0333547,0.223297,0.25594,-3.07628,0.0340082,0.23832
4.45868,0.0333547,0.223297,0.25594,-3.07628,0.0340082,0.23832
4.46668,0.0333547,0.223297,0.25594,-3.07628,0.0340082,0.23832
4.47462,0.0333547,0.223297,0.25594,-3.07628,0.0340082,0.23832
4.48263,0.0333547,0.223297,0.25594,-3.07628,0.0340082,0.23832
4.49064,0.0333547,0.223297,0.25594,-3.07628,0.0340082,0.23832
4.49864,0.0333547,0.223297,0.25594,-3.07628,0.0340082,0.23832
4.50664,0.0333649,0.223292,0.255956,-3.07624,0.0340605,0.238277
4.5147,0.0333649,0.223292,0.255956,-3.07624,0.0340605,0.238277
4.52267,0.0333649,0.223292,0.255956,-3.07624,0.0340605,0.238277
4.53072,0.0333649,0.223292,0.255956,-3.07624,0.0340605,0.238277
4.53864,0.0333649,0.223292,0.255956,-3.07624,0.0340605,0.238277
4.54676,0.0333649,0.223292,0.255956,-3.07624,0.0340605,0.238277
4.55475,0.0333649,0.223292,0.255956,-3.07624,0.0340605,0.238277
4.56267,0.0333649,0.223292,0.255956,-3.07624,0.0340605,0.238277
4.57076,0.0333649,0.223292,0.255956,-3.07624,0.0340605,0.238277
4.57868,0.0333649,0.223292,0.255956,-3.07624,0.0340605,0.238277
4.58662,0.0333649,0.223292,0.255956,-3.07624,0.0340605,0.238277
4.59462,0.0333649,0.223292,0.255956,-3.07624,0.0340605,0.238277
4.60262,0.03337,0.223287,0.255936,-3.07634,0.034097,0.238241
4.61059,0.03337,0.223287,0.255936,-3.07634,0.034097,0.238241
4.61852,0.03337,0.223287,0.255936,-3.07634,0.034097,0.238241
4.62664,0.03337,0.223287,0.255936,-3.07634,0.034097,0.238241
4.63456,0.03337,0.223287,0.255936,-3.07634,0.034097,0.238241
4.64264,0.03337,0.223287,0.255936,-3.07634,0.034097,0.238241
4.65066,0.03337,0.223287,0.255936,-3.07634,0.034097,0.238241
4.65864,0.03337,0.223287,0.255936,-3.07634,0.034097,0.238241
4.66665,0.03337,0.223287,0.255936,-3.07634,0.034097,0.238241
4.67463,0.03337,0.223287,0.255936,-3.07634,0.034097,0.238241
4.68266,0.03337,0.223287,0.255936,-3.07634,0.034097,0.238241
4.69064,0.03337,0.223287,0.255936,-3.07634,0.034097,0.238241
4.69865,0.03337,0.223287,0.255936,-3.07634,0.034097,0.238241
4.70656,0.0333756,0.223288,0.255951,-3.07628,0.0340937,0.238195
4.71452,0.0333756,0.223288,0.255951,-3.07628,0.0340937,0.238195
4.72258,0.0333756,0.223288,0.255951,-3.07628,0.0340937,0.238195
4.73059,0.0333756,0.223288,0.255951,-3.07628,0.0340937,0.238195
4.73856,0.0333756,0.223288,0.255951,-3.07628,0.0340937,0.238195
4.74657,0.0333756,0.223288,0.255951,-3.07628,0.0340937,0.238195
4.75464,0.0333756,0.223288,0.255951,-3.07628,0.0340937,0.238195
4.76264,0.0333756,0.223288,0.255951,-3.07628,0.0340937,0.238195
4.77067,0.0333756,0.223288,0.255951,-3.07628,0.0340937,0.238195
4.77861,0.0333756,0.223288,0.255951,-3.07628,0.0340937,0.238195
4.78665,0.0333756,0.223288,0.255951,-3.07628,0.0340937,0.238195
4.79464,0.0333756,0.223288,0.255951,-3.07628,0.0340937,0.238195
4.80262,0.0333757,0.223287,0.25595,-3.07628,0.0340704,0.238193
4.81052,0.0333757,0.223287,0.25595,-3.07628,0.0340704,0.238193
4.81855,0.0333757,0.223287,0.25595,-3.07628,0.0340704,0.238193
4.82657,0.0333757,0.223287,0.25595,-3.07628,0.0340704,0.238193
4.83457,0.0333757,0.223287,0.25595,-3.07628,0.0340704,0.238193
4.8426,0.0333757,0.223287,0.25595,-3.07628,0.0340704,0.238193
4.85062,0.0333757,0.223287,0.25595,-3.07628,0.0340704,0.238193
4.85856,0.0333757,0.223287,0.25595,-3.07628,0.0340704,0.238193
4.86651,0.0333757,0.223287,0.25595,-3.07628,0.0340704,0.238193
4.87461,0.0333757,0.223287,0.25595,-3.07628,0.0340704,0.238193
4.88254,0.0333757,0.223287,0.25595,-3.07628,0.0340704,0.238193
4.89059,0.0333757,0.223287,0.25595,-3.07628,0.0340704,0.238193
4.89855,0.0333757,0.223287,0.25595,-3.07628,0.0340704,0.238193
4.90654,0.0333616,0.223296,0.25596,-3.07623,0.0341108,0.238257
4.91452,0.0333616,0.223296,0.25596,-3.07623,0.0341108,0.238257
4.92254,0.0333616,0.223296,0.25596,-3.07623,0.0341108,0.238257
4.93052,0.0333616,0.223296,0.25596,-3.07623,0.0341108,0.238257
4.93858,0.0333616,0.223296,0.25596,-3.07623,0.0341108,0.238257
4.94662,0.0333616,0.223296,0.25596,-3.07623,0.0341108,0.238257
4.95465,0.0333616,0.223296,0.25596,-3.07623,0.0341108,0.238257
4.96261,0.0333616,0.223296,0.25596,-3.07623,0.0341108,0.238257
4.97069,0.0333616,0.223296,0.25596,-3.07623,0.0341108,0.238257
4.97864,0.0333616,0.223296,0.25596,-3.07623,0.0341108,0.238257
4.98662,0.0333616,0.223296,0.25596,-3.07623,0.0341108,0.238257
4.99461,0.0333616,0.223296,0.25596,-3.07623,0.0341108,0.238257
5.00262,0.0333609,0.223301,0.255954,-3.07625,0.0340953,0.238267
5.01055,0.0333609,0.223301,0.255954,-3.07625,0.0340953,0.238267
5.01854,0.0333609,0.223301,0.255954,-3.07625,0.0340953,0.238267
5.02652,0.0333609,0.223301,0.255954,-3.07625,0.0340953,0.238267
5.03455,0.0333609,0.223301,0.255954,-3.07625,0.0340953,0.238267
5.04253,0.0333609,0.223301,0.255954,-3.07625,0.0340953,0.238267
5.05055,0.0333609,0.223301,0.255954,-3.07625,0.0340953,0.238267
5.05855,0.0333609,0.223301,0.255954,-3.07625,0.0340953,0.238267
5.06656,0.0333609,0.223301,0.255954,-3.07625,0.0340953,0.238267
5.07462,0.0333609,0.223301,0.255954,-3.07625,0.0340953,0.238267
5.08261,0.0333609,0.223301,0.255954,-3.07625,0.0340953,0.238267
5.09059,0.0333609,0.223301,0.255954,-3.07625,0.0340953,0.238267
5.09858,0.0333609,0.223301,0.255954,-3.07625,0.0340953,0.238267
5.10655,0.0333634,0.223291,0.255948,-3.07628,0.0341034,0.238279
5.11455,0.0333634,0.223291,0.255948,-3.07628,0.0341034,0.238279
5.12258,0.0333634,0.223291,0.255948,-3.07628,0.0341034,0.238279
5.13056,0.0333634,0.223291,0.255948,-3.07628,0.0341034,0.238279
5.13854,0.0333634,0.223291,0.255948,-3.07628,0.0341034,0.238279
5.14665,0.0333634,0.223291,0.255948,-3.07628,0.0341034,0.238279
5.15463,0.0333634,0.223291,0.255948,-3.07628,0.0341034,0.238279
5.16267,0.0333634,0.223291,0.255948,-3.07628,0.0341034,0.238279
5.17064,0.0333634,0.223291,0.255948,-3.07628,0.0341034,0.238279
5.17862,0.0333634,0.223291,0.255948,-3.07628,0.0341034,0.238279
5.18664,0.0333634,0.223291,0.255948,-3.07628,0.0341034,0.238279
5.19464,0.0333634,0.223291,0.255948,-3.07628,0.0341034,0.238279
5.20257,0.0333776,0.223296,0.255955,-3.07625,0.034096,0.238184
5.21053,0.0333776,0.223296,0.255955,-3.07625,0.034096,0.238184
5.21853,0.0333776,0.223296,0.255955,-3.07625,0.034096,0.238184
5.22653,0.0333776,0.223296,0.255955,-3.07625,0.034096,0.238184
5.23461,0.0333776,0.223296,0.255955,-3.07625,0.034096,0.238184
5.24258,0.0333776,0.223296,0.255955,-3.07625,0.034096,0.238184
5.25056,0.0333776,0.223296,0.255955,-3.07625,0.034096,0.238184
5.25864,0.0333776,0.223296,0.255955,-3.07625,0.034096,0.238184
5.26667,0.0333776,0.223296,0.255955,-3.07625,0.034096,0.238184
5.27462,0.0333776,0.223296,0.255955,-3.07625,0.034096,0.238184
5.28257,0.0333776,0.223296,0.255955,-3.07625,0.034096,0.238184
5.29062,0.0333776,0.223296,0.255955,-3.07625,0.034096,0.238184
5.2986,0.0333776,0.223296,0.255955,-3.07625,0.034096,0.238184
5.30653,0.0333678,0.223292,0.255963,-3.07624,0.0340854,0.238243
5.31448,0.0333678,0.223292,0.255963,-3.07624,0.0340854,0.238243
5.32257,0.0333678,0.223292,0.255963,-3.07624,0.0340854,0.238243
5.33047,0.0333678,0.223292,0.255963,-3.07624,0.0340854,0.238243
5.33855,0.0333678,0.223292,0.255963,-3.07624,0.0340854,0.238243
5.34652,0.0333678,0.223292,0.255963,-3.07624,0.0340854,0.238243
5.35452,0.0333678,0.223292,0.255963,-3.07624,0.0340854,0.238243
5.36261,0.0333678,0.223292,0.255963,-3.07624,0.0340854,0.238243
5.3707,0.0333678,0.223292,0.255963,-3.07624,0.0340854,0.238243
5.37861,0.0333678,0.223292,0.255963,-3.07624,0.0340854,0.238243
5.38663,0.0333678,0.223292,0.255963,-3.07624,0.0340854,0.238243
5.39459,0.0333678,0.223292,0.255963,-3.07624,0.0340854,0.238243
5.40251,0.0333663,0.223294,0.255949,-3.07629,0.0341146,0.238244
5.41056,0.0333663,0.223294,0.255949,-3.07629,0.0341146,0.238244
5.41857,0.0333663,0.223294,0.255949,-3.07629,0.0341146,0.238244
5.42668,0.0333663,0.223294,0.255949,-3.07629,0.0341146,0.238244
5.43462,0.0333663,0.223294,0.255949,-3.07629,0.0341146,0.238244
5.44262,0.0333663,0.223294,0.255949,-3.07629,0.0341146,0.238244
5.45063,0.0333663,0.223294,0.255949,-3.07629,0.0341146,0.238244
5.45862,0.0333663,0.223294,0.255949,-3.07629,0.0341146,0.238244
5.46661,0.0333663,0.223294,0.255949,-3.07629,0.0341146,0.238244
5.4746,0.0333663,0.223294,0.255949,-3.07629,0.0341146,0.238244
5.48261,0.0333663,0.223294,0.255949,-3.07629,0.0341146,0.238244
5.49062,0.0333663,0.223294,0.255949,-3.07629,0.0341146,0.238244
5.49859,0.0333663,0.223294,0.255949,-3.07629,0.0341146,0.238244
5.5065,0.0333636,0.223295,0.255955,-3.07627,0.0341183,0.238244
5.51457,0.0333636,0.223295,0.255955,-3.07627,0.0341183,0.238244
5.52256,0.0333636,0.223295,0.255955,-3.07627,0.0341183,0.238244
5.53056,0.0333636,0.223295,0.255955,-3.07627,0.0341183,0.238244
5.53857,0.0333636,0.223295,0.255955,-3.07627,0.0341183,0.238244
5.54655,0.0333636,0.223295,0.255955,-3.07627,0.0341183,0.238244
5.55466,0.0333636,0.223295,0.255955,-3.07627,0.0341183,0.238244
5.56262,0.0333636,0.223295,0.255955,-3.07627,0.0341183,0.238244
5.57069,0.0333636,0.223295,0.255955,-3.07627,0.0341183,0.238244
5.57862,0.0333636,0.223295,0.255955,-3.07627,0.0341183,0.238244
5.5866,0.0333636,0.223295,0.255955,-3.07627,0.0341183,0.238244
5.59464,0.0333636,0.223295,0.255955,-3.07627,0.0341183,0.238244
5.60259,0.03337,0.223294,0.255952,-3.07627,0.0341041,0.238256
5.61046,0.03337,0.223294,0.255952,-3.07627,0.0341041,0.238256
5.61847,0.03337,0.223294,0.255952,-3.07627,0.0341041,0.238256
5.62653,0.03337,0.223294,0.255952,-3.07627,0.0341041,0.238256
5.63456,0.03337,0.223294,0.255952,-3.07627,0.0341041,0.238256
5.6425,0.03337,0.223294,0.255952,-3.07627,0.0341041,0.238256
5.65058,0.03337,0.223294,0.255952,-3.07627,0.0341041,0.238256
5.65854,0.03337,0.223294,0.255952,-3.07627,0.0341041,0.238256
5.66662,0.03337,0.223294,0.255952,-3.07627,0.0341041,0.238256
5.6746,0.03337,0.223294,0.255952,-3.07627,0.0341041,0.238256
5.68258,0.03337,0.223294,0.255952,-3.07627,0.0341041,0.238256
5.69061,0.03337,0.223294,0.255952,-3.07627,0.0341041,0.238256
5.6986,0.03337,0.223294,0.255952,-3.07627,0.0341041,0.238256
5.70657,0.0333652,0.223292,0.255944,-3.0763,0.0340768,0.238277
5.71452,0.0333652,0.223292,0.255944,-3.0763,0.0340768,0.238277
5.7226,0.0333652,0.223292,0.255944,-3.0763,0.0340768,0.238277
5.73061,0.0333652,0.223292,0.255944,-3.0763,0.0340768,0.238277
5.73856,0.0333652,0.223292,0.255944,-3.0763,0.0340768,0.238277
5.74657,0.0333652,0.223292,0.255944,-3.0763,0.0340768,0.238277
5.75462,0.0333652,0.223292,0.255944,-3.0763,0.0340768,0.238277
5.76263,0.0333652,0.223292,0.255944,-3.0763,0.0340768,0.238277
5.77067,0.0333652,0.223292,0.255944,-3.0763,0.0340768,0.238277
5.77867,0.0333652,0.223292,0.255944,-3.0763,0.0340768,0.238277
5.78659,0.0333652,0.223292,0.255944,-3.0763,0.0340768,0.238277
5.79452,0.0333652,0.223292,0.255944,-3.0763,0.0340768,0.238277
5.80256,0.0333555,0.223289,0.255944,-3.07632,0.0341117,0.238302
5.81052,0.0333555,0.223289,0.255944,-3.07632,0.0341117,0.238302
5.81857,0.0333555,0.223289,0.255944,-3.07632,0.0341117,0.238302
5.82657,0.0333555,0.223289,0.255944,-3.07632,0.0341117,0.238302
5.83457,0.0333555,0.223289,0.255944,-3.07632,0.0341117,0.238302
5.84255,0.0333555,0.223289,0.255944,-3.07632,0.0341117,0.238302
5.85065,0.0333555,0.223289,0.255944,-3.07632,0.0341117,0.238302
5.85865,0.0333555,0.223289,0.255944,-3.07632,0.0341117,0.238302
5.86663,0.0333555,0.223289,0.255944,-3.07632,0.0341117,0.238302
5.8747,0.0333555,0.223289,0.255944,-3.07632,0.0341117,0.238302
5.88259,0.0333555,0.223289,0.255944,-3.07632,0.0341117,0.238302
5.89056,0.0333555,0.223289,0.255944,-3.07632,0.0341117,0.238302
5.89858,0.0333555,0.223289,0.255944,-3.07632,0.0341117,0.238302
5.90651,0.0333715,0.223292,0.255956,-3.07627,0.034096,0.238195
5.91447,0.0333715,0.223292,0.255956,-3.07627,0.034096,0.238195
5.92252,0.0333715,0.223292,0.255956,-3.07627,0.034096,0.238195
5.93055,0.0333715,0.223292,0.255956,-3.07627,0.034096,0.238195
5.93852,0.0333715,0.223292,0.255956,-3.07627,0.034096,0.238195
5.94649,0.0333715,0.223292,0.255956,-3.07627,0.034096,0.238195
5.95452,0.0333715,0.223292,0.255956,-3.07627,0.034096,0.238195
5.96259,0.0333715,0.223292,0.255956,-3.07627,0.034096,0.238195
5.97059,0.0333715,0.223292,0.255956,-3.07627,0.034096,0.238195
5.97862,0.0333715,0.223292,0.255956,-3.07627,0.034096,0.238195
5.98651,0.0333715,0.223292,0.255956,-3.07627,0.034096,0.238195
5.99455,0.0333715,0.223292,0.255956,-3.07627,0.034096,0.238195
6.00255,0.0333632,0.223295,0.255958,-3.07622,0.0341224,0.23827
6.01055,0.0333632,0.223295,0.255958,-3.07622,0.0341224,0.23827
6.01854,0.0333632,0.223295,0.255958,-3.07622,0.0341224,0.23827
6.02661,0.0333632,0.223295,0.255958,-3.07622,0.0341224,0.23827
6.03461,0.0333632,0.223295,0.255958,-3.07622,0.0341224,0.23827
6.04262,0.0333632,0.223295,0.255958,-3.07622,0.0341224,0.23827
6.05065,0.0333632,0.223295,0.255958,-3.07622,0.0341224,0.23827
6.0586,0.0333632,0.223295,0.255958,-3.07622,0.0341224,0.23827
6.0666,0.0333632,0.223295,0.255958,-3.07622,0.0341224,0.23827
6.07465,0.0333632,0.223295,0.255958,-3.07622,0.0341224,0.23827
6.08259,0.0333632,0.223295,0.255958,-3.07622,0.0341224,0.23827
6.09061,0.0333632,0.223295,0.255958,-3.07622,0.0341224,0.23827
6.09858,0.0333632,0.223295,0.255958,-3.07622,0.0341224,0.23827
6.10651,0.0333695,0.223291,0.25595,-3.07628,0.0340931,0.23823
6.11455,0.0333695,0.223291,0.25595,-3.07628,0.0340931,0.23823
6.12257,0.0333695,0.223291,0.25595,-3.07628,0.0340931,0.23823
6.1306,0.0333695,0.223291,0.25595,-3.07628,0.0340931,0.23823
6.13856,0.0333695,0.223291,0.25595,-3.07628,0.0340931,0.23823
6.14666,0.0333695,0.223291,0.25595,-3.07628,0.0340931,0.23823
6.15462,0.0333695,0.223291,0.25595,-3.07628,0.0340931,0.23823
6.1626,0.0333695,0.223291,0.25595,-3.07628,0.0340931,0.23823
6.17065,0.0333695,0.223291,0.25595,-3.07628,0.0340931,0.23823
6.17864,0.0333695,0.223291,0.25595,-3.07628,0.0340931,0.23823
6.18655,0.0333695,0.223291,0.25595,-3.07628,0.0340931,0.23823
6.19457,0.0333695,0.223291,0.25595,-3.07628,0.0340931,0.23823
6.2025,0.0333674,0.223297,0.255952,-3.0763,0.0340911,0.238218
6.21047,0.0333674,0.223297,0.255952,-3.0763,0.0340911,0.238218
6.21849,0.0333674,0.223297,0.255952,-3.0763,0.0340911,0.238218
6.22653,0.0333674,0.223297,0.255952,-3.0763,0.0340911,0.238218
6.23451,0.0333674,0.223297,0.255952,-3.0763,0.0340911,0.238218
6.24255,0.0333674,0.223297,0.255952,-3.0763,0.0340911,0.238218
6.25051,0.0333674,0.223297,0.255952,-3.0763,0.0340911,0.238218
6.25852,0.0333674,0.223297,0.255952,-3.0763,0.0340911,0.238218
6.26656,0.0333674,0.223297,0.255952,-3.0763,0.0340911,0.238218
6.2746,0.0333674,0.223297,0.255952,-3.0763,0.0340911,0.238218
6.28254,0.0333674,0.223297,0.255952,-3.0763,0.0340911,0.238218
6.29052,0.0333674,0.223297,0.255952,-3.0763,0.0340911,0.238218
6.29856,0.0333674,0.223297,0.255952,-3.0763,0.0340911,0.238218
6.30648,0.0333729,0.223289,0.255951,-3.07628,0.0340929,0.238218
6.3145,0.0333729,0.223289,0.255951,-3.07628,0.0340929,0.238218
6.32255,0.0333729,0.223289,0.255951,-3.07628,0.0340929,0.238218
6.3305,0.0333729,0.223289,0.255951,-3.07628,0.0340929,0.238218
6.33851,0.0333729,0.223289,0.255951,-3.07628,0.0340929,0.238218
6.34649,0.0333729,0.223289,0.255951,-3.07628,0.0340929,0.238218
6.35451,0.0333729,0.223289,0.255951,-3.07628,0.0340929,0.238218
6.36255,0.0333729,0.223289,0.255951,-3.07628,0.0340929,0.238218
6.37059,0.0333729,0.223289,0.255951,-3.07628,0.0340929,0.238218
6.37862,0.0333729,0.223289,0.255951,-3.07628,0.0340929,0.238218
6.38657,0.0333729,0.223289,0.255951,-3.07628,0.0340929,0.238218
6.39453,0.0333729,0.223289,0.255951,-3.07628,0.0340929,0.238218
6.40252,0.0333759,0.22329,0.255961,-3.07624,0.0340862,0.238195
6.41047,0.0333759,0.22329,0.255961,-3.07624,0.0340862,0.238195
6.41844,0.0333759,0.22329,0.255961,-3.07624,0.0340862,0.238195
6.4265,0.0333759,0.22329,0.255961,-3.07624,0.0340862,0.238195
6.43444,0.0333759,0.22329,0.255961,-3.07624,0.0340862,0.238195
6.44245,0.0333759,0.22329,0.255961,-3.07624,0.0340862,0.238195
6.45049,0.0333759,0.22329,0.255961,-3.07624,0.0340862,0.238195
6.45857,0.0333759,0.22329,0.255961,-3.07624,0.0340862,0.238195
6.4666,0.0333759,0.22329,0.255961,-3.07624,0.0340862,0.238195
6.47461,0.0333759,0.22329,0.255961,-3.07624,0.0340862,0.238195
6.48259,0.0333759,0.22329,0.255961,-3.07624,0.0340862,0.238195
6.49056,0.0333759,0.22329,0.255961,-3.07624,0.0340862,0.238195
6.49858,0.0333759,0.22329,0.255961,-3.07624,0.0340862,0.238195
6.50646,0.0333658,0.223295,0.255968,-3.07621,0.0341237,0.238258
6.5145,0.0333658,0.223295,0.255968,-3.07621,0.0341237,0.238258
6.52257,0.0333658,0.223295,0.255968,-3.07621,0.0341237,0.238258
6.53055,0.0333658,0.223295,0.255968,-3.07621,0.0341237,0.238258
6.53849,0.0333658,0.223295,0.255968,-3.07621,0.0341237,0.238258
6.54657,0.0333658,0.223295,0.255968,-3.07621,0.0341237,0.238258
6.55463,0.0333658,0.223295,0.255968,-3.07621,0.0341237,0.238258
6.56258,0.0333658,0.223295,0.255968,-3.07621,0.0341237,0.238258
6.57058,0.0333658,0.223295,0.255968,-3.07621,0.0341237,0.238258
6.57864,0.0333658,0.223295,0.255968,-3.07621,0.0341237,0.238258
6.58661,0.0333658,0.223295,0.255968,-3.07621,0.0341237,0.238258
6.59456,0.0333658,0.223295,0.255968,-3.07621,0.0341237,0.238258
6.60248,0.0333608,0.223298,0.255972,-3.07619,0.0341134,0.238282
6.61052,0.0333608,0.223298,0.255972,-3.07619,0.0341134,0.238282
6.61855,0.0333608,0.223298,0.255972,-3.07619,0.0341134,0.238282
6.62658,0.0333608,0.223298,0.255972,-3.07619,0.0341134,0.238282
6.63449,0.0333608,0.223298,0.255972,-3.07619,0.0341134,0.238282
6.64262,0.0333608,0.223298,0.255972,-3.07619,0.0341134,0.238282
6.65054,0.0333608,0.223298,0.255972,-3.07619,0.0341134,0.238282
6.65859,0.0333608,0.223298,0.255972,-3.07619,0.0341134,0.238282
6.66657,0.0333608,0.223298,0.255972,-3.07619,0.0341134,0.238282
6.67464,0.0333608,0.223298,0.255972,-3.07619,0.0341134,0.238282
6.68261,0.0333608,0.223298,0.255972,-3.07619,0.0341134,0.238282
6.69056,0.0333608,0.223298,0.255972,-3.07619,0.0341134,0.238282
6.69856,0.0333608,0.223298,0.255972,-3.07619,0.0341134,0.238282
6.70644,0.0333704,0.223291,0.25595,-3.07628,0.0340813,0.23823
6.71444,0.0333704,0.223291,0.25595,-3.07628,0.0340813,0.23823
6.72257,0.0333704,0.223291,0.25595,-3.07628,0.0340813,0.23823
6.73057,0.0333704,0.223291,0.25595,-3.07628,0.0340813,0.23823
6.7385,0.0333704,0.223291,0.25595,-3.07628,0.0340813,0.23823
6.74655,0.0333704,0.223291,0.25595,-3.07628,0.0340813,0.23823
6.75462,0.0333704,0.223291,0.25595,-3.07628,0.0340813,0.23823
6.76259,0.0333704,0.223291,0.25595,-3.07628,0.0340813,0.23823
6.77064,0.0333704,0.223291,0.25595,-3.07628,0.0340813,0.23823
6.77861,0.0333704,0.223291,0.25595,-3.07628,0.0340813,0.23823
6.78663,0.0333704,0.223291,0.25595,-3.07628,0.0340813,0.23823
6.79458,0.0333704,0.223291,0.25595,-3.07628,0.0340813,0.23823
6.80253,0.0333634,0.223294,0.255955,-3.07625,0.0340959,0.238255
6.81052,0.0333634,0.223294,0.255955,-3.07625,0.0340959,0.238255
6.81846,0.0333634,0.223294,0.255955,-3.07625,0.0340959,0.238255
6.82653,0.0333634,0.223294,0.255955,-3.07625,0.0340959,0.238255
6.83451,0.0333634,0.223294,0.255955,-3.07625,0.0340959,0.238255
6.84253,0.0333634,0.223294,0.255955,-3.07625,0.0340959,0.238255
6.8505,0.0333634,0.223294,0.255955,-3.07625,0.0340959,0.238255
6.85855,0.0333634,0.223294,0.255955,-3.07625,0.0340959,0.238255
6.86646,0.0333634,0.223294,0.255955,-3.07625,0.0340959,0.238255
6.87448,0.0333634,0.223294,0.255955,-3.07625,0.0340959,0.238255
6.88245,0.0333634,0.223294,0.255955,-3.07625,0.0340959,0.238255
6.89046,0.0333634,0.223294,0.255955,-3.07625,0.0340959,0.238255
6.89855,0.0333634,0.223294,0.255955,-3.07625,0.0340959,0.238255
