Time,X,Y,Z,R,P,Y
0.272377,0.020741,0.443854,0.25917,3.14137,-0.000351308,-8.72005e-05
0.280327,0.020741,0.443854,0.25917,3.14137,-0.000351308,-8.72005e-05
0.288385,0.020741,0.443854,0.25917,3.14137,-0.000351308,-8.72005e-05
0.296399,0.020741,0.443854,0.25917,3.14137,-0.000351308,-8.72005e-05
0.304483,0.0207362,0.44386,0.259156,3.14136,-0.00037696,-6.28573e-05
0.31246,0.0207362,0.44386,0.259156,3.14136,-0.00037696,-6.28573e-05
0.320383,0.0207362,0.44386,0.259156,3.14136,-0.00037696,-6.28573e-05
0.328401,0.0207362,0.44386,0.259156,3.14136,-0.00037696,-6.28573e-05
0.336376,0.0207362,0.44386,0.259156,3.14136,-0.00037696,-6.28573e-05
0.344495,0.0207362,0.44386,0.259156,3.14136,-0.00037696,-6.28573e-05
0.352438,0.0207531,0.443851,0.259175,3.1414,-0.000357993,-0.000111032
0.360399,0.0207531,0.443851,0.259175,3.1414,-0.000357993,-0.000111032
0.368414,0.0207531,0.443851,0.259175,3.1414,-0.000357993,-0.000111032
0.376376,0.0207531,0.443851,0.259175,3.1414,-0.000357993,-0.000111032
0.384447,0.0207531,0.443851,0.259175,3.1414,-0.000357993,-0.000111032
0.392381,0.0207531,0.443851,0.259175,3.1414,-0.000357993,-0.000111032
0.400402,0.0207314,0.443858,0.259147,3.14134,-0.000382001,-3.88834e-05
0.408313,0.0207314,0.443858,0.259147,3.14134,-0.000382001,-3.88834e-05
0.416352,0.0207314,0.443858,0.259147,3.14134,-0.000382001,-3.88834e-05
0.424349,0.0207314,0.443858,0.259147,3.14134,-0.000382001,-3.88834e-05
0.432394,0.0207314,0.443858,0.259147,3.14134,-0.000382001,-3.88834e-05
0.440425,0.0207314,0.443858,0.259147,3.14134,-0.000382001,-3.88834e-05
0.448461,0.0207314,0.443858,0.259147,3.14134,-0.000382001,-3.88834e-05
0.456419,0.0207314,0.443858,0.259147,3.14134,-0.000382001,-3.88834e-05
0.464391,0.0207314,0.443858,0.259147,3.14134,-0.000382001,-3.88834e-05
0.472359,0.0207314,0.443858,0.259147,3.14134,-0.000382001,-3.88834e-05
0.480403,0.0207314,0.443858,0.259147,3.14134,-0.000382001,-3.88834e-05
0.488381,0.0207314,0.443858,0.259147,3.14134,-0.000382001,-3.88834e-05
0.496398,0.0207314,0.443858,0.259147,3.14134,-0.000382001,-3.88834e-05
0.504377,0.0207556,0.443859,0.259148,3.14134,-0.000358438,-0.000134945
0.512301,0.0207556,0.443859,0.259148,3.14134,-0.000358438,-0.000134945
0.520303,0.0207556,0.443859,0.259148,3.14134,-0.000358438,-0.000134945
0.528356,0.0207556,0.443859,0.259148,3.14134,-0.000358438,-0.000134945
0.536369,0.0207556,0.443859,0.259148,3.14134,-0.000358438,-0.000134945
0.544382,0.0207556,0.443859,0.259148,3.14134,-0.000358438,-0.000134945
0.552432,0.0207556,0.443859,0.259148,3.14134,-0.000358438,-0.000134945
0.560346,0.0207556,0.443859,0.259148,3.14134,-0.000358438,-0.000134945
0.568471,0.0207556,0.443859,0.259148,3.14134,-0.000358438,-0.000134945
0.576391,0.0207556,0.443859,0.259148,3.14134,-0.000358438,-0.000134945
0.584392,0.0207556,0.443859,0.259148,3.14134,-0.000358438,-0.000134945
0.592376,0.0207556,0.443859,0.259148,3.14134,-0.000358438,-0.000134945
0.600447,0.0207454,0.443863,0.259171,3.14142,-0.000352833,-7.52539e-05
0.608344,0.0207454,0.443863,0.259171,3.14142,-0.000352833,-7.52539e-05
0.61631,0.0207454,0.443863,0.259171,3.14142,-0.000352833,-7.52539e-05
0.624337,0.0207454,0.443863,0.259171,3.14142,-0.000352833,-7.52539e-05
0.632357,0.0207454,0.443863,0.259171,3.14142,-0.000352833,-7.52539e-05
0.640385,0.0207454,0.443863,0.259171,3.14142,-0.000352833,-7.52539e-05
0.648442,0.0207454,0.443863,0.259171,3.14142,-0.000352833,-7.52539e-05
0.656445,0.0207454,0.443863,0.259171,3.14142,-0.000352833,-7.52539e-05
0.664392,0.0207454,0.443863,0.259171,3.14142,-0.000352833,-7.52539e-05
0.672325,0.0207454,0.443863,0.259171,3.14142,-0.000352833,-7.52539e-05
0.680403,0.0207454,0.443863,0.259171,3.14142,-0.000352833,-7.52539e-05
0.68837,0.0207454,0.443863,0.259171,3.14142,-0.000352833,-7.52539e-05
0.696368,0.0207454,0.443863,0.259171,3.14142,-0.000352833,-7.52539e-05
0.704395,0.0207411,0.443858,0.259165,3.1414,-0.000357837,-8.72392e-05
0.712291,0.0207411,0.443858,0.259165,3.1414,-0.000357837,-8.72392e-05
0.720294,0.0207411,0.443858,0.259165,3.1414,-0.000357837,-8.72392e-05
0.728324,0.0207411,0.443858,0.259165,3.1414,-0.000357837,-8.72392e-05
0.736328,0.0207411,0.443858,0.259165,3.1414,-0.000357837,-8.72392e-05
0.74442,0.0207411,0.443858,0.259165,3.1414,-0.000357837,-8.72392e-05
0.752393,0.0207411,0.443858,0.259165,3.1414,-0.000357837,-8.72392e-05
0.760333,0.0207411,0.443858,0.259165,3.1414,-0.000357837,-8.72392e-05
0.768372,0.0207411,0.443858,0.259165,3.1414,-0.000357837,-8.72392e-05
0.776372,0.0207411,0.443858,0.259165,3.1414,-0.000357837,-8.72392e-05
0.784401,0.0207411,0.443858,0.259165,3.1414,-0.000357837,-8.72392e-05
0.792359,0.0207411,0.443858,0.259165,3.1414,-0.000357837,-8.72392e-05
0.800443,0.0207468,0.443856,0.259152,3.14135,-0.000367797,-7.51202e-05
0.808291,0.0207468,0.443856,0.259152,3.14135,-0.000367797,-7.51202e-05
0.816282,0.0207468,0.443856,0.259152,3.14135,-0.000367797,-7.51202e-05
0.824296,0.0207468,0.443856,0.259152,3.14135,-0.000367797,-7.51202e-05
0.832363,0.0207468,0.443856,0.259152,3.14135,-0.000367797,-7.51202e-05
0.84033,0.0207468,0.443856,0.259152,3.14135,-0.000367797,-7.51202e-05
0.848393,0.0207468,0.443856,0.259152,3.14135,-0.000367797,-7.51202e-05
0.856396,0.0207468,0.443856,0.259152,3.14135,-0.000367797,-7.51202e-05
0.864417,0.0207468,0.443856,0.259152,3.14135,-0.000367797,-7.51202e-05
0.872364,0.0207468,0.443856,0.259152,3.14135,-0.000367797,-7.51202e-05
0.880371,0.0207468,0.443856,0.259152,3.14135,-0.000367797,-7.51202e-05
0.888403,0.0207468,0.443856,0.259152,3.14135,-0.000367797,-7.51202e-05
0.896366,0.0207468,0.443856,0.259152,3.14135,-0.000367797,-7.51202e-05
0.904403,0.0208045,0.443557,0.258159,3.13813,-0.00106336,-5.5651e-05
0.912289,0.0208045,0.443557,0.258159,3.13813,-0.00106336,-5.5651e-05
0.920331,0.0208045,0.443557,0.258159,3.13813,-0.00106336,-5.5651e-05
0.928332,0.0208045,0.443557,0.258159,3.13813,-0.00106336,-5.5651e-05
0.936305,0.0208045,0.443557,0.258159,3.13813,-0.00106336,-5.5651e-05
0.944375,0.0208045,0.443557,0.258159,3.13813,-0.00106336,-5.5651e-05
0.952423,0.0208045,0.443557,0.258159,3.13813,-0.00106336,-5.5651e-05
0.960342,0.020812,0.443552,0.258166,3.13813,-0.00101411,-7.96134e-05
0.968355,0.020812,0.443552,0.258166,3.13813,-0.00101411,-7.96134e-05
0.976338,0.020812,0.443552,0.258166,3.13813,-0.00101411,-7.96134e-05
0.984275,0.020812,0.443552,0.258166,3.13813,-0.00101411,-7.96134e-05
0.992363,0.020812,0.443552,0.258166,3.13813,-0.00101411,-7.96134e-05
1.00041,0.0208264,0.443552,0.258146,3.1381,-0.00107074,-9.1249e-05
1.00824,0.0208264,0.443552,0.258146,3.1381,-0.00107074,-9.1249e-05
1.0163,0.0208264,0.443552,0.258146,3.1381,-0.00107074,-9.1249e-05
1.02426,0.0208264,0.443552,0.258146,3.1381,-0.00107074,-9.1249e-05
1.03232,0.0208264,0.443552,0.258146,3.1381,-0.00107074,-9.1249e-05
1.04031,0.0208264,0.443552,0.258146,3.1381,-0.00107074,-9.1249e-05
1.04842,0.0208264,0.443552,0.258146,3.1381,-0.00107074,-9.1249e-05
1.05638,0.0208264,0.443552,0.258146,3.1381,-0.00107074,-9.1249e-05
1.06439,0.0208264,0.443552,0.258146,3.1381,-0.00107074,-9.1249e-05
1.07239,0.0208264,0.443552,0.258146,3.1381,-0.00107074,-9.1249e-05
1.08036,0.0208264,0.443552,0.258146,3.1381,-0.00107074,-9.1249e-05
1.08832,0.0208264,0.443552,0.258146,3.1381,-0.00107074,-9.1249e-05
1.0964,0.0208264,0.443552,0.258146,3.1381,-0.00107074,-9.1249e-05
1.10439,0.0207953,0.443561,0.258129,3.13804,-0.00104526,-4.32549e-05
1.1123,0.0207953,0.443561,0.258129,3.13804,-0.00104526,-4.32549e-05
1.12024,0.0207953,0.443561,0.258129,3.13804,-0.00104526,-4.32549e-05
1.12829,0.0207953,0.443561,0.258129,3.13804,-0.00104526,-4.32549e-05
1.13635,0.0207953,0.443561,0.258129,3.13804,-0.00104526,-4.32549e-05
1.14437,0.0207953,0.443561,0.258129,3.13804,-0.00104526,-4.32549e-05
1.15242,0.0207953,0.443561,0.258129,3.13804,-0.00104526,-4.32549e-05
1.16033,0.0207953,0.443561,0.258129,3.13804,-0.00104526,-4.32549e-05
1.16846,0.0207953,0.443561,0.258129,3.13804,-0.00104526,-4.32549e-05
1.17645,0.0207953,0.443561,0.258129,3.13804,-0.00104526,-4.32549e-05
1.18442,0.0207953,0.443561,0.258129,3.13804,-0.00104526,-4.32549e-05
1.19243,0.0207953,0.443561,0.258129,3.13804,-0.00104526,-4.32549e-05
1.20054,0.0208158,0.443558,0.258143,3.1381,-0.00108226,-5.5438e-05
1.20832,0.0208158,0.443558,0.258143,3.1381,-0.00108226,-5.5438e-05
1.2163,0.0208158,0.443558,0.258143,3.1381,-0.00108226,-5.5438e-05
1.22438,0.0208158,0.443558,0.258143,3.1381,-0.00108226,-5.5438e-05
1.23235,0.0208158,0.443558,0.258143,3.1381,-0.00108226,-5.5438e-05
1.24033,0.0208158,0.443558,0.258143,3.1381,-0.00108226,-5.5438e-05
1.24848,0.0208158,0.443558,0.258143,3.1381,-0.00108226,-5.5438e-05
1.25645,0.0208158,0.443558,0.258143,3.1381,-0.00108226,-5.5438e-05
1.26442,0.0208158,0.443558,0.258143,3.1381,-0.00108226,-5.5438e-05
1.27236,0.0208158,0.443558,0.258143,3.1381,-0.00108226,-5.5438e-05
1.28035,0.0208158,0.443558,0.258143,3.1381,-0.00108226,-5.5438e-05
1.28836,0.0208158,0.443558,0.258143,3.1381,-0.00108226,-5.5438e-05
1.29635,0.0208158,0.443558,0.258143,3.1381,-0.00108226,-5.5438e-05
1.30438,0.0208058,0.443562,0.258152,3.13814,-0.00102542,-5.57424e-05
1.31226,0.0208058,0.443562,0.258152,3.13814,-0.00102542,-5.57424e-05
1.32031,0.0208058,0.443562,0.258152,3.13814,-0.00102542,-5.57424e-05
1.32832,0.0208058,0.443562,0.258152,3.13814,-0.00102542,-5.57424e-05
1.33631,0.0208058,0.443562,0.258152,3.13814,-0.00102542,-5.57424e-05
1.34435,0.0208058,0.443562,0.258152,3.13814,-0.00102542,-5.57424e-05
1.35243,0.0208058,0.443562,0.258152,3.13814,-0.00102542,-5.57424e-05
1.36043,0.0208058,0.443562,0.258152,3.13814,-0.00102542,-5.57424e-05
1.36845,0.0208058,0.443562,0.258152,3.13814,-0.00102542,-5.57424e-05
1.37639,0.0208058,0.443562,0.258152,3.13814,-0.00102542,-5.57424e-05
1.38438,0.0208058,0.443562,0.258152,3.13814,-0.00102542,-5.57424e-05
1.39236,0.0208058,0.443562,0.258152,3.13814,-0.00102542,-5.57424e-05
1.40046,0.0208112,0.443556,0.258148,3.1381,-0.00102131,-5.56164e-05
1.40831,0.0208112,0.443556,0.258148,3.1381,-0.00102131,-5.56164e-05
1.41627,0.0208112,0.443556,0.258148,3.1381,-0.00102131,-5.56164e-05
1.42428,0.0208112,0.443556,0.258148,3.1381,-0.00102131,-5.56164e-05
1.4323,0.0208112,0.443556,0.258148,3.1381,-0.00102131,-5.56164e-05
1.44028,0.0208112,0.443556,0.258148,3.1381,-0.00102131,-5.56164e-05
1.4484,0.0208112,0.443556,0.258148,3.1381,-0.00102131,-5.56164e-05
1.45631,0.0208112,0.443556,0.258148,3.1381,-0.00102131,-5.56164e-05
1.46433,0.0208112,0.443556,0.258148,3.1381,-0.00102131,-5.56164e-05
1.4724,0.0208112,0.443556,0.258148,3.1381,-0.00102131,-5.56164e-05
1.48035,0.0208112,0.443556,0.258148,3.1381,-0.00102131,-5.56164e-05
1.48835,0.0208112,0.443556,0.258148,3.1381,-0.00102131,-5.56164e-05
1.49637,0.0208112,0.443556,0.258148,3.1381,-0.00102131,-5.56164e-05
1.5044,0.0208223,0.443553,0.258141,3.13807,-0.00102639,-0.000115352
1.5123,0.0208223,0.443553,0.258141,3.13807,-0.00102639,-0.000115352
1.52039,0.0208223,0.443553,0.258141,3.13807,-0.00102639,-0.000115352
1.5283,0.0208223,0.443553,0.258141,3.13807,-0.00102639,-0.000115352
1.53636,0.0208223,0.443553,0.258141,3.13807,-0.00102639,-0.000115352
1.54429,0.0208223,0.443553,0.258141,3.13807,-0.00102639,-0.000115352
1.55243,0.0208223,0.443553,0.258141,3.13807,-0.00102639,-0.000115352
1.56034,0.0208223,0.443553,0.258141,3.13807,-0.00102639,-0.000115352
1.56836,0.0208223,0.443553,0.258141,3.13807,-0.00102639,-0.000115352
1.57638,0.0208223,0.443553,0.258141,3.13807,-0.00102639,-0.000115352
1.58437,0.0208223,0.443553,0.258141,3.13807,-0.00102639,-0.000115352
1.59237,0.0208223,0.443553,0.258141,3.13807,-0.00102639,-0.000115352
1.60044,0.0208148,0.443564,0.258156,3.13813,-0.00101373,-7.96581e-05
1.60825,0.0208148,0.443564,0.258156,3.13813,-0.00101373,-7.96581e-05
1.61636,0.0208148,0.443564,0.258156,3.13813,-0.00101373,-7.96581e-05
1.62434,0.0208148,0.443564,0.258156,3.13813,-0.00101373,-7.96581e-05
1.63231,0.0208148,0.443564,0.258156,3.13813,-0.00101373,-7.96581e-05
1.64041,0.0208148,0.443564,0.258156,3.13813,-0.00101373,-7.96581e-05
1.6484,0.0208148,0.443564,0.258156,3.13813,-0.00101373,-7.96581e-05
1.6564,0.0208148,0.443564,0.258156,3.13813,-0.00101373,-7.96581e-05
1.66436,0.0208148,0.443564,0.258156,3.13813,-0.00101373,-7.96581e-05
1.67238,0.0208148,0.443564,0.258156,3.13813,-0.00101373,-7.96581e-05
1.68038,0.0208148,0.443564,0.258156,3.13813,-0.00101373,-7.96581e-05
1.68835,0.0208148,0.443564,0.258156,3.13813,-0.00101373,-7.96581e-05
1.69639,0.0208148,0.443564,0.258156,3.13813,-0.00101373,-7.96581e-05
1.70444,0.0208014,0.443557,0.258152,3.13811,-0.00103043,-4.37541e-05
1.71226,0.0208014,0.443557,0.258152,3.13811,-0.00103043,-4.37541e-05
1.72032,0.0208014,0.443557,0.258152,3.13811,-0.00103043,-4.37541e-05
1.72829,0.0208014,0.443557,0.258152,3.13811,-0.00103043,-4.37541e-05
1.73634,0.0208014,0.443557,0.258152,3.13811,-0.00103043,-4.37541e-05
1.74436,0.0208014,0.443557,0.258152,3.13811,-0.00103043,-4.37541e-05
1.75238,0.0208014,0.443557,0.258152,3.13811,-0.00103043,-4.37541e-05
1.76036,0.0208014,0.443557,0.258152,3.13811,-0.00103043,-4.37541e-05
1.7684,0.0208014,0.443557,0.258152,3.13811,-0.00103043,-4.37541e-05
1.77637,0.0208014,0.443557,0.258152,3.13811,-0.00103043,-4.37541e-05
1.78439,0.0208014,0.443557,0.258152,3.13811,-0.00103043,-4.37541e-05
1.79236,0.0208014,0.443557,0.258152,3.13811,-0.00103043,-4.37541e-05
1.80041,0.0207986,0.443559,0.258144,3.13811,-0.00106816,-3.12354e-05
1.80831,0.0207986,0.443559,0.258144,3.13811,-0.00106816,-3.12354e-05
1.81626,0.0207986,0.443559,0.258144,3.13811,-0.00106816,-3.12354e-05
1.82432,0.0207986,0.443559,0.258144,3.13811,-0.00106816,-3.12354e-05
1.8323,0.0207986,0.443559,0.258144,3.13811,-0.00106816,-3.12354e-05
1.84033,0.0207986,0.443559,0.258144,3.13811,-0.00106816,-3.12354e-05
1.84837,0.0207986,0.443559,0.258144,3.13811,-0.00106816,-3.12354e-05
1.8564,0.0207986,0.443559,0.258144,3.13811,-0.00106816,-3.12354e-05
1.86439,0.0207986,0.443559,0.258144,3.13811,-0.00106816,-3.12354e-05
1.87234,0.0207986,0.443559,0.258144,3.13811,-0.00106816,-3.12354e-05
1.88032,0.0207986,0.443559,0.258144,3.13811,-0.00106816,-3.12354e-05
1.88838,0.0207986,0.443559,0.258144,3.13811,-0.00106816,-3.12354e-05
1.89636,0.0207986,0.443559,0.258144,3.13811,-0.00106816,-3.12354e-05
1.9044,0.0208213,0.443558,0.258138,3.13807,-0.00102625,-0.000103401
1.9123,0.0208213,0.443558,0.258138,3.13807,-0.00102625,-0.000103401
1.92031,0.0208213,0.443558,0.258138,3.13807,-0.00102625,-0.000103401
1.92829,0.0208213,0.443558,0.258138,3.13807,-0.00102625,-0.000103401
1.93633,0.0208213,0.443558,0.258138,3.13807,-0.00102625,-0.000103401
1.94434,0.0208213,0.443558,0.258138,3.13807,-0.00102625,-0.000103401
1.95236,0.0208213,0.443558,0.258138,3.13807,-0.00102625,-0.000103401
1.9603,0.0208213,0.443558,0.258138,3.13807,-0.00102625,-0.000103401
1.96835,0.0208213,0.443558,0.258138,3.13807,-0.00102625,-0.000103401
1.97637,0.0208213,0.443558,0.258138,3.13807,-0.00102625,-0.000103401
1.98432,0.0208213,0.443558,0.258138,3.13807,-0.00102625,-0.000103401
1.9924,0.0208213,0.443558,0.258138,3.13807,-0.00102625,-0.000103401
2.00039,0.02079,0.443561,0.258152,3.13815,-0.00102316,-4.34682e-05
2.00825,0.02079,0.443561,0.258152,3.13815,-0.00102316,-4.34682e-05
2.01633,0.02079,0.443561,0.258152,3.13815,-0.00102316,-4.34682e-05
2.0243,0.02079,0.443561,0.258152,3.13815,-0.00102316,-4.34682e-05
2.0323,0.02079,0.443561,0.258152,3.13815,-0.00102316,-4.34682e-05
2.04036,0.02079,0.443561,0.258152,3.13815,-0.00102316,-4.34682e-05
2.04842,0.02079,0.443561,0.258152,3.13815,-0.00102316,-4.34682e-05
2.05641,0.02079,0.443561,0.258152,3.13815,-0.00102316,-4.34682e-05
2.06444,0.02079,0.443561,0.258152,3.13815,-0.00102316,-4.34682e-05
2.07238,0.02079,0.443561,0.258152,3.13815,-0.00102316,-4.34682e-05
2.08038,0.02079,0.443561,0.258152,3.13815,-0.00102316,-4.34682e-05
2.08835,0.02079,0.443561,0.258152,3.13815,-0.00102316,-4.34682e-05
2.09632,0.02079,0.443561,0.258152,3.13815,-0.00102316,-4.34682e-05
2.10424,0.0208108,0.443552,0.258151,3.13811,-0.00106844,-9.1452e-05
2.11222,0.0208108,0.443552,0.258151,3.13811,-0.00106844,-9.1452e-05
2.1202,0.0208108,0.443552,0.258151,3.13811,-0.00106844,-9.1452e-05
2.12825,0.0208108,0.443552,0.258151,3.13811,-0.00106844,-9.1452e-05
2.13625,0.0208108,0.443552,0.258151,3.13811,-0.00106844,-9.1452e-05
2.14426,0.0208108,0.443552,0.258151,3.13811,-0.00106844,-9.1452e-05
2.15232,0.0208108,0.443552,0.258151,3.13811,-0.00106844,-9.1452e-05
2.16028,0.0208108,0.443552,0.258151,3.13811,-0.00106844,-9.1452e-05
2.16828,0.0208108,0.443552,0.258151,3.13811,-0.00106844,-9.1452e-05
2.17619,0.0208108,0.443552,0.258151,3.13811,-0.00106844,-9.1452e-05
2.18427,0.0208108,0.443552,0.258151,3.13811,-0.00106844,-9.1452e-05
2.19225,0.0208108,0.443552,0.258151,3.13811,-0.00106844,-9.1452e-05
2.20035,0.0208136,0.443554,0.258143,3.13808,-0.00104997,-0.00010343
2.20822,0.0208136,0.443554,0.258143,3.13808,-0.00104997,-0.00010343
2.21628,0.0208136,0.443554,0.258143,3.13808,-0.00104997,-0.00010343
2.22425,0.0208136,0.443554,0.258143,3.13808,-0.00104997,-0.00010343
2.23236,0.0208136,0.443554,0.258143,3.13808,-0.00104997,-0.00010343
2.24032,0.0208136,0.443554,0.258143,3.13808,-0.00104997,-0.00010343
2.24838,0.0208136,0.443554,0.258143,3.13808,-0.00104997,-0.00010343
2.25641,0.0208136,0.443554,0.258143,3.13808,-0.00104997,-0.00010343
2.26433,0.0208136,0.443554,0.258143,3.13808,-0.00104997,-0.00010343
2.27235,0.0208136,0.443554,0.258143,3.13808,-0.00104997,-0.00010343
2.28035,0.0208136,0.443554,0.258143,3.13808,-0.00104997,-0.00010343
2.28831,0.0208136,0.443554,0.258143,3.13808,-0.00104997,-0.00010343
2.29634,0.0208136,0.443554,0.258143,3.13808,-0.00104997,-0.00010343
2.30425,0.0208127,0.443549,0.258118,3.138,-0.00104108,-3.14096e-05
2.31229,0.0208127,0.443549,0.258118,3.138,-0.00104108,-3.14096e-05
2.3203,0.0208127,0.443549,0.258118,3.138,-0.00104108,-3.14096e-05
2.32828,0.0208127,0.443549,0.258118,3.138,-0.00104108,-3.14096e-05
2.33637,0.0208127,0.443549,0.258118,3.138,-0.00104108,-3.14096e-05
2.34432,0.0208127,0.443549,0.258118,3.138,-0.00104108,-3.14096e-05
2.35233,0.0208127,0.443549,0.258118,3.138,-0.00104108,-3.14096e-05
2.36035,0.0208127,0.443549,0.258118,3.138,-0.00104108,-3.14096e-05
2.36838,0.0208127,0.443549,0.258118,3.138,-0.00104108,-3.14096e-05
2.37633,0.0208127,0.443549,0.258118,3.138,-0.00104108,-3.14096e-05
2.38433,0.0208127,0.443549,0.258118,3.138,-0.00104108,-3.14096e-05
2.39236,0.0208127,0.443549,0.258118,3.138,-0.00104108,-3.14096e-05
2.40039,0.0208389,0.443518,0.25811,3.13791,-0.00111096,-0.000114511
2.40824,0.0208389,0.443518,0.25811,3.13791,-0.00111096,-0.000114511
2.4162,0.0208389,0.443518,0.25811,3.13791,-0.00111096,-0.000114511
2.42416,0.0208389,0.443518,0.25811,3.13791,-0.00111096,-0.000114511
2.43227,0.0208389,0.443518,0.25811,3.13791,-0.00111096,-0.000114511
2.44022,0.0208389,0.443518,0.25811,3.13791,-0.00111096,-0.000114511
2.44832,0.0208389,0.443518,0.25811,3.13791,-0.00111096,-0.000114511
2.45627,0.0208389,0.443518,0.25811,3.13791,-0.00111096,-0.000114511
2.46433,0.0208389,0.443518,0.25811,3.13791,-0.00111096,-0.000114511
2.47227,0.0208389,0.443518,0.25811,3.13791,-0.00111096,-0.000114511
2.48034,0.0208389,0.443518,0.25811,3.13791,-0.00111096,-0.000114511
2.48833,0.0208389,0.443518,0.25811,3.13791,-0.00111096,-0.000114511
2.49618,0.0208389,0.443518,0.25811,3.13791,-0.00111096,-0.000114511
2.50427,0.0209103,0.443497,0.258198,3.13813,-0.00105267,-0.000294204
2.51227,0.0209103,0.443497,0.258198,3.13813,-0.00105267,-0.000294204
2.52027,0.0209103,0.443497,0.258198,3.13813,-0.00105267,-0.000294204
2.52832,0.0209103,0.443497,0.258198,3.13813,-0.00105267,-0.000294204
2.53627,0.0209103,0.443497,0.258198,3.13813,-0.00105267,-0.000294204
2.54432,0.0209103,0.443497,0.258198,3.13813,-0.00105267,-0.000294204
2.55241,0.0209103,0.443497,0.258198,3.13813,-0.00105267,-0.000294204
2.56031,0.0209103,0.443497,0.258198,3.13813,-0.00105267,-0.000294204
2.56835,0.0209103,0.443497,0.258198,3.13813,-0.00105267,-0.000294204
2.57633,0.0209103,0.443497,0.258198,3.13813,-0.00105267,-0.000294204
2.58426,0.0209103,0.443497,0.258198,3.13813,-0.00105267,-0.000294204
2.59233,0.0209103,0.443497,0.258198,3.13813,-0.00105267,-0.000294204
2.60038,0.0213912,0.443277,0.258985,3.1399,-0.000672567,-0.00131338
2.60832,0.0213912,0.443277,0.258985,3.1399,-0.000672567,-0.00131338
2.6162,0.0213912,0.443277,0.258985,3.1399,-0.000672567,-0.00131338
2.62425,0.0213912,0.443277,0.258985,3.1399,-0.000672567,-0.00131338
2.63226,0.0213912,0.443277,0.258985,3.1399,-0.000672567,-0.00131338
2.64022,0.0213912,0.443277,0.258985,3.1399,-0.000672567,-0.00131338
2.6483,0.0213912,0.443277,0.258985,3.1399,-0.000672567,-0.00131338
2.65636,0.0213912,0.443277,0.258985,3.1399,-0.000672567,-0.00131338
2.66435,0.0213912,0.443277,0.258985,3.1399,-0.000672567,-0.00131338
2.67228,0.0213912,0.443277,0.258985,3.1399,-0.000672567,-0.00131338
2.68019,0.0213912,0.443277,0.258985,3.1399,-0.000672567,-0.00131338
2.68823,0.0213912,0.443277,0.258985,3.1399,-0.000672567,-0.00131338
2.69628,0.0213912,0.443277,0.258985,3.1399,-0.000672567,-0.00131338
2.70429,0.0223763,0.442897,0.26034,-3.14023,-2.32861e-05,-0.00337256
2.71224,0.0223763,0.442897,0.26034,-3.14023,-2.32861e-05,-0.00337256
2.72023,0.0223763,0.442897,0.26034,-3.14023,-2.32861e-05,-0.00337256
2.72822,0.0223763,0.442897,0.26034,-3.14023,-2.32861e-05,-0.00337256
2.73625,0.0223763,0.442897,0.26034,-3.14023,-2.32861e-05,-0.00337256
2.74433,0.0223763,0.442897,0.26034,-3.14023,-2.32861e-05,-0.00337256
2.75239,0.0223763,0.442897,0.26034,-3.14023,-2.32861e-05,-0.00337256
2.76034,0.0223763,0.442897,0.26034,-3.14023,-2.32861e-05,-0.00337256
2.76829,0.0223763,0.442897,0.26034,-3.14023,-2.32861e-05,-0.00337256
2.77633,0.0223763,0.442897,0.26034,-3.14023,-2.32861e-05,-0.00337256
2.78435,0.0223763,0.442897,0.26034,-3.14023,-2.32861e-05,-0.00337256
2.79234,0.0223763,0.442897,0.26034,-3.14023,-2.32861e-05,-0.00337256
2.80032,0.0243171,0.441005,0.26597,-3.12952,0.00221425,-0.00690963
2.80828,0.0243171,0.441005,0.26597,-3.12952,0.00221425,-0.00690963
2.81629,0.0243171,0.441005,0.26597,-3.12952,0.00221425,-0.00690963
2.82431,0.0243171,0.441005,0.26597,-3.12952,0.00221425,-0.00690963
2.83233,0.0243171,0.441005,0.26597,-3.12952,0.00221425,-0.00690963
2.84028,0.0243171,0.441005,0.26597,-3.12952,0.00221425,-0.00690963
2.84832,0.0243171,0.441005,0.26597,-3.12952,0.00221425,-0.00690963
2.85635,0.0243171,0.441005,0.26597,-3.12952,0.00221425,-0.00690963
2.86425,0.0243171,0.441005,0.26597,-3.12952,0.00221425,-0.00690963
2.87228,0.0243171,0.441005,0.26597,-3.12952,0.00221425,-0.00690963
2.88033,0.0243171,0.441005,0.26597,-3.12952,0.00221425,-0.00690963
2.88831,0.0243171,0.441005,0.26597,-3.12952,0.00221425,-0.00690963
2.8963,0.0243171,0.441005,0.26597,-3.12952,0.00221425,-0.00690963
2.90432,0.0267894,0.429424,0.282761,-3.10432,0.00887617,-0.00729248
2.91219,0.0267894,0.429424,0.282761,-3.10432,0.00887617,-0.00729248
2.92023,0.0267894,0.429424,0.282761,-3.10432,0.00887617,-0.00729248
2.9282,0.0267894,0.429424,0.282761,-3.10432,0.00887617,-0.00729248
2.93624,0.0267894,0.429424,0.282761,-3.10432,0.00887617,-0.00729248
2.94429,0.0267894,0.429424,0.282761,-3.10432,0.00887617,-0.00729248
2.95233,0.0267894,0.429424,0.282761,-3.10432,0.00887617,-0.00729248
2.96032,0.0267894,0.429424,0.282761,-3.10432,0.00887617,-0.00729248
2.96838,0.0267894,0.429424,0.282761,-3.10432,0.00887617,-0.00729248
2.97636,0.0267894,0.429424,0.282761,-3.10432,0.00887617,-0.00729248
2.98433,0.0267894,0.429424,0.282761,-3.10432,0.00887617,-0.00729248
2.9923,0.0267894,0.429424,0.282761,-3.10432,0.00887617,-0.00729248
3.00036,0.0297085,0.414634,0.293176,-3.09787,0.00995457,-0.00673584
3.00823,0.0297085,0.414634,0.293176,-3.09787,0.00995457,-0.00673584
3.01619,0.0297085,0.414634,0.293176,-3.09787,0.00995457,-0.00673584
3.02418,0.0297085,0.414634,0.293176,-3.09787,0.00995457,-0.00673584
3.03223,0.0297085,0.414634,0.293176,-3.09787,0.00995457,-0.00673584
3.04019,0.0297085,0.414634,0.293176,-3.09787,0.00995457,-0.00673584
3.04828,0.0297085,0.414634,0.293176,-3.09787,0.00995457,-0.00673584
3.05635,0.0297085,0.414634,0.293176,-3.09787,0.00995457,-0.00673584
3.06433,0.0297085,0.414634,0.293176,-3.09787,0.00995457,-0.00673584
3.07233,0.0297085,0.414634,0.293176,-3.09787,0.00995457,-0.00673584
3.08039,0.0297085,0.414634,0.293176,-3.09787,0.00995457,-0.00673584
3.08832,0.0297085,0.414634,0.293176,-3.09787,0.00995457,-0.00673584
3.0963,0.0297085,0.414634,0.293176,-3.09787,0.00995457,-0.00673584
3.10435,0.0330302,0.396932,0.301747,-3.09395,0.0126568,-0.00540279
3.11229,0.0330302,0.396932,0.301747,-3.09395,0.0126568,-0.00540279
3.12029,0.0330302,0.396932,0.301747,-3.09395,0.0126568,-0.00540279
3.12837,0.0330302,0.396932,0.301747,-3.09395,0.0126568,-0.00540279
3.1362,0.0330302,0.396932,0.301747,-3.09395,0.0126568,-0.00540279
3.14424,0.0330302,0.396932,0.301747,-3.09395,0.0126568,-0.00540279
3.15233,0.0330302,0.396932,0.301747,-3.09395,0.0126568,-0.00540279
3.16031,0.0330302,0.396932,0.301747,-3.09395,0.0126568,-0.00540279
3.16827,0.0330302,0.396932,0.301747,-3.09395,0.0126568,-0.00540279
3.17632,0.0330302,0.396932,0.301747,-3.09395,0.0126568,-0.00540279
3.18429,0.0330302,0.396932,0.301747,-3.09395,0.0126568,-0.00540279
3.19228,0.0330302,0.396932,0.301747,-3.09395,0.0126568,-0.00540279
3.20039,0.0357174,0.382444,0.307958,-3.08951,0.0154126,-0.00314843
3.20822,0.0357174,0.382444,0.307958,-3.08951,0.0154126,-0.00314843
3.2162,0.0357174,0.382444,0.307958,-3.08951,0.0154126,-0.00314843
3.22422,0.0357174,0.382444,0.307958,-3.08951,0.0154126,-0.00314843
3.23228,0.0357174,0.382444,0.307958,-3.08951,0.0154126,-0.00314843
3.24028,0.0357174,0.382444,0.307958,-3.08951,0.0154126,-0.00314843
3.24829,0.0357174,0.382444,0.307958,-3.08951,0.0154126,-0.00314843
3.25637,0.0357174,0.382444,0.307958,-3.08951,0.0154126,-0.00314843
3.2643,0.0357174,0.382444,0.307958,-3.08951,0.0154126,-0.00314843
3.27232,0.0357174,0.382444,0.307958,-3.08951,0.0154126,-0.00314843
3.28034,0.0357174,0.382444,0.307958,-3.08951,0.0154126,-0.00314843
3.28831,0.0357174,0.382444,0.307958,-3.08951,0.0154126,-0.00314843
3.29634,0.0357174,0.382444,0.307958,-3.08951,0.0154126,-0.00314843
3.30431,0.0395069,0.362773,0.315145,-3.0818,0.0174354,-0.00211418
3.3122,0.0395069,0.362773,0.315145,-3.0818,0.0174354,-0.00211418
3.32022,0.0395069,0.362773,0.315145,-3.0818,0.0174354,-0.00211418
3.32822,0.0395069,0.362773,0.315145,-3.0818,0.0174354,-0.00211418
3.33628,0.0395069,0.362773,0.315145,-3.0818,0.0174354,-0.00211418
3.34425,0.0395069,0.362773,0.315145,-3.0818,0.0174354,-0.00211418
3.35238,0.0395069,0.362773,0.315145,-3.0818,0.0174354,-0.00211418
3.36035,0.0395069,0.362773,0.315145,-3.0818,0.0174354,-0.00211418
3.36833,0.0395069,0.362773,0.315145,-3.0818,0.0174354,-0.00211418
3.37631,0.0395069,0.362773,0.315145,-3.0818,0.0174354,-0.00211418
3.38435,0.0395069,0.362773,0.315145,-3.0818,0.0174354,-0.00211418
3.39228,0.0395069,0.362773,0.315145,-3.0818,0.0174354,-0.00211418
3.40025,0.0420236,0.343848,0.31994,-3.07802,0.0314222,0.00254234
3.40825,0.0420236,0.343848,0.31994,-3.07802,0.0314222,0.00254234
3.41628,0.0420236,0.343848,0.31994,-3.07802,0.0314222,0.00254234
3.42432,0.0420236,0.343848,0.31994,-3.07802,0.0314222,0.00254234
3.43229,0.0420236,0.343848,0.31994,-3.07802,0.0314222,0.00254234
3.4403,0.0420236,0.343848,0.31994,-3.07802,0.0314222,0.00254234
3.44831,0.0420236,0.343848,0.31994,-3.07802,0.0314222,0.00254234
3.45629,0.0420236,0.343848,0.31994,-3.07802,0.0314222,0.00254234
3.46432,0.0420236,0.343848,0.31994,-3.07802,0.0314222,0.00254234
3.47232,0.0420236,0.343848,0.31994,-3.07802,0.0314222,0.00254234
3.48032,0.0420236,0.343848,0.31994,-3.07802,0.0314222,0.00254234
3.48833,0.0420236,0.343848,0.31994,-3.07802,0.0314222,0.00254234
3.49632,0.0420236,0.343848,0.31994,-3.07802,0.0314222,0.00254234
3.50432,0.0426563,0.317483,0.317859,-3.09808,0.0771061,0.0209727
3.51215,0.0426563,0.317483,0.317859,-3.09808,0.0771061,0.0209727
3.52018,0.0426563,0.317483,0.317859,-3.09808,0.0771061,0.0209727
3.52822,0.0426563,0.317483,0.317859,-3.09808,0.0771061,0.0209727
3.53624,0.0426563,0.317483,0.317859,-3.09808,0.0771061,0.0209727
3.54421,0.0426563,0.317483,0.317859,-3.09808,0.0771061,0.0209727
3.55231,0.0426563,0.317483,0.317859,-3.09808,0.0771061,0.0209727
3.56025,0.0426563,0.317483,0.317859,-3.09808,0.0771061,0.0209727
3.56829,0.0426563,0.317483,0.317859,-3.09808,0.0771061,0.0209727
3.57631,0.0426563,0.317483,0.317859,-3.09808,0.0771061,0.0209727
3.58429,0.0426563,0.317483,0.317859,-3.09808,0.0771061,0.0209727
3.59226,0.0426563,0.317483,0.317859,-3.09808,0.0771061,0.0209727
3.6003,0.0444484,0.306759,0.312872,-3.11227,0.0744975,0.0413007
3.60819,0.0444484,0.306759,0.312872,-3.11227,0.0744975,0.0413007
3.61617,0.0444484,0.306759,0.312872,-3.11227,0.0744975,0.0413007
3.62421,0.0444484,0.306759,0.312872,-3.11227,0.0744975,0.0413007
3.63226,0.0444484,0.306759,0.312872,-3.11227,0.0744975,0.0413007
3.64027,0.0444484,0.306759,0.312872,-3.11227,0.0744975,0.0413007
3.64827,0.0444484,0.306759,0.312872,-3.11227,0.0744975,0.0413007
3.65629,0.0444484,0.306759,0.312872,-3.11227,0.0744975,0.0413007
3.66423,0.0444484,0.306759,0.312872,-3.11227,0.0744975,0.0413007
3.67236,0.0444484,0.306759,0.312872,-3.11227,0.0744975,0.0413007
3.68031,0.0444484,0.306759,0.312872,-3.11227,0.0744975,0.0413007
3.68831,0.0444484,0.306759,0.312872,-3.11227,0.0744975,0.0413007
3.69629,0.0444484,0.306759,0.312872,-3.11227,0.0744975,0.0413007
3.70432,0.0464864,0.293916,0.304046,-3.13812,0.0703231,0.0543037
3.71224,0.0464864,0.293916,0.304046,-3.13812,0.0703231,0.0543037
3.72028,0.0464864,0.293916,0.304046,-3.13812,0.0703231,0.0543037
3.72827,0.0464864,0.293916,0.304046,-3.13812,0.0703231,0.0543037
3.73628,0.0464864,0.293916,0.304046,-3.13812,0.0703231,0.0543037
3.74429,0.0464864,0.293916,0.304046,-3.13812,0.0703231,0.0543037
3.7523,0.0464864,0.293916,0.304046,-3.13812,0.0703231,0.0543037
3.76034,0.0464864,0.293916,0.304046,-3.13812,0.0703231,0.0543037
3.76828,0.0464864,0.293916,0.304046,-3.13812,0.0703231,0.0543037
3.77628,0.0464864,0.293916,0.304046,-3.13812,0.0703231,0.0543037
3.78431,0.0464864,0.293916,0.304046,-3.13812,0.0703231,0.0543037
3.79233,0.0464864,0.293916,0.304046,-3.13812,0.0703231,0.0543037
3.80017,0.0475488,0.281738,0.295128,3.11918,0.0666725,0.0587838
3.80815,0.0475488,0.281738,0.295128,3.11918,0.0666725,0.0587838
3.8162,0.0475488,0.281738,0.295128,3.11918,0.0666725,0.0587838
3.82422,0.0475488,0.281738,0.295128,3.11918,0.0666725,0.0587838
3.83224,0.0475488,0.281738,0.295128,3.11918,0.0666725,0.0587838
3.84027,0.0475488,0.281738,0.295128,3.11918,0.0666725,0.0587838
3.8483,0.0475488,0.281738,0.295128,3.11918,0.0666725,0.0587838
3.85631,0.0475488,0.281738,0.295128,3.11918,0.0666725,0.0587838
3.86429,0.0475488,0.281738,0.295128,3.11918,0.0666725,0.0587838
3.87226,0.0475488,0.281738,0.295128,3.11918,0.0666725,0.0587838
3.88031,0.0475488,0.281738,0.295128,3.11918,0.0666725,0.0587838
3.88836,0.0475488,0.281738,0.295128,3.11918,0.0666725,0.0587838
3.89629,0.0475488,0.281738,0.295128,3.11918,0.0666725,0.0587838
3.9043,0.0467115,0.26942,0.286952,3.09673,0.0678361,0.0694926
3.91212,0.0467115,0.26942,0.286952,3.09673,0.0678361,0.0694926
3.92015,0.0467115,0.26942,0.286952,3.09673,0.0678361,0.0694926
3.9282,0.0467115,0.26942,0.286952,3.09673,0.0678361,0.0694926
3.93629,0.0467115,0.26942,0.286952,3.09673,0.0678361,0.0694926
3.9442,0.0467115,0.26942,0.286952,3.09673,0.0678361,0.0694926
3.95229,0.0467115,0.26942,0.286952,3.09673,0.0678361,0.0694926
3.96024,0.0467115,0.26942,0.286952,3.09673,0.0678361,0.0694926
3.96835,0.0467115,0.26942,0.286952,3.09673,0.0678361,0.0694926
3.97624,0.0467115,0.26942,0.286952,3.09673,0.0678361,0.0694926
3.98434,0.0467115,0.26942,0.286952,3.09673,0.0678361,0.0694926
3.99232,0.0467115,0.26942,0.286952,3.09673,0.0678361,0.0694926
4.00026,0.0395212,0.254567,0.277695,3.07672,0.0652181,0.111219
4.00824,0.0395212,0.254567,0.277695,3.07672,0.0652181,0.111219
4.01623,0.0395212,0.254567,0.277695,3.07672,0.0652181,0.111219
4.02428,0.0395212,0.254567,0.277695,3.07672,0.0652181,0.111219
4.03228,0.0395212,0.254567,0.277695,3.07672,0.0652181,0.111219
4.04032,0.0395212,0.254567,0.277695,3.07672,0.0652181,0.111219
4.04828,0.0395212,0.254567,0.277695,3.07672,0.0652181,0.111219
4.05628,0.0395212,0.254567,0.277695,3.07672,0.0652181,0.111219
4.06426,0.0395212,0.254567,0.277695,3.07672,0.0652181,0.111219
4.07232,0.0395212,0.254567,0.277695,3.07672,0.0652181,0.111219
4.08028,0.0395212,0.254567,0.277695,3.07672,0.0652181,0.111219
4.08824,0.0395212,0.254567,0.277695,3.07672,0.0652181,0.111219
4.09631,0.0395212,0.254567,0.277695,3.07672,0.0652181,0.111219
4.10422,0.0338269,0.244257,0.27376,3.07991,0.063905,0.148372
4.11221,0.0338269,0.244257,0.27376,3.07991,0.063905,0.148372
4.12019,0.0338269,0.244257,0.27376,3.07991,0.063905,0.148372
4.12819,0.0338269,0.244257,0.27376,3.07991,0.063905,0.148372
4.1363,0.0338269,0.244257,0.27376,3.07991,0.063905,0.148372
4.14428,0.0338269,0.244257,0.27376,3.07991,0.063905,0.148372
4.1523,0.0338269,0.244257,0.27376,3.07991,0.063905,0.148372
4.16031,0.0338269,0.244257,0.27376,3.07991,0.063905,0.148372
4.16828,0.0338269,0.244257,0.27376,3.07991,0.063905,0.148372
4.17629,0.0338269,0.244257,0.27376,3.07991,0.063905,0.148372
4.18429,0.0338269,0.244257,0.27376,3.07991,0.063905,0.148372
4.19227,0.0338269,0.244257,0.27376,3.07991,0.063905,0.148372
4.2003,0.031076,0.238706,0.271899,3.1101,0.0638864,0.171585
4.20825,0.031076,0.238706,0.271899,3.1101,0.0638864,0.171585
4.21616,0.031076,0.238706,0.271899,3.1101,0.0638864,0.171585
4.22421,0.031076,0.238706,0.271899,3.1101,0.0638864,0.171585
4.23223,0.031076,0.238706,0.271899,3.1101,0.0638864,0.171585
4.24023,0.031076,0.238706,0.271899,3.1101,0.0638864,0.171585
4.24821,0.031076,0.238706,0.271899,3.1101,0.0638864,0.171585
4.25627,0.031076,0.238706,0.271899,3.1101,0.0638864,0.171585
4.26429,0.031076,0.238706,0.271899,3.1101,0.0638864,0.171585
4.27224,0.031076,0.238706,0.271899,3.1101,0.0638864,0.171585
4.28025,0.031076,0.238706,0.271899,3.1101,0.0638864,0.171585
4.28824,0.031076,0.238706,0.271899,3.1101,0.0638864,0.171585
4.29631,0.031076,0.238706,0.271899,3.1101,0.0638864,0.171585
4.30422,0.0316196,0.238597,0.27081,-3.13582,0.0557521,0.176767
4.31217,0.0316196,0.238597,0.27081,-3.13582,0.0557521,0.176767
4.32021,0.0316196,0.238597,0.27081,-3.13582,0.0557521,0.176767
4.32825,0.0316196,0.238597,0.27081,-3.13582,0.0557521,0.176767
4.33621,0.0316196,0.238597,0.27081,-3.13582,0.0557521,0.176767
4.34422,0.0316196,0.238597,0.27081,-3.13582,0.0557521,0.176767
4.35228,0.0316196,0.238597,0.27081,-3.13582,0.0557521,0.176767
4.36027,0.0316196,0.238597,0.27081,-3.13582,0.0557521,0.176767
4.36823,0.0316196,0.238597,0.27081,-3.13582,0.0557521,0.176767
4.37625,0.0316196,0.238597,0.27081,-3.13582,0.0557521,0.176767
4.38432,0.0316196,0.238597,0.27081,-3.13582,0.0557521,0.176767
4.39229,0.0316196,0.238597,0.27081,-3.13582,0.0557521,0.176767
4.40025,0.0326198,0.240216,0.262745,-3.09638,0.0435,0.178447
4.40818,0.0326198,0.240216,0.262745,-3.09638,0.0435,0.178447
4.41614,0.0326198,0.240216,0.262745,-3.09638,0.0435,0.178447
4.42421,0.0326198,0.240216,0.262745,-3.09638,0.0435,0.178447
4.43222,0.0326198,0.240216,0.262745,-3.09638,0.0435,0.178447
4.44024,0.0326198,0.240216,0.262745,-3.09638,0.0435,0.178447
4.44826,0.0326198,0.240216,0.262745,-3.09638,0.0435,0.178447
4.45622,0.0326198,0.240216,0.262745,-3.09638,0.0435,0.178447
4.46425,0.0326198,0.240216,0.262745,-3.09638,0.0435,0.178447
4.47226,0.0326198,0.240216,0.262745,-3.09638,0.0435,0.178447
4.48024,0.0326198,0.240216,0.262745,-3.09638,0.0435,0.178447
4.48825,0.0326198,0.240216,0.262745,-3.09638,0.0435,0.178447
4.49623,0.0326198,0.240216,0.262745,-3.09638,0.0435,0.178447
4.50421,0.0330444,0.23906,0.256144,-3.09203,0.0442153,0.178577
4.51215,0.0330444,0.23906,0.256144,-3.09203,0.0442153,0.178577
4.52013,0.0330444,0.23906,0.256144,-3.09203,0.0442153,0.178577
4.52814,0.0330444,0.23906,0.256144,-3.09203,0.0442153,0.178577
4.53619,0.0330444,0.23906,0.256144,-3.09203,0.0442153,0.178577
4.54417,0.0330444,0.23906,0.256144,-3.09203,0.0442153,0.178577
4.55232,0.0330444,0.23906,0.256144,-3.09203,0.0442153,0.178577
4.56032,0.0330444,0.23906,0.256144,-3.09203,0.0442153,0.178577
4.56832,0.0330444,0.23906,0.256144,-3.09203,0.0442153,0.178577
4.57627,0.0330444,0.23906,0.256144,-3.09203,0.0442153,0.178577
4.5843,0.0330444,0.23906,0.256144,-3.09203,0.0442153,0.178577
4.5923,0.0330444,0.23906,0.256144,-3.09203,0.0442153,0.178577
4.60027,0.0330192,0.2391,0.256067,-3.09031,0.0445145,0.178709
4.6082,0.0330192,0.2391,0.256067,-3.09031,0.0445145,0.178709
4.61625,0.0330192,0.2391,0.256067,-3.09031,0.0445145,0.178709
4.62421,0.0330192,0.2391,0.256067,-3.09031,0.0445145,0.178709
4.63229,0.0330192,0.2391,0.256067,-3.09031,0.0445145,0.178709
4.6403,0.0330192,0.2391,0.256067,-3.09031,0.0445145,0.178709
4.64827,0.0330192,0.2391,0.256067,-3.09031,0.0445145,0.178709
4.65628,0.0330192,0.2391,0.256067,-3.09031,0.0445145,0.178709
4.66425,0.0330192,0.2391,0.256067,-3.09031,0.0445145,0.178709
4.67229,0.0330192,0.2391,0.256067,-3.09031,0.0445145,0.178709
4.68024,0.0330192,0.2391,0.256067,-3.09031,0.0445145,0.178709
4.68827,0.0330192,0.2391,0.256067,-3.09031,0.0445145,0.178709
4.69622,0.0330192,0.2391,0.256067,-3.09031,0.0445145,0.178709
4.70424,0.0330227,0.239104,0.256067,-3.09033,0.0445469,0.178711
4.71209,0.0330227,0.239104,0.256067,-3.09033,0.0445469,0.178711
4.72013,0.0330227,0.239104,0.256067,-3.09033,0.0445469,0.178711
4.72815,0.0330227,0.239104,0.256067,-3.09033,0.0445469,0.178711
4.73617,0.0330227,0.239104,0.256067,-3.09033,0.0445469,0.178711
4.74416,0.0330227,0.239104,0.256067,-3.09033,0.0445469,0.178711
4.75221,0.0330227,0.239104,0.256067,-3.09033,0.0445469,0.178711
4.76021,0.0330227,0.239104,0.256067,-3.09033,0.0445469,0.178711
4.76827,0.0330227,0.239104,0.256067,-3.09033,0.0445469,0.178711
4.77621,0.0330227,0.239104,0.256067,-3.09033,0.0445469,0.178711
4.78425,0.0330227,0.239104,0.256067,-3.09033,0.0445469,0.178711
4.79225,0.0330227,0.239104,0.256067,-3.09033,0.0445469,0.178711
4.80024,0.0330348,0.239106,0.256059,-3.0904,0.044548,0.178648
4.80818,0.0330348,0.239106,0.256059,-3.0904,0.044548,0.178648
4.81608,0.0330348,0.239106,0.256059,-3.0904,0.044548,0.178648
4.82409,0.0330348,0.239106,0.256059,-3.0904,0.044548,0.178648
4.83215,0.0330348,0.239106,0.256059,-3.0904,0.044548,0.178648
4.84012,0.0330348,0.239106,0.256059,-3.0904,0.044548,0.178648
4.84818,0.0330348,0.239106,0.256059,-3.0904,0.044548,0.178648
4.85628,0.0330348,0.239106,0.256059,-3.0904,0.044548,0.178648
4.86425,0.0330348,0.239106,0.256059,-3.0904,0.044548,0.178648
4.87219,0.0330348,0.239106,0.256059,-3.0904,0.044548,0.178648
4.88029,0.0330348,0.239106,0.256059,-3.0904,0.044548,0.178648
4.88824,0.0330348,0.239106,0.256059,-3.0904,0.044548,0.178648
4.89626,0.0330348,0.239106,0.256059,-3.0904,0.044548,0.178648
4.90421,0.0330607,0.239096,0.256099,-3.09027,0.0448074,0.178524
4.9122,0.0330607,0.239096,0.256099,-3.09027,0.0448074,0.178524
4.92019,0.0330607,0.239096,0.256099,-3.09027,0.0448074,0.178524
4.9282,0.0330607,0.239096,0.256099,-3.09027,0.0448074,0.178524
4.93625,0.0330607,0.239096,0.256099,-3.09027,0.0448074,0.178524
4.94426,0.0330607,0.239096,0.256099,-3.09027,0.0448074,0.178524
4.95228,0.0330607,0.239096,0.256099,-3.09027,0.0448074,0.178524
4.96032,0.0330607,0.239096,0.256099,-3.09027,0.0448074,0.178524
4.96824,0.0330607,0.239096,0.256099,-3.09027,0.0448074,0.178524
4.97622,0.0330607,0.239096,0.256099,-3.09027,0.0448074,0.178524
4.98428,0.0330607,0.239096,0.256099,-3.09027,0.0448074,0.178524
4.99225,0.0330607,0.239096,0.256099,-3.09027,0.0448074,0.178524
5.00022,0.033072,0.2391,0.2561,-3.09029,0.0448168,0.178452
5.00818,0.033072,0.2391,0.2561,-3.09029,0.0448168,0.178452
5.01615,0.033072,0.2391,0.2561,-3.09029,0.0448168,0.178452
5.02418,0.033072,0.2391,0.2561,-3.09029,0.0448168,0.178452
5.03223,0.033072,0.2391,0.2561,-3.09029,0.0448168,0.178452
5.04022,0.033072,0.2391,0.2561,-3.09029,0.0448168,0.178452
5.04822,0.033072,0.2391,0.2561,-3.09029,0.0448168,0.178452
5.05624,0.033072,0.2391,0.2561,-3.09029,0.0448168,0.178452
5.06429,0.033072,0.2391,0.2561,-3.09029,0.0448168,0.178452
5.07227,0.033072,0.2391,0.2561,-3.09029,0.0448168,0.178452
5.08025,0.033072,0.2391,0.2561,-3.09029,0.0448168,0.178452
5.08823,0.033072,0.2391,0.2561,-3.09029,0.0448168,0.178452
5.09624,0.033072,0.2391,0.2561,-3.09029,0.0448168,0.178452
5.10422,0.0330612,0.239111,0.25611,-3.09026,0.0448095,0.178501
5.11209,0.0330612,0.239111,0.25611,-3.09026,0.0448095,0.178501
5.12006,0.0330612,0.239111,0.25611,-3.09026,0.0448095,0.178501
5.12809,0.0330612,0.239111,0.25611,-3.09026,0.0448095,0.178501
5.13611,0.0330612,0.239111,0.25611,-3.09026,0.0448095,0.178501
5.14415,0.0330612,0.239111,0.25611,-3.09026,0.0448095,0.178501
5.15222,0.0330612,0.239111,0.25611,-3.09026,0.0448095,0.178501
5.1603,0.0330612,0.239111,0.25611,-3.09026,0.0448095,0.178501
5.16832,0.0330612,0.239111,0.25611,-3.09026,0.0448095,0.178501
5.17626,0.0330612,0.239111,0.25611,-3.09026,0.0448095,0.178501
5.18426,0.0330612,0.239111,0.25611,-3.09026,0.0448095,0.178501
5.19223,0.0330612,0.239111,0.25611,-3.09026,0.0448095,0.178501
5.20026,0.0330654,0.239102,0.256125,-3.09022,0.0448642,0.178482
5.20816,0.0330654,0.239102,0.256125,-3.09022,0.0448642,0.178482
5.21621,0.0330654,0.239102,0.256125,-3.09022,0.0448642,0.178482
5.22424,0.0330654,0.239102,0.256125,-3.09022,0.0448642,0.178482
5.23229,0.0330654,0.239102,0.256125,-3.09022,0.0448642,0.178482
5.24028,0.0330654,0.239102,0.256125,-3.09022,0.0448642,0.178482
5.24819,0.0330654,0.239102,0.256125,-3.09022,0.0448642,0.178482
5.25629,0.0330654,0.239102,0.256125,-3.09022,0.0448642,0.178482
5.26426,0.0330654,0.239102,0.256125,-3.09022,0.0448642,0.178482
5.27221,0.0330654,0.239102,0.256125,-3.09022,0.0448642,0.178482
5.28024,0.0330654,0.239102,0.256125,-3.09022,0.0448642,0.178482
5.28821,0.0330654,0.239102,0.256125,-3.09022,0.0448642,0.178482
5.29624,0.0330654,0.239102,0.256125,-3.09022,0.0448642,0.178482
5.30415,0.0330587,0.239112,0.256126,-3.0902,0.0448425,0.178505
5.31218,0.0330587,0.239112,0.256126,-3.0902,0.0448425,0.178505
5.32025,0.0330587,0.239112,0.256126,-3.0902,0.0448425,0.178505
5.32822,0.0330587,0.239112,0.256126,-3.0902,0.0448425,0.178505
5.33624,0.0330587,0.239112,0.256126,-3.0902,0.0448425,0.178505
5.34425,0.0330587,0.239112,0.256126,-3.0902,0.0448425,0.178505
5.35229,0.0330587,0.239112,0.256126,-3.0902,0.0448425,0.178505
5.36026,0.0330587,0.239112,0.256126,-3.0902,0.0448425,0.178505
5.36828,0.0330587,0.239112,0.256126,-3.0902,0.0448425,0.178505
5.37624,0.0330587,0.239112,0.256126,-3.0902,0.0448425,0.178505
5.38426,0.0330587,0.239112,0.256126,-3.0902,0.0448425,0.178505
5.39222,0.0330587,0.239112,0.256126,-3.0902,0.0448425,0.178505
5.40018,0.0330684,0.239114,0.256123,-3.09019,0.0448214,0.178444
5.40814,0.0330684,0.239114,0.256123,-3.09019,0.0448214,0.178444
5.41608,0.0330684,0.239114,0.256123,-3.09019,0.0448214,0.178444
5.42409,0.0330684,0.239114,0.256123,-3.09019,0.0448214,0.178444
5.43213,0.0330684,0.239114,0.256123,-3.09019,0.0448214,0.178444
5.44015,0.0330684,0.239114,0.256123,-3.09019,0.0448214,0.178444
5.44812,0.0330684,0.239114,0.256123,-3.09019,0.0448214,0.178444
5.45622,0.0330684,0.239114,0.256123,-3.09019,0.0448214,0.178444
5.46422,0.0330684,0.239114,0.256123,-3.09019,0.0448214,0.178444
5.47226,0.0330684,0.239114,0.256123,-3.09019,0.0448214,0.178444
5.48023,0.0330684,0.239114,0.256123,-3.09019,0.0448214,0.178444
5.48823,0.0330684,0.239114,0.256123,-3.09019,0.0448214,0.178444
5.49623,0.0330684,0.239114,0.256123,-3.09019,0.0448214,0.178444
5.50416,0.0330678,0.239108,0.256108,-3.09025,0.0448131,0.178442
5.51215,0.0330678,0.239108,0.256108,-3.09025,0.0448131,0.178442
5.52025,0.0330678,0.239108,0.256108,-3.09025,0.0448131,0.178442
5.52823,0.0330678,0.239108,0.256108,-3.09025,0.0448131,0.178442
5.53619,0.0330678,0.239108,0.256108,-3.09025,0.0448131,0.178442
5.54422,0.0330678,0.239108,0.256108,-3.09025,0.0448131,0.178442
5.55223,0.0330678,0.239108,0.256108,-3.09025,0.0448131,0.178442
5.5602,0.0330678,0.239108,0.256108,-3.09025,0.0448131,0.178442
5.56825,0.0330678,0.239108,0.256108,-3.09025,0.0448131,0.178442
5.57624,0.0330678,0.239108,0.256108,-3.09025,0.0448131,0.178442
5.58426,0.0330678,0.239108,0.256108,-3.09025,0.0448131,0.178442
5.59223,0.0330678,0.239108,0.256108,-3.09025,0.0448131,0.178442
5.6002,0.0330714,0.239102,0.25612,-3.09021,0.0448288,0.178468
5.60823,0.0330714,0.239102,0.25612,-3.09021,0.0448288,0.178468
5.61608,0.0330714,0.239102,0.25612,-3.09021,0.0448288,0.178468
5.62412,0.0330714,0.239102,0.25612,-3.09021,0.0448288,0.178468
5.63212,0.0330714,0.239102,0.25612,-3.09021,0.0448288,0.178468
5.64014,0.0330714,0.239102,0.25612,-3.09021,0.0448288,0.178468
5.64815,0.0330714,0.239102,0.25612,-3.09021,0.0448288,0.178468
5.65623,0.0330714,0.239102,0.25612,-3.09021,0.0448288,0.178468
5.66418,0.0330714,0.239102,0.25612,-3.09021,0.0448288,0.178468
5.67221,0.0330714,0.239102,0.25612,-3.09021,0.0448288,0.178468
5.68024,0.0330714,0.239102,0.25612,-3.09021,0.0448288,0.178468
5.6882,0.0330714,0.239102,0.25612,-3.09021,0.0448288,0.178468
5.69623,0.0330714,0.239102,0.25612,-3.09021,0.0448288,0.178468
5.70414,0.0330657,0.239098,0.256119,-3.09022,0.0448772,0.178458
5.71212,0.0330657,0.239098,0.256119,-3.09022,0.0448772,0.178458
5.72013,0.0330657,0.239098,0.256119,-3.09022,0.0448772,0.178458
5.72814,0.0330657,0.239098,0.256119,-3.09022,0.0448772,0.178458
5.7361,0.0330657,0.239098,0.256119,-3.09022,0.0448772,0.178458
5.74413,0.0330657,0.239098,0.256119,-3.09022,0.0448772,0.178458
5.75218,0.0330657,0.239098,0.256119,-3.09022,0.0448772,0.178458
5.7602,0.0330657,0.239098,0.256119,-3.09022,0.0448772,0.178458
5.76816,0.0330657,0.239098,0.256119,-3.09022,0.0448772,0.178458
5.7762,0.0330657,0.239098,0.256119,-3.09022,0.0448772,0.178458
5.78422,0.0330657,0.239098,0.256119,-3.09022,0.0448772,0.178458
5.79223,0.0330657,0.239098,0.256119,-3.09022,0.0448772,0.178458
5.80023,0.0330762,0.239101,0.256112,-3.09022,0.0448394,0.178432
5.80813,0.0330762,0.239101,0.256112,-3.09022,0.0448394,0.178432
5.81617,0.0330762,0.239101,0.256112,-3.09022,0.0448394,0.178432
5.82421,0.0330762,0.239101,0.256112,-3.09022,0.0448394,0.178432
5.83215,0.0330762,0.239101,0.256112,-3.09022,0.0448394,0.178432
5.84017,0.0330762,0.239101,0.256112,-3.09022,0.0448394,0.178432
5.84821,0.0330762,0.239101,0.256112,-3.09022,0.0448394,0.178432
5.85625,0.0330762,0.239101,0.256112,-3.09022,0.0448394,0.178432
5.86423,0.0330762,0.239101,0.256112,-3.09022,0.0448394,0.178432
5.87223,0.0330762,0.239101,0.256112,-3.09022,0.0448394,0.178432
5.88023,0.0330762,0.239101,0.256112,-3.09022,0.0448394,0.178432
5.88816,0.0330762,0.239101,0.256112,-3.09022,0.0448394,0.178432
5.89617,0.0330762,0.239101,0.256112,-3.09022,0.0448394,0.178432
5.90411,0.0330673,0.239105,0.25611,-3.09024,0.0448608,0.178469
5.91209,0.0330673,0.239105,0.25611,-3.09024,0.0448608,0.178469
5.92016,0.0330673,0.239105,0.25611,-3.09024,0.0448608,0.178469
5.92816,0.0330673,0.239105,0.25611,-3.09024,0.0448608,0.178469
5.93617,0.0330673,0.239105,0.25611,-3.09024,0.0448608,0.178469
5.94415,0.0330673,0.239105,0.25611,-3.09024,0.0448608,0.178469
5.95219,0.0330673,0.239105,0.25611,-3.09024,0.0448608,0.178469
5.96024,0.0330673,0.239105,0.25611,-3.09024,0.0448608,0.178469
5.9682,0.0330673,0.239105,0.25611,-3.09024,0.0448608,0.178469
5.97621,0.0330673,0.239105,0.25611,-3.09024,0.0448608,0.178469
5.98422,0.0330673,0.239105,0.25611,-3.09024,0.0448608,0.178469
5.99224,0.0330673,0.239105,0.25611,-3.09024,0.0448608,0.178469
6.00022,0.0330734,0.239104,0.256114,-3.09023,0.0448258,0.178443
6.00812,0.0330734,0.239104,0.256114,-3.09023,0.0448258,0.178443
6.01611,0.0330734,0.239104,0.256114,-3.09023,0.0448258,0.178443
6.02414,0.0330734,0.239104,0.256114,-3.09023,0.0448258,0.178443
6.0322,0.0330734,0.239104,0.256114,-3.09023,0.0448258,0.178443
6.04015,0.0330734,0.239104,0.256114,-3.09023,0.0448258,0.178443
6.04818,0.0330734,0.239104,0.256114,-3.09023,0.0448258,0.178443
6.0562,0.0330734,0.239104,0.256114,-3.09023,0.0448258,0.178443
6.06426,0.0330734,0.239104,0.256114,-3.09023,0.0448258,0.178443
6.07224,0.0330734,0.239104,0.256114,-3.09023,0.0448258,0.178443
6.08022,0.0330734,0.239104,0.256114,-3.09023,0.0448258,0.178443
6.0882,0.0330734,0.239104,0.256114,-3.09023,0.0448258,0.178443
6.09619,0.0330734,0.239104,0.256114,-3.09023,0.0448258,0.178443
6.10417,0.0330622,0.239103,0.256122,-3.09019,0.0448685,0.178483
6.11214,0.0330622,0.239103,0.256122,-3.09019,0.0448685,0.178483
6.12015,0.0330622,0.239103,0.256122,-3.09019,0.0448685,0.178483
6.12815,0.0330622,0.239103,0.256122,-3.09019,0.0448685,0.178483
6.13618,0.0330622,0.239103,0.256122,-3.09019,0.0448685,0.178483
6.14422,0.0330622,0.239103,0.256122,-3.09019,0.0448685,0.178483
6.15223,0.0330622,0.239103,0.256122,-3.09019,0.0448685,0.178483
6.1602,0.0330622,0.239103,0.256122,-3.09019,0.0448685,0.178483
6.16815,0.0330622,0.239103,0.256122,-3.09019,0.0448685,0.178483
6.17613,0.0330622,0.239103,0.256122,-3.09019,0.0448685,0.178483
6.18422,0.0330622,0.239103,0.256122,-3.09019,0.0448685,0.178483
6.19215,0.0330622,0.239103,0.256122,-3.09019,0.0448685,0.178483
