Time,J0,J1,J2,J3,J4,J5,J6
0.289194,-2.09967,-1.57088,-1.82033,1.57076,-0.00014383,3.16202e-322,-0.785467
0.29725,-2.09966,-1.57085,-1.82033,1.57077,-0.000167672,3.16202e-322,-0.785431
0.305237,-2.09962,-1.57086,-1.82033,1.57076,-0.00014383,3.16202e-322,-0.785407
0.313229,-2.09965,-1.57087,-1.8203,1.57075,-0.000167672,3.16202e-322,-0.785395
0.321255,-2.09968,-1.57086,-1.82033,1.57076,-0.000155751,3.16202e-322,-0.785407
0.329292,-2.09967,-1.57088,-1.82032,1.57074,-0.000131432,3.16202e-322,-0.785407
0.337333,-2.09963,-1.57083,-1.82034,1.5707,-0.000167672,3.16202e-322,-0.785419
0.345352,-2.09966,-1.57086,-1.82033,1.57074,-0.000167672,3.16202e-322,-0.785407
0.3534,-2.09968,-1.57089,-1.82032,1.57075,-0.00014383,3.16202e-322,-0.785431
0.361388,-2.09967,-1.57088,-1.82036,1.57075,-0.000155751,3.16202e-322,-0.785407
0.369434,-2.09965,-1.57085,-1.82029,1.57075,-0.000179593,3.16202e-322,-0.785407
0.377365,-2.09966,-1.57085,-1.82032,1.57072,-0.000131432,3.16202e-322,-0.785431
0.385347,-2.09962,-1.57086,-1.82029,1.57071,-0.000155751,3.16202e-322,-0.785419
0.393348,-2.09968,-1.57085,-1.82036,1.57076,-0.000167672,3.16202e-322,-0.785431
0.401336,-2.09965,-1.57087,-1.82033,1.57078,-0.000131432,3.16202e-322,-0.785395
0.409175,-2.09963,-1.57087,-1.82032,1.57074,-0.000131432,3.16202e-322,-0.785419
0.417193,-2.09966,-1.57083,-1.82032,1.57076,-0.00014383,3.16202e-322,-0.785407
0.425225,-2.09967,-1.57088,-1.82036,1.57075,-0.000167672,3.16202e-322,-0.785443
0.433308,-2.09967,-1.57086,-1.82032,1.57077,-0.000167672,3.16202e-322,-0.785443
0.44135,-2.09966,-1.57091,-1.82029,1.57076,-0.000155751,3.16202e-322,-0.785443
0.449316,-2.09966,-1.57086,-1.82034,1.57075,-0.000179593,3.16202e-322,-0.785431
0.457329,-2.09965,-1.57088,-1.82033,1.57076,-0.000155751,3.16202e-322,-0.785384
0.465301,-2.09965,-1.57086,-1.8203,1.57076,-0.000155751,3.16202e-322,-0.785407
0.473347,-2.09965,-1.57086,-1.82029,1.57075,-0.000155751,3.16202e-322,-0.785419
0.481289,-2.09969,-1.57086,-1.82033,1.57075,-0.000131432,3.16202e-322,-0.785395
0.489369,-2.09967,-1.57086,-1.82033,1.57075,-0.00014383,3.16202e-322,-0.785431
0.497271,-2.09965,-1.57086,-1.82028,1.57076,-0.00014383,3.16202e-322,-0.785443
0.505275,-2.09966,-1.57088,-1.8203,1.57075,-0.00014383,3.16202e-322,-0.785431
0.513213,-2.09962,-1.57086,-1.82033,1.57072,-0.000155751,3.16202e-322,-0.785407
0.521243,-2.0996,-1.57089,-1.82033,1.57072,-0.00014383,3.16202e-322,-0.785419
0.529226,-2.09965,-1.57082,-1.82033,1.57077,-0.000179593,3.16202e-322,-0.785431
0.537257,-2.09969,-1.57089,-1.82034,1.57076,-0.000167672,3.16202e-322,-0.785407
0.545258,-2.09965,-1.57085,-1.82027,1.57077,-0.000155751,3.16202e-322,-0.785407
0.553305,-2.09963,-1.57083,-1.8203,1.57076,-0.000131432,3.16202e-322,-0.785431
0.561342,-2.09965,-1.57086,-1.82032,1.57076,-0.00014383,3.16202e-322,-0.785419
0.569306,-2.09968,-1.57083,-1.82032,1.57078,-0.000155751,3.16202e-322,-0.785455
0.577293,-2.09969,-1.57083,-1.82032,1.57074,-0.00014383,3.16202e-322,-0.785419
0.585326,-2.09967,-1.57085,-1.8203,1.57077,-0.000155751,3.16202e-322,-0.785443
0.59333,-2.09963,-1.57086,-1.8203,1.57075,-0.000167672,3.16202e-322,-0.785431
0.601329,-2.09966,-1.57088,-1.82034,1.57074,-0.000155751,3.16202e-322,-0.785395
0.609293,-2.09966,-1.57086,-1.82036,1.57075,-0.000167672,3.16202e-322,-0.785419
0.61726,-2.09965,-1.57087,-1.82033,1.57075,-0.00014383,3.16202e-322,-0.785395
0.625348,-2.09967,-1.57085,-1.82033,1.57076,-0.000179593,3.16202e-322,-0.785395
0.633375,-2.09963,-1.57085,-1.82033,1.57074,-0.000155751,3.16202e-322,-0.785455
0.641308,-2.09965,-1.57085,-1.82034,1.57076,-0.000155751,3.16202e-322,-0.785395
0.64937,-2.09963,-1.57086,-1.82034,1.57075,-0.000119511,3.16202e-322,-0.785431
0.657319,-2.09963,-1.57082,-1.82039,1.57077,-0.00014383,3.16202e-322,-0.785443
0.665372,-2.09967,-1.57083,-1.82071,1.5708,-0.000155751,3.16202e-322,-0.785491
0.673381,-2.09972,-1.57083,-1.82088,1.57086,-0.00014383,3.16202e-322,-0.785479
0.681302,-2.09968,-1.5708,-1.82099,1.57083,-0.00014383,3.16202e-322,-0.785467
0.689402,-2.09966,-1.57085,-1.82107,1.57077,-0.000167672,3.16202e-322,-0.785479
0.69734,-2.09965,-1.5708,-1.82113,1.57083,-0.000155751,3.16202e-322,-0.785527
0.705222,-2.09966,-1.57082,-1.82114,1.57084,-0.00014383,3.16202e-322,-0.785527
0.713274,-2.09969,-1.57081,-1.82113,1.57081,-0.00010759,3.16202e-322,-0.785503
0.721229,-2.09966,-1.57083,-1.82117,1.57081,-0.000119511,3.16202e-322,-0.785551
0.72933,-2.09969,-1.57083,-1.82118,1.57084,-0.000131432,3.16202e-322,-0.785551
0.737307,-2.09968,-1.57081,-1.8212,1.5708,-0.000191514,3.16202e-322,-0.785503
0.745381,-2.09967,-1.57083,-1.82119,1.57081,-0.000167672,3.16202e-322,-0.785491
0.753324,-2.09966,-1.5708,-1.82119,1.5708,-0.000167672,3.16202e-322,-0.785515
0.761341,-2.09966,-1.57082,-1.82118,1.5708,-0.000131432,3.16202e-322,-0.785551
0.769306,-2.09965,-1.5708,-1.8212,1.57082,-0.00014383,3.16202e-322,-0.785551
0.777298,-2.09965,-1.57082,-1.82121,1.57083,-0.000179593,3.16202e-322,-0.785551
0.785306,-2.09966,-1.57081,-1.82126,1.57081,-0.00014383,3.16202e-322,-0.785551
0.793313,-2.09966,-1.5708,-1.82127,1.57082,-0.000119511,3.16202e-322,-0.785515
0.801318,-2.09967,-1.57083,-1.82127,1.57081,-0.000167672,3.16202e-322,-0.785503
0.809162,-2.09967,-1.57083,-1.82131,1.57083,-0.000167672,3.16202e-322,-0.785503
0.81719,-2.09966,-1.5708,-1.82137,1.57082,-0.000155751,3.16202e-322,-0.785503
0.825184,-2.09966,-1.57076,-1.82145,1.57083,-0.000167672,3.16202e-322,-0.785527
0.833251,-2.09966,-1.57082,-1.82155,1.57083,-0.000167672,3.16202e-322,-0.785527
0.841211,-2.09966,-1.57083,-1.82175,1.57082,-0.000155751,3.16202e-322,-0.785527
0.849284,-2.09965,-1.57083,-1.82197,1.57078,-0.00014383,3.16202e-322,-0.785539
0.857322,-2.09967,-1.5708,-1.8222,1.57082,-0.000155751,3.16202e-322,-0.785539
0.865358,-2.09969,-1.57081,-1.82234,1.57083,-0.000155751,3.16202e-322,-0.785527
0.873311,-2.09965,-1.57083,-1.82238,1.5708,-0.000179593,3.16202e-322,-0.785551
0.881373,-2.09965,-1.5708,-1.82242,1.57083,-0.00014383,3.16202e-322,-0.785539
0.889318,-2.09972,-1.5708,-1.82242,1.57082,-0.00014383,3.16202e-322,-0.785539
0.897325,-2.09968,-1.57083,-1.82241,1.57084,-0.000155751,3.16202e-322,-0.785551
0.905294,-2.09965,-1.57083,-1.82242,1.57081,-0.000155751,3.16202e-322,-0.785491
0.913252,-2.09967,-1.57081,-1.82241,1.5708,-0.00014383,3.16202e-322,-0.785527
0.921267,-2.09972,-1.57082,-1.82242,1.57086,-0.000167672,3.16202e-322,-0.785539
0.929342,-2.09969,-1.5708,-1.82242,1.57083,-0.000119511,3.16202e-322,-0.785527
0.937389,-2.09971,-1.57082,-1.82245,1.57082,-0.00014383,3.16202e-322,-0.785575
0.945336,-2.09967,-1.5708,-1.82242,1.57083,-0.000119511,3.16202e-322,-0.785575
0.95335,-2.09968,-1.57082,-1.82246,1.57081,-0.00014383,3.16202e-322,-0.785527
0.961321,-2.09966,-1.57082,-1.8224,1.57082,-0.00014383,3.16202e-322,-0.785539
0.969367,-2.09969,-1.57081,-1.82242,1.57081,-0.00014383,3.16202e-322,-0.785515
0.97736,-2.09969,-1.57083,-1.8224,1.57078,-0.000155751,3.16202e-322,-0.785551
0.985329,-2.09965,-1.57081,-1.82241,1.5708,-0.000131432,3.16202e-322,-0.785551
0.993397,-2.09966,-1.57083,-1.82242,1.57083,-0.00014383,3.16202e-322,-0.785503
1.00132,-2.09966,-1.5708,-1.82245,1.57081,-0.000179593,3.16202e-322,-0.785527
1.00918,-2.09971,-1.57082,-1.82242,1.57081,-0.000155751,3.16202e-322,-0.785539
1.01721,-2.09968,-1.57079,-1.82241,1.57084,-0.000155751,3.16202e-322,-0.785527
1.02524,-2.09969,-1.5708,-1.82242,1.57082,-0.00014383,3.16202e-322,-0.785527
1.03323,-2.09967,-1.5708,-1.8224,1.57084,-0.000155751,3.16202e-322,-0.785539
1.04127,-2.09968,-1.57083,-1.82242,1.57082,-0.00014383,3.16202e-322,-0.785539
1.04931,-2.09972,-1.57085,-1.82241,1.5708,-0.000167672,3.16202e-322,-0.785563
1.05732,-2.09965,-1.57081,-1.82241,1.57083,-0.000131432,3.16202e-322,-0.785539
1.06534,-2.09968,-1.57082,-1.82241,1.57082,-0.000167672,3.16202e-322,-0.785527
1.0733,-2.09971,-1.57082,-1.82244,1.57082,-0.000155751,3.16202e-322,-0.785515
1.08128,-2.09965,-1.57083,-1.82242,1.57082,-0.00014383,3.16202e-322,-0.785515
1.08925,-2.09967,-1.57081,-1.82242,1.5708,-0.00014383,3.16202e-322,-0.785527
1.09731,-2.09967,-1.57081,-1.82241,1.57083,-0.000155751,3.16202e-322,-0.785563
1.10517,-2.09968,-1.57085,-1.82242,1.57083,-0.000167672,3.16202e-322,-0.785527
1.11319,-2.09965,-1.57081,-1.82246,1.57082,-0.00014383,3.16202e-322,-0.785527
1.12117,-2.09967,-1.57083,-1.82241,1.57083,-0.000155751,3.16202e-322,-0.785515
1.12922,-2.09965,-1.5708,-1.82245,1.57086,-0.000131432,3.16202e-322,-0.785503
1.13726,-2.09966,-1.57083,-1.82244,1.57083,-0.00014383,3.16202e-322,-0.785503
1.14531,-2.09968,-1.57077,-1.82241,1.57082,-0.00014383,3.16202e-322,-0.785527
1.15323,-2.09967,-1.57086,-1.82245,1.57082,-0.00014383,3.16202e-322,-0.785539
1.16127,-2.09968,-1.5708,-1.82241,1.5708,-0.000131432,3.16202e-322,-0.785539
1.16937,-2.09969,-1.57081,-1.8224,1.57082,-0.000155751,3.16202e-322,-0.785515
1.17733,-2.09966,-1.57081,-1.82241,1.57082,-0.00014383,3.16202e-322,-0.785503
1.18534,-2.09969,-1.57083,-1.82242,1.57081,-0.000119511,3.16202e-322,-0.785527
1.19327,-2.09969,-1.57082,-1.82246,1.57083,-0.00014383,3.16202e-322,-0.785539
1.20128,-2.09968,-1.57085,-1.82245,1.5708,-0.000155751,3.16202e-322,-0.785515
1.20922,-2.09968,-1.57081,-1.8224,1.57083,-0.00014383,3.16202e-322,-0.785515
1.21728,-2.09966,-1.57081,-1.82242,1.57082,-0.000155751,3.16202e-322,-0.785515
1.22526,-2.09969,-1.57083,-1.82246,1.5708,-0.000155751,3.16202e-322,-0.785515
1.23323,-2.09969,-1.57082,-1.82242,1.57083,-0.000155751,3.16202e-322,-0.785539
1.24135,-2.09967,-1.57079,-1.82241,1.57082,-0.00014383,3.16202e-322,-0.785539
1.24936,-2.09969,-1.57081,-1.8224,1.57083,-0.00014383,3.16202e-322,-0.785563
1.25734,-2.09969,-1.5708,-1.82242,1.57083,-0.000119511,3.16202e-322,-0.785539
1.26533,-2.09968,-1.5708,-1.82239,1.57081,-0.000131432,3.16202e-322,-0.785551
1.27331,-2.09966,-1.57083,-1.82241,1.57082,-0.00014383,3.16202e-322,-0.785527
1.28126,-2.09967,-1.57081,-1.82245,1.57088,-0.000167672,3.16202e-322,-0.785539
1.28929,-2.09968,-1.5708,-1.82244,1.57083,-0.000155751,3.16202e-322,-0.785503
1.29728,-2.09967,-1.57086,-1.82245,1.57082,-0.000119511,3.16202e-322,-0.785527
1.30521,-2.09966,-1.57083,-1.82242,1.57083,-0.000167672,3.16202e-322,-0.785539
1.31327,-2.09967,-1.57085,-1.82242,1.57084,-0.000155751,3.16202e-322,-0.785539
1.32122,-2.09968,-1.57082,-1.82242,1.57082,-0.000167672,3.16202e-322,-0.785551
1.32929,-2.09967,-1.57082,-1.82242,1.57087,-0.000131432,3.16202e-322,-0.785539
1.33735,-2.09966,-1.57082,-1.8224,1.57086,-0.000155751,3.16202e-322,-0.785551
1.34532,-2.09968,-1.5708,-1.82242,1.57082,-0.00014383,3.16202e-322,-0.785539
1.35326,-2.09968,-1.5708,-1.82242,1.57086,-0.00014383,3.16202e-322,-0.785551
1.36138,-2.09969,-1.57083,-1.82241,1.57088,-0.000167672,3.16202e-322,-0.785539
1.36936,-2.09966,-1.57081,-1.82242,1.57082,-0.000131432,3.16202e-322,-0.785527
1.37728,-2.09968,-1.57081,-1.82241,1.57086,-0.000167672,3.16202e-322,-0.785527
1.38531,-2.09966,-1.5708,-1.82239,1.57084,-0.000167672,3.16202e-322,-0.785515
1.3933,-2.09967,-1.57085,-1.82241,1.57082,-0.00014383,3.16202e-322,-0.785503
1.40136,-2.09963,-1.5708,-1.82242,1.57083,-0.000155751,3.16202e-322,-0.785539
1.40924,-2.09971,-1.5708,-1.82238,1.57088,-0.000191514,3.16202e-322,-0.785563
1.41718,-2.09966,-1.57081,-1.82244,1.57087,-0.000131432,3.16202e-322,-0.785539
1.42513,-2.09966,-1.57085,-1.82238,1.57082,-0.000167672,3.16202e-322,-0.785575
1.43317,-2.09966,-1.57077,-1.82241,1.57083,-0.000167672,3.16202e-322,-0.785575
1.44128,-2.09965,-1.57082,-1.82241,1.57084,-0.000167672,3.16202e-322,-0.785539
1.44931,-2.09969,-1.57081,-1.82245,1.5708,-0.000155751,3.16202e-322,-0.785527
1.45725,-2.09963,-1.57086,-1.82241,1.57083,-0.000131432,3.16202e-322,-0.785527
1.46528,-2.09968,-1.5708,-1.82245,1.57083,-0.000155751,3.16202e-322,-0.785563
1.47327,-2.09965,-1.57081,-1.82238,1.57083,-0.000155751,3.16202e-322,-0.785551
1.48125,-2.09971,-1.5708,-1.82242,1.57087,-0.000179593,3.16202e-322,-0.785527
1.48929,-2.09966,-1.57082,-1.82242,1.57084,-0.000119511,3.16202e-322,-0.785503
1.4972,-2.09967,-1.5708,-1.82241,1.57084,-0.000167672,3.16202e-322,-0.785491
1.50521,-2.09966,-1.5708,-1.82244,1.57082,-0.000155751,3.16202e-322,-0.785551
1.51322,-2.09966,-1.57081,-1.82241,1.57083,-0.000167672,3.16202e-322,-0.785515
1.52126,-2.09968,-1.57082,-1.82242,1.57082,-0.00014383,3.16202e-322,-0.785527
1.52927,-2.09968,-1.5708,-1.82242,1.57084,-0.00014383,3.16202e-322,-0.785551
1.53731,-2.09966,-1.57081,-1.8224,1.57084,-0.000119511,3.16202e-322,-0.785551
1.54532,-2.09966,-1.57079,-1.82239,1.57084,-0.000131432,3.16202e-322,-0.785515
1.55326,-2.09965,-1.57081,-1.82241,1.57083,-0.000191514,3.16202e-322,-0.785551
1.56128,-2.09967,-1.57083,-1.82242,1.57084,-0.000155751,3.16202e-322,-0.785563
1.5693,-2.09967,-1.57082,-1.82242,1.57081,-0.000119511,3.16202e-322,-0.785551
1.57728,-2.09968,-1.57082,-1.82241,1.57084,-0.000131432,3.16202e-322,-0.785551
1.58532,-2.09965,-1.57081,-1.82245,1.57086,-0.00014383,3.16202e-322,-0.785599
1.59325,-2.09966,-1.57081,-1.82241,1.5708,-0.000155751,3.16202e-322,-0.785539
1.60129,-2.09967,-1.57082,-1.82244,1.57087,-0.000119511,3.16202e-322,-0.785551
1.60913,-2.09972,-1.57081,-1.8224,1.57083,-0.000167672,3.16202e-322,-0.785527
1.61717,-2.09968,-1.57082,-1.82244,1.57086,-0.000131432,3.16202e-322,-0.785527
1.62518,-2.09967,-1.57083,-1.82244,1.57086,-0.000179593,3.16202e-322,-0.785491
1.63323,-2.09967,-1.57082,-1.82244,1.57084,-0.000155751,3.16202e-322,-0.785539
1.64127,-2.09967,-1.5708,-1.8224,1.57083,-0.00014383,3.16202e-322,-0.785539
1.64931,-2.09963,-1.57077,-1.82241,1.57084,-0.000155751,3.16202e-322,-0.785527
1.65729,-2.09967,-1.57083,-1.82242,1.57086,-0.000155751,3.16202e-322,-0.785527
1.66528,-2.09969,-1.57085,-1.82241,1.57084,-0.000167672,3.16202e-322,-0.785539
1.67332,-2.09967,-1.57083,-1.8224,1.57082,-0.000155751,3.16202e-322,-0.785551
1.68126,-2.09972,-1.57081,-1.8224,1.57086,-0.000155751,3.16202e-322,-0.785539
1.68927,-2.09967,-1.57079,-1.82244,1.57084,-0.000167672,3.16202e-322,-0.785527
1.69725,-2.09965,-1.57081,-1.82239,1.57086,-0.000131432,3.16202e-322,-0.785563
1.70521,-2.09967,-1.57081,-1.82244,1.57082,-0.000155751,3.16202e-322,-0.785527
1.71315,-2.09965,-1.57085,-1.82245,1.57083,-0.000167672,3.16202e-322,-0.785539
1.72118,-2.09966,-1.57081,-1.82241,1.57083,-0.00014383,3.16202e-322,-0.785563
1.72911,-2.09966,-1.57079,-1.82244,1.57084,-0.000155751,3.16202e-322,-0.785539
1.73724,-2.09967,-1.5708,-1.82242,1.57086,-0.000191514,3.16202e-322,-0.785527
1.74522,-2.09967,-1.57081,-1.82241,1.57084,-0.000167672,3.16202e-322,-0.785539
1.75321,-2.09963,-1.57082,-1.82242,1.57084,-0.00014383,3.16202e-322,-0.785551
1.7612,-2.09966,-1.57082,-1.82242,1.57084,-0.000179593,3.16202e-322,-0.785551
1.76931,-2.09969,-1.57081,-1.82244,1.57084,-0.00014383,3.16202e-322,-0.785515
1.77736,-2.09966,-1.57083,-1.82241,1.57084,-0.00014383,3.16202e-322,-0.785563
1.78523,-2.09966,-1.57083,-1.82245,1.57083,-0.000179593,3.16202e-322,-0.785539
1.79325,-2.09963,-1.57082,-1.8224,1.57084,-0.000155751,3.16202e-322,-0.785563
1.80129,-2.09967,-1.57081,-1.8224,1.57084,-0.00014383,3.16202e-322,-0.785515
1.80915,-2.09966,-1.57077,-1.82245,1.57084,-0.000155751,3.16202e-322,-0.785587
1.81726,-2.09966,-1.57079,-1.82241,1.57084,-0.000155751,3.16202e-322,-0.785539
1.8253,-2.09965,-1.57079,-1.82239,1.57084,-0.000155751,3.16202e-322,-0.785587
1.83328,-2.09967,-1.57079,-1.82244,1.57083,-0.00014383,3.16202e-322,-0.785551
1.84135,-2.09965,-1.5708,-1.82244,1.57087,-0.000179593,3.16202e-322,-0.785575
1.84929,-2.09965,-1.57077,-1.82242,1.57088,-0.000191514,3.16202e-322,-0.785551
1.8573,-2.09963,-1.57081,-1.82241,1.57087,-0.000167672,3.16202e-322,-0.785551
1.86529,-2.09967,-1.57081,-1.82245,1.57084,-0.000179593,3.16202e-322,-0.785563
1.87332,-2.09963,-1.57081,-1.82241,1.57086,-0.000191514,3.16202e-322,-0.785587
1.88132,-2.09962,-1.57081,-1.82244,1.57086,-0.000155751,3.16202e-322,-0.785575
1.88926,-2.09962,-1.57079,-1.82242,1.57088,-0.000191514,3.16202e-322,-0.785551
1.89728,-2.09966,-1.57076,-1.82241,1.57083,-0.000167672,3.16202e-322,-0.785623
1.90518,-2.09963,-1.5708,-1.82244,1.57087,-0.000179593,3.16202e-322,-0.785587
1.91321,-2.09963,-1.57077,-1.82244,1.57086,-0.000131432,3.16202e-322,-0.785587
1.92114,-2.09967,-1.57076,-1.82241,1.57086,-0.000155751,3.16202e-322,-0.785587
1.92927,-2.09965,-1.57077,-1.8224,1.57084,-0.000179593,3.16202e-322,-0.785611
1.93726,-2.09963,-1.57077,-1.82242,1.57084,-0.000155751,3.16202e-322,-0.785599
1.94524,-2.09963,-1.57077,-1.8224,1.57084,-0.000167672,3.16202e-322,-0.785611
1.95322,-2.09962,-1.5708,-1.8224,1.57087,-0.000191514,3.16202e-322,-0.785587
1.9613,-2.0996,-1.57076,-1.82241,1.57086,-0.000167672,3.16202e-322,-0.785623
1.96927,-2.09963,-1.57077,-1.82241,1.57084,-0.000155751,3.16202e-322,-0.785635
1.97726,-2.09962,-1.57077,-1.82244,1.57084,-0.000155751,3.16202e-322,-0.785647
1.98522,-2.09963,-1.57079,-1.82244,1.57088,-0.000191514,3.16202e-322,-0.785611
1.99324,-2.0996,-1.57075,-1.82242,1.57089,-0.000179593,3.16202e-322,-0.785635
2.00126,-2.09957,-1.57075,-1.82238,1.57087,-0.000179593,3.16202e-322,-0.785623
2.00912,-2.0996,-1.57077,-1.82245,1.57087,-0.000179593,3.16202e-322,-0.785623
2.01719,-2.09957,-1.57073,-1.82241,1.57089,-0.000179593,3.16202e-322,-0.785623
2.02518,-2.09959,-1.57076,-1.82239,1.57086,-0.000155751,3.16202e-322,-0.785683
2.03323,-2.0996,-1.57073,-1.82242,1.57083,-0.00014383,3.16202e-322,-0.785647
2.04118,-2.09959,-1.57071,-1.82245,1.57086,-0.000179593,3.16202e-322,-0.785635
2.04927,-2.0996,-1.57071,-1.82242,1.57086,-0.000167672,3.16202e-322,-0.785694
2.05723,-2.0996,-1.57073,-1.8224,1.57084,-0.000191514,3.16202e-322,-0.785671
2.06528,-2.09959,-1.57074,-1.82241,1.57087,-0.00014383,3.16202e-322,-0.785743
2.07326,-2.09959,-1.57074,-1.82242,1.5709,-0.000191514,3.16202e-322,-0.785815
2.08129,-2.09959,-1.57069,-1.82238,1.57083,-0.000191514,3.16202e-322,-0.785922
2.08929,-2.09955,-1.57075,-1.8224,1.57087,-0.000203435,3.16202e-322,-0.78597
2.09732,-2.09955,-1.5707,-1.8224,1.57087,-0.000191514,3.16202e-322,-0.786042
2.10513,-2.09955,-1.5707,-1.82238,1.57089,-0.000155751,3.16202e-322,-0.786114
2.11323,-2.09953,-1.57071,-1.82239,1.57092,-0.000179593,3.16202e-322,-0.786186
2.12127,-2.09951,-1.57065,-1.82242,1.57084,-0.000203435,3.16202e-322,-0.786246
2.12923,-2.09956,-1.57068,-1.82242,1.57087,-0.000167672,3.16202e-322,-0.786317
2.13725,-2.09955,-1.57068,-1.8224,1.5709,-0.000179593,3.16202e-322,-0.786365
2.14533,-2.09953,-1.57068,-1.82241,1.57092,-0.000167672,3.16202e-322,-0.786365
2.15329,-2.09951,-1.57068,-1.82238,1.57089,-0.000179593,3.16202e-322,-0.786425
2.16126,-2.09948,-1.57065,-1.82241,1.57088,-0.000179593,3.16202e-322,-0.786437
2.16924,-2.09949,-1.57056,-1.82236,1.57087,-0.000191514,3.16202e-322,-0.786509
2.17729,-2.09947,-1.57043,-1.82241,1.57089,-0.000203435,3.16202e-322,-0.786545
2.18528,-2.09947,-1.57032,-1.82238,1.57089,-0.000191514,3.16202e-322,-0.786605
2.19323,-2.09944,-1.57022,-1.82236,1.57087,-0.000179593,3.16202e-322,-0.786617
2.20124,-2.09942,-1.57012,-1.82239,1.57088,-0.000179593,3.16202e-322,-0.786677
2.20911,-2.09944,-1.57006,-1.82245,1.57086,-0.000191514,3.16202e-322,-0.786736
2.21709,-2.09949,-1.56997,-1.82239,1.57088,-0.000179593,3.16202e-322,-0.786845
2.2252,-2.09946,-1.56996,-1.8224,1.57088,-0.000203435,3.16202e-322,-0.786892
2.23322,-2.09942,-1.5699,-1.82244,1.57089,-0.000215356,3.16202e-322,-0.786964
2.24119,-2.09938,-1.56985,-1.82241,1.57087,-0.000215356,3.16202e-322,-0.787084
2.24922,-2.09937,-1.56979,-1.82238,1.57087,-0.000215356,3.16202e-322,-0.787156
2.25728,-2.09935,-1.56973,-1.82241,1.5709,-0.000203435,3.16202e-322,-0.7873
2.26526,-2.09934,-1.56965,-1.82238,1.57087,-0.000227753,3.16202e-322,-0.787383
2.27324,-2.0993,-1.56954,-1.82239,1.57092,-0.000251595,3.16202e-322,-0.787515
2.28125,-2.09924,-1.56941,-1.82239,1.57086,-0.000251595,3.16202e-322,-0.787575
2.28932,-2.09919,-1.5693,-1.82241,1.57093,-0.000251595,3.16202e-322,-0.787731
2.29728,-2.09917,-1.56912,-1.82238,1.57092,-0.000227753,3.16202e-322,-0.787958
2.30518,-2.09912,-1.56895,-1.82239,1.57093,-0.000239674,3.16202e-322,-0.78815
2.31317,-2.09908,-1.56885,-1.82241,1.57092,-0.000239674,3.16202e-322,-0.788354
2.32113,-2.09904,-1.56865,-1.82236,1.57096,-0.000227753,3.16202e-322,-0.788545
2.32913,-2.0989,-1.56852,-1.8224,1.571,-0.000239674,3.16202e-322,-0.788809
2.33719,-2.09876,-1.56836,-1.82234,1.57104,-0.000251595,3.16202e-322,-0.789084
2.3452,-2.09851,-1.56818,-1.82236,1.57112,-0.00027496,3.16202e-322,-0.789431
2.35323,-2.09827,-1.56797,-1.82238,1.57117,-0.000263516,3.16202e-322,-0.789839
2.36126,-2.09788,-1.56774,-1.8224,1.57129,-0.000286881,3.16202e-322,-0.790258
2.36925,-2.09754,-1.56753,-1.82244,1.57137,-0.000286881,3.16202e-322,-0.790689
2.37727,-2.09701,-1.56733,-1.8224,1.57148,-0.000286881,3.16202e-322,-0.79118
2.38526,-2.09646,-1.56704,-1.82238,1.57153,-0.000286881,3.16202e-322,-0.791647
2.39322,-2.09584,-1.56676,-1.82238,1.57167,-0.0003112,3.16202e-322,-0.792258
2.40123,-2.09509,-1.56643,-1.82242,1.57179,-0.00027496,3.16202e-322,-0.792941
2.40915,-2.09424,-1.56609,-1.82239,1.57195,-0.000323121,3.16202e-322,-0.793732
2.41715,-2.09327,-1.56566,-1.82235,1.57212,-0.000263516,3.16202e-322,-0.794522
2.42522,-2.09205,-1.56521,-1.82235,1.57227,-0.00027496,3.16202e-322,-0.795348
2.4332,-2.09053,-1.56475,-1.82239,1.57243,-0.000335042,3.16202e-322,-0.796163
2.44131,-2.0886,-1.56426,-1.82239,1.57262,-0.000286881,3.16202e-322,-0.797061
2.44924,-2.08643,-1.56372,-1.8224,1.57279,-0.000335042,3.16202e-322,-0.798139
2.45722,-2.08379,-1.56319,-1.82239,1.57301,-0.000335042,3.16202e-322,-0.799337
2.46529,-2.08082,-1.56268,-1.82236,1.57331,-0.000323121,3.16202e-322,-0.800654
2.47331,-2.07751,-1.56216,-1.82239,1.57366,-0.000286881,3.16202e-322,-0.802163
2.48128,-2.07398,-1.56167,-1.82238,1.574,-0.000323121,3.16202e-322,-0.803732
2.48926,-2.07032,-1.56125,-1.8223,1.57438,-0.000299279,3.16202e-322,-0.805421
2.4972,-2.06648,-1.56073,-1.82238,1.57462,-0.000323121,3.16202e-322,-0.807278
2.50515,-2.06241,-1.56013,-1.82239,1.57483,-0.000286881,3.16202e-322,-0.809266
2.51321,-2.05807,-1.55948,-1.8224,1.57507,-0.000286881,3.16202e-322,-0.811541
2.52112,-2.05345,-1.55881,-1.82235,1.57529,-0.0003112,3.16202e-322,-0.81402
2.5292,-2.04857,-1.55813,-1.82238,1.57566,-0.000286881,3.16202e-322,-0.816692
2.5372,-2.04364,-1.55734,-1.82234,1.57605,-0.000299279,3.16202e-322,-0.819554
2.54524,-2.03864,-1.55655,-1.82238,1.57661,-0.0003112,3.16202e-322,-0.822548
2.55327,-2.03368,-1.55567,-1.82241,1.57723,-0.000335042,3.16202e-322,-0.825686
2.56125,-2.0285,-1.55475,-1.82242,1.57794,-0.000323121,3.16202e-322,-0.829027
2.56929,-2.02322,-1.55369,-1.82239,1.57874,-0.000323121,3.16202e-322,-0.832537
2.57726,-2.01791,-1.55256,-1.82239,1.57966,-0.000299279,3.16202e-322,-0.83613
2.58526,-2.01265,-1.55126,-1.8224,1.58068,-0.000323121,3.16202e-322,-0.839903
2.5933,-2.0076,-1.54979,-1.8224,1.58183,-0.000323121,3.16202e-322,-0.843832
2.6013,-2.00274,-1.54815,-1.82238,1.5833,-0.000323121,3.16202e-322,-0.848036
2.60916,-1.99799,-1.54637,-1.8224,1.58505,-0.000299279,3.16202e-322,-0.852347
2.61707,-1.9933,-1.54439,-1.8224,1.58704,-0.000263516,3.16202e-322,-0.856827
2.62515,-1.98883,-1.54225,-1.82239,1.58928,-0.00027496,3.16202e-322,-0.861366
2.63314,-1.98439,-1.53996,-1.82236,1.59172,-0.000263516,3.16202e-322,-0.866001
2.64117,-1.98013,-1.53734,-1.82242,1.59422,-0.000286881,3.16202e-322,-0.870696
2.6492,-1.97606,-1.53453,-1.8224,1.59687,-0.00027496,3.16202e-322,-0.875679
2.65723,-1.97215,-1.53162,-1.82238,1.59943,-0.000251595,3.16202e-322,-0.880853
2.66523,-1.96828,-1.52853,-1.8224,1.60203,-0.000263516,3.16202e-322,-0.886231
2.67325,-1.96444,-1.52532,-1.82239,1.60455,-0.000251595,3.16202e-322,-0.891585
2.68127,-1.96055,-1.52206,-1.82239,1.60722,-0.000179593,3.16202e-322,-0.896868
2.68926,-1.95667,-1.51877,-1.82242,1.60998,-0.00014383,3.16202e-322,-0.902042
2.69724,-1.9527,-1.51539,-1.82239,1.6129,-0.000131432,3.16202e-322,-0.907419
2.70525,-1.94876,-1.51187,-1.82244,1.61591,-4.79857e-05,3.16202e-322,-0.91306
2.71317,-1.94502,-1.50818,-1.82241,1.6189,9.54993e-05,3.16202e-322,-0.918917
2.72125,-1.94148,-1.50435,-1.82238,1.62182,0.000226951,3.16202e-322,-0.924774
2.72922,-1.93791,-1.50063,-1.82244,1.62468,0.00039473,3.16202e-322,-0.930488
2.73723,-1.93428,-1.49686,-1.8224,1.62735,0.000574119,3.16202e-322,-0.936009
2.74527,-1.93041,-1.49307,-1.82246,1.62987,0.000705946,3.16202e-322,-0.941675
2.75323,-1.92639,-1.48931,-1.82242,1.6323,0.000933272,3.16202e-322,-0.947436
2.76123,-1.92229,-1.48558,-1.82239,1.63456,0.00112464,3.16202e-322,-0.953233
2.76924,-1.91814,-1.48179,-1.82236,1.63656,0.0014838,3.16202e-322,-0.958898
2.77725,-1.91413,-1.47796,-1.82238,1.63831,0.001807,3.16202e-322,-0.964468
2.78521,-1.9101,-1.47412,-1.82238,1.63995,0.00227363,3.16202e-322,-0.970025
2.79323,-1.90596,-1.47028,-1.8224,1.64133,0.00278858,3.16202e-322,-0.975679
2.80125,-1.90156,-1.46646,-1.82236,1.64262,0.00337468,3.16202e-322,-0.98132
2.80919,-1.89706,-1.46271,-1.8224,1.64371,0.00396154,3.16202e-322,-0.986818
2.81718,-1.89235,-1.45901,-1.82238,1.64476,0.00478732,3.16202e-322,-0.992112
2.8252,-1.88748,-1.45534,-1.82244,1.64568,0.00581647,3.16202e-322,-0.997251
2.83317,-1.88257,-1.45175,-1.8224,1.64652,0.00697744,3.16202e-322,-1.00246
2.84128,-1.87766,-1.44806,-1.82241,1.64735,0.00850955,3.16202e-322,-1.00785
2.84924,-1.87273,-1.44434,-1.82244,1.64795,0.0103765,3.16202e-322,-1.01326
2.85727,-1.86759,-1.44068,-1.82241,1.64834,0.0125909,3.16202e-322,-1.01853
2.8653,-1.86241,-1.43704,-1.82239,1.64862,0.0151042,3.16202e-322,-1.02355
2.87328,-1.85713,-1.43343,-1.8224,1.6487,0.0178812,3.16202e-322,-1.02831
2.88123,-1.85183,-1.42971,-1.8224,1.64876,0.021017,3.16202e-322,-1.03324
2.88924,-1.84656,-1.42607,-1.82242,1.64872,0.0242845,3.16202e-322,-1.0385
2.89727,-1.84113,-1.42254,-1.82246,1.64877,0.0277914,3.16202e-322,-1.04358
2.90521,-1.83557,-1.41893,-1.82242,1.64879,0.03155,3.16202e-322,-1.04855
2.91311,-1.82987,-1.41537,-1.82244,1.64874,0.0354639,3.16202e-322,-1.05337
2.92112,-1.82417,-1.41171,-1.82242,1.64878,0.0395214,3.16202e-322,-1.05795
2.92911,-1.81865,-1.40806,-1.82242,1.64879,0.0437465,3.16202e-322,-1.06251
2.93716,-1.81323,-1.4044,-1.82246,1.64878,0.048247,3.16202e-322,-1.06717
2.94521,-1.80768,-1.4007,-1.82246,1.64876,0.0527714,3.16202e-322,-1.0719
2.95318,-1.80215,-1.39702,-1.82246,1.64879,0.0575355,3.16202e-322,-1.07664
2.9612,-1.79664,-1.39344,-1.82244,1.64882,0.0624543,3.16202e-322,-1.08131
2.96923,-1.79128,-1.38984,-1.82245,1.64873,0.0673742,3.16202e-322,-1.08587
2.97726,-1.78609,-1.3863,-1.82242,1.6488,0.0723536,3.16202e-322,-1.09035
2.98529,-1.78097,-1.38254,-1.82245,1.64873,0.077548,3.16202e-322,-1.09483
2.99323,-1.77571,-1.37883,-1.82245,1.64871,0.0829945,3.16202e-322,-1.09965
3.00127,-1.77053,-1.37515,-1.82245,1.64876,0.0884885,3.16202e-322,-1.10442
3.00914,-1.76536,-1.37156,-1.82242,1.64876,0.0941383,3.16202e-322,-1.10918
3.01713,-1.76027,-1.36798,-1.82245,1.64873,0.0997762,3.16202e-322,-1.11388
3.02518,-1.75539,-1.36434,-1.82246,1.64874,0.105533,3.16202e-322,-1.11844
3.03313,-1.75069,-1.36071,-1.82246,1.64873,0.111494,3.16202e-322,-1.12297
3.04115,-1.74608,-1.35711,-1.82248,1.64872,0.117468,3.16202e-322,-1.12774
3.04918,-1.74144,-1.35349,-1.82251,1.64871,0.123525,3.16202e-322,-1.13262
3.05715,-1.73702,-1.3498,-1.82251,1.64873,0.12957,3.16202e-322,-1.13769
3.06523,-1.73265,-1.34618,-1.82252,1.64868,0.135519,3.16202e-322,-1.14275
3.07324,-1.7285,-1.34259,-1.82248,1.64873,0.141684,3.16202e-322,-1.14769
3.08124,-1.72461,-1.33899,-1.82252,1.64874,0.147813,3.16202e-322,-1.15249
3.08921,-1.72098,-1.33537,-1.82253,1.64871,0.153954,3.16202e-322,-1.15736
3.09722,-1.71752,-1.33175,-1.82252,1.64868,0.159998,3.16202e-322,-1.16246
3.10512,-1.71422,-1.3283,-1.82256,1.6487,0.165948,3.16202e-322,-1.16771
3.11316,-1.71109,-1.32481,-1.82258,1.64868,0.171922,3.16202e-322,-1.17293
3.12116,-1.70817,-1.32137,-1.82258,1.64871,0.177966,3.16202e-322,-1.17811
3.12922,-1.70542,-1.31789,-1.82258,1.64866,0.184012,3.16202e-322,-1.18311
3.13726,-1.70281,-1.31439,-1.82263,1.64865,0.189962,3.16202e-322,-1.18817
3.14528,-1.70038,-1.31098,-1.82256,1.64861,0.195804,3.16202e-322,-1.19338
3.15326,-1.69825,-1.30759,-1.82263,1.64859,0.201526,3.16202e-322,-1.1986
3.16127,-1.69649,-1.30433,-1.82264,1.64849,0.207248,3.16202e-322,-1.20397
3.16929,-1.69509,-1.30109,-1.82265,1.64849,0.212851,3.16202e-322,-1.20912
3.1773,-1.6939,-1.29797,-1.82265,1.64853,0.218381,3.16202e-322,-1.21419
3.18524,-1.69307,-1.29494,-1.82268,1.64849,0.223733,3.16202e-322,-1.21922
3.1932,-1.69246,-1.29198,-1.82274,1.64847,0.228952,3.16202e-322,-1.22438
3.20134,-1.69203,-1.28907,-1.82281,1.64841,0.23416,3.16202e-322,-1.2296
3.2091,-1.69188,-1.28622,-1.82297,1.64826,0.23938,3.16202e-322,-1.23485
3.21717,-1.69183,-1.2835,-1.82319,1.64818,0.244432,3.16202e-322,-1.23989
3.22516,-1.69184,-1.28083,-1.82355,1.64811,0.249412,3.16202e-322,-1.24468
3.23317,-1.69185,-1.27827,-1.82397,1.64807,0.254141,3.16202e-322,-1.24939
3.24117,-1.69183,-1.27579,-1.82445,1.64806,0.258726,3.16202e-322,-1.25418
3.24926,-1.69183,-1.27345,-1.82487,1.64805,0.263216,3.16202e-322,-1.25905
3.25723,-1.69178,-1.27116,-1.82531,1.64807,0.267729,3.16202e-322,-1.26395
3.26525,-1.69177,-1.26907,-1.82584,1.64817,0.272243,3.16202e-322,-1.26875
3.27327,-1.69177,-1.26706,-1.82628,1.64818,0.276672,3.16202e-322,-1.27339
3.28118,-1.6917,-1.2651,-1.82677,1.64819,0.280947,3.16202e-322,-1.27782
3.28924,-1.69158,-1.26324,-1.82748,1.64818,0.28491,3.16202e-322,-1.28218
3.2972,-1.69141,-1.26146,-1.82819,1.64816,0.288705,3.16202e-322,-1.28655
3.30521,-1.69131,-1.25968,-1.82888,1.64818,0.292296,3.16202e-322,-1.29089
3.31321,-1.69113,-1.25796,-1.82972,1.64817,0.295732,3.16202e-322,-1.29509
3.32119,-1.69098,-1.25631,-1.83053,1.64816,0.299061,3.16202e-322,-1.29916
3.32924,-1.6907,-1.25471,-1.83139,1.6482,0.302317,3.16202e-322,-1.30301
3.33713,-1.69033,-1.25323,-1.83246,1.64819,0.305442,3.16202e-322,-1.30665
3.34523,-1.68983,-1.25178,-1.83358,1.6482,0.308411,3.16202e-322,-1.31014
3.35328,-1.68915,-1.2504,-1.83487,1.64818,0.311297,3.16202e-322,-1.31353
3.36124,-1.6883,-1.24921,-1.83627,1.64818,0.313979,3.16202e-322,-1.31694
3.36926,-1.68717,-1.24801,-1.83777,1.64818,0.316409,3.16202e-322,-1.32025
3.37724,-1.68582,-1.24696,-1.83923,1.64819,0.318648,3.16202e-322,-1.32334
3.38525,-1.68409,-1.24605,-1.84073,1.64807,0.32072,3.16202e-322,-1.32632
3.39323,-1.68183,-1.24522,-1.84221,1.6481,0.322671,3.16202e-322,-1.3291
3.40124,-1.67898,-1.24449,-1.84383,1.64808,0.324611,3.16202e-322,-1.33176
3.4091,-1.67557,-1.24393,-1.84554,1.64808,0.326466,3.16202e-322,-1.3343
3.41709,-1.6716,-1.24353,-1.84736,1.64808,0.328382,3.16202e-322,-1.33671
3.42514,-1.66706,-1.24335,-1.84919,1.64816,0.33037,3.16202e-322,-1.33907
3.43317,-1.66212,-1.24322,-1.85088,1.64813,0.332309,3.16202e-322,-1.34132
3.44118,-1.65683,-1.24323,-1.85287,1.64816,0.334189,3.16202e-322,-1.34351
3.44926,-1.65105,-1.24326,-1.8548,1.64811,0.335913,3.16202e-322,-1.34562
3.45726,-1.6447,-1.24327,-1.85675,1.64811,0.337518,3.16202e-322,-1.34769
3.46528,-1.6379,-1.24326,-1.85882,1.64812,0.33911,3.16202e-322,-1.34967
3.47325,-1.63083,-1.2433,-1.86079,1.64813,0.340595,3.16202e-322,-1.35159
3.48121,-1.62359,-1.24323,-1.86286,1.64816,0.341948,3.16202e-322,-1.35345
3.48921,-1.61592,-1.24323,-1.86497,1.64814,0.343121,3.16202e-322,-1.35524
3.4972,-1.60792,-1.24321,-1.8672,1.64814,0.344187,3.16202e-322,-1.35702
3.50514,-1.59981,-1.24326,-1.86947,1.64812,0.345193,3.16202e-322,-1.35871
3.51311,-1.59174,-1.24326,-1.87178,1.64812,0.346019,3.16202e-322,-1.36039
3.52104,-1.58345,-1.24328,-1.87428,1.6481,0.346761,3.16202e-322,-1.3619
3.52905,-1.57493,-1.24322,-1.87684,1.64811,0.347444,3.16202e-322,-1.36329
3.53704,-1.56662,-1.24322,-1.87949,1.64806,0.347946,3.16202e-322,-1.36462
3.54518,-1.55832,-1.24323,-1.88216,1.64808,0.348246,3.16202e-322,-1.36579
3.5532,-1.55007,-1.24322,-1.88495,1.64804,0.348341,3.16202e-322,-1.36686
3.5612,-1.5419,-1.2432,-1.88785,1.64799,0.348461,3.16202e-322,-1.36782
3.56918,-1.53415,-1.24326,-1.89083,1.64789,0.348533,3.16202e-322,-1.36863
3.57717,-1.52666,-1.24326,-1.89385,1.64774,0.348617,3.16202e-322,-1.36938
3.58518,-1.51922,-1.24321,-1.89694,1.64751,0.348689,3.16202e-322,-1.36997
3.59318,-1.51191,-1.24323,-1.90011,1.64716,0.348857,3.16202e-322,-1.37036
3.60123,-1.50505,-1.24323,-1.9033,1.64671,0.348976,3.16202e-322,-1.37055
3.60919,-1.49877,-1.24323,-1.9065,1.64617,0.349191,3.16202e-322,-1.37058
3.6172,-1.49262,-1.24323,-1.90975,1.64555,0.349383,3.16202e-322,-1.37057
3.62524,-1.48666,-1.24323,-1.9131,1.64489,0.349563,3.16202e-322,-1.37061
3.63317,-1.48097,-1.24327,-1.91639,1.64417,0.349694,3.16202e-322,-1.3705
3.64121,-1.4758,-1.24324,-1.91976,1.64334,0.349778,3.16202e-322,-1.37048
3.64921,-1.47113,-1.24326,-1.92301,1.64261,0.349814,3.16202e-322,-1.37048
3.65723,-1.46692,-1.2433,-1.92621,1.64184,0.349862,3.16202e-322,-1.3705
3.66525,-1.4631,-1.2433,-1.92939,1.64108,0.34991,3.16202e-322,-1.37046
3.67319,-1.45955,-1.24327,-1.93262,1.64031,0.349958,3.16202e-322,-1.37052
3.68123,-1.45646,-1.24327,-1.93581,1.63953,0.350006,3.16202e-322,-1.37051
3.68925,-1.4536,-1.24328,-1.93906,1.63875,0.35003,3.16202e-322,-1.37052
3.69725,-1.45107,-1.24324,-1.94241,1.6379,0.35003,3.16202e-322,-1.3705
3.70511,-1.44887,-1.24326,-1.94579,1.63709,0.350018,3.16202e-322,-1.37049
3.71313,-1.447,-1.24326,-1.94911,1.6363,0.350042,3.16202e-322,-1.37051
3.72108,-1.44553,-1.24324,-1.95235,1.63549,0.350018,3.16202e-322,-1.3705
3.72918,-1.44442,-1.24323,-1.95565,1.63475,0.350078,3.16202e-322,-1.37052
3.73713,-1.44356,-1.24326,-1.95885,1.63406,0.350054,3.16202e-322,-1.3705
3.74522,-1.44298,-1.24328,-1.96201,1.63345,0.350078,3.16202e-322,-1.37054
3.75326,-1.44264,-1.24326,-1.96516,1.63286,0.35009,3.16202e-322,-1.37054
3.76123,-1.44265,-1.24323,-1.96822,1.63233,0.350054,3.16202e-322,-1.37055
3.76924,-1.44262,-1.24327,-1.97135,1.63181,0.350078,3.16202e-322,-1.37051
3.77727,-1.44264,-1.24326,-1.97439,1.63134,0.350078,3.16202e-322,-1.37051
3.78519,-1.44264,-1.24326,-1.97738,1.63097,0.350054,3.16202e-322,-1.37051
3.7932,-1.44264,-1.24326,-1.98038,1.63067,0.350066,3.16202e-322,-1.37051
3.80125,-1.44261,-1.24326,-1.98328,1.63051,0.350078,3.16202e-322,-1.37051
3.80911,-1.44264,-1.24328,-1.9861,1.63045,0.350054,3.16202e-322,-1.37054
3.81702,-1.44261,-1.24328,-1.98887,1.63048,0.350066,3.16202e-322,-1.37049
3.82503,-1.44259,-1.24327,-1.99156,1.63048,0.350078,3.16202e-322,-1.37055
3.83306,-1.44259,-1.24326,-1.99419,1.63046,0.350054,3.16202e-322,-1.37046
3.84105,-1.44261,-1.24329,-1.99673,1.63048,0.350042,3.16202e-322,-1.37045
3.84912,-1.44259,-1.24326,-1.99915,1.63051,0.350078,3.16202e-322,-1.37045
3.8571,-1.44255,-1.24327,-2.00151,1.63045,0.350066,3.16202e-322,-1.37045
3.86516,-1.44253,-1.24327,-2.00373,1.63048,0.350102,3.16202e-322,-1.37045
3.87313,-1.44254,-1.2433,-2.00582,1.63051,0.350066,3.16202e-322,-1.37046
3.88114,-1.44253,-1.24328,-2.00772,1.63045,0.350066,3.16202e-322,-1.37044
3.88918,-1.44254,-1.24332,-2.00948,1.6305,0.350078,3.16202e-322,-1.37045
3.89719,-1.44254,-1.24326,-2.01109,1.6305,0.350078,3.16202e-322,-1.37045
3.90508,-1.44252,-1.24328,-2.01257,1.6305,0.35009,3.16202e-322,-1.37046
3.91316,-1.44253,-1.24329,-2.01388,1.63046,0.350078,3.16202e-322,-1.37043
3.92112,-1.44248,-1.24328,-2.01511,1.6305,0.350078,3.16202e-322,-1.37044
3.92917,-1.4425,-1.24328,-2.01622,1.63047,0.350078,3.16202e-322,-1.37043
3.93723,-1.4425,-1.24329,-2.01721,1.6305,0.350102,3.16202e-322,-1.37043
3.94524,-1.44252,-1.2433,-2.01805,1.63051,0.350102,3.16202e-322,-1.37046
3.95319,-1.44247,-1.2433,-2.0188,1.63052,0.350078,3.16202e-322,-1.37042
3.96118,-1.44248,-1.2433,-2.01946,1.63053,0.350114,3.16202e-322,-1.37041
3.96914,-1.44253,-1.24333,-2.01987,1.6305,0.35009,3.16202e-322,-1.37043
3.9772,-1.44248,-1.24329,-2.02001,1.63053,0.350078,3.16202e-322,-1.37043
3.98519,-1.44249,-1.24333,-2.02002,1.63053,0.350066,3.16202e-322,-1.37045
3.99319,-1.44243,-1.2433,-2.02002,1.63051,0.350102,3.16202e-322,-1.37044
4.0012,-1.44242,-1.24326,-2.01996,1.63054,0.350102,3.16202e-322,-1.37041
4.00905,-1.4424,-1.24328,-2.02,1.63057,0.350078,3.16202e-322,-1.37039
4.01711,-1.44236,-1.24333,-2.01996,1.63053,0.350114,3.16202e-322,-1.37037
4.02513,-1.44236,-1.24329,-2.01998,1.63053,0.350066,3.16202e-322,-1.37031
4.0331,-1.44237,-1.2433,-2.01999,1.63054,0.350066,3.16202e-322,-1.37033
4.04116,-1.44236,-1.24334,-2.01999,1.63052,0.35009,3.16202e-322,-1.37033
4.04917,-1.44234,-1.2433,-2.02002,1.63053,0.35009,3.16202e-322,-1.37032
4.05719,-1.44233,-1.24329,-2.01998,1.6305,0.35009,3.16202e-322,-1.37027
4.06522,-1.4423,-1.24329,-2.02001,1.63053,0.350078,3.16202e-322,-1.37035
4.07321,-1.44225,-1.24333,-2.01999,1.63052,0.35009,3.16202e-322,-1.37031
4.08114,-1.44225,-1.24334,-2.02,1.63053,0.350102,3.16202e-322,-1.37027
4.08919,-1.44221,-1.24329,-2.01999,1.6305,0.350114,3.16202e-322,-1.37036
4.09722,-1.44215,-1.2433,-2.01999,1.63054,0.350078,3.16202e-322,-1.37032
4.10517,-1.44216,-1.24328,-2.02,1.63053,0.350102,3.16202e-322,-1.37033
4.11307,-1.44215,-1.24332,-2.01998,1.63053,0.350066,3.16202e-322,-1.37035
4.12107,-1.44216,-1.24329,-2.02,1.63051,0.350066,3.16202e-322,-1.37027
4.12908,-1.44217,-1.24329,-2.01999,1.63052,0.350078,3.16202e-322,-1.37032
4.13711,-1.44213,-1.24328,-2.01998,1.63053,0.350078,3.16202e-322,-1.37032
4.14516,-1.44213,-1.24329,-2.01998,1.63051,0.350102,3.16202e-322,-1.37037
4.15312,-1.44216,-1.24332,-2.02004,1.63051,0.350054,3.16202e-322,-1.37035
4.16118,-1.44217,-1.24332,-2.02001,1.63054,0.350114,3.16202e-322,-1.37032
4.1692,-1.44213,-1.24329,-2.02,1.63052,0.350078,3.16202e-322,-1.37029
4.17717,-1.44215,-1.24328,-2.01996,1.63048,0.350114,3.16202e-322,-1.37032
4.1852,-1.44213,-1.24333,-2.02,1.6305,0.35009,3.16202e-322,-1.37033
4.19315,-1.44215,-1.24334,-2.02,1.6305,0.350054,3.16202e-322,-1.3703
4.20117,-1.44215,-1.24328,-2.02001,1.63053,0.35009,3.16202e-322,-1.3703
4.20905,-1.44212,-1.24334,-2.01998,1.63052,0.35009,3.16202e-322,-1.37036
4.2171,-1.44212,-1.2433,-2.02,1.63051,0.350102,3.16202e-322,-1.3703
4.22509,-1.44217,-1.24332,-2.02002,1.63052,0.350066,3.16202e-322,-1.37033
4.23307,-1.44216,-1.24333,-2.02002,1.63052,0.35009,3.16202e-322,-1.37033
4.2411,-1.44216,-1.24329,-2.01999,1.63052,0.350078,3.16202e-322,-1.3703
4.24912,-1.44213,-1.24329,-2.01996,1.63052,0.350066,3.16202e-322,-1.3703
4.25712,-1.44212,-1.2433,-2.01998,1.63053,0.350078,3.16202e-322,-1.37033
4.26513,-1.44213,-1.24332,-2.02,1.63053,0.350054,3.16202e-322,-1.3703
4.27314,-1.44216,-1.24332,-2.02001,1.63053,0.35003,3.16202e-322,-1.37033
4.28114,-1.44211,-1.24332,-2.02,1.63051,0.350102,3.16202e-322,-1.37031
4.28913,-1.44215,-1.24329,-2.02001,1.63051,0.350078,3.16202e-322,-1.37032
4.29713,-1.44212,-1.24327,-2.01999,1.63052,0.35009,3.16202e-322,-1.37032
4.30509,-1.44213,-1.24327,-2.02001,1.63052,0.350078,3.16202e-322,-1.37031
4.31305,-1.44213,-1.2433,-2.01999,1.63051,0.350054,3.16202e-322,-1.37035
4.32114,-1.44213,-1.24333,-2.01999,1.6305,0.350054,3.16202e-322,-1.37035
4.3291,-1.44215,-1.24329,-2.02,1.63056,0.350042,3.16202e-322,-1.3703
4.33715,-1.44211,-1.24334,-2.01998,1.63054,0.350066,3.16202e-322,-1.37033
4.34516,-1.44213,-1.24328,-2.01999,1.63052,0.350042,3.16202e-322,-1.37029
4.35312,-1.44216,-1.24328,-2.01998,1.63048,0.350078,3.16202e-322,-1.37031
4.36112,-1.44213,-1.24328,-2.02001,1.63054,0.35009,3.16202e-322,-1.37033
4.36915,-1.44212,-1.2433,-2.01998,1.63053,0.350078,3.16202e-322,-1.37031
4.37701,-1.44215,-1.24332,-2.01999,1.63052,0.350066,3.16202e-322,-1.37036
4.38504,-1.44213,-1.24328,-2.01999,1.6305,0.350066,3.16202e-322,-1.37032
4.39302,-1.44211,-1.24332,-2.01994,1.63053,0.350054,3.16202e-322,-1.37032
4.40107,-1.44213,-1.24328,-2.01998,1.63052,0.350054,3.16202e-322,-1.37033
4.40908,-1.44211,-1.24329,-2.01995,1.63053,0.350078,3.16202e-322,-1.37029
4.417,-1.44213,-1.24328,-2.01998,1.63051,0.350042,3.16202e-322,-1.3703
4.42507,-1.44212,-1.24333,-2.01999,1.6305,0.350078,3.16202e-322,-1.3703
4.43312,-1.44213,-1.24329,-2.02001,1.63052,0.350066,3.16202e-322,-1.37037
4.44109,-1.44211,-1.24327,-2.02,1.63052,0.350042,3.16202e-322,-1.37031
4.44919,-1.44213,-1.24333,-2.01998,1.63047,0.35003,3.16202e-322,-1.37036
4.45713,-1.44212,-1.2433,-2.01999,1.6305,0.350042,3.16202e-322,-1.37035
4.46521,-1.44212,-1.24329,-2.02001,1.63051,0.350066,3.16202e-322,-1.37035
4.47324,-1.44215,-1.2433,-2.02001,1.6305,0.35009,3.16202e-322,-1.37039
4.48118,-1.44215,-1.24329,-2.02,1.63048,0.350042,3.16202e-322,-1.37033
4.4891,-1.44215,-1.2433,-2.01998,1.63051,0.350042,3.16202e-322,-1.37035
4.49715,-1.44212,-1.24332,-2.01996,1.6305,0.350054,3.16202e-322,-1.37031
4.50516,-1.44216,-1.24329,-2.01999,1.63053,0.350054,3.16202e-322,-1.37037
4.5131,-1.44213,-1.2433,-2.02,1.63052,0.350078,3.16202e-322,-1.37036
4.52121,-1.44213,-1.24329,-2.01999,1.63053,0.350042,3.16202e-322,-1.37035
4.52923,-1.44215,-1.24333,-2.01996,1.63047,0.350054,3.16202e-322,-1.37037
4.53718,-1.44213,-1.2433,-2.01999,1.63051,0.350018,3.16202e-322,-1.37032
4.54518,-1.44213,-1.2433,-2.02001,1.63051,0.350042,3.16202e-322,-1.37033
4.5532,-1.44216,-1.24328,-2.01999,1.63052,0.35003,3.16202e-322,-1.37031
4.5612,-1.44213,-1.24332,-2.02004,1.63047,0.350042,3.16202e-322,-1.37036
4.56917,-1.44213,-1.24332,-2.02002,1.63051,0.350054,3.16202e-322,-1.37035
4.57724,-1.44213,-1.24327,-2.01998,1.63054,0.350018,3.16202e-322,-1.37036
4.58521,-1.44213,-1.2433,-2.02004,1.63053,0.35003,3.16202e-322,-1.37035
4.59318,-1.44215,-1.24326,-2.02,1.63056,0.350054,3.16202e-322,-1.37035
4.60122,-1.44215,-1.24329,-2.01999,1.63051,0.350042,3.16202e-322,-1.37031
4.60904,-1.44212,-1.2433,-2.02002,1.63054,0.35003,3.16202e-322,-1.37036
4.61706,-1.44213,-1.24328,-2.02,1.63051,0.35003,3.16202e-322,-1.37036
4.62514,-1.44212,-1.24329,-2.01999,1.63054,0.350066,3.16202e-322,-1.37036
4.63317,-1.44216,-1.24329,-2.02,1.63051,0.350018,3.16202e-322,-1.37031
4.64115,-1.44217,-1.24333,-2.02001,1.63051,0.350054,3.16202e-322,-1.37033
4.64922,-1.44218,-1.24328,-2.02005,1.63052,0.350054,3.16202e-322,-1.37037
4.65719,-1.44216,-1.24328,-2.02,1.63054,0.350018,3.16202e-322,-1.37039
4.66523,-1.44215,-1.24333,-2.02001,1.63052,0.35003,3.16202e-322,-1.37033
4.67326,-1.44216,-1.2433,-2.02002,1.63052,0.350018,3.16202e-322,-1.37035
4.68115,-1.44218,-1.24332,-2.01999,1.63052,0.350018,3.16202e-322,-1.37036
4.68914,-1.44218,-1.24328,-2.02001,1.63051,0.350042,3.16202e-322,-1.37038
4.69715,-1.44219,-1.24329,-2.02002,1.63054,0.350018,3.16202e-322,-1.37032
4.70514,-1.44215,-1.24328,-2.02001,1.63054,0.350018,3.16202e-322,-1.37039
4.71304,-1.44216,-1.24332,-2.01999,1.63053,0.350018,3.16202e-322,-1.37035
4.72105,-1.44217,-1.24332,-2.01999,1.63056,0.35003,3.16202e-322,-1.37039
4.72908,-1.44218,-1.24329,-2.01999,1.63054,0.350006,3.16202e-322,-1.37035
4.73713,-1.44217,-1.24329,-2.01998,1.63056,0.350006,3.16202e-322,-1.37035
4.74516,-1.44215,-1.24332,-2.02002,1.63052,0.350054,3.16202e-322,-1.37036
4.75318,-1.44215,-1.24328,-2.02001,1.63054,0.350006,3.16202e-322,-1.37039
4.76118,-1.44215,-1.24326,-2.02004,1.63053,0.350018,3.16202e-322,-1.3703
4.76915,-1.44219,-1.2433,-2.02002,1.63051,0.350054,3.16202e-322,-1.37035
4.77722,-1.44218,-1.24333,-2.02001,1.63054,0.350042,3.16202e-322,-1.37033
4.78513,-1.44218,-1.24328,-2.02002,1.63054,0.350018,3.16202e-322,-1.37035
4.7932,-1.44219,-1.24328,-2.01999,1.63053,0.349994,3.16202e-322,-1.37037
4.8012,-1.44219,-1.24329,-2.02001,1.63054,0.350006,3.16202e-322,-1.37032
4.80912,-1.44218,-1.24329,-2.02,1.63051,0.35003,3.16202e-322,-1.37038
4.81708,-1.44218,-1.24332,-2.01999,1.63057,0.350042,3.16202e-322,-1.37042
4.82516,-1.44217,-1.24332,-2.02004,1.63053,0.350018,3.16202e-322,-1.37039
4.83317,-1.44218,-1.24332,-2.02,1.63056,0.350006,3.16202e-322,-1.37035
4.84113,-1.44216,-1.24327,-2.02001,1.63057,0.35003,3.16202e-322,-1.37036
4.84921,-1.44216,-1.24329,-2.02001,1.63056,0.35003,3.16202e-322,-1.37033
4.85721,-1.44217,-1.24329,-2.01999,1.63054,0.35003,3.16202e-322,-1.37037
4.8652,-1.44218,-1.24332,-2.01999,1.63052,0.350018,3.16202e-322,-1.37035
4.87323,-1.44221,-1.2433,-2.02002,1.63056,0.35003,3.16202e-322,-1.37037
4.88117,-1.44218,-1.24333,-2.02001,1.63057,0.35003,3.16202e-322,-1.37035
4.88913,-1.44218,-1.24329,-2.01999,1.63054,0.350042,3.16202e-322,-1.37036
4.89722,-1.44217,-1.24329,-2.01999,1.63053,0.350042,3.16202e-322,-1.37039
4.90505,-1.44218,-1.24327,-2.01999,1.63054,0.350042,3.16202e-322,-1.37042
4.91314,-1.44217,-1.24327,-2.02002,1.63057,0.350018,3.16202e-322,-1.37035
4.92107,-1.44221,-1.24326,-2.02001,1.63053,0.35003,3.16202e-322,-1.37035
4.9292,-1.44217,-1.24329,-2.02001,1.63058,0.350018,3.16202e-322,-1.37036
4.93713,-1.44217,-1.24328,-2.02,1.63053,0.350042,3.16202e-322,-1.37033
4.94518,-1.44217,-1.24333,-2.01998,1.63056,0.350006,3.16202e-322,-1.37036
4.95322,-1.44218,-1.24328,-2.02002,1.63058,0.350006,3.16202e-322,-1.37036
4.96112,-1.44217,-1.2433,-2.02002,1.63058,0.350018,3.16202e-322,-1.37038
4.96915,-1.44221,-1.24333,-2.02002,1.63058,0.35003,3.16202e-322,-1.37035
4.97723,-1.44222,-1.24329,-2.02002,1.63056,0.350018,3.16202e-322,-1.37038
4.98525,-1.44218,-1.24329,-2.02005,1.63057,0.350042,3.16202e-322,-1.37035
4.99314,-1.44218,-1.24329,-2.02,1.63054,0.35003,3.16202e-322,-1.37037
5.00118,-1.44219,-1.2433,-2.02,1.63053,0.350006,3.16202e-322,-1.37036
5.00904,-1.44217,-1.2433,-2.01996,1.63057,0.350018,3.16202e-322,-1.37036
5.01706,-1.44221,-1.24328,-2.02004,1.63056,0.350006,3.16202e-322,-1.37036
5.02501,-1.44219,-1.24329,-2.02002,1.63056,0.350018,3.16202e-322,-1.37036
5.03304,-1.44219,-1.24332,-2.02002,1.63057,0.350042,3.16202e-322,-1.37037
5.0411,-1.44222,-1.2433,-2.02,1.63054,0.350006,3.16202e-322,-1.37035
5.04922,-1.44218,-1.24333,-2.02002,1.63056,0.349994,3.16202e-322,-1.37038
5.05718,-1.44222,-1.2433,-2.02002,1.63057,0.350042,3.16202e-322,-1.37033
5.06511,-1.44218,-1.24328,-2.02004,1.63058,0.350006,3.16202e-322,-1.37037
5.07314,-1.44219,-1.2433,-2.02001,1.63059,0.350042,3.16202e-322,-1.37031
5.08117,-1.44218,-1.24328,-2.02005,1.63057,0.350006,3.16202e-322,-1.37038
5.08916,-1.44222,-1.2433,-2.02002,1.63058,0.349994,3.16202e-322,-1.37035
5.09714,-1.44221,-1.24329,-2.02004,1.63054,0.350006,3.16202e-322,-1.37035
5.10508,-1.44219,-1.24326,-2.02001,1.63056,0.350006,3.16202e-322,-1.37036
5.11316,-1.44221,-1.24332,-2.02005,1.63058,0.349994,3.16202e-322,-1.37037
5.12109,-1.44219,-1.24329,-2.02001,1.63057,0.350006,3.16202e-322,-1.37036
5.12914,-1.44224,-1.24334,-2.01999,1.63062,0.350006,3.16202e-322,-1.37036
5.13712,-1.44218,-1.2433,-2.02,1.63062,0.350018,3.16202e-322,-1.37036
5.14518,-1.44223,-1.24329,-2.02002,1.63057,0.35003,3.16202e-322,-1.37036
5.1532,-1.44222,-1.24329,-2.01999,1.63063,0.350042,3.16202e-322,-1.37039
5.1612,-1.44217,-1.2433,-2.02001,1.63062,0.350006,3.16202e-322,-1.37041
5.16911,-1.44222,-1.24332,-2.02004,1.63059,0.349994,3.16202e-322,-1.37033
5.17714,-1.44225,-1.24329,-2.02001,1.63059,0.350018,3.16202e-322,-1.37041
5.1851,-1.44219,-1.24329,-2.02004,1.63057,0.350006,3.16202e-322,-1.37035
5.19322,-1.44224,-1.24329,-2.02001,1.6306,0.349994,3.16202e-322,-1.37039
5.20116,-1.44223,-1.24332,-2.02002,1.63059,0.349994,3.16202e-322,-1.37037
5.20899,-1.44228,-1.24329,-2.01999,1.63059,0.349982,3.16202e-322,-1.37036
5.21696,-1.44224,-1.24329,-2.02002,1.6306,0.350018,3.16202e-322,-1.37041
5.22503,-1.44223,-1.24334,-2.02005,1.6306,0.350006,3.16202e-322,-1.37035
5.2331,-1.44224,-1.24329,-2.02004,1.6306,0.350006,3.16202e-322,-1.37036
5.24109,-1.44223,-1.24332,-2.02,1.63062,0.35003,3.16202e-322,-1.37041
5.24913,-1.44219,-1.24332,-2.02006,1.63062,0.350018,3.16202e-322,-1.37039
5.25713,-1.44222,-1.24333,-2.02005,1.63059,0.349994,3.16202e-322,-1.37039
5.2651,-1.44223,-1.2433,-2.02004,1.63059,0.349994,3.16202e-322,-1.37036
5.27311,-1.44221,-1.24328,-2.02006,1.63062,0.350006,3.16202e-322,-1.37037
5.28111,-1.44221,-1.24327,-2.02002,1.63059,0.350006,3.16202e-322,-1.37037
5.28917,-1.44224,-1.2433,-2.02005,1.63059,0.350006,3.16202e-322,-1.37036
5.29716,-1.44224,-1.24332,-2.02,1.63059,0.35003,3.16202e-322,-1.37035
5.30504,-1.44225,-1.24334,-2.02004,1.63059,0.349994,3.16202e-322,-1.37039
5.31304,-1.44225,-1.24329,-2.02004,1.63062,0.349994,3.16202e-322,-1.37038
5.32106,-1.44224,-1.24333,-2.02002,1.6306,0.350018,3.16202e-322,-1.37036
5.32908,-1.44221,-1.24332,-2.02001,1.6306,0.349994,3.16202e-322,-1.37038
5.33714,-1.44223,-1.24333,-2.02002,1.63064,0.350006,3.16202e-322,-1.37039
5.34512,-1.44223,-1.24328,-2.02004,1.6306,0.350042,3.16202e-322,-1.37041
5.35317,-1.44222,-1.24333,-2.01999,1.63058,0.349994,3.16202e-322,-1.37038
5.36114,-1.44223,-1.2433,-2.02,1.63062,0.350018,3.16202e-322,-1.37038
5.36915,-1.44222,-1.2433,-2.02006,1.63063,0.350042,3.16202e-322,-1.37037
5.37717,-1.44223,-1.24332,-2.02004,1.63058,0.349994,3.16202e-322,-1.37037
5.3852,-1.44219,-1.24329,-2.02005,1.6306,0.349994,3.16202e-322,-1.37041
5.39318,-1.44224,-1.2433,-2.02004,1.63062,0.350018,3.16202e-322,-1.37037
5.40141,-1.44223,-1.24332,-2.02002,1.63062,0.350006,3.16202e-322,-1.37039
5.4091,-1.44225,-1.2433,-2.02004,1.6306,0.350006,3.16202e-322,-1.37037
5.4171,-1.44222,-1.24333,-2.02004,1.63062,0.350006,3.16202e-322,-1.37041
5.42514,-1.44224,-1.24333,-2.02001,1.63058,0.349958,3.16202e-322,-1.37035
5.43312,-1.44224,-1.24332,-2.02006,1.6306,0.349994,3.16202e-322,-1.37035
5.4412,-1.44223,-1.24334,-2.02002,1.63062,0.350006,3.16202e-322,-1.37038
5.44924,-1.44225,-1.24332,-2.02001,1.63058,0.349958,3.16202e-322,-1.37037
5.45718,-1.44227,-1.24333,-2.02006,1.63057,0.350006,3.16202e-322,-1.37038
5.46515,-1.44224,-1.24335,-2.02001,1.63062,0.350006,3.16202e-322,-1.37036
5.47313,-1.44223,-1.24333,-2.02006,1.6306,0.35003,3.16202e-322,-1.37039
5.48113,-1.44225,-1.24333,-2.02002,1.63062,0.349994,3.16202e-322,-1.37039
5.48902,-1.44223,-1.24333,-2.02002,1.63059,0.350018,3.16202e-322,-1.37039
5.49706,-1.44225,-1.2433,-2.02004,1.63059,0.350018,3.16202e-322,-1.37036
5.50506,-1.44224,-1.24333,-2.02006,1.63058,0.350018,3.16202e-322,-1.37038
5.51301,-1.44224,-1.24335,-2.02004,1.63059,0.35003,3.16202e-322,-1.37039
5.52102,-1.44229,-1.24333,-2.02002,1.63058,0.350018,3.16202e-322,-1.37039
5.52908,-1.44227,-1.24335,-2.02004,1.63063,0.350006,3.16202e-322,-1.37036
5.5371,-1.44225,-1.2433,-2.02007,1.6306,0.349982,3.16202e-322,-1.37036
5.54513,-1.44228,-1.24335,-2.02006,1.63057,0.349994,3.16202e-322,-1.37036
5.55314,-1.44223,-1.24334,-2.02004,1.6306,0.350018,3.16202e-322,-1.37039
5.5612,-1.44227,-1.24334,-2.02001,1.63064,0.350018,3.16202e-322,-1.37037
5.56918,-1.44231,-1.24333,-2.02002,1.6306,0.350006,3.16202e-322,-1.37036
5.57718,-1.44225,-1.24333,-2.02004,1.63063,0.349994,3.16202e-322,-1.37038
5.58513,-1.44227,-1.24333,-2.02005,1.63062,0.350006,3.16202e-322,-1.37037
5.59311,-1.44224,-1.24334,-2.02001,1.63059,0.350018,3.16202e-322,-1.37039
5.60119,-1.44229,-1.24335,-2.02001,1.6306,0.350006,3.16202e-322,-1.37039
5.60902,-1.44228,-1.24334,-2.02004,1.63059,0.349982,3.16202e-322,-1.37037
5.61701,-1.44228,-1.24333,-2.02005,1.6306,0.349982,3.16202e-322,-1.37039
5.62501,-1.44229,-1.24335,-2.02002,1.63063,0.350018,3.16202e-322,-1.37039
5.63311,-1.44225,-1.24334,-2.02005,1.63059,0.350018,3.16202e-322,-1.37038
5.6411,-1.44227,-1.24334,-2.02004,1.63062,0.34997,3.16202e-322,-1.37035
5.64912,-1.44227,-1.24335,-2.02001,1.63062,0.350006,3.16202e-322,-1.37038
5.65718,-1.44224,-1.24336,-2.02001,1.63063,0.350006,3.16202e-322,-1.37038
5.66521,-1.44229,-1.24332,-2.02002,1.63062,0.349994,3.16202e-322,-1.37037
5.67319,-1.44228,-1.24334,-2.02004,1.6306,0.349994,3.16202e-322,-1.37037
5.68113,-1.4423,-1.24335,-2.02002,1.63059,0.349994,3.16202e-322,-1.37037
5.68915,-1.44225,-1.24335,-2.02004,1.63059,0.349982,3.16202e-322,-1.37033
5.69716,-1.44229,-1.24333,-2.02004,1.63062,0.349994,3.16202e-322,-1.37036
5.705,-1.44225,-1.24334,-2.02005,1.63059,0.350018,3.16202e-322,-1.37037
5.71306,-1.44228,-1.24338,-2.02004,1.63062,0.350006,3.16202e-322,-1.37036
5.72115,-1.44229,-1.24335,-2.02006,1.63059,0.349982,3.16202e-322,-1.37037
5.72916,-1.44228,-1.24339,-2.02004,1.63062,0.350042,3.16202e-322,-1.37041
5.73718,-1.44225,-1.24335,-2.02004,1.63058,0.350006,3.16202e-322,-1.37038
5.74517,-1.44229,-1.24336,-2.02004,1.63062,0.350018,3.16202e-322,-1.37039
5.75318,-1.44228,-1.24338,-2.02006,1.63059,0.349994,3.16202e-322,-1.37038
5.76109,-1.44228,-1.24333,-2.02004,1.63059,0.350006,3.16202e-322,-1.37038
5.76914,-1.44233,-1.24336,-2.02004,1.63059,0.349994,3.16202e-322,-1.37037
5.77718,-1.44229,-1.24334,-2.02002,1.63064,0.350018,3.16202e-322,-1.37039
5.78511,-1.44227,-1.24336,-2.02006,1.6306,0.349982,3.16202e-322,-1.37041
5.79313,-1.44229,-1.24338,-2.02002,1.63064,0.34997,3.16202e-322,-1.37039
5.80115,-1.44227,-1.24336,-2.02004,1.63062,0.349958,3.16202e-322,-1.37037
5.80903,-1.44229,-1.24338,-2.02005,1.63062,0.350018,3.16202e-322,-1.37036
5.81704,-1.44225,-1.24338,-2.02005,1.6306,0.349958,3.16202e-322,-1.37037
5.82509,-1.44227,-1.24339,-2.02007,1.63063,0.350018,3.16202e-322,-1.37039
5.83308,-1.4423,-1.24335,-2.02004,1.6306,0.349994,3.16202e-322,-1.37038
5.8411,-1.44228,-1.24339,-2.02006,1.63063,0.349994,3.16202e-322,-1.37037
5.84914,-1.44229,-1.24338,-2.02005,1.63063,0.349994,3.16202e-322,-1.37039
5.85718,-1.44231,-1.24338,-2.02004,1.63065,0.350006,3.16202e-322,-1.37037
5.86518,-1.44229,-1.24335,-2.02004,1.6306,0.350006,3.16202e-322,-1.37037
5.87312,-1.44229,-1.24341,-2.02005,1.63062,0.349982,3.16202e-322,-1.37036
5.88118,-1.44231,-1.24339,-2.02005,1.63058,0.34997,3.16202e-322,-1.37037
5.88918,-1.4423,-1.24338,-2.02008,1.63057,0.34997,3.16202e-322,-1.37039
5.89717,-1.44235,-1.24339,-2.02006,1.63059,0.349958,3.16202e-322,-1.37035
5.90508,-1.44229,-1.24342,-2.02008,1.63057,0.35003,3.16202e-322,-1.37039
5.91298,-1.44231,-1.24341,-2.02004,1.63058,0.349994,3.16202e-322,-1.37039
5.921,-1.44235,-1.2434,-2.02007,1.63063,0.349994,3.16202e-322,-1.37036
5.92901,-1.44231,-1.24342,-2.02007,1.6306,0.349994,3.16202e-322,-1.37039
5.93712,-1.44231,-1.2434,-2.02004,1.63059,0.349994,3.16202e-322,-1.37038
5.94508,-1.4423,-1.24341,-2.02006,1.63059,0.34997,3.16202e-322,-1.37037
5.9531,-1.4423,-1.24339,-2.02008,1.63063,0.349994,3.16202e-322,-1.37039
5.96103,-1.4423,-1.24335,-2.02008,1.63058,0.349994,3.16202e-322,-1.37038
5.9691,-1.4423,-1.24341,-2.02006,1.6306,0.350006,3.16202e-322,-1.37039
5.97715,-1.44236,-1.24339,-2.02007,1.63059,0.349958,3.16202e-322,-1.37036
5.98513,-1.44233,-1.2434,-2.02007,1.63058,0.349946,3.16202e-322,-1.37038
5.99309,-1.44229,-1.2434,-2.02006,1.6306,0.34997,3.16202e-322,-1.37037
6.00115,-1.44236,-1.24335,-2.02005,1.63058,0.350006,3.16202e-322,-1.37038
6.00908,-1.4423,-1.24342,-2.02008,1.6306,0.349958,3.16202e-322,-1.37037
6.01703,-1.44234,-1.2434,-2.0201,1.63057,0.349982,3.16202e-322,-1.37043
6.02511,-1.44234,-1.2434,-2.02012,1.63056,0.349946,3.16202e-322,-1.37036
6.0331,-1.4423,-1.24341,-2.02008,1.63059,0.349982,3.16202e-322,-1.37043
6.04111,-1.44233,-1.24341,-2.02007,1.63057,0.34997,3.16202e-322,-1.37038
6.04911,-1.44231,-1.24344,-2.0201,1.63059,0.349982,3.16202e-322,-1.37041
6.05714,-1.4423,-1.24342,-2.0201,1.63059,0.34997,3.16202e-322,-1.37039
6.0651,-1.4423,-1.2434,-2.02011,1.63059,0.349958,3.16202e-322,-1.37039
6.07314,-1.44235,-1.24341,-2.02012,1.6306,0.349994,3.16202e-322,-1.37039
6.08115,-1.44231,-1.24339,-2.02008,1.63059,0.350018,3.16202e-322,-1.37041
6.08911,-1.44233,-1.24341,-2.0201,1.63057,0.34997,3.16202e-322,-1.37041
6.09714,-1.44235,-1.24339,-2.02011,1.63059,0.349934,3.16202e-322,-1.37038
6.105,-1.44235,-1.24341,-2.02012,1.63059,0.349958,3.16202e-322,-1.37037
6.11303,-1.44228,-1.24339,-2.0201,1.63057,0.349958,3.16202e-322,-1.37037
6.12108,-1.44233,-1.24342,-2.02008,1.6306,0.350006,3.16202e-322,-1.37039
6.12913,-1.44234,-1.24341,-2.02008,1.63054,0.349982,3.16202e-322,-1.37038
6.13712,-1.4423,-1.2434,-2.02012,1.6306,0.349982,3.16202e-322,-1.37035
6.14513,-1.44234,-1.24339,-2.02012,1.63063,0.349946,3.16202e-322,-1.37037
6.1532,-1.44233,-1.24342,-2.0201,1.6306,0.349982,3.16202e-322,-1.37039
6.16115,-1.4423,-1.2434,-2.02011,1.63059,0.349958,3.16202e-322,-1.37039
6.16913,-1.44234,-1.2434,-2.02008,1.63059,0.34997,3.16202e-322,-1.37039
6.17714,-1.44231,-1.24341,-2.02007,1.6306,0.349982,3.16202e-322,-1.37041
6.18515,-1.44234,-1.24341,-2.02008,1.63058,0.349958,3.16202e-322,-1.37039
6.19315,-1.4423,-1.24338,-2.02002,1.63059,0.349934,3.16202e-322,-1.37042
6.20117,-1.44231,-1.2434,-2.02006,1.63058,0.349982,3.16202e-322,-1.37037
6.20904,-1.4423,-1.2434,-2.02008,1.63056,0.34997,3.16202e-322,-1.37038
6.21698,-1.44228,-1.24341,-2.02011,1.63062,0.34997,3.16202e-322,-1.37035
6.225,-1.44227,-1.24341,-2.02007,1.63057,0.349958,3.16202e-322,-1.37037
6.23306,-1.44223,-1.24342,-2.02011,1.63057,0.34997,3.16202e-322,-1.37036
6.24105,-1.44227,-1.24342,-2.0201,1.63063,0.349958,3.16202e-322,-1.37039
6.24909,-1.44215,-1.24341,-2.02008,1.63058,0.349958,3.16202e-322,-1.37037
6.25712,-1.4421,-1.24341,-2.02011,1.63062,0.349958,3.16202e-322,-1.37036
6.26509,-1.44213,-1.2434,-2.02007,1.63058,0.349994,3.16202e-322,-1.37037
6.27313,-1.44216,-1.24341,-2.0201,1.63058,0.349982,3.16202e-322,-1.37041
6.28111,-1.44215,-1.24341,-2.02011,1.6306,0.349958,3.16202e-322,-1.37037
6.2891,-1.44213,-1.2434,-2.02013,1.63058,0.349982,3.16202e-322,-1.37039
6.29713,-1.44216,-1.24339,-2.0201,1.63057,0.349982,3.16202e-322,-1.37041
6.30511,-1.44211,-1.24338,-2.0201,1.63058,0.34997,3.16202e-322,-1.37041
6.31302,-1.4421,-1.24341,-2.02011,1.63059,0.34997,3.16202e-322,-1.37038
6.321,-1.44216,-1.24339,-2.02011,1.63056,0.349946,3.16202e-322,-1.37038
6.32909,-1.4421,-1.24338,-2.02011,1.63059,0.34997,3.16202e-322,-1.37039
6.3371,-1.44212,-1.24342,-2.02011,1.63059,0.34997,3.16202e-322,-1.37035
6.34509,-1.4421,-1.24339,-2.02008,1.63062,0.349982,3.16202e-322,-1.37039
6.35321,-1.44212,-1.24336,-2.0201,1.6306,0.349994,3.16202e-322,-1.37041
6.36113,-1.44211,-1.24339,-2.02013,1.6306,0.34997,3.16202e-322,-1.37039
6.36913,-1.44211,-1.24338,-2.02013,1.6306,0.349982,3.16202e-322,-1.37041
6.37716,-1.44216,-1.24338,-2.02008,1.63058,0.349982,3.16202e-322,-1.37043
6.38513,-1.44211,-1.24341,-2.02013,1.63057,0.349994,3.16202e-322,-1.37041
6.39308,-1.44212,-1.2434,-2.0201,1.63059,0.34997,3.16202e-322,-1.37037
6.40116,-1.44211,-1.2434,-2.02008,1.63059,0.349946,3.16202e-322,-1.37037
6.40905,-1.4421,-1.2434,-2.02011,1.63058,0.349958,3.16202e-322,-1.37038
6.41706,-1.44215,-1.2434,-2.02012,1.6306,0.349982,3.16202e-322,-1.37039
6.4251,-1.4421,-1.24339,-2.02013,1.6306,0.34997,3.16202e-322,-1.37039
6.43309,-1.44212,-1.2434,-2.02008,1.63062,0.349994,3.16202e-322,-1.37039
6.44113,-1.44213,-1.24338,-2.02011,1.63059,0.350006,3.16202e-322,-1.37038
6.44914,-1.44209,-1.2434,-2.02008,1.63059,0.34997,3.16202e-322,-1.37042
6.45716,-1.4421,-1.24341,-2.0201,1.63059,0.34997,3.16202e-322,-1.37042
6.4651,-1.4421,-1.24336,-2.02007,1.63058,0.349982,3.16202e-322,-1.37038
6.47314,-1.44211,-1.2434,-2.02007,1.63059,0.349994,3.16202e-322,-1.37042
6.48114,-1.44213,-1.2434,-2.0201,1.6306,0.34997,3.16202e-322,-1.37039
6.48909,-1.4421,-1.24339,-2.02011,1.63059,0.349994,3.16202e-322,-1.37038
6.49712,-1.44209,-1.24339,-2.02006,1.6306,0.349958,3.16202e-322,-1.37039
6.50514,-1.4421,-1.24339,-2.02007,1.63057,0.349982,3.16202e-322,-1.37038
6.51293,-1.4421,-1.24341,-2.0201,1.63062,0.34997,3.16202e-322,-1.37039
6.52096,-1.44211,-1.24339,-2.0201,1.6306,0.349982,3.16202e-322,-1.37039
6.52898,-1.44211,-1.24341,-2.02011,1.63059,0.349982,3.16202e-322,-1.37039
6.53702,-1.4421,-1.24341,-2.0201,1.63058,0.349982,3.16202e-322,-1.37039
6.54503,-1.44207,-1.2434,-2.0201,1.63059,0.349982,3.16202e-322,-1.37038
6.55306,-1.44211,-1.2434,-2.02006,1.63057,0.349994,3.16202e-322,-1.37043
6.56106,-1.44213,-1.24336,-2.02011,1.63063,0.34997,3.16202e-322,-1.37042
6.56901,-1.44211,-1.24338,-2.02011,1.63059,0.349994,3.16202e-322,-1.37037
6.57708,-1.44209,-1.24338,-2.02011,1.6306,0.34997,3.16202e-322,-1.37037
6.58504,-1.44211,-1.24336,-2.02008,1.63063,0.34997,3.16202e-322,-1.37038
6.5931,-1.44211,-1.24338,-2.0201,1.6306,0.349958,3.16202e-322,-1.37037
6.60111,-1.4421,-1.24338,-2.02011,1.63059,0.349982,3.16202e-322,-1.37037
6.60913,-1.4421,-1.24336,-2.0201,1.63058,0.34997,3.16202e-322,-1.37038
6.61708,-1.44209,-1.2434,-2.02013,1.63058,0.349958,3.16202e-322,-1.37037
6.62517,-1.44209,-1.24341,-2.0201,1.63067,0.349994,3.16202e-322,-1.37041
6.63314,-1.44205,-1.24338,-2.02006,1.63065,0.34997,3.16202e-322,-1.37035
6.64114,-1.4421,-1.24338,-2.02008,1.63059,0.350006,3.16202e-322,-1.37038
6.64917,-1.44213,-1.24339,-2.02008,1.63056,0.349946,3.16202e-322,-1.37043
6.65721,-1.44206,-1.24342,-2.02011,1.63057,0.349982,3.16202e-322,-1.37042
6.66515,-1.4421,-1.24338,-2.02007,1.6306,0.350006,3.16202e-322,-1.37041
6.67312,-1.4421,-1.24342,-2.02008,1.63059,0.34997,3.16202e-322,-1.37039
6.68112,-1.4421,-1.24339,-2.02008,1.6306,0.34997,3.16202e-322,-1.37038
6.6891,-1.44209,-1.24339,-2.0201,1.63063,0.34997,3.16202e-322,-1.37038
6.69707,-1.44209,-1.24339,-2.02008,1.63059,0.349946,3.16202e-322,-1.37038
6.70502,-1.44206,-1.24339,-2.02008,1.63059,0.349994,3.16202e-322,-1.37041
6.71302,-1.44206,-1.24339,-2.02006,1.63058,0.349946,3.16202e-322,-1.37041
6.72096,-1.44206,-1.24339,-2.02006,1.6306,0.349982,3.16202e-322,-1.37039
6.72906,-1.44209,-1.24338,-2.02006,1.63058,0.349982,3.16202e-322,-1.37038
6.73703,-1.44207,-1.24338,-2.02007,1.63059,0.34997,3.16202e-322,-1.37037
6.74508,-1.44211,-1.24338,-2.02008,1.63062,0.349994,3.16202e-322,-1.37035
6.75312,-1.44211,-1.24338,-2.02008,1.63058,0.349958,3.16202e-322,-1.37042
6.76114,-1.44209,-1.24338,-2.02008,1.63058,0.349994,3.16202e-322,-1.37039
6.76911,-1.4421,-1.24339,-2.02008,1.6306,0.349982,3.16202e-322,-1.37039
6.7771,-1.44209,-1.24339,-2.02002,1.63063,0.349958,3.16202e-322,-1.37039
6.78511,-1.44212,-1.2434,-2.02007,1.6306,0.349994,3.16202e-322,-1.37039
6.79309,-1.44211,-1.24339,-2.02007,1.6306,0.34997,3.16202e-322,-1.37038
6.80112,-1.44209,-1.24339,-2.02008,1.63057,0.350006,3.16202e-322,-1.37038
6.80903,-1.4421,-1.24341,-2.02007,1.63063,0.34997,3.16202e-322,-1.37039
6.81696,-1.44209,-1.2434,-2.02011,1.63059,0.349994,3.16202e-322,-1.37039
6.82494,-1.44207,-1.2434,-2.02007,1.6306,0.349982,3.16202e-322,-1.37039
6.83299,-1.44209,-1.24341,-2.02006,1.63059,0.349982,3.16202e-322,-1.37039
6.84094,-1.44207,-1.24339,-2.02011,1.63062,0.349958,3.16202e-322,-1.37039
6.84901,-1.4421,-1.24341,-2.02006,1.63059,0.349958,3.16202e-322,-1.37036
6.85711,-1.44206,-1.24339,-2.02007,1.63058,0.34997,3.16202e-322,-1.37036
6.86512,-1.44206,-1.24335,-2.02006,1.6306,0.349994,3.16202e-322,-1.37041
6.87305,-1.44207,-1.24336,-2.02006,1.63058,0.34997,3.16202e-322,-1.37039
6.88111,-1.44211,-1.24338,-2.02006,1.6306,0.349958,3.16202e-322,-1.37038
6.88906,-1.44207,-1.24341,-2.02006,1.63058,0.34997,3.16202e-322,-1.37039
6.8971,-1.44209,-1.24339,-2.02008,1.63059,0.349982,3.16202e-322,-1.37039
6.90508,-1.44207,-1.24339,-2.02006,1.63059,0.349994,3.16202e-322,-1.37036
6.91308,-1.44207,-1.2434,-2.02006,1.63058,0.349982,3.16202e-322,-1.37039
6.92112,-1.44209,-1.2434,-2.02006,1.63058,0.349946,3.16202e-322,-1.37041
6.92912,-1.44209,-1.24339,-2.02006,1.63063,0.349982,3.16202e-322,-1.37042
6.93714,-1.44211,-1.24341,-2.02011,1.6306,0.349982,3.16202e-322,-1.37041
6.94508,-1.44211,-1.24335,-2.02007,1.63059,0.349958,3.16202e-322,-1.37038
6.9531,-1.44207,-1.24339,-2.02006,1.63059,0.34997,3.16202e-322,-1.37041
6.96109,-1.4421,-1.24339,-2.02007,1.63058,0.34997,3.16202e-322,-1.37037
6.96906,-1.4421,-1.24339,-2.02005,1.6306,0.349994,3.16202e-322,-1.37039
6.97702,-1.4421,-1.2434,-2.02007,1.63057,0.349982,3.16202e-322,-1.37042
6.98508,-1.44213,-1.24339,-2.0201,1.63063,0.349982,3.16202e-322,-1.37037
6.99309,-1.44212,-1.24338,-2.02007,1.63064,0.349958,3.16202e-322,-1.37037
