Time,X,Y,Z,R,P,Y
0.298123,0.111239,0.0971123,0.352058,-3.13513,-0.00480244,0.00311397
0.306182,0.11124,0.0971205,0.352066,-3.13511,-0.00481439,0.00311402
0.314205,0.11124,0.0971205,0.352066,-3.13511,-0.00481439,0.00311402
0.32222,0.11124,0.0971205,0.352066,-3.13511,-0.00481439,0.00311402
0.330256,0.11124,0.0971205,0.352066,-3.13511,-0.00481439,0.00311402
0.338225,0.11124,0.0971205,0.352066,-3.13511,-0.00481439,0.00311402
0.346255,0.11124,0.0971205,0.352066,-3.13511,-0.00481439,0.00311402
0.354227,0.11124,0.0971205,0.352066,-3.13511,-0.00481439,0.00311402
0.362292,0.11124,0.0971205,0.352066,-3.13511,-0.00481439,0.00311402
0.370342,0.11124,0.0971205,0.352066,-3.13511,-0.00481439,0.00311402
0.378292,0.11124,0.0971205,0.352066,-3.13511,-0.00481439,0.00311402
0.38624,0.11124,0.0971205,0.352066,-3.13511,-0.00481439,0.00311402
0.394269,0.11124,0.0971205,0.352066,-3.13511,-0.00481439,0.00311402
0.402224,0.111236,0.0971245,0.352056,-3.13522,-0.00479036,0.00315011
0.41011,0.111236,0.0971245,0.352056,-3.13522,-0.00479036,0.00315011
0.418135,0.111236,0.0971245,0.352056,-3.13522,-0.00479036,0.00315011
0.426157,0.111236,0.0971245,0.352056,-3.13522,-0.00479036,0.00315011
0.434166,0.111236,0.0971245,0.352056,-3.13522,-0.00479036,0.00315011
0.442225,0.111236,0.0971245,0.352056,-3.13522,-0.00479036,0.00315011
0.450202,0.111236,0.0971245,0.352056,-3.13522,-0.00479036,0.00315011
0.458228,0.111236,0.0971245,0.352056,-3.13522,-0.00479036,0.00315011
0.466288,0.111236,0.0971245,0.352056,-3.13522,-0.00479036,0.00315011
0.474302,0.111236,0.0971245,0.352056,-3.13522,-0.00479036,0.00315011
0.482246,0.111236,0.0971245,0.352056,-3.13522,-0.00479036,0.00315011
0.490243,0.111236,0.0971245,0.352056,-3.13522,-0.00479036,0.00315011
0.498292,0.111236,0.0971245,0.352056,-3.13522,-0.00479036,0.00315011
0.506136,0.111237,0.0971193,0.352075,-3.13511,-0.00481416,0.00311349
0.514166,0.111237,0.0971193,0.352075,-3.13511,-0.00481416,0.00311349
0.522218,0.111237,0.0971193,0.352075,-3.13511,-0.00481416,0.00311349
0.530095,0.111237,0.0971193,0.352075,-3.13511,-0.00481416,0.00311349
0.538144,0.111237,0.0971193,0.352075,-3.13511,-0.00481416,0.00311349
0.546125,0.111237,0.0971193,0.352075,-3.13511,-0.00481416,0.00311349
0.554151,0.111237,0.0971193,0.352075,-3.13511,-0.00481416,0.00311349
0.562275,0.111237,0.0971193,0.352075,-3.13511,-0.00481416,0.00311349
0.570264,0.111237,0.0971193,0.352075,-3.13511,-0.00481416,0.00311349
0.578199,0.111237,0.0971193,0.352075,-3.13511,-0.00481416,0.00311349
0.586198,0.111237,0.0971193,0.352075,-3.13511,-0.00481416,0.00311349
0.594269,0.111237,0.0971193,0.352075,-3.13511,-0.00481416,0.00311349
0.602321,0.111235,0.0971169,0.352065,-3.13515,-0.00479037,0.00313748
0.610157,0.111235,0.0971169,0.352065,-3.13515,-0.00479037,0.00313748
0.618161,0.111235,0.0971169,0.352065,-3.13515,-0.00479037,0.00313748
0.62621,0.111235,0.0971169,0.352065,-3.13515,-0.00479037,0.00313748
0.634217,0.111235,0.0971169,0.352065,-3.13515,-0.00479037,0.00313748
0.642185,0.111235,0.0971169,0.352065,-3.13515,-0.00479037,0.00313748
0.650265,0.111235,0.0971169,0.352065,-3.13515,-0.00479037,0.00313748
0.658289,0.111235,0.0971169,0.352065,-3.13515,-0.00479037,0.00313748
0.666289,0.111235,0.0971169,0.352065,-3.13515,-0.00479037,0.00313748
0.674241,0.111235,0.0971169,0.352065,-3.13515,-0.00479037,0.00313748
0.682267,0.111235,0.0971169,0.352065,-3.13515,-0.00479037,0.00313748
0.69026,0.111235,0.0971169,0.352065,-3.13515,-0.00479037,0.00313748
0.698254,0.111235,0.0971169,0.352065,-3.13515,-0.00479037,0.00313748
0.706103,0.111241,0.0971214,0.352049,-3.13523,-0.00482619,0.00311408
0.714094,0.111241,0.0971214,0.352049,-3.13523,-0.00482619,0.00311408
0.722146,0.111241,0.0971214,0.352049,-3.13523,-0.00482619,0.00311408
0.730141,0.111241,0.0971214,0.352049,-3.13523,-0.00482619,0.00311408
0.73817,0.111241,0.0971214,0.352049,-3.13523,-0.00482619,0.00311408
0.746196,0.111241,0.0971214,0.352049,-3.13523,-0.00482619,0.00311408
0.754202,0.111241,0.0971214,0.352049,-3.13523,-0.00482619,0.00311408
0.762244,0.111241,0.0971214,0.352049,-3.13523,-0.00482619,0.00311408
0.770259,0.111241,0.0971214,0.352049,-3.13523,-0.00482619,0.00311408
0.778211,0.111241,0.0971214,0.352049,-3.13523,-0.00482619,0.00311408
0.786218,0.111241,0.0971214,0.352049,-3.13523,-0.00482619,0.00311408
0.794209,0.111241,0.0971214,0.352049,-3.13523,-0.00482619,0.00311408
0.802206,0.111239,0.0971146,0.352073,-3.13511,-0.00481443,0.00312585
0.81012,0.111239,0.0971146,0.352073,-3.13511,-0.00481443,0.00312585
0.818179,0.111239,0.0971146,0.352073,-3.13511,-0.00481443,0.00312585
0.826099,0.111239,0.0971146,0.352073,-3.13511,-0.00481443,0.00312585
0.834106,0.111239,0.0971146,0.352073,-3.13511,-0.00481443,0.00312585
0.842176,0.111239,0.0971146,0.352073,-3.13511,-0.00481443,0.00312585
0.850168,0.111239,0.0971146,0.352073,-3.13511,-0.00481443,0.00312585
0.858165,0.111239,0.0971146,0.352073,-3.13511,-0.00481443,0.00312585
0.866236,0.111239,0.0971146,0.352073,-3.13511,-0.00481443,0.00312585
0.874215,0.111239,0.0971146,0.352073,-3.13511,-0.00481443,0.00312585
0.882233,0.111239,0.0971146,0.352073,-3.13511,-0.00481443,0.00312585
0.89024,0.111239,0.0971146,0.352073,-3.13511,-0.00481443,0.00312585
0.898269,0.111239,0.0971146,0.352073,-3.13511,-0.00481443,0.00312585
0.906114,0.111238,0.0971121,0.352055,-3.13517,-0.00481446,0.00313773
0.914193,0.111238,0.0971121,0.352055,-3.13517,-0.00481446,0.00313773
0.922176,0.111238,0.0971121,0.352055,-3.13517,-0.00481446,0.00313773
0.930161,0.111238,0.0971121,0.352055,-3.13517,-0.00481446,0.00313773
0.938238,0.111238,0.0971121,0.352055,-3.13517,-0.00481446,0.00313773
0.946199,0.111238,0.0971121,0.352055,-3.13517,-0.00481446,0.00313773
0.954297,0.111238,0.0971121,0.352055,-3.13517,-0.00481446,0.00313773
0.962446,0.111238,0.0971121,0.352055,-3.13517,-0.00481446,0.00313773
0.970302,0.111238,0.0971121,0.352055,-3.13517,-0.00481446,0.00313773
0.978272,0.111238,0.0971121,0.352055,-3.13517,-0.00481446,0.00313773
0.986277,0.111238,0.0971121,0.352055,-3.13517,-0.00481446,0.00313773
0.994175,0.111238,0.0971121,0.352055,-3.13517,-0.00481446,0.00313773
1.00222,0.111239,0.0971165,0.352056,-3.13516,-0.00482627,0.0031253
1.01013,0.111239,0.0971165,0.352056,-3.13516,-0.00482627,0.0031253
1.01817,0.111239,0.0971165,0.352056,-3.13516,-0.00482627,0.0031253
1.02616,0.111239,0.0971165,0.352056,-3.13516,-0.00482627,0.0031253
1.03415,0.111239,0.0971165,0.352056,-3.13516,-0.00482627,0.0031253
1.04226,0.111239,0.0971165,0.352056,-3.13516,-0.00482627,0.0031253
1.05023,0.111239,0.0971165,0.352056,-3.13516,-0.00482627,0.0031253
1.05821,0.111239,0.0971165,0.352056,-3.13516,-0.00482627,0.0031253
1.06627,0.111239,0.0971165,0.352056,-3.13516,-0.00482627,0.0031253
1.07424,0.111239,0.0971165,0.352056,-3.13516,-0.00482627,0.0031253
1.08225,0.111239,0.0971165,0.352056,-3.13516,-0.00482627,0.0031253
1.09019,0.111239,0.0971165,0.352056,-3.13516,-0.00482627,0.0031253
1.0982,0.111239,0.0971165,0.352056,-3.13516,-0.00482627,0.0031253
1.10619,0.111231,0.0971481,0.351933,-3.13571,-0.00477764,0.00319848
1.11409,0.111231,0.0971481,0.351933,-3.13571,-0.00477764,0.00319848
1.1221,0.111231,0.0971481,0.351933,-3.13571,-0.00477764,0.00319848
1.13009,0.111231,0.0971481,0.351933,-3.13571,-0.00477764,0.00319848
1.1381,0.111231,0.0971481,0.351933,-3.13571,-0.00477764,0.00319848
1.1461,0.111231,0.0971481,0.351933,-3.13571,-0.00477764,0.00319848
1.15414,0.111231,0.0971481,0.351933,-3.13571,-0.00477764,0.00319848
1.16214,0.111231,0.0971481,0.351933,-3.13571,-0.00477764,0.00319848
1.17019,0.111231,0.0971481,0.351933,-3.13571,-0.00477764,0.00319848
1.17817,0.111231,0.0971481,0.351933,-3.13571,-0.00477764,0.00319848
1.18626,0.111231,0.0971481,0.351933,-3.13571,-0.00477764,0.00319848
1.19428,0.111231,0.0971481,0.351933,-3.13571,-0.00477764,0.00319848
1.20227,0.111232,0.0971402,0.351921,-3.13572,-0.00479009,0.00318632
1.21012,0.111232,0.0971402,0.351921,-3.13572,-0.00479009,0.00318632
1.21822,0.111232,0.0971402,0.351921,-3.13572,-0.00479009,0.00318632
1.2262,0.111232,0.0971402,0.351921,-3.13572,-0.00479009,0.00318632
1.23421,0.111232,0.0971402,0.351921,-3.13572,-0.00479009,0.00318632
1.24226,0.111232,0.0971402,0.351921,-3.13572,-0.00479009,0.00318632
1.25021,0.111232,0.0971402,0.351921,-3.13572,-0.00479009,0.00318632
1.25824,0.111232,0.0971402,0.351921,-3.13572,-0.00479009,0.00318632
1.26632,0.111232,0.0971402,0.351921,-3.13572,-0.00479009,0.00318632
1.27424,0.111232,0.0971402,0.351921,-3.13572,-0.00479009,0.00318632
1.28222,0.111232,0.0971402,0.351921,-3.13572,-0.00479009,0.00318632
1.29023,0.111232,0.0971402,0.351921,-3.13572,-0.00479009,0.00318632
1.29824,0.111232,0.0971402,0.351921,-3.13572,-0.00479009,0.00318632
1.30611,0.11123,0.0971388,0.351932,-3.13567,-0.00475389,0.00319844
1.31411,0.11123,0.0971388,0.351932,-3.13567,-0.00475389,0.00319844
1.32213,0.11123,0.0971388,0.351932,-3.13567,-0.00475389,0.00319844
1.33014,0.11123,0.0971388,0.351932,-3.13567,-0.00475389,0.00319844
1.33812,0.11123,0.0971388,0.351932,-3.13567,-0.00475389,0.00319844
1.34616,0.11123,0.0971388,0.351932,-3.13567,-0.00475389,0.00319844
1.35417,0.11123,0.0971388,0.351932,-3.13567,-0.00475389,0.00319844
1.36221,0.11123,0.0971388,0.351932,-3.13567,-0.00475389,0.00319844
1.37028,0.11123,0.0971388,0.351932,-3.13567,-0.00475389,0.00319844
1.37826,0.11123,0.0971388,0.351932,-3.13567,-0.00475389,0.00319844
1.38622,0.11123,0.0971388,0.351932,-3.13567,-0.00475389,0.00319844
1.39425,0.11123,0.0971388,0.351932,-3.13567,-0.00475389,0.00319844
1.4022,0.111232,0.0971375,0.351943,-3.13562,-0.00476588,0.00317449
1.41018,0.111232,0.0971375,0.351943,-3.13562,-0.00476588,0.00317449
1.4181,0.111232,0.0971375,0.351943,-3.13562,-0.00476588,0.00317449
1.42609,0.111232,0.0971375,0.351943,-3.13562,-0.00476588,0.00317449
1.4341,0.111232,0.0971375,0.351943,-3.13562,-0.00476588,0.00317449
1.44214,0.111232,0.0971375,0.351943,-3.13562,-0.00476588,0.00317449
1.45016,0.111232,0.0971375,0.351943,-3.13562,-0.00476588,0.00317449
1.45824,0.111232,0.0971375,0.351943,-3.13562,-0.00476588,0.00317449
1.46623,0.111232,0.0971375,0.351943,-3.13562,-0.00476588,0.00317449
1.47433,0.111232,0.0971375,0.351943,-3.13562,-0.00476588,0.00317449
1.48227,0.111232,0.0971375,0.351943,-3.13562,-0.00476588,0.00317449
1.49022,0.111232,0.0971375,0.351943,-3.13562,-0.00476588,0.00317449
1.49824,0.111232,0.0971375,0.351943,-3.13562,-0.00476588,0.00317449
1.50617,0.111234,0.0971378,0.351929,-3.13568,-0.00479017,0.00317437
1.51414,0.111234,0.0971378,0.351929,-3.13568,-0.00479017,0.00317437
1.52223,0.111234,0.0971378,0.351929,-3.13568,-0.00479017,0.00317437
1.5302,0.111234,0.0971378,0.351929,-3.13568,-0.00479017,0.00317437
1.53823,0.111234,0.0971378,0.351929,-3.13568,-0.00479017,0.00317437
1.5462,0.111234,0.0971378,0.351929,-3.13568,-0.00479017,0.00317437
1.55424,0.111234,0.0971378,0.351929,-3.13568,-0.00479017,0.00317437
1.56225,0.111234,0.0971378,0.351929,-3.13568,-0.00479017,0.00317437
1.57029,0.111234,0.0971378,0.351929,-3.13568,-0.00479017,0.00317437
1.57826,0.111234,0.0971378,0.351929,-3.13568,-0.00479017,0.00317437
1.58623,0.111234,0.0971378,0.351929,-3.13568,-0.00479017,0.00317437
1.59419,0.111234,0.0971378,0.351929,-3.13568,-0.00479017,0.00317437
1.60209,0.11123,0.0971436,0.35193,-3.1357,-0.00475374,0.00318663
1.6101,0.11123,0.0971436,0.35193,-3.1357,-0.00475374,0.00318663
1.61814,0.11123,0.0971436,0.35193,-3.1357,-0.00475374,0.00318663
1.62614,0.11123,0.0971436,0.35193,-3.1357,-0.00475374,0.00318663
1.63415,0.11123,0.0971436,0.35193,-3.1357,-0.00475374,0.00318663
1.64223,0.11123,0.0971436,0.35193,-3.1357,-0.00475374,0.00318663
1.65022,0.11123,0.0971436,0.35193,-3.1357,-0.00475374,0.00318663
1.65825,0.11123,0.0971436,0.35193,-3.1357,-0.00475374,0.00318663
1.66627,0.11123,0.0971436,0.35193,-3.1357,-0.00475374,0.00318663
1.67426,0.11123,0.0971436,0.35193,-3.1357,-0.00475374,0.00318663
1.68222,0.11123,0.0971436,0.35193,-3.1357,-0.00475374,0.00318663
1.69022,0.11123,0.0971436,0.35193,-3.1357,-0.00475374,0.00318663
1.69822,0.11123,0.0971436,0.35193,-3.1357,-0.00475374,0.00318663
1.7062,0.11123,0.0971358,0.351927,-3.13568,-0.00474181,0.00317465
1.71407,0.11123,0.0971358,0.351927,-3.13568,-0.00474181,0.00317465
1.72213,0.11123,0.0971358,0.351927,-3.13568,-0.00474181,0.00317465
1.73007,0.11123,0.0971358,0.351927,-3.13568,-0.00474181,0.00317465
1.73818,0.11123,0.0971358,0.351927,-3.13568,-0.00474181,0.00317465
1.74619,0.11123,0.0971358,0.351927,-3.13568,-0.00474181,0.00317465
1.75422,0.11123,0.0971358,0.351927,-3.13568,-0.00474181,0.00317465
1.76225,0.11123,0.0971358,0.351927,-3.13568,-0.00474181,0.00317465
1.77026,0.11123,0.0971358,0.351927,-3.13568,-0.00474181,0.00317465
1.77823,0.11123,0.0971358,0.351927,-3.13568,-0.00474181,0.00317465
1.78626,0.11123,0.0971358,0.351927,-3.13568,-0.00474181,0.00317465
1.79421,0.11123,0.0971358,0.351927,-3.13568,-0.00474181,0.00317465
1.80219,0.111233,0.0971385,0.351933,-3.13566,-0.00477764,0.00315013
1.81015,0.111233,0.0971385,0.351933,-3.13566,-0.00477764,0.00315013
1.81819,0.111233,0.0971385,0.351933,-3.13566,-0.00477764,0.00315013
1.82622,0.111233,0.0971385,0.351933,-3.13566,-0.00477764,0.00315013
1.83419,0.111233,0.0971385,0.351933,-3.13566,-0.00477764,0.00315013
1.84229,0.111233,0.0971385,0.351933,-3.13566,-0.00477764,0.00315013
1.85022,0.111233,0.0971385,0.351933,-3.13566,-0.00477764,0.00315013
1.85818,0.111233,0.0971385,0.351933,-3.13566,-0.00477764,0.00315013
1.86626,0.111233,0.0971385,0.351933,-3.13566,-0.00477764,0.00315013
1.87427,0.111233,0.0971385,0.351933,-3.13566,-0.00477764,0.00315013
1.88222,0.111233,0.0971385,0.351933,-3.13566,-0.00477764,0.00315013
1.89025,0.111233,0.0971385,0.351933,-3.13566,-0.00477764,0.00315013
1.89824,0.111233,0.0971385,0.351933,-3.13566,-0.00477764,0.00315013
1.9062,0.111231,0.097144,0.351929,-3.13571,-0.00477763,0.00318647
1.91407,0.111231,0.097144,0.351929,-3.13571,-0.00477763,0.00318647
1.9221,0.111231,0.097144,0.351929,-3.13571,-0.00477763,0.00318647
1.93016,0.111231,0.097144,0.351929,-3.13571,-0.00477763,0.00318647
1.93811,0.111231,0.097144,0.351929,-3.13571,-0.00477763,0.00318647
1.94619,0.111231,0.097144,0.351929,-3.13571,-0.00477763,0.00318647
1.95423,0.111231,0.097144,0.351929,-3.13571,-0.00477763,0.00318647
1.96226,0.111231,0.097144,0.351929,-3.13571,-0.00477763,0.00318647
1.97027,0.111231,0.097144,0.351929,-3.13571,-0.00477763,0.00318647
1.97825,0.111231,0.097144,0.351929,-3.13571,-0.00477763,0.00318647
1.98616,0.111231,0.097144,0.351929,-3.13571,-0.00477763,0.00318647
1.99423,0.111231,0.097144,0.351929,-3.13571,-0.00477763,0.00318647
2.00224,0.111231,0.0971458,0.351931,-3.13566,-0.00477754,0.00316211
2.01011,0.111231,0.0971458,0.351931,-3.13566,-0.00477754,0.00316211
2.0181,0.111231,0.0971458,0.351931,-3.13566,-0.00477754,0.00316211
2.02609,0.111231,0.0971458,0.351931,-3.13566,-0.00477754,0.00316211
2.03411,0.111231,0.0971458,0.351931,-3.13566,-0.00477754,0.00316211
2.04211,0.111231,0.0971458,0.351931,-3.13566,-0.00477754,0.00316211
2.05013,0.111231,0.0971458,0.351931,-3.13566,-0.00477754,0.00316211
2.05817,0.111231,0.0971458,0.351931,-3.13566,-0.00477754,0.00316211
2.06624,0.111231,0.0971458,0.351931,-3.13566,-0.00477754,0.00316211
2.07426,0.111231,0.0971458,0.351931,-3.13566,-0.00477754,0.00316211
2.08219,0.111231,0.0971458,0.351931,-3.13566,-0.00477754,0.00316211
2.09023,0.111231,0.0971458,0.351931,-3.13566,-0.00477754,0.00316211
2.0982,0.111231,0.0971458,0.351931,-3.13566,-0.00477754,0.00316211
2.10618,0.111229,0.0971493,0.351913,-3.13576,-0.00478993,0.00319837
2.11412,0.111229,0.0971493,0.351913,-3.13576,-0.00478993,0.00319837
2.12214,0.111229,0.0971493,0.351913,-3.13576,-0.00478993,0.00319837
2.13018,0.111229,0.0971493,0.351913,-3.13576,-0.00478993,0.00319837
2.13815,0.111229,0.0971493,0.351913,-3.13576,-0.00478993,0.00319837
2.1462,0.111229,0.0971493,0.351913,-3.13576,-0.00478993,0.00319837
2.15426,0.111229,0.0971493,0.351913,-3.13576,-0.00478993,0.00319837
2.16224,0.111229,0.0971493,0.351913,-3.13576,-0.00478993,0.00319837
2.17027,0.111229,0.0971493,0.351913,-3.13576,-0.00478993,0.00319837
2.17828,0.111229,0.0971493,0.351913,-3.13576,-0.00478993,0.00319837
2.18622,0.111229,0.0971493,0.351913,-3.13576,-0.00478993,0.00319837
2.19422,0.111229,0.0971493,0.351913,-3.13576,-0.00478993,0.00319837
2.20216,0.111228,0.0971442,0.351928,-3.1357,-0.00476575,0.00319891
2.2101,0.111228,0.0971442,0.351928,-3.1357,-0.00476575,0.00319891
2.21804,0.111228,0.0971442,0.351928,-3.1357,-0.00476575,0.00319891
2.22609,0.111228,0.0971442,0.351928,-3.1357,-0.00476575,0.00319891
2.23406,0.111228,0.0971442,0.351928,-3.1357,-0.00476575,0.00319891
2.24215,0.111228,0.0971442,0.351928,-3.1357,-0.00476575,0.00319891
2.25012,0.111228,0.0971442,0.351928,-3.1357,-0.00476575,0.00319891
2.25819,0.111228,0.0971442,0.351928,-3.1357,-0.00476575,0.00319891
2.26618,0.111228,0.0971442,0.351928,-3.1357,-0.00476575,0.00319891
2.27424,0.111228,0.0971442,0.351928,-3.1357,-0.00476575,0.00319891
2.28214,0.111228,0.0971442,0.351928,-3.1357,-0.00476575,0.00319891
2.29018,0.111228,0.0971442,0.351928,-3.1357,-0.00476575,0.00319891
2.29814,0.111228,0.0971442,0.351928,-3.1357,-0.00476575,0.00319891
2.30612,0.111228,0.0971446,0.351924,-3.13571,-0.00476588,0.00322276
2.31411,0.111228,0.0971446,0.351924,-3.13571,-0.00476588,0.00322276
2.3221,0.111228,0.0971446,0.351924,-3.13571,-0.00476588,0.00322276
2.33016,0.111228,0.0971446,0.351924,-3.13571,-0.00476588,0.00322276
2.33809,0.111228,0.0971446,0.351924,-3.13571,-0.00476588,0.00322276
2.34613,0.111228,0.0971446,0.351924,-3.13571,-0.00476588,0.00322276
2.35415,0.111228,0.0971446,0.351924,-3.13571,-0.00476588,0.00322276
2.36216,0.111228,0.0971446,0.351924,-3.13571,-0.00476588,0.00322276
2.37022,0.111228,0.0971446,0.351924,-3.13571,-0.00476588,0.00322276
2.37817,0.111228,0.0971446,0.351924,-3.13571,-0.00476588,0.00322276
2.38618,0.111228,0.0971446,0.351924,-3.13571,-0.00476588,0.00322276
2.39415,0.111228,0.0971446,0.351924,-3.13571,-0.00476588,0.00322276
2.40213,0.111233,0.0971355,0.351919,-3.13572,-0.00477772,0.00316252
2.41012,0.111233,0.0971355,0.351919,-3.13572,-0.00477772,0.00316252
2.41827,0.111233,0.0971355,0.351919,-3.13572,-0.00477772,0.00316252
2.42615,0.111233,0.0971355,0.351919,-3.13572,-0.00477772,0.00316252
2.43404,0.111233,0.0971355,0.351919,-3.13572,-0.00477772,0.00316252
2.44207,0.111233,0.0971355,0.351919,-3.13572,-0.00477772,0.00316252
2.45009,0.111233,0.0971355,0.351919,-3.13572,-0.00477772,0.00316252
2.45812,0.111233,0.0971355,0.351919,-3.13572,-0.00477772,0.00316252
2.46611,0.111233,0.0971355,0.351919,-3.13572,-0.00477772,0.00316252
2.4742,0.111233,0.0971355,0.351919,-3.13572,-0.00477772,0.00316252
2.48223,0.111233,0.0971355,0.351919,-3.13572,-0.00477772,0.00316252
2.49017,0.111233,0.0971355,0.351919,-3.13572,-0.00477772,0.00316252
2.49823,0.111233,0.0971355,0.351919,-3.13572,-0.00477772,0.00316252
2.50614,0.111229,0.0971392,0.351931,-3.13568,-0.00475367,0.00317412
2.51407,0.111229,0.0971392,0.351931,-3.13568,-0.00475367,0.00317412
2.52213,0.111229,0.0971392,0.351931,-3.13568,-0.00475367,0.00317412
2.53018,0.111229,0.0971392,0.351931,-3.13568,-0.00475367,0.00317412
2.5381,0.111229,0.0971392,0.351931,-3.13568,-0.00475367,0.00317412
2.5461,0.111229,0.0971392,0.351931,-3.13568,-0.00475367,0.00317412
2.55413,0.111229,0.0971392,0.351931,-3.13568,-0.00475367,0.00317412
2.5621,0.111229,0.0971392,0.351931,-3.13568,-0.00475367,0.00317412
2.57025,0.111229,0.0971392,0.351931,-3.13568,-0.00475367,0.00317412
2.57821,0.111229,0.0971392,0.351931,-3.13568,-0.00475367,0.00317412
2.58617,0.111229,0.0971392,0.351931,-3.13568,-0.00475367,0.00317412
2.59414,0.111229,0.0971392,0.351931,-3.13568,-0.00475367,0.00317412
2.60218,0.111232,0.0971535,0.35193,-3.13573,-0.00476561,0.00317487
2.61011,0.111232,0.0971535,0.35193,-3.13573,-0.00476561,0.00317487
2.61811,0.111232,0.0971535,0.35193,-3.13573,-0.00476561,0.00317487
2.62614,0.111232,0.0971535,0.35193,-3.13573,-0.00476561,0.00317487
2.6341,0.111232,0.0971535,0.35193,-3.13573,-0.00476561,0.00317487
2.64211,0.111232,0.0971535,0.35193,-3.13573,-0.00476561,0.00317487
2.65011,0.111232,0.0971535,0.35193,-3.13573,-0.00476561,0.00317487
2.65815,0.111232,0.0971535,0.35193,-3.13573,-0.00476561,0.00317487
2.6661,0.111232,0.0971535,0.35193,-3.13573,-0.00476561,0.00317487
2.67418,0.111232,0.0971535,0.35193,-3.13573,-0.00476561,0.00317487
2.68217,0.111232,0.0971535,0.35193,-3.13573,-0.00476561,0.00317487
2.69014,0.111232,0.0971535,0.35193,-3.13573,-0.00476561,0.00317487
2.69818,0.111232,0.0971535,0.35193,-3.13573,-0.00476561,0.00317487
2.70615,0.111228,0.0971651,0.351925,-3.13572,-0.00478985,0.00322291
2.7141,0.111228,0.0971651,0.351925,-3.13572,-0.00478985,0.00322291
2.72223,0.111228,0.0971651,0.351925,-3.13572,-0.00478985,0.00322291
2.73016,0.111228,0.0971651,0.351925,-3.13572,-0.00478985,0.00322291
2.73817,0.111228,0.0971651,0.351925,-3.13572,-0.00478985,0.00322291
2.74618,0.111228,0.0971651,0.351925,-3.13572,-0.00478985,0.00322291
2.7541,0.111228,0.0971651,0.351925,-3.13572,-0.00478985,0.00322291
2.7621,0.111228,0.0971651,0.351925,-3.13572,-0.00478985,0.00322291
2.77018,0.111228,0.0971651,0.351925,-3.13572,-0.00478985,0.00322291
2.77808,0.111228,0.0971651,0.351925,-3.13572,-0.00478985,0.00322291
2.78609,0.111228,0.0971651,0.351925,-3.13572,-0.00478985,0.00322291
2.79406,0.111228,0.0971651,0.351925,-3.13572,-0.00478985,0.00322291
2.80207,0.111212,0.0972476,0.351898,-3.13601,-0.00469266,0.00334476
2.81011,0.111212,0.0972476,0.351898,-3.13601,-0.00469266,0.00334476
2.81806,0.111212,0.0972476,0.351898,-3.13601,-0.00469266,0.00334476
2.82603,0.111212,0.0972476,0.351898,-3.13601,-0.00469266,0.00334476
2.83408,0.111212,0.0972476,0.351898,-3.13601,-0.00469266,0.00334476
2.84209,0.111212,0.0972476,0.351898,-3.13601,-0.00469266,0.00334476
2.8501,0.111212,0.0972476,0.351898,-3.13601,-0.00469266,0.00334476
2.85809,0.111212,0.0972476,0.351898,-3.13601,-0.00469266,0.00334476
2.86611,0.111212,0.0972476,0.351898,-3.13601,-0.00469266,0.00334476
2.87421,0.111212,0.0972476,0.351898,-3.13601,-0.00469266,0.00334476
2.88213,0.111212,0.0972476,0.351898,-3.13601,-0.00469266,0.00334476
2.89016,0.111212,0.0972476,0.351898,-3.13601,-0.00469266,0.00334476
2.89811,0.111212,0.0972476,0.351898,-3.13601,-0.00469266,0.00334476
2.90613,0.111186,0.097353,0.351848,-3.13647,-0.00440225,0.00334862
2.91404,0.111186,0.097353,0.351848,-3.13647,-0.00440225,0.00334862
2.92209,0.111186,0.097353,0.351848,-3.13647,-0.00440225,0.00334862
2.9301,0.111186,0.097353,0.351848,-3.13647,-0.00440225,0.00334862
2.93817,0.111186,0.097353,0.351848,-3.13647,-0.00440225,0.00334862
2.94611,0.111186,0.097353,0.351848,-3.13647,-0.00440225,0.00334862
2.9541,0.111186,0.097353,0.351848,-3.13647,-0.00440225,0.00334862
2.96214,0.111186,0.097353,0.351848,-3.13647,-0.00440225,0.00334862
2.97016,0.111186,0.097353,0.351848,-3.13647,-0.00440225,0.00334862
2.97816,0.111186,0.097353,0.351848,-3.13647,-0.00440225,0.00334862
2.98618,0.111186,0.097353,0.351848,-3.13647,-0.00440225,0.00334862
2.99426,0.111186,0.097353,0.351848,-3.13647,-0.00440225,0.00334862
3.00214,0.110984,0.0975972,0.351792,-3.13707,-0.0028388,0.00414988
3.0101,0.110984,0.0975972,0.351792,-3.13707,-0.0028388,0.00414988
3.01814,0.110984,0.0975972,0.351792,-3.13707,-0.0028388,0.00414988
3.0262,0.110984,0.0975972,0.351792,-3.13707,-0.0028388,0.00414988
3.03417,0.110984,0.0975972,0.351792,-3.13707,-0.0028388,0.00414988
3.04217,0.110984,0.0975972,0.351792,-3.13707,-0.0028388,0.00414988
3.05025,0.110984,0.0975972,0.351792,-3.13707,-0.0028388,0.00414988
3.05819,0.110984,0.0975972,0.351792,-3.13707,-0.0028388,0.00414988
3.06612,0.110984,0.0975972,0.351792,-3.13707,-0.0028388,0.00414988
3.07428,0.110984,0.0975972,0.351792,-3.13707,-0.0028388,0.00414988
3.08213,0.110984,0.0975972,0.351792,-3.13707,-0.0028388,0.00414988
3.0902,0.110984,0.0975972,0.351792,-3.13707,-0.0028388,0.00414988
3.09817,0.110984,0.0975972,0.351792,-3.13707,-0.0028388,0.00414988
3.10617,0.110574,0.0979857,0.351678,-3.13821,0.000756251,0.00536545
3.11408,0.110574,0.0979857,0.351678,-3.13821,0.000756251,0.00536545
3.12208,0.110574,0.0979857,0.351678,-3.13821,0.000756251,0.00536545
3.13005,0.110574,0.0979857,0.351678,-3.13821,0.000756251,0.00536545
3.13809,0.110574,0.0979857,0.351678,-3.13821,0.000756251,0.00536545
3.14611,0.110574,0.0979857,0.351678,-3.13821,0.000756251,0.00536545
3.15412,0.110574,0.0979857,0.351678,-3.13821,0.000756251,0.00536545
3.16216,0.110574,0.0979857,0.351678,-3.13821,0.000756251,0.00536545
3.17019,0.110574,0.0979857,0.351678,-3.13821,0.000756251,0.00536545
3.17813,0.110574,0.0979857,0.351678,-3.13821,0.000756251,0.00536545
3.18613,0.110574,0.0979857,0.351678,-3.13821,0.000756251,0.00536545
3.19418,0.110574,0.0979857,0.351678,-3.13821,0.000756251,0.00536545
3.20212,0.109739,0.101011,0.351776,-3.13569,0.0068216,0.00870353
3.21008,0.109739,0.101011,0.351776,-3.13569,0.0068216,0.00870353
3.21807,0.109739,0.101011,0.351776,-3.13569,0.0068216,0.00870353
3.2261,0.109739,0.101011,0.351776,-3.13569,0.0068216,0.00870353
3.23408,0.109739,0.101011,0.351776,-3.13569,0.0068216,0.00870353
3.24213,0.109739,0.101011,0.351776,-3.13569,0.0068216,0.00870353
3.25006,0.109739,0.101011,0.351776,-3.13569,0.0068216,0.00870353
3.25803,0.109739,0.101011,0.351776,-3.13569,0.0068216,0.00870353
3.26608,0.109739,0.101011,0.351776,-3.13569,0.0068216,0.00870353
3.27413,0.109739,0.101011,0.351776,-3.13569,0.0068216,0.00870353
3.28211,0.109739,0.101011,0.351776,-3.13569,0.0068216,0.00870353
3.29014,0.109739,0.101011,0.351776,-3.13569,0.0068216,0.00870353
3.29822,0.109739,0.101011,0.351776,-3.13569,0.0068216,0.00870353
3.30614,0.109205,0.106637,0.352662,-3.12251,0.00898349,0.0118747
3.31412,0.109205,0.106637,0.352662,-3.12251,0.00898349,0.0118747
3.32219,0.109205,0.106637,0.352662,-3.12251,0.00898349,0.0118747
3.33014,0.109205,0.106637,0.352662,-3.12251,0.00898349,0.0118747
3.33815,0.109205,0.106637,0.352662,-3.12251,0.00898349,0.0118747
3.34603,0.109205,0.106637,0.352662,-3.12251,0.00898349,0.0118747
3.35401,0.109205,0.106637,0.352662,-3.12251,0.00898349,0.0118747
3.36203,0.109205,0.106637,0.352662,-3.12251,0.00898349,0.0118747
3.37008,0.109205,0.106637,0.352662,-3.12251,0.00898349,0.0118747
3.37809,0.109205,0.106637,0.352662,-3.12251,0.00898349,0.0118747
3.38612,0.109205,0.106637,0.352662,-3.12251,0.00898349,0.0118747
3.39413,0.109205,0.106637,0.352662,-3.12251,0.00898349,0.0118747
3.4021,0.107317,0.120864,0.352216,-3.11423,0.0237824,0.0169379
3.41012,0.107317,0.120864,0.352216,-3.11423,0.0237824,0.0169379
3.41807,0.107317,0.120864,0.352216,-3.11423,0.0237824,0.0169379
3.42611,0.107317,0.120864,0.352216,-3.11423,0.0237824,0.0169379
3.43407,0.107317,0.120864,0.352216,-3.11423,0.0237824,0.0169379
3.44212,0.107317,0.120864,0.352216,-3.11423,0.0237824,0.0169379
3.45017,0.107317,0.120864,0.352216,-3.11423,0.0237824,0.0169379
3.45811,0.107317,0.120864,0.352216,-3.11423,0.0237824,0.0169379
3.46615,0.107317,0.120864,0.352216,-3.11423,0.0237824,0.0169379
3.47422,0.107317,0.120864,0.352216,-3.11423,0.0237824,0.0169379
3.48207,0.107317,0.120864,0.352216,-3.11423,0.0237824,0.0169379
3.4901,0.107317,0.120864,0.352216,-3.11423,0.0237824,0.0169379
3.49815,0.107317,0.120864,0.352216,-3.11423,0.0237824,0.0169379
3.50608,0.102936,0.140421,0.348283,-3.12636,0.0647471,0.0229402
3.51405,0.102936,0.140421,0.348283,-3.12636,0.0647471,0.0229402
3.52203,0.102936,0.140421,0.348283,-3.12636,0.0647471,0.0229402
3.53002,0.102936,0.140421,0.348283,-3.12636,0.0647471,0.0229402
3.53812,0.102936,0.140421,0.348283,-3.12636,0.0647471,0.0229402
3.54615,0.102936,0.140421,0.348283,-3.12636,0.0647471,0.0229402
3.55413,0.102936,0.140421,0.348283,-3.12636,0.0647471,0.0229402
3.56217,0.102936,0.140421,0.348283,-3.12636,0.0647471,0.0229402
3.57018,0.102936,0.140421,0.348283,-3.12636,0.0647471,0.0229402
3.57826,0.102936,0.140421,0.348283,-3.12636,0.0647471,0.0229402
3.58619,0.102936,0.140421,0.348283,-3.12636,0.0647471,0.0229402
3.59417,0.102936,0.140421,0.348283,-3.12636,0.0647471,0.0229402
3.60218,0.0976653,0.161904,0.342504,-3.13898,0.111481,0.0284285
3.61009,0.0976653,0.161904,0.342504,-3.13898,0.111481,0.0284285
3.61815,0.0976653,0.161904,0.342504,-3.13898,0.111481,0.0284285
3.62612,0.0976653,0.161904,0.342504,-3.13898,0.111481,0.0284285
3.63414,0.0976653,0.161904,0.342504,-3.13898,0.111481,0.0284285
3.64214,0.0976653,0.161904,0.342504,-3.13898,0.111481,0.0284285
3.65019,0.0976653,0.161904,0.342504,-3.13898,0.111481,0.0284285
3.65817,0.0976653,0.161904,0.342504,-3.13898,0.111481,0.0284285
3.66618,0.0976653,0.161904,0.342504,-3.13898,0.111481,0.0284285
3.67421,0.0976653,0.161904,0.342504,-3.13898,0.111481,0.0284285
3.68216,0.0976653,0.161904,0.342504,-3.13898,0.111481,0.0284285
3.69017,0.0976653,0.161904,0.342504,-3.13898,0.111481,0.0284285
3.69814,0.0976653,0.161904,0.342504,-3.13898,0.111481,0.0284285
3.70619,0.092085,0.18794,0.335012,-3.13785,0.129744,0.0451985
3.71402,0.092085,0.18794,0.335012,-3.13785,0.129744,0.0451985
3.72207,0.092085,0.18794,0.335012,-3.13785,0.129744,0.0451985
3.73006,0.092085,0.18794,0.335012,-3.13785,0.129744,0.0451985
3.73808,0.092085,0.18794,0.335012,-3.13785,0.129744,0.0451985
3.74618,0.092085,0.18794,0.335012,-3.13785,0.129744,0.0451985
3.75412,0.092085,0.18794,0.335012,-3.13785,0.129744,0.0451985
3.76219,0.092085,0.18794,0.335012,-3.13785,0.129744,0.0451985
3.77016,0.092085,0.18794,0.335012,-3.13785,0.129744,0.0451985
3.77824,0.092085,0.18794,0.335012,-3.13785,0.129744,0.0451985
3.78616,0.092085,0.18794,0.335012,-3.13785,0.129744,0.0451985
3.79416,0.092085,0.18794,0.335012,-3.13785,0.129744,0.0451985
3.80216,0.0842531,0.20638,0.327767,3.13509,0.1304,0.0632941
3.81006,0.0842531,0.20638,0.327767,3.13509,0.1304,0.0632941
3.81802,0.0842531,0.20638,0.327767,3.13509,0.1304,0.0632941
3.82599,0.0842531,0.20638,0.327767,3.13509,0.1304,0.0632941
3.83406,0.0842531,0.20638,0.327767,3.13509,0.1304,0.0632941
3.84208,0.0842531,0.20638,0.327767,3.13509,0.1304,0.0632941
3.85013,0.0842531,0.20638,0.327767,3.13509,0.1304,0.0632941
3.85813,0.0842531,0.20638,0.327767,3.13509,0.1304,0.0632941
3.8662,0.0842531,0.20638,0.327767,3.13509,0.1304,0.0632941
3.87426,0.0842531,0.20638,0.327767,3.13509,0.1304,0.0632941
3.88216,0.0842531,0.20638,0.327767,3.13509,0.1304,0.0632941
3.89016,0.0842531,0.20638,0.327767,3.13509,0.1304,0.0632941
3.89818,0.0842531,0.20638,0.327767,3.13509,0.1304,0.0632941
3.90604,0.0717177,0.222506,0.319009,3.10402,0.128644,0.05956
3.91406,0.0717177,0.222506,0.319009,3.10402,0.128644,0.05956
3.92212,0.0717177,0.222506,0.319009,3.10402,0.128644,0.05956
3.9301,0.0717177,0.222506,0.319009,3.10402,0.128644,0.05956
3.93812,0.0717177,0.222506,0.319009,3.10402,0.128644,0.05956
3.94618,0.0717177,0.222506,0.319009,3.10402,0.128644,0.05956
3.95422,0.0717177,0.222506,0.319009,3.10402,0.128644,0.05956
3.96217,0.0717177,0.222506,0.319009,3.10402,0.128644,0.05956
3.97016,0.0717177,0.222506,0.319009,3.10402,0.128644,0.05956
3.97823,0.0717177,0.222506,0.319009,3.10402,0.128644,0.05956
3.98617,0.0717177,0.222506,0.319009,3.10402,0.128644,0.05956
3.99414,0.0717177,0.222506,0.319009,3.10402,0.128644,0.05956
4.00218,0.0606447,0.232901,0.311801,3.07282,0.123309,0.0443161
4.01008,0.0606447,0.232901,0.311801,3.07282,0.123309,0.0443161
4.01798,0.0606447,0.232901,0.311801,3.07282,0.123309,0.0443161
4.02605,0.0606447,0.232901,0.311801,3.07282,0.123309,0.0443161
4.03406,0.0606447,0.232901,0.311801,3.07282,0.123309,0.0443161
4.04208,0.0606447,0.232901,0.311801,3.07282,0.123309,0.0443161
4.05006,0.0606447,0.232901,0.311801,3.07282,0.123309,0.0443161
4.05814,0.0606447,0.232901,0.311801,3.07282,0.123309,0.0443161
4.06611,0.0606447,0.232901,0.311801,3.07282,0.123309,0.0443161
4.07424,0.0606447,0.232901,0.311801,3.07282,0.123309,0.0443161
4.08214,0.0606447,0.232901,0.311801,3.07282,0.123309,0.0443161
4.09011,0.0606447,0.232901,0.311801,3.07282,0.123309,0.0443161
4.09814,0.0606447,0.232901,0.311801,3.07282,0.123309,0.0443161
4.10613,0.0395597,0.247941,0.296356,3.0163,0.10538,0.0174122
4.11403,0.0395597,0.247941,0.296356,3.0163,0.10538,0.0174122
4.122,0.0395597,0.247941,0.296356,3.0163,0.10538,0.0174122
4.13004,0.0395597,0.247941,0.296356,3.0163,0.10538,0.0174122
4.13803,0.0395597,0.247941,0.296356,3.0163,0.10538,0.0174122
4.14606,0.0395597,0.247941,0.296356,3.0163,0.10538,0.0174122
4.15412,0.0395597,0.247941,0.296356,3.0163,0.10538,0.0174122
4.16212,0.0395597,0.247941,0.296356,3.0163,0.10538,0.0174122
4.17013,0.0395597,0.247941,0.296356,3.0163,0.10538,0.0174122
4.17817,0.0395597,0.247941,0.296356,3.0163,0.10538,0.0174122
4.18617,0.0395597,0.247941,0.296356,3.0163,0.10538,0.0174122
4.19415,0.0395597,0.247941,0.296356,3.0163,0.10538,0.0174122
4.20213,0.0294945,0.252941,0.283622,2.98217,0.0885803,0.0115764
4.21007,0.0294945,0.252941,0.283622,2.98217,0.0885803,0.0115764
4.21805,0.0294945,0.252941,0.283622,2.98217,0.0885803,0.0115764
4.2261,0.0294945,0.252941,0.283622,2.98217,0.0885803,0.0115764
4.2341,0.0294945,0.252941,0.283622,2.98217,0.0885803,0.0115764
4.24224,0.0294945,0.252941,0.283622,2.98217,0.0885803,0.0115764
4.25014,0.0294945,0.252941,0.283622,2.98217,0.0885803,0.0115764
4.25821,0.0294945,0.252941,0.283622,2.98217,0.0885803,0.0115764
4.26617,0.0294945,0.252941,0.283622,2.98217,0.0885803,0.0115764
4.27418,0.0294945,0.252941,0.283622,2.98217,0.0885803,0.0115764
4.28217,0.0294945,0.252941,0.283622,2.98217,0.0885803,0.0115764
4.2902,0.0294945,0.252941,0.283622,2.98217,0.0885803,0.0115764
4.29813,0.0294945,0.252941,0.283622,2.98217,0.0885803,0.0115764
4.30598,0.0232879,0.257279,0.270914,2.96986,0.0771042,0.00926747
4.31401,0.0232879,0.257279,0.270914,2.96986,0.0771042,0.00926747
4.32207,0.0232879,0.257279,0.270914,2.96986,0.0771042,0.00926747
4.33006,0.0232879,0.257279,0.270914,2.96986,0.0771042,0.00926747
4.33811,0.0232879,0.257279,0.270914,2.96986,0.0771042,0.00926747
4.34613,0.0232879,0.257279,0.270914,2.96986,0.0771042,0.00926747
4.35411,0.0232879,0.257279,0.270914,2.96986,0.0771042,0.00926747
4.36214,0.0232879,0.257279,0.270914,2.96986,0.0771042,0.00926747
4.37011,0.0232879,0.257279,0.270914,2.96986,0.0771042,0.00926747
4.3783,0.0232879,0.257279,0.270914,2.96986,0.0771042,0.00926747
4.38613,0.0232879,0.257279,0.270914,2.96986,0.0771042,0.00926747
4.3942,0.0232879,0.257279,0.270914,2.96986,0.0771042,0.00926747
4.40214,0.0216839,0.263467,0.262738,3.00163,0.0691922,0.000212176
4.41004,0.0216839,0.263467,0.262738,3.00163,0.0691922,0.000212176
4.41802,0.0216839,0.263467,0.262738,3.00163,0.0691922,0.000212176
4.42595,0.0216839,0.263467,0.262738,3.00163,0.0691922,0.000212176
4.43401,0.0216839,0.263467,0.262738,3.00163,0.0691922,0.000212176
4.44199,0.0216839,0.263467,0.262738,3.00163,0.0691922,0.000212176
4.45005,0.0216839,0.263467,0.262738,3.00163,0.0691922,0.000212176
4.45805,0.0216839,0.263467,0.262738,3.00163,0.0691922,0.000212176
4.46612,0.0216839,0.263467,0.262738,3.00163,0.0691922,0.000212176
4.47411,0.0216839,0.263467,0.262738,3.00163,0.0691922,0.000212176
4.48211,0.0216839,0.263467,0.262738,3.00163,0.0691922,0.000212176
4.49012,0.0216839,0.263467,0.262738,3.00163,0.0691922,0.000212176
4.49812,0.0216839,0.263467,0.262738,3.00163,0.0691922,0.000212176
4.50605,0.021724,0.266906,0.256441,3.03309,0.0651948,0.000256319
4.51402,0.021724,0.266906,0.256441,3.03309,0.0651948,0.000256319
4.5221,0.021724,0.266906,0.256441,3.03309,0.0651948,0.000256319
4.53007,0.021724,0.266906,0.256441,3.03309,0.0651948,0.000256319
4.53811,0.021724,0.266906,0.256441,3.03309,0.0651948,0.000256319
4.54614,0.021724,0.266906,0.256441,3.03309,0.0651948,0.000256319
4.55414,0.021724,0.266906,0.256441,3.03309,0.0651948,0.000256319
4.56213,0.021724,0.266906,0.256441,3.03309,0.0651948,0.000256319
4.57014,0.021724,0.266906,0.256441,3.03309,0.0651948,0.000256319
4.5781,0.021724,0.266906,0.256441,3.03309,0.0651948,0.000256319
4.58616,0.021724,0.266906,0.256441,3.03309,0.0651948,0.000256319
4.59413,0.021724,0.266906,0.256441,3.03309,0.0651948,0.000256319
4.60214,0.0227919,0.266425,0.252733,3.03712,0.0557262,0.00126093
4.61006,0.0227919,0.266425,0.252733,3.03712,0.0557262,0.00126093
4.61797,0.0227919,0.266425,0.252733,3.03712,0.0557262,0.00126093
4.62608,0.0227919,0.266425,0.252733,3.03712,0.0557262,0.00126093
4.63407,0.0227919,0.266425,0.252733,3.03712,0.0557262,0.00126093
4.64209,0.0227919,0.266425,0.252733,3.03712,0.0557262,0.00126093
4.65011,0.0227919,0.266425,0.252733,3.03712,0.0557262,0.00126093
4.65812,0.0227919,0.266425,0.252733,3.03712,0.0557262,0.00126093
4.66613,0.0227919,0.266425,0.252733,3.03712,0.0557262,0.00126093
4.67416,0.0227919,0.266425,0.252733,3.03712,0.0557262,0.00126093
4.6822,0.0227919,0.266425,0.252733,3.03712,0.0557262,0.00126093
4.69013,0.0227919,0.266425,0.252733,3.03712,0.0557262,0.00126093
4.69813,0.0227919,0.266425,0.252733,3.03712,0.0557262,0.00126093
4.70612,0.024243,0.26372,0.246725,3.01901,0.0432084,0.000899369
4.71398,0.024243,0.26372,0.246725,3.01901,0.0432084,0.000899369
4.72214,0.024243,0.26372,0.246725,3.01901,0.0432084,0.000899369
4.73003,0.024243,0.26372,0.246725,3.01901,0.0432084,0.000899369
4.73799,0.024243,0.26372,0.246725,3.01901,0.0432084,0.000899369
4.74602,0.024243,0.26372,0.246725,3.01901,0.0432084,0.000899369
4.75408,0.024243,0.26372,0.246725,3.01901,0.0432084,0.000899369
4.76211,0.024243,0.26372,0.246725,3.01901,0.0432084,0.000899369
4.77012,0.024243,0.26372,0.246725,3.01901,0.0432084,0.000899369
4.77815,0.024243,0.26372,0.246725,3.01901,0.0432084,0.000899369
4.78611,0.024243,0.26372,0.246725,3.01901,0.0432084,0.000899369
4.79415,0.024243,0.26372,0.246725,3.01901,0.0432084,0.000899369
4.80212,0.024408,0.263217,0.245707,3.01558,0.0420743,0.000760903
4.81002,0.024408,0.263217,0.245707,3.01558,0.0420743,0.000760903
4.81805,0.024408,0.263217,0.245707,3.01558,0.0420743,0.000760903
4.82608,0.024408,0.263217,0.245707,3.01558,0.0420743,0.000760903
4.83405,0.024408,0.263217,0.245707,3.01558,0.0420743,0.000760903
4.84208,0.024408,0.263217,0.245707,3.01558,0.0420743,0.000760903
4.85008,0.024408,0.263217,0.245707,3.01558,0.0420743,0.000760903
4.85812,0.024408,0.263217,0.245707,3.01558,0.0420743,0.000760903
4.86612,0.024408,0.263217,0.245707,3.01558,0.0420743,0.000760903
4.87412,0.024408,0.263217,0.245707,3.01558,0.0420743,0.000760903
4.88213,0.024408,0.263217,0.245707,3.01558,0.0420743,0.000760903
4.89012,0.024408,0.263217,0.245707,3.01558,0.0420743,0.000760903
4.89809,0.024408,0.263217,0.245707,3.01558,0.0420743,0.000760903
4.90603,0.0244032,0.263222,0.245734,3.01571,0.0421559,0.000786388
4.91399,0.0244032,0.263222,0.245734,3.01571,0.0421559,0.000786388
4.92203,0.0244032,0.263222,0.245734,3.01571,0.0421559,0.000786388
4.93004,0.0244032,0.263222,0.245734,3.01571,0.0421559,0.000786388
4.93805,0.0244032,0.263222,0.245734,3.01571,0.0421559,0.000786388
4.94607,0.0244032,0.263222,0.245734,3.01571,0.0421559,0.000786388
4.95408,0.0244032,0.263222,0.245734,3.01571,0.0421559,0.000786388
4.96218,0.0244032,0.263222,0.245734,3.01571,0.0421559,0.000786388
4.97011,0.0244032,0.263222,0.245734,3.01571,0.0421559,0.000786388
4.97821,0.0244032,0.263222,0.245734,3.01571,0.0421559,0.000786388
4.98614,0.0244032,0.263222,0.245734,3.01571,0.0421559,0.000786388
4.99409,0.0244032,0.263222,0.245734,3.01571,0.0421559,0.000786388
5.00226,0.0244003,0.263221,0.245736,3.01572,0.0421626,0.000823089
5.00999,0.0244003,0.263221,0.245736,3.01572,0.0421626,0.000823089
5.01797,0.0244003,0.263221,0.245736,3.01572,0.0421626,0.000823089
5.02594,0.0244003,0.263221,0.245736,3.01572,0.0421626,0.000823089
5.03399,0.0244003,0.263221,0.245736,3.01572,0.0421626,0.000823089
5.04201,0.0244003,0.263221,0.245736,3.01572,0.0421626,0.000823089
5.05004,0.0244003,0.263221,0.245736,3.01572,0.0421626,0.000823089
5.05804,0.0244003,0.263221,0.245736,3.01572,0.0421626,0.000823089
5.06613,0.0244003,0.263221,0.245736,3.01572,0.0421626,0.000823089
5.07405,0.0244003,0.263221,0.245736,3.01572,0.0421626,0.000823089
5.08221,0.0244003,0.263221,0.245736,3.01572,0.0421626,0.000823089
5.09008,0.0244003,0.263221,0.245736,3.01572,0.0421626,0.000823089
5.09809,0.0244003,0.263221,0.245736,3.01572,0.0421626,0.000823089
5.10601,0.0244063,0.263212,0.245726,3.01564,0.0421772,0.000815248
5.11412,0.0244063,0.263212,0.245726,3.01564,0.0421772,0.000815248
5.1221,0.0244063,0.263212,0.245726,3.01564,0.0421772,0.000815248
5.13008,0.0244063,0.263212,0.245726,3.01564,0.0421772,0.000815248
5.13809,0.0244063,0.263212,0.245726,3.01564,0.0421772,0.000815248
5.14609,0.0244063,0.263212,0.245726,3.01564,0.0421772,0.000815248
5.15409,0.0244063,0.263212,0.245726,3.01564,0.0421772,0.000815248
5.16214,0.0244063,0.263212,0.245726,3.01564,0.0421772,0.000815248
5.17012,0.0244063,0.263212,0.245726,3.01564,0.0421772,0.000815248
5.17816,0.0244063,0.263212,0.245726,3.01564,0.0421772,0.000815248
5.18613,0.0244063,0.263212,0.245726,3.01564,0.0421772,0.000815248
5.19409,0.0244063,0.263212,0.245726,3.01564,0.0421772,0.000815248
5.20206,0.0244032,0.263215,0.245724,3.01562,0.0421965,0.000811883
5.20997,0.0244032,0.263215,0.245724,3.01562,0.0421965,0.000811883
5.21807,0.0244032,0.263215,0.245724,3.01562,0.0421965,0.000811883
5.22603,0.0244032,0.263215,0.245724,3.01562,0.0421965,0.000811883
5.23402,0.0244032,0.263215,0.245724,3.01562,0.0421965,0.000811883
5.24207,0.0244032,0.263215,0.245724,3.01562,0.0421965,0.000811883
5.25011,0.0244032,0.263215,0.245724,3.01562,0.0421965,0.000811883
5.25808,0.0244032,0.263215,0.245724,3.01562,0.0421965,0.000811883
5.26608,0.0244032,0.263215,0.245724,3.01562,0.0421965,0.000811883
5.27414,0.0244032,0.263215,0.245724,3.01562,0.0421965,0.000811883
5.28219,0.0244032,0.263215,0.245724,3.01562,0.0421965,0.000811883
5.29012,0.0244032,0.263215,0.245724,3.01562,0.0421965,0.000811883
5.29815,0.0244032,0.263215,0.245724,3.01562,0.0421965,0.000811883
5.30607,0.0244042,0.263219,0.245746,3.01573,0.0421661,0.000811116
5.31403,0.0244042,0.263219,0.245746,3.01573,0.0421661,0.000811116
5.32196,0.0244042,0.263219,0.245746,3.01573,0.0421661,0.000811116
5.33001,0.0244042,0.263219,0.245746,3.01573,0.0421661,0.000811116
5.33796,0.0244042,0.263219,0.245746,3.01573,0.0421661,0.000811116
5.34598,0.0244042,0.263219,0.245746,3.01573,0.0421661,0.000811116
5.35407,0.0244042,0.263219,0.245746,3.01573,0.0421661,0.000811116
5.36204,0.0244042,0.263219,0.245746,3.01573,0.0421661,0.000811116
5.37005,0.0244042,0.263219,0.245746,3.01573,0.0421661,0.000811116
5.37801,0.0244042,0.263219,0.245746,3.01573,0.0421661,0.000811116
5.38597,0.0244042,0.263219,0.245746,3.01573,0.0421661,0.000811116
5.39399,0.0244042,0.263219,0.245746,3.01573,0.0421661,0.000811116
5.40195,0.0244004,0.263221,0.245718,3.01561,0.0421691,0.000849526
5.41005,0.0244004,0.263221,0.245718,3.01561,0.0421691,0.000849526
5.41802,0.0244004,0.263221,0.245718,3.01561,0.0421691,0.000849526
5.42609,0.0244004,0.263221,0.245718,3.01561,0.0421691,0.000849526
5.43407,0.0244004,0.263221,0.245718,3.01561,0.0421691,0.000849526
5.44208,0.0244004,0.263221,0.245718,3.01561,0.0421691,0.000849526
5.45013,0.0244004,0.263221,0.245718,3.01561,0.0421691,0.000849526
5.45812,0.0244004,0.263221,0.245718,3.01561,0.0421691,0.000849526
5.46608,0.0244004,0.263221,0.245718,3.01561,0.0421691,0.000849526
5.47415,0.0244004,0.263221,0.245718,3.01561,0.0421691,0.000849526
5.48213,0.0244004,0.263221,0.245718,3.01561,0.0421691,0.000849526
5.49012,0.0244004,0.263221,0.245718,3.01561,0.0421691,0.000849526
5.49813,0.0244004,0.263221,0.245718,3.01561,0.0421691,0.000849526
5.50612,0.0244013,0.263221,0.245722,3.01563,0.0421593,0.000804381
5.5139,0.0244013,0.263221,0.245722,3.01563,0.0421593,0.000804381
5.52198,0.0244013,0.263221,0.245722,3.01563,0.0421593,0.000804381
5.52999,0.0244013,0.263221,0.245722,3.01563,0.0421593,0.000804381
5.53801,0.0244013,0.263221,0.245722,3.01563,0.0421593,0.000804381
5.54599,0.0244013,0.263221,0.245722,3.01563,0.0421593,0.000804381
5.55405,0.0244013,0.263221,0.245722,3.01563,0.0421593,0.000804381
5.56207,0.0244013,0.263221,0.245722,3.01563,0.0421593,0.000804381
5.57005,0.0244013,0.263221,0.245722,3.01563,0.0421593,0.000804381
5.57814,0.0244013,0.263221,0.245722,3.01563,0.0421593,0.000804381
5.58611,0.0244013,0.263221,0.245722,3.01563,0.0421593,0.000804381
5.59414,0.0244013,0.263221,0.245722,3.01563,0.0421593,0.000804381
5.6021,0.024409,0.263213,0.245727,3.01562,0.0421713,0.000814223
5.60994,0.024409,0.263213,0.245727,3.01562,0.0421713,0.000814223
5.61798,0.024409,0.263213,0.245727,3.01562,0.0421713,0.000814223
5.62595,0.024409,0.263213,0.245727,3.01562,0.0421713,0.000814223
5.63393,0.024409,0.263213,0.245727,3.01562,0.0421713,0.000814223
5.64197,0.024409,0.263213,0.245727,3.01562,0.0421713,0.000814223
5.64999,0.024409,0.263213,0.245727,3.01562,0.0421713,0.000814223
5.65801,0.024409,0.263213,0.245727,3.01562,0.0421713,0.000814223
5.66607,0.024409,0.263213,0.245727,3.01562,0.0421713,0.000814223
5.67409,0.024409,0.263213,0.245727,3.01562,0.0421713,0.000814223
5.68214,0.024409,0.263213,0.245727,3.01562,0.0421713,0.000814223
5.69011,0.024409,0.263213,0.245727,3.01562,0.0421713,0.000814223
5.69806,0.024409,0.263213,0.245727,3.01562,0.0421713,0.000814223
5.70604,0.0243963,0.263214,0.245714,3.0156,0.0421655,0.000873338
5.71404,0.0243963,0.263214,0.245714,3.0156,0.0421655,0.000873338
5.72208,0.0243963,0.263214,0.245714,3.0156,0.0421655,0.000873338
5.7301,0.0243963,0.263214,0.245714,3.0156,0.0421655,0.000873338
5.73818,0.0243963,0.263214,0.245714,3.0156,0.0421655,0.000873338
5.74608,0.0243963,0.263214,0.245714,3.0156,0.0421655,0.000873338
5.75408,0.0243963,0.263214,0.245714,3.0156,0.0421655,0.000873338
5.76208,0.0243963,0.263214,0.245714,3.0156,0.0421655,0.000873338
5.77007,0.0243963,0.263214,0.245714,3.0156,0.0421655,0.000873338
5.77814,0.0243963,0.263214,0.245714,3.0156,0.0421655,0.000873338
5.78595,0.0243963,0.263214,0.245714,3.0156,0.0421655,0.000873338
5.79398,0.0243963,0.263214,0.245714,3.0156,0.0421655,0.000873338
5.80196,0.0244019,0.263213,0.245731,3.01567,0.0422012,0.00083912
5.81002,0.0244019,0.263213,0.245731,3.01567,0.0422012,0.00083912
5.81794,0.0244019,0.263213,0.245731,3.01567,0.0422012,0.00083912
5.82601,0.0244019,0.263213,0.245731,3.01567,0.0422012,0.00083912
5.83401,0.0244019,0.263213,0.245731,3.01567,0.0422012,0.00083912
5.84199,0.0244019,0.263213,0.245731,3.01567,0.0422012,0.00083912
5.85003,0.0244019,0.263213,0.245731,3.01567,0.0422012,0.00083912
5.85805,0.0244019,0.263213,0.245731,3.01567,0.0422012,0.00083912
5.86607,0.0244019,0.263213,0.245731,3.01567,0.0422012,0.00083912
5.8741,0.0244019,0.263213,0.245731,3.01567,0.0422012,0.00083912
5.88214,0.0244019,0.263213,0.245731,3.01567,0.0422012,0.00083912
5.89006,0.0244019,0.263213,0.245731,3.01567,0.0422012,0.00083912
5.89811,0.0244019,0.263213,0.245731,3.01567,0.0422012,0.00083912
5.90596,0.0244116,0.263217,0.245718,3.01561,0.0421564,0.000803306
5.91391,0.0244116,0.263217,0.245718,3.01561,0.0421564,0.000803306
5.92194,0.0244116,0.263217,0.245718,3.01561,0.0421564,0.000803306
5.92995,0.0244116,0.263217,0.245718,3.01561,0.0421564,0.000803306
5.93797,0.0244116,0.263217,0.245718,3.01561,0.0421564,0.000803306
5.94598,0.0244116,0.263217,0.245718,3.01561,0.0421564,0.000803306
5.95403,0.0244116,0.263217,0.245718,3.01561,0.0421564,0.000803306
5.96206,0.0244116,0.263217,0.245718,3.01561,0.0421564,0.000803306
5.97009,0.0244116,0.263217,0.245718,3.01561,0.0421564,0.000803306
5.97804,0.0244116,0.263217,0.245718,3.01561,0.0421564,0.000803306
5.98596,0.0244116,0.263217,0.245718,3.01561,0.0421564,0.000803306
5.99396,0.0244116,0.263217,0.245718,3.01561,0.0421564,0.000803306
6.00193,0.024407,0.263213,0.245712,3.0156,0.0421481,0.000790956
6.00996,0.024407,0.263213,0.245712,3.0156,0.0421481,0.000790956
6.01803,0.024407,0.263213,0.245712,3.0156,0.0421481,0.000790956
6.02605,0.024407,0.263213,0.245712,3.0156,0.0421481,0.000790956
6.03404,0.024407,0.263213,0.245712,3.0156,0.0421481,0.000790956
6.04207,0.024407,0.263213,0.245712,3.0156,0.0421481,0.000790956
6.05007,0.024407,0.263213,0.245712,3.0156,0.0421481,0.000790956
6.05803,0.024407,0.263213,0.245712,3.0156,0.0421481,0.000790956
6.06609,0.024407,0.263213,0.245712,3.0156,0.0421481,0.000790956
6.07411,0.024407,0.263213,0.245712,3.0156,0.0421481,0.000790956
6.0821,0.024407,0.263213,0.245712,3.0156,0.0421481,0.000790956
6.08997,0.024407,0.263213,0.245712,3.0156,0.0421481,0.000790956
6.09803,0.024407,0.263213,0.245712,3.0156,0.0421481,0.000790956
6.10599,0.0244019,0.263213,0.24572,3.0156,0.0421775,0.000824267
6.11392,0.0244019,0.263213,0.24572,3.0156,0.0421775,0.000824267
6.12196,0.0244019,0.263213,0.24572,3.0156,0.0421775,0.000824267
6.12994,0.0244019,0.263213,0.24572,3.0156,0.0421775,0.000824267
6.13798,0.0244019,0.263213,0.24572,3.0156,0.0421775,0.000824267
6.14597,0.0244019,0.263213,0.24572,3.0156,0.0421775,0.000824267
6.15403,0.0244019,0.263213,0.24572,3.0156,0.0421775,0.000824267
6.16208,0.0244019,0.263213,0.24572,3.0156,0.0421775,0.000824267
6.17008,0.0244019,0.263213,0.24572,3.0156,0.0421775,0.000824267
6.1781,0.0244019,0.263213,0.24572,3.0156,0.0421775,0.000824267
6.1861,0.0244019,0.263213,0.24572,3.0156,0.0421775,0.000824267
6.19404,0.0244019,0.263213,0.24572,3.0156,0.0421775,0.000824267
6.20208,0.0243996,0.26322,0.245728,3.01564,0.0421903,0.000837695
6.20996,0.0243996,0.26322,0.245728,3.01564,0.0421903,0.000837695
6.21799,0.0243996,0.26322,0.245728,3.01564,0.0421903,0.000837695
6.22591,0.0243996,0.26322,0.245728,3.01564,0.0421903,0.000837695
6.23392,0.0243996,0.26322,0.245728,3.01564,0.0421903,0.000837695
6.24194,0.0243996,0.26322,0.245728,3.01564,0.0421903,0.000837695
6.24995,0.0243996,0.26322,0.245728,3.01564,0.0421903,0.000837695
6.25798,0.0243996,0.26322,0.245728,3.01564,0.0421903,0.000837695
6.26605,0.0243996,0.26322,0.245728,3.01564,0.0421903,0.000837695
6.27405,0.0243996,0.26322,0.245728,3.01564,0.0421903,0.000837695
6.28213,0.0243996,0.26322,0.245728,3.01564,0.0421903,0.000837695
6.29007,0.0244018,0.263207,0.245719,3.0156,0.0422034,0.000845131
6.2981,0.0244018,0.263207,0.245719,3.0156,0.0422034,0.000845131
6.30608,0.0244115,0.263212,0.245717,3.01557,0.0421677,0.000798883
6.31394,0.0244115,0.263212,0.245717,3.01557,0.0421677,0.000798883
6.32196,0.0244115,0.263212,0.245717,3.01557,0.0421677,0.000798883
6.32995,0.0244115,0.263212,0.245717,3.01557,0.0421677,0.000798883
6.33789,0.0244115,0.263212,0.245717,3.01557,0.0421677,0.000798883
6.34593,0.0244115,0.263212,0.245717,3.01557,0.0421677,0.000798883
6.35394,0.0244115,0.263212,0.245717,3.01557,0.0421677,0.000798883
6.36191,0.0244115,0.263212,0.245717,3.01557,0.0421677,0.000798883
6.36995,0.0244115,0.263212,0.245717,3.01557,0.0421677,0.000798883
6.37792,0.0244115,0.263212,0.245717,3.01557,0.0421677,0.000798883
6.38593,0.0244115,0.263212,0.245717,3.01557,0.0421677,0.000798883
6.39397,0.0244115,0.263212,0.245717,3.01557,0.0421677,0.000798883
6.40191,0.0244108,0.263207,0.245712,3.01553,0.0421812,0.000806396
6.41003,0.0244108,0.263207,0.245712,3.01553,0.0421812,0.000806396
6.41791,0.0244108,0.263207,0.245712,3.01553,0.0421812,0.000806396
6.42591,0.0244108,0.263207,0.245712,3.01553,0.0421812,0.000806396
6.4339,0.0244108,0.263207,0.245712,3.01553,0.0421812,0.000806396
6.44191,0.0244108,0.263207,0.245712,3.01553,0.0421812,0.000806396
6.4499,0.0244108,0.263207,0.245712,3.01553,0.0421812,0.000806396
6.45801,0.0244108,0.263207,0.245712,3.01553,0.0421812,0.000806396
6.46596,0.0244108,0.263207,0.245712,3.01553,0.0421812,0.000806396
6.47398,0.0244108,0.263207,0.245712,3.01553,0.0421812,0.000806396
6.48199,0.0244108,0.263207,0.245712,3.01553,0.0421812,0.000806396
6.48992,0.0244108,0.263207,0.245712,3.01553,0.0421812,0.000806396
6.49794,0.0244108,0.263207,0.245712,3.01553,0.0421812,0.000806396
6.50597,0.0244119,0.26321,0.245712,3.01557,0.0421738,0.000846512
6.51393,0.0244119,0.26321,0.245712,3.01557,0.0421738,0.000846512
6.52191,0.0244119,0.26321,0.245712,3.01557,0.0421738,0.000846512
6.52993,0.0244119,0.26321,0.245712,3.01557,0.0421738,0.000846512
6.53795,0.0244119,0.26321,0.245712,3.01557,0.0421738,0.000846512
6.54596,0.0244119,0.26321,0.245712,3.01557,0.0421738,0.000846512
6.55407,0.0244119,0.26321,0.245712,3.01557,0.0421738,0.000846512
6.56197,0.0244119,0.26321,0.245712,3.01557,0.0421738,0.000846512
6.56995,0.0244119,0.26321,0.245712,3.01557,0.0421738,0.000846512
6.57795,0.0244119,0.26321,0.245712,3.01557,0.0421738,0.000846512
6.58607,0.0244119,0.26321,0.245712,3.01557,0.0421738,0.000846512
6.59396,0.0244119,0.26321,0.245712,3.01557,0.0421738,0.000846512
6.60197,0.0244071,0.263213,0.245717,3.01558,0.042145,0.000825595
6.60993,0.0244071,0.263213,0.245717,3.01558,0.042145,0.000825595
6.61796,0.0244071,0.263213,0.245717,3.01558,0.042145,0.000825595
6.62596,0.0244071,0.263213,0.245717,3.01558,0.042145,0.000825595
6.63393,0.0244071,0.263213,0.245717,3.01558,0.042145,0.000825595
6.64199,0.0244071,0.263213,0.245717,3.01558,0.042145,0.000825595
6.64995,0.0244071,0.263213,0.245717,3.01558,0.042145,0.000825595
6.65796,0.0244071,0.263213,0.245717,3.01558,0.042145,0.000825595
6.66594,0.0244071,0.263213,0.245717,3.01558,0.042145,0.000825595
6.67399,0.0244071,0.263213,0.245717,3.01558,0.042145,0.000825595
6.68205,0.0244071,0.263213,0.245717,3.01558,0.042145,0.000825595
6.68997,0.0244071,0.263213,0.245717,3.01558,0.042145,0.000825595
6.69794,0.0244071,0.263213,0.245717,3.01558,0.042145,0.000825595
6.70597,0.0244065,0.263211,0.245709,3.01555,0.0421522,0.000847002
6.7139,0.0244065,0.263211,0.245709,3.01555,0.0421522,0.000847002
6.72195,0.0244065,0.263211,0.245709,3.01555,0.0421522,0.000847002
6.72994,0.0244065,0.263211,0.245709,3.01555,0.0421522,0.000847002
6.73802,0.0244065,0.263211,0.245709,3.01555,0.0421522,0.000847002
6.74595,0.0244065,0.263211,0.245709,3.01555,0.0421522,0.000847002
6.75398,0.0244065,0.263211,0.245709,3.01555,0.0421522,0.000847002
6.76202,0.0244065,0.263211,0.245709,3.01555,0.0421522,0.000847002
6.77006,0.0244065,0.263211,0.245709,3.01555,0.0421522,0.000847002
6.77802,0.0244065,0.263211,0.245709,3.01555,0.0421522,0.000847002
6.78603,0.0244065,0.263211,0.245709,3.01555,0.0421522,0.000847002
6.79397,0.0244065,0.263211,0.245709,3.01555,0.0421522,0.000847002
6.80194,0.024415,0.263207,0.245701,3.01553,0.0421669,0.00077217
6.80998,0.024415,0.263207,0.245701,3.01553,0.0421669,0.00077217
6.81791,0.024415,0.263207,0.245701,3.01553,0.0421669,0.00077217
6.82593,0.024415,0.263207,0.245701,3.01553,0.0421669,0.00077217
6.83394,0.024415,0.263207,0.245701,3.01553,0.0421669,0.00077217
6.84202,0.024415,0.263207,0.245701,3.01553,0.0421669,0.00077217
6.84998,0.024415,0.263207,0.245701,3.01553,0.0421669,0.00077217
6.85803,0.024415,0.263207,0.245701,3.01553,0.0421669,0.00077217
6.86604,0.024415,0.263207,0.245701,3.01553,0.0421669,0.00077217
6.87397,0.024415,0.263207,0.245701,3.01553,0.0421669,0.00077217
6.88206,0.024415,0.263207,0.245701,3.01553,0.0421669,0.00077217
6.88997,0.024415,0.263207,0.245701,3.01553,0.0421669,0.00077217
6.89799,0.024415,0.263207,0.245701,3.01553,0.0421669,0.00077217
6.90598,0.0244167,0.263211,0.245704,3.01554,0.0421766,0.000808325
6.91397,0.0244167,0.263211,0.245704,3.01554,0.0421766,0.000808325
6.92203,0.0244167,0.263211,0.245704,3.01554,0.0421766,0.000808325
6.92996,0.0244167,0.263211,0.245704,3.01554,0.0421766,0.000808325
6.93804,0.0244167,0.263211,0.245704,3.01554,0.0421766,0.000808325
6.94597,0.0244167,0.263211,0.245704,3.01554,0.0421766,0.000808325
6.95407,0.0244167,0.263211,0.245704,3.01554,0.0421766,0.000808325
6.96202,0.0244167,0.263211,0.245704,3.01554,0.0421766,0.000808325
6.97008,0.0244167,0.263211,0.245704,3.01554,0.0421766,0.000808325
6.97802,0.0244167,0.263211,0.245704,3.01554,0.0421766,0.000808325
6.98606,0.0244167,0.263211,0.245704,3.01554,0.0421766,0.000808325
6.99403,0.0244167,0.263211,0.245704,3.01554,0.0421766,0.000808325
7.00208,0.0244046,0.263211,0.245709,3.01554,0.0421781,0.000867925
7.00988,0.0244046,0.263211,0.245709,3.01554,0.0421781,0.000867925
7.01793,0.0244046,0.263211,0.245709,3.01554,0.0421781,0.000867925
7.02596,0.0244046,0.263211,0.245709,3.01554,0.0421781,0.000867925
7.03399,0.0244046,0.263211,0.245709,3.01554,0.0421781,0.000867925
7.04204,0.0244046,0.263211,0.245709,3.01554,0.0421781,0.000867925
7.05003,0.0244046,0.263211,0.245709,3.01554,0.0421781,0.000867925
7.05806,0.0244046,0.263211,0.245709,3.01554,0.0421781,0.000867925
7.06607,0.0244046,0.263211,0.245709,3.01554,0.0421781,0.000867925
7.07408,0.0244046,0.263211,0.245709,3.01554,0.0421781,0.000867925
7.08207,0.0244046,0.263211,0.245709,3.01554,0.0421781,0.000867925
7.08994,0.0244046,0.263211,0.245709,3.01554,0.0421781,0.000867925
7.09795,0.0244046,0.263211,0.245709,3.01554,0.0421781,0.000867925
7.10589,0.0244222,0.26321,0.24571,3.01555,0.0421886,0.00075973
7.11389,0.0244222,0.26321,0.24571,3.01555,0.0421886,0.00075973
7.12189,0.0244222,0.26321,0.24571,3.01555,0.0421886,0.00075973
7.12988,0.0244222,0.26321,0.24571,3.01555,0.0421886,0.00075973
7.13789,0.0244222,0.26321,0.24571,3.01555,0.0421886,0.00075973
7.14591,0.0244222,0.26321,0.24571,3.01555,0.0421886,0.00075973
7.15389,0.0244222,0.26321,0.24571,3.01555,0.0421886,0.00075973
7.16189,0.0244222,0.26321,0.24571,3.01555,0.0421886,0.00075973
7.1699,0.0244222,0.26321,0.24571,3.01555,0.0421886,0.00075973
7.1779,0.0244222,0.26321,0.24571,3.01555,0.0421886,0.00075973
7.18594,0.0244222,0.26321,0.24571,3.01555,0.0421886,0.00075973
7.19394,0.0244222,0.26321,0.24571,3.01555,0.0421886,0.00075973
7.20189,0.02442,0.263201,0.245709,3.01553,0.0421726,0.00080774
7.20988,0.02442,0.263201,0.245709,3.01553,0.0421726,0.00080774
7.21787,0.02442,0.263201,0.245709,3.01553,0.0421726,0.00080774
7.22586,0.02442,0.263201,0.245709,3.01553,0.0421726,0.00080774
7.23388,0.02442,0.263201,0.245709,3.01553,0.0421726,0.00080774
7.24191,0.02442,0.263201,0.245709,3.01553,0.0421726,0.00080774
7.24997,0.02442,0.263201,0.245709,3.01553,0.0421726,0.00080774
7.25795,0.02442,0.263201,0.245709,3.01553,0.0421726,0.00080774
7.26603,0.02442,0.263201,0.245709,3.01553,0.0421726,0.00080774
7.27406,0.02442,0.263201,0.245709,3.01553,0.0421726,0.00080774
7.28208,0.02442,0.263201,0.245709,3.01553,0.0421726,0.00080774
7.29007,0.02442,0.263201,0.245709,3.01553,0.0421726,0.00080774
7.29804,0.02442,0.263201,0.245709,3.01553,0.0421726,0.00080774
7.3059,0.0244198,0.263205,0.245702,3.01554,0.0421596,0.000797359
7.3139,0.0244198,0.263205,0.245702,3.01554,0.0421596,0.000797359
7.32192,0.0244198,0.263205,0.245702,3.01554,0.0421596,0.000797359
7.32997,0.0244198,0.263205,0.245702,3.01554,0.0421596,0.000797359
7.33796,0.0244198,0.263205,0.245702,3.01554,0.0421596,0.000797359
7.34603,0.0244198,0.263205,0.245702,3.01554,0.0421596,0.000797359
7.35399,0.0244198,0.263205,0.245702,3.01554,0.0421596,0.000797359
7.36203,0.0244198,0.263205,0.245702,3.01554,0.0421596,0.000797359
7.37005,0.0244198,0.263205,0.245702,3.01554,0.0421596,0.000797359
7.37803,0.0244198,0.263205,0.245702,3.01554,0.0421596,0.000797359
7.38602,0.0244198,0.263205,0.245702,3.01554,0.0421596,0.000797359
7.39405,0.0244198,0.263205,0.245702,3.01554,0.0421596,0.000797359
7.40198,0.024429,0.263202,0.2457,3.01551,0.0421244,0.000763002
7.40994,0.024429,0.263202,0.2457,3.01551,0.0421244,0.000763002
7.41796,0.024429,0.263202,0.2457,3.01551,0.0421244,0.000763002
7.42582,0.024429,0.263202,0.2457,3.01551,0.0421244,0.000763002
7.43385,0.024429,0.263202,0.2457,3.01551,0.0421244,0.000763002
7.44192,0.024429,0.263202,0.2457,3.01551,0.0421244,0.000763002
7.44992,0.024429,0.263202,0.2457,3.01551,0.0421244,0.000763002
7.45794,0.024429,0.263202,0.2457,3.01551,0.0421244,0.000763002
7.46596,0.024429,0.263202,0.2457,3.01551,0.0421244,0.000763002
7.47403,0.024429,0.263202,0.2457,3.01551,0.0421244,0.000763002
7.48203,0.024429,0.263202,0.2457,3.01551,0.0421244,0.000763002
7.49006,0.024429,0.263202,0.2457,3.01551,0.0421244,0.000763002
7.49799,0.024429,0.263202,0.2457,3.01551,0.0421244,0.000763002
7.50594,0.0244195,0.263203,0.245704,3.0155,0.042119,0.000786331
7.51396,0.0244195,0.263203,0.245704,3.0155,0.042119,0.000786331
7.52199,0.0244195,0.263203,0.245704,3.0155,0.042119,0.000786331
7.53004,0.0244195,0.263203,0.245704,3.0155,0.042119,0.000786331
7.53796,0.0244195,0.263203,0.245704,3.0155,0.042119,0.000786331
7.54612,0.0244195,0.263203,0.245704,3.0155,0.042119,0.000786331
7.55406,0.0244195,0.263203,0.245704,3.0155,0.042119,0.000786331
7.56206,0.0244195,0.263203,0.245704,3.0155,0.042119,0.000786331
7.57006,0.0244195,0.263203,0.245704,3.0155,0.042119,0.000786331
7.57804,0.0244195,0.263203,0.245704,3.0155,0.042119,0.000786331
7.58605,0.0244195,0.263203,0.245704,3.0155,0.042119,0.000786331
7.59396,0.0244195,0.263203,0.245704,3.0155,0.042119,0.000786331
7.60203,0.0244305,0.2632,0.24567,3.01538,0.0421047,0.000730893
7.60989,0.0244305,0.2632,0.24567,3.01538,0.0421047,0.000730893
7.61784,0.0244305,0.2632,0.24567,3.01538,0.0421047,0.000730893
7.62591,0.0244305,0.2632,0.24567,3.01538,0.0421047,0.000730893
7.63392,0.0244305,0.2632,0.24567,3.01538,0.0421047,0.000730893
7.64191,0.0244305,0.2632,0.24567,3.01538,0.0421047,0.000730893
7.65001,0.0244305,0.2632,0.24567,3.01538,0.0421047,0.000730893
7.65801,0.0244305,0.2632,0.24567,3.01538,0.0421047,0.000730893
7.66606,0.0244305,0.2632,0.24567,3.01538,0.0421047,0.000730893
7.67396,0.0244305,0.2632,0.24567,3.01538,0.0421047,0.000730893
7.68198,0.0244305,0.2632,0.24567,3.01538,0.0421047,0.000730893
7.68998,0.0244305,0.2632,0.24567,3.01538,0.0421047,0.000730893
7.69797,0.0244305,0.2632,0.24567,3.01538,0.0421047,0.000730893
7.70589,0.0244234,0.263197,0.245683,3.01543,0.0421476,0.000766156
7.71387,0.0244234,0.263197,0.245683,3.01543,0.0421476,0.000766156
7.72191,0.0244234,0.263197,0.245683,3.01543,0.0421476,0.000766156
7.73,0.0244234,0.263197,0.245683,3.01543,0.0421476,0.000766156
7.73797,0.0244234,0.263197,0.245683,3.01543,0.0421476,0.000766156
7.74599,0.0244234,0.263197,0.245683,3.01543,0.0421476,0.000766156
7.75396,0.0244234,0.263197,0.245683,3.01543,0.0421476,0.000766156
7.76206,0.0244234,0.263197,0.245683,3.01543,0.0421476,0.000766156
7.76994,0.0244234,0.263197,0.245683,3.01543,0.0421476,0.000766156
7.77804,0.0244234,0.263197,0.245683,3.01543,0.0421476,0.000766156
7.78604,0.0244234,0.263197,0.245683,3.01543,0.0421476,0.000766156
7.79402,0.0244234,0.263197,0.245683,3.01543,0.0421476,0.000766156
7.80204,0.0244229,0.263199,0.24567,3.01538,0.0420978,0.000803766
7.80993,0.0244229,0.263199,0.24567,3.01538,0.0420978,0.000803766
7.81793,0.0244229,0.263199,0.24567,3.01538,0.0420978,0.000803766
7.82599,0.0244229,0.263199,0.24567,3.01538,0.0420978,0.000803766
7.83394,0.0244229,0.263199,0.24567,3.01538,0.0420978,0.000803766
7.84206,0.0244229,0.263199,0.24567,3.01538,0.0420978,0.000803766
7.84998,0.0244229,0.263199,0.24567,3.01538,0.0420978,0.000803766
7.85798,0.0244229,0.263199,0.24567,3.01538,0.0420978,0.000803766
7.86597,0.0244229,0.263199,0.24567,3.01538,0.0420978,0.000803766
7.87398,0.0244229,0.263199,0.24567,3.01538,0.0420978,0.000803766
7.88205,0.0244229,0.263199,0.24567,3.01538,0.0420978,0.000803766
7.89004,0.0244229,0.263199,0.24567,3.01538,0.0420978,0.000803766
7.89807,0.0244229,0.263199,0.24567,3.01538,0.0420978,0.000803766
7.90583,0.0244258,0.26319,0.245677,3.01541,0.0421072,0.000793283
7.91388,0.0244258,0.26319,0.245677,3.01541,0.0421072,0.000793283
7.92188,0.0244258,0.26319,0.245677,3.01541,0.0421072,0.000793283
7.92994,0.0244258,0.26319,0.245677,3.01541,0.0421072,0.000793283
7.93797,0.0244258,0.26319,0.245677,3.01541,0.0421072,0.000793283
7.94597,0.0244258,0.26319,0.245677,3.01541,0.0421072,0.000793283
7.95395,0.0244258,0.26319,0.245677,3.01541,0.0421072,0.000793283
7.96204,0.0244258,0.26319,0.245677,3.01541,0.0421072,0.000793283
7.97002,0.0244258,0.26319,0.245677,3.01541,0.0421072,0.000793283
7.97805,0.0244258,0.26319,0.245677,3.01541,0.0421072,0.000793283
7.98602,0.0244258,0.26319,0.245677,3.01541,0.0421072,0.000793283
7.99402,0.0244258,0.26319,0.245677,3.01541,0.0421072,0.000793283
8.00196,0.024425,0.263198,0.245697,3.01547,0.0421373,0.000782417
8.00984,0.024425,0.263198,0.245697,3.01547,0.0421373,0.000782417
8.01785,0.024425,0.263198,0.245697,3.01547,0.0421373,0.000782417
8.0259,0.024425,0.263198,0.245697,3.01547,0.0421373,0.000782417
8.03389,0.024425,0.263198,0.245697,3.01547,0.0421373,0.000782417
8.04191,0.024425,0.263198,0.245697,3.01547,0.0421373,0.000782417
8.04993,0.024425,0.263198,0.245697,3.01547,0.0421373,0.000782417
8.05791,0.024425,0.263198,0.245697,3.01547,0.0421373,0.000782417
8.06598,0.024425,0.263198,0.245697,3.01547,0.0421373,0.000782417
8.07394,0.024425,0.263198,0.245697,3.01547,0.0421373,0.000782417
8.08196,0.024425,0.263198,0.245697,3.01547,0.0421373,0.000782417
8.09002,0.024425,0.263198,0.245697,3.01547,0.0421373,0.000782417
8.09796,0.024425,0.263198,0.245697,3.01547,0.0421373,0.000782417
8.10588,0.0244247,0.263196,0.245685,3.01544,0.0421005,0.000771954
8.11388,0.0244247,0.263196,0.245685,3.01544,0.0421005,0.000771954
8.12196,0.0244247,0.263196,0.245685,3.01544,0.0421005,0.000771954
8.12991,0.0244247,0.263196,0.245685,3.01544,0.0421005,0.000771954
8.13796,0.0244247,0.263196,0.245685,3.01544,0.0421005,0.000771954
8.14594,0.0244247,0.263196,0.245685,3.01544,0.0421005,0.000771954
8.15395,0.0244247,0.263196,0.245685,3.01544,0.0421005,0.000771954
8.16198,0.0244247,0.263196,0.245685,3.01544,0.0421005,0.000771954
8.16995,0.0244247,0.263196,0.245685,3.01544,0.0421005,0.000771954
8.17793,0.0244247,0.263196,0.245685,3.01544,0.0421005,0.000771954
8.18606,0.0244247,0.263196,0.245685,3.01544,0.0421005,0.000771954
8.19404,0.0244247,0.263196,0.245685,3.01544,0.0421005,0.000771954
8.20206,0.0244226,0.263199,0.245684,3.01541,0.0421089,0.000805209
8.20989,0.0244226,0.263199,0.245684,3.01541,0.0421089,0.000805209
8.21785,0.0244226,0.263199,0.245684,3.01541,0.0421089,0.000805209
8.22591,0.0244226,0.263199,0.245684,3.01541,0.0421089,0.000805209
8.2339,0.0244226,0.263199,0.245684,3.01541,0.0421089,0.000805209
8.24218,0.0244226,0.263199,0.245684,3.01541,0.0421089,0.000805209
8.24994,0.0244226,0.263199,0.245684,3.01541,0.0421089,0.000805209
8.25793,0.0244226,0.263199,0.245684,3.01541,0.0421089,0.000805209
8.26596,0.0244226,0.263199,0.245684,3.01541,0.0421089,0.000805209
8.27403,0.0244226,0.263199,0.245684,3.01541,0.0421089,0.000805209
8.28193,0.0244226,0.263199,0.245684,3.01541,0.0421089,0.000805209
8.29006,0.0244226,0.263199,0.245684,3.01541,0.0421089,0.000805209
8.29797,0.0244226,0.263199,0.245684,3.01541,0.0421089,0.000805209
8.30583,0.0244113,0.263206,0.245694,3.01542,0.0421462,0.000790024
8.31386,0.0244113,0.263206,0.245694,3.01542,0.0421462,0.000790024
8.3219,0.0244113,0.263206,0.245694,3.01542,0.0421462,0.000790024
8.3299,0.0244113,0.263206,0.245694,3.01542,0.0421462,0.000790024
8.33787,0.0244113,0.263206,0.245694,3.01542,0.0421462,0.000790024
8.34597,0.0244113,0.263206,0.245694,3.01542,0.0421462,0.000790024
8.35391,0.0244113,0.263206,0.245694,3.01542,0.0421462,0.000790024
8.36196,0.0244113,0.263206,0.245694,3.01542,0.0421462,0.000790024
8.3701,0.0244113,0.263206,0.245694,3.01542,0.0421462,0.000790024
8.37797,0.0244113,0.263206,0.245694,3.01542,0.0421462,0.000790024
8.38598,0.0244113,0.263206,0.245694,3.01542,0.0421462,0.000790024
8.39399,0.0244113,0.263206,0.245694,3.01542,0.0421462,0.000790024
