Time,X,Y,Z,R,P,Y
0.278733,0.0207659,0.443849,0.259119,3.14123,-0.000479901,-0.000146721
0.286767,0.0207659,0.443849,0.259119,3.14123,-0.000479901,-0.000146721
0.294835,0.0207659,0.443849,0.259119,3.14123,-0.000479901,-0.000146721
0.302805,0.0207764,0.443849,0.259112,3.1412,-0.000484796,-0.000122607
0.310845,0.0207764,0.443849,0.259112,3.1412,-0.000484796,-0.000122607
0.318849,0.0207764,0.443849,0.259112,3.1412,-0.000484796,-0.000122607
0.326818,0.0207764,0.443849,0.259112,3.1412,-0.000484796,-0.000122607
0.33485,0.0207764,0.443849,0.259112,3.1412,-0.000484796,-0.000122607
0.342834,0.0207764,0.443849,0.259112,3.1412,-0.000484796,-0.000122607
0.350882,0.0207764,0.443849,0.259112,3.1412,-0.000484796,-0.000122607
0.358859,0.0207764,0.443849,0.259112,3.1412,-0.000484796,-0.000122607
0.366856,0.0207764,0.443849,0.259112,3.1412,-0.000484796,-0.000122607
0.374905,0.0207764,0.443849,0.259112,3.1412,-0.000484796,-0.000122607
0.382826,0.0207764,0.443849,0.259112,3.1412,-0.000484796,-0.000122607
0.390871,0.0207764,0.443849,0.259112,3.1412,-0.000484796,-0.000122607
0.398796,0.0207764,0.443849,0.259112,3.1412,-0.000484796,-0.000122607
0.406813,0.0207718,0.44385,0.259135,3.1413,-0.000476876,-0.000122782
0.41474,0.0207718,0.44385,0.259135,3.1413,-0.000476876,-0.000122782
0.422767,0.0207718,0.44385,0.259135,3.1413,-0.000476876,-0.000122782
0.430786,0.0207718,0.44385,0.259135,3.1413,-0.000476876,-0.000122782
0.438787,0.0207718,0.44385,0.259135,3.1413,-0.000476876,-0.000122782
0.446853,0.0207718,0.44385,0.259135,3.1413,-0.000476876,-0.000122782
0.454783,0.0207718,0.44385,0.259135,3.1413,-0.000476876,-0.000122782
0.462825,0.0207718,0.44385,0.259135,3.1413,-0.000476876,-0.000122782
0.470828,0.0207718,0.44385,0.259135,3.1413,-0.000476876,-0.000122782
0.478871,0.0207718,0.44385,0.259135,3.1413,-0.000476876,-0.000122782
0.48683,0.0207718,0.44385,0.259135,3.1413,-0.000476876,-0.000122782
0.494885,0.0207718,0.44385,0.259135,3.1413,-0.000476876,-0.000122782
0.502756,0.0207701,0.443849,0.259152,3.14133,-0.000445995,-0.000110817
0.510759,0.0207701,0.443849,0.259152,3.14133,-0.000445995,-0.000110817
0.5188,0.0207701,0.443849,0.259152,3.14133,-0.000445995,-0.000110817
0.526831,0.0207701,0.443849,0.259152,3.14133,-0.000445995,-0.000110817
0.534845,0.0207701,0.443849,0.259152,3.14133,-0.000445995,-0.000110817
0.542848,0.0207701,0.443849,0.259152,3.14133,-0.000445995,-0.000110817
0.550833,0.0207701,0.443849,0.259152,3.14133,-0.000445995,-0.000110817
0.558836,0.0207701,0.443849,0.259152,3.14133,-0.000445995,-0.000110817
0.566839,0.0207701,0.443849,0.259152,3.14133,-0.000445995,-0.000110817
0.574846,0.0207701,0.443849,0.259152,3.14133,-0.000445995,-0.000110817
0.582781,0.0207701,0.443849,0.259152,3.14133,-0.000445995,-0.000110817
0.590819,0.0207701,0.443849,0.259152,3.14133,-0.000445995,-0.000110817
0.598838,0.0207701,0.443849,0.259152,3.14133,-0.000445995,-0.000110817
0.606825,0.0208227,0.443585,0.258176,3.1382,-0.00108547,-6.77042e-05
0.614852,0.0208227,0.443585,0.258176,3.1382,-0.00108547,-6.77042e-05
0.622827,0.0208227,0.443585,0.258176,3.1382,-0.00108547,-6.77042e-05
0.630811,0.0208227,0.443585,0.258176,3.1382,-0.00108547,-6.77042e-05
0.638779,0.0208227,0.443585,0.258176,3.1382,-0.00108547,-6.77042e-05
0.646779,0.0208227,0.443585,0.258176,3.1382,-0.00108547,-6.77042e-05
0.654809,0.0208227,0.443585,0.258176,3.1382,-0.00108547,-6.77042e-05
0.662764,0.0208227,0.443585,0.258176,3.1382,-0.00108547,-6.77042e-05
0.670785,0.0208227,0.443585,0.258176,3.1382,-0.00108547,-6.77042e-05
0.67886,0.0208227,0.443585,0.258176,3.1382,-0.00108547,-6.77042e-05
0.686847,0.0208227,0.443585,0.258176,3.1382,-0.00108547,-6.77042e-05
0.694812,0.0208227,0.443585,0.258176,3.1382,-0.00108547,-6.77042e-05
0.702785,0.0208227,0.443585,0.258147,3.13813,-0.00110039,-0.00010351
0.710694,0.0208227,0.443585,0.258147,3.13813,-0.00110039,-0.00010351
0.718703,0.0208227,0.443585,0.258147,3.13813,-0.00110039,-0.00010351
0.726757,0.0208227,0.443585,0.258147,3.13813,-0.00110039,-0.00010351
0.734748,0.0208227,0.443585,0.258147,3.13813,-0.00110039,-0.00010351
0.742758,0.0208227,0.443585,0.258147,3.13813,-0.00110039,-0.00010351
0.750814,0.0208227,0.443585,0.258147,3.13813,-0.00110039,-0.00010351
0.758826,0.0208227,0.443585,0.258147,3.13813,-0.00110039,-0.00010351
0.766783,0.0208227,0.443585,0.258147,3.13813,-0.00110039,-0.00010351
0.774814,0.0208227,0.443585,0.258147,3.13813,-0.00110039,-0.00010351
0.782758,0.0208227,0.443585,0.258147,3.13813,-0.00110039,-0.00010351
0.790805,0.0208227,0.443585,0.258147,3.13813,-0.00110039,-0.00010351
0.798761,0.0208227,0.443585,0.258147,3.13813,-0.00110039,-0.00010351
0.806865,0.0208169,0.443583,0.258151,3.13812,-0.00108861,-6.76486e-05
0.814706,0.0208169,0.443583,0.258151,3.13812,-0.00108861,-6.76486e-05
0.822722,0.0208169,0.443583,0.258151,3.13812,-0.00108861,-6.76486e-05
0.830736,0.0208169,0.443583,0.258151,3.13812,-0.00108861,-6.76486e-05
0.838722,0.0208169,0.443583,0.258151,3.13812,-0.00108861,-6.76486e-05
0.846756,0.0208169,0.443583,0.258151,3.13812,-0.00108861,-6.76486e-05
0.854772,0.0208169,0.443583,0.258151,3.13812,-0.00108861,-6.76486e-05
0.862923,0.0208169,0.443583,0.258151,3.13812,-0.00108861,-6.76486e-05
0.870829,0.0208169,0.443583,0.258151,3.13812,-0.00108861,-6.76486e-05
0.878784,0.0208169,0.443583,0.258151,3.13812,-0.00108861,-6.76486e-05
0.886822,0.0208169,0.443583,0.258151,3.13812,-0.00108861,-6.76486e-05
0.894782,0.0208169,0.443583,0.258151,3.13812,-0.00108861,-6.76486e-05
0.902769,0.0208228,0.443584,0.258168,3.1382,-0.00108548,-7.96575e-05
0.910878,0.0208228,0.443584,0.258168,3.1382,-0.00108548,-7.96575e-05
0.918869,0.0208228,0.443584,0.258168,3.1382,-0.00108548,-7.96575e-05
0.926779,0.0208228,0.443584,0.258168,3.1382,-0.00108548,-7.96575e-05
0.9348,0.0208228,0.443584,0.258168,3.1382,-0.00108548,-7.96575e-05
0.942806,0.0208228,0.443584,0.258168,3.1382,-0.00108548,-7.96575e-05
0.950775,0.0208228,0.443584,0.258168,3.1382,-0.00108548,-7.96575e-05
0.95888,0.0208228,0.443584,0.258168,3.1382,-0.00108548,-7.96575e-05
0.966856,0.0208228,0.443584,0.258168,3.1382,-0.00108548,-7.96575e-05
0.97482,0.0208228,0.443584,0.258168,3.1382,-0.00108548,-7.96575e-05
0.982851,0.0208228,0.443584,0.258168,3.1382,-0.00108548,-7.96575e-05
0.99081,0.0208228,0.443584,0.258168,3.1382,-0.00108548,-7.96575e-05
0.998856,0.0208228,0.443584,0.258168,3.1382,-0.00108548,-7.96575e-05
1.0068,0.0208227,0.443585,0.258133,3.1381,-0.00110538,-0.000103449
1.01471,0.0208227,0.443585,0.258133,3.1381,-0.00110538,-0.000103449
1.02274,0.0208227,0.443585,0.258133,3.1381,-0.00110538,-0.000103449
1.03073,0.0208227,0.443585,0.258133,3.1381,-0.00110538,-0.000103449
1.03872,0.0208227,0.443585,0.258133,3.1381,-0.00110538,-0.000103449
1.04677,0.0208227,0.443585,0.258133,3.1381,-0.00110538,-0.000103449
1.05478,0.0208227,0.443585,0.258133,3.1381,-0.00110538,-0.000103449
1.06287,0.0208227,0.443585,0.258133,3.1381,-0.00110538,-0.000103449
1.0708,0.0208227,0.443585,0.258133,3.1381,-0.00110538,-0.000103449
1.07889,0.0208227,0.443585,0.258133,3.1381,-0.00110538,-0.000103449
1.08688,0.0208227,0.443585,0.258133,3.1381,-0.00110538,-0.000103449
1.09488,0.0208227,0.443585,0.258133,3.1381,-0.00110538,-0.000103449
1.10276,0.0208237,0.44358,0.258156,3.13815,-0.00109531,-5.55619e-05
1.11073,0.0208237,0.44358,0.258156,3.13815,-0.00109531,-5.55619e-05
1.11874,0.0208237,0.44358,0.258156,3.13815,-0.00109531,-5.55619e-05
1.12682,0.0208237,0.44358,0.258156,3.13815,-0.00109531,-5.55619e-05
1.1348,0.0208237,0.44358,0.258156,3.13815,-0.00109531,-5.55619e-05
1.14282,0.0208237,0.44358,0.258156,3.13815,-0.00109531,-5.55619e-05
1.15087,0.0208237,0.44358,0.258156,3.13815,-0.00109531,-5.55619e-05
1.15883,0.0208237,0.44358,0.258156,3.13815,-0.00109531,-5.55619e-05
1.1668,0.0208237,0.44358,0.258156,3.13815,-0.00109531,-5.55619e-05
1.17483,0.0208237,0.44358,0.258156,3.13815,-0.00109531,-5.55619e-05
1.18286,0.0208237,0.44358,0.258156,3.13815,-0.00109531,-5.55619e-05
1.19089,0.0208237,0.44358,0.258156,3.13815,-0.00109531,-5.55619e-05
1.19878,0.0208237,0.44358,0.258156,3.13815,-0.00109531,-5.55619e-05
1.20687,0.0208326,0.443577,0.258139,3.1381,-0.00114343,-0.000103205
1.21486,0.0208326,0.443577,0.258139,3.1381,-0.00114343,-0.000103205
1.2228,0.0208326,0.443577,0.258139,3.1381,-0.00114343,-0.000103205
1.23086,0.0208326,0.443577,0.258139,3.1381,-0.00114343,-0.000103205
1.23883,0.0208326,0.443577,0.258139,3.1381,-0.00114343,-0.000103205
1.24683,0.0208326,0.443577,0.258139,3.1381,-0.00114343,-0.000103205
1.25487,0.0208326,0.443577,0.258139,3.1381,-0.00114343,-0.000103205
1.26285,0.0208326,0.443577,0.258139,3.1381,-0.00114343,-0.000103205
1.27085,0.0208326,0.443577,0.258139,3.1381,-0.00114343,-0.000103205
1.27888,0.0208326,0.443577,0.258139,3.1381,-0.00114343,-0.000103205
1.28685,0.0208326,0.443577,0.258139,3.1381,-0.00114343,-0.000103205
1.29494,0.0208326,0.443577,0.258139,3.1381,-0.00114343,-0.000103205
1.3028,0.0208308,0.443576,0.258123,3.13804,-0.00113244,-0.000115152
1.31086,0.0208308,0.443576,0.258123,3.13804,-0.00113244,-0.000115152
1.31878,0.0208308,0.443576,0.258123,3.13804,-0.00113244,-0.000115152
1.32683,0.0208308,0.443576,0.258123,3.13804,-0.00113244,-0.000115152
1.33483,0.0208308,0.443576,0.258123,3.13804,-0.00113244,-0.000115152
1.34287,0.0208308,0.443576,0.258123,3.13804,-0.00113244,-0.000115152
1.35084,0.0208308,0.443576,0.258123,3.13804,-0.00113244,-0.000115152
1.35892,0.0208308,0.443576,0.258123,3.13804,-0.00113244,-0.000115152
1.36687,0.0208308,0.443576,0.258123,3.13804,-0.00113244,-0.000115152
1.37482,0.0208308,0.443576,0.258123,3.13804,-0.00113244,-0.000115152
1.38287,0.0208308,0.443576,0.258123,3.13804,-0.00113244,-0.000115152
1.3908,0.0208308,0.443576,0.258123,3.13804,-0.00113244,-0.000115152
1.39881,0.0208308,0.443576,0.258123,3.13804,-0.00113244,-0.000115152
1.40679,0.0208559,0.443546,0.258068,3.13781,-0.00115612,-0.00015026
1.41473,0.0208559,0.443546,0.258068,3.13781,-0.00115612,-0.00015026
1.42272,0.0208559,0.443546,0.258068,3.13781,-0.00115612,-0.00015026
1.43081,0.0208559,0.443546,0.258068,3.13781,-0.00115612,-0.00015026
1.43877,0.0208559,0.443546,0.258068,3.13781,-0.00115612,-0.00015026
1.44679,0.0208559,0.443546,0.258068,3.13781,-0.00115612,-0.00015026
1.45481,0.0208559,0.443546,0.258068,3.13781,-0.00115612,-0.00015026
1.46286,0.0208559,0.443546,0.258068,3.13781,-0.00115612,-0.00015026
1.47086,0.0208559,0.443546,0.258068,3.13781,-0.00115612,-0.00015026
1.47887,0.0208559,0.443546,0.258068,3.13781,-0.00115612,-0.00015026
1.4868,0.0208559,0.443546,0.258068,3.13781,-0.00115612,-0.00015026
1.49481,0.0208559,0.443546,0.258068,3.13781,-0.00115612,-0.00015026
1.50271,0.0209145,0.443455,0.258393,3.13846,-0.00080093,-0.000342821
1.51081,0.0209145,0.443455,0.258393,3.13846,-0.00080093,-0.000342821
1.51886,0.0209145,0.443455,0.258393,3.13846,-0.00080093,-0.000342821
1.52676,0.0209145,0.443455,0.258393,3.13846,-0.00080093,-0.000342821
1.53484,0.0209145,0.443455,0.258393,3.13846,-0.00080093,-0.000342821
1.54285,0.0209145,0.443455,0.258393,3.13846,-0.00080093,-0.000342821
1.55077,0.0209145,0.443455,0.258393,3.13846,-0.00080093,-0.000342821
1.55882,0.0209145,0.443455,0.258393,3.13846,-0.00080093,-0.000342821
1.5668,0.0209145,0.443455,0.258393,3.13846,-0.00080093,-0.000342821
1.57483,0.0209145,0.443455,0.258393,3.13846,-0.00080093,-0.000342821
1.58292,0.0209145,0.443455,0.258393,3.13846,-0.00080093,-0.000342821
1.59084,0.0209145,0.443455,0.258393,3.13846,-0.00080093,-0.000342821
1.59882,0.0209145,0.443455,0.258393,3.13846,-0.00080093,-0.000342821
1.60671,0.0213101,0.443269,0.25907,3.14,-0.000478636,-0.00118131
1.61478,0.0213101,0.443269,0.25907,3.14,-0.000478636,-0.00118131
1.6227,0.0213101,0.443269,0.25907,3.14,-0.000478636,-0.00118131
1.6308,0.0213101,0.443269,0.25907,3.14,-0.000478636,-0.00118131
1.63877,0.0213101,0.443269,0.25907,3.14,-0.000478636,-0.00118131
1.64679,0.0213101,0.443269,0.25907,3.14,-0.000478636,-0.00118131
1.65484,0.0213101,0.443269,0.25907,3.14,-0.000478636,-0.00118131
1.66281,0.0213101,0.443269,0.25907,3.14,-0.000478636,-0.00118131
1.6709,0.0213101,0.443269,0.25907,3.14,-0.000478636,-0.00118131
1.6789,0.0213101,0.443269,0.25907,3.14,-0.000478636,-0.00118131
1.6868,0.0213101,0.443269,0.25907,3.14,-0.000478636,-0.00118131
1.69486,0.0213101,0.443269,0.25907,3.14,-0.000478636,-0.00118131
1.7028,0.0221731,0.442835,0.260613,-3.13974,0.000213171,-0.00291675
1.71069,0.0221731,0.442835,0.260613,-3.13974,0.000213171,-0.00291675
1.71877,0.0221731,0.442835,0.260613,-3.13974,0.000213171,-0.00291675
1.72676,0.0221731,0.442835,0.260613,-3.13974,0.000213171,-0.00291675
1.73475,0.0221731,0.442835,0.260613,-3.13974,0.000213171,-0.00291675
1.74279,0.0221731,0.442835,0.260613,-3.13974,0.000213171,-0.00291675
1.7508,0.0221731,0.442835,0.260613,-3.13974,0.000213171,-0.00291675
1.75878,0.0221731,0.442835,0.260613,-3.13974,0.000213171,-0.00291675
1.76684,0.0221731,0.442835,0.260613,-3.13974,0.000213171,-0.00291675
1.7748,0.0221731,0.442835,0.260613,-3.13974,0.000213171,-0.00291675
1.78288,0.0221731,0.442835,0.260613,-3.13974,0.000213171,-0.00291675
1.79081,0.0221731,0.442835,0.260613,-3.13974,0.000213171,-0.00291675
1.79878,0.0221731,0.442835,0.260613,-3.13974,0.000213171,-0.00291675
1.80671,0.0238518,0.440868,0.266604,-3.12742,0.00286347,-0.00584729
1.81484,0.0238518,0.440868,0.266604,-3.12742,0.00286347,-0.00584729
1.82286,0.0238518,0.440868,0.266604,-3.12742,0.00286347,-0.00584729
1.83084,0.0238518,0.440868,0.266604,-3.12742,0.00286347,-0.00584729
1.83879,0.0238518,0.440868,0.266604,-3.12742,0.00286347,-0.00584729
1.8468,0.0238518,0.440868,0.266604,-3.12742,0.00286347,-0.00584729
1.85481,0.0238518,0.440868,0.266604,-3.12742,0.00286347,-0.00584729
1.86274,0.0238518,0.440868,0.266604,-3.12742,0.00286347,-0.00584729
1.87079,0.0238518,0.440868,0.266604,-3.12742,0.00286347,-0.00584729
1.87883,0.0238518,0.440868,0.266604,-3.12742,0.00286347,-0.00584729
1.88683,0.0238518,0.440868,0.266604,-3.12742,0.00286347,-0.00584729
1.89478,0.0238518,0.440868,0.266604,-3.12742,0.00286347,-0.00584729
1.90278,0.0252145,0.433648,0.278424,-3.10824,0.0114799,-0.00624362
1.91073,0.0252145,0.433648,0.278424,-3.10824,0.0114799,-0.00624362
1.91872,0.0252145,0.433648,0.278424,-3.10824,0.0114799,-0.00624362
1.92672,0.0252145,0.433648,0.278424,-3.10824,0.0114799,-0.00624362
1.93477,0.0252145,0.433648,0.278424,-3.10824,0.0114799,-0.00624362
1.94279,0.0252145,0.433648,0.278424,-3.10824,0.0114799,-0.00624362
1.95077,0.0252145,0.433648,0.278424,-3.10824,0.0114799,-0.00624362
1.95881,0.0252145,0.433648,0.278424,-3.10824,0.0114799,-0.00624362
1.96685,0.0252145,0.433648,0.278424,-3.10824,0.0114799,-0.00624362
1.97481,0.0252145,0.433648,0.278424,-3.10824,0.0114799,-0.00624362
1.98285,0.0252145,0.433648,0.278424,-3.10824,0.0114799,-0.00624362
1.99081,0.0252145,0.433648,0.278424,-3.10824,0.0114799,-0.00624362
1.99876,0.0252145,0.433648,0.278424,-3.10824,0.0114799,-0.00624362
2.00671,0.0283951,0.415442,0.293927,-3.09159,0.0203945,-0.00549578
2.01476,0.0283951,0.415442,0.293927,-3.09159,0.0203945,-0.00549578
2.02269,0.0283951,0.415442,0.293927,-3.09159,0.0203945,-0.00549578
2.03075,0.0283951,0.415442,0.293927,-3.09159,0.0203945,-0.00549578
2.03876,0.0283951,0.415442,0.293927,-3.09159,0.0203945,-0.00549578
2.04676,0.0283951,0.415442,0.293927,-3.09159,0.0203945,-0.00549578
2.05478,0.0283951,0.415442,0.293927,-3.09159,0.0203945,-0.00549578
2.06284,0.0283951,0.415442,0.293927,-3.09159,0.0203945,-0.00549578
2.07077,0.0283951,0.415442,0.293927,-3.09159,0.0203945,-0.00549578
2.07885,0.0283951,0.415442,0.293927,-3.09159,0.0203945,-0.00549578
2.0868,0.0283951,0.415442,0.293927,-3.09159,0.0203945,-0.00549578
2.09487,0.0283951,0.415442,0.293927,-3.09159,0.0203945,-0.00549578
2.10277,0.0322168,0.39561,0.302581,-3.08948,0.0218627,-0.00422816
2.11076,0.0322168,0.39561,0.302581,-3.08948,0.0218627,-0.00422816
2.1188,0.0322168,0.39561,0.302581,-3.08948,0.0218627,-0.00422816
2.12679,0.0322168,0.39561,0.302581,-3.08948,0.0218627,-0.00422816
2.13485,0.0322168,0.39561,0.302581,-3.08948,0.0218627,-0.00422816
2.14281,0.0322168,0.39561,0.302581,-3.08948,0.0218627,-0.00422816
2.15085,0.0322168,0.39561,0.302581,-3.08948,0.0218627,-0.00422816
2.15887,0.0322168,0.39561,0.302581,-3.08948,0.0218627,-0.00422816
2.1668,0.0322168,0.39561,0.302581,-3.08948,0.0218627,-0.00422816
2.17477,0.0322168,0.39561,0.302581,-3.08948,0.0218627,-0.00422816
2.18269,0.0322168,0.39561,0.302581,-3.08948,0.0218627,-0.00422816
2.19069,0.0322168,0.39561,0.302581,-3.08948,0.0218627,-0.00422816
2.1987,0.0322168,0.39561,0.302581,-3.08948,0.0218627,-0.00422816
2.20671,0.0359533,0.374088,0.30962,-3.08842,0.028308,-0.000771805
2.21476,0.0359533,0.374088,0.30962,-3.08842,0.028308,-0.000771805
2.22276,0.0359533,0.374088,0.30962,-3.08842,0.028308,-0.000771805
2.23079,0.0359533,0.374088,0.30962,-3.08842,0.028308,-0.000771805
2.23877,0.0359533,0.374088,0.30962,-3.08842,0.028308,-0.000771805
2.2468,0.0359533,0.374088,0.30962,-3.08842,0.028308,-0.000771805
2.2548,0.0359533,0.374088,0.30962,-3.08842,0.028308,-0.000771805
2.26279,0.0359533,0.374088,0.30962,-3.08842,0.028308,-0.000771805
2.27082,0.0359533,0.374088,0.30962,-3.08842,0.028308,-0.000771805
2.27879,0.0359533,0.374088,0.30962,-3.08842,0.028308,-0.000771805
2.28679,0.0359533,0.374088,0.30962,-3.08842,0.028308,-0.000771805
2.2948,0.0359533,0.374088,0.30962,-3.08842,0.028308,-0.000771805
2.30275,0.0400497,0.352515,0.316738,-3.07964,0.0322004,0.00270502
2.31066,0.0400497,0.352515,0.316738,-3.07964,0.0322004,0.00270502
2.31868,0.0400497,0.352515,0.316738,-3.07964,0.0322004,0.00270502
2.32674,0.0400497,0.352515,0.316738,-3.07964,0.0322004,0.00270502
2.33478,0.0400497,0.352515,0.316738,-3.07964,0.0322004,0.00270502
2.34278,0.0400497,0.352515,0.316738,-3.07964,0.0322004,0.00270502
2.3508,0.0400497,0.352515,0.316738,-3.07964,0.0322004,0.00270502
2.35884,0.0400497,0.352515,0.316738,-3.07964,0.0322004,0.00270502
2.36677,0.0400497,0.352515,0.316738,-3.07964,0.0322004,0.00270502
2.37487,0.0400497,0.352515,0.316738,-3.07964,0.0322004,0.00270502
2.38286,0.0400497,0.352515,0.316738,-3.07964,0.0322004,0.00270502
2.3908,0.0400497,0.352515,0.316738,-3.07964,0.0322004,0.00270502
2.39878,0.0400497,0.352515,0.316738,-3.07964,0.0322004,0.00270502
2.40667,0.0435809,0.332028,0.321733,-3.07096,0.03845,0.00497838
2.41475,0.0435809,0.332028,0.321733,-3.07096,0.03845,0.00497838
2.42273,0.0435809,0.332028,0.321733,-3.07096,0.03845,0.00497838
2.43078,0.0435809,0.332028,0.321733,-3.07096,0.03845,0.00497838
2.43881,0.0435809,0.332028,0.321733,-3.07096,0.03845,0.00497838
2.44681,0.0435809,0.332028,0.321733,-3.07096,0.03845,0.00497838
2.45476,0.0435809,0.332028,0.321733,-3.07096,0.03845,0.00497838
2.4628,0.0435809,0.332028,0.321733,-3.07096,0.03845,0.00497838
2.47081,0.0435809,0.332028,0.321733,-3.07096,0.03845,0.00497838
2.4788,0.0435809,0.332028,0.321733,-3.07096,0.03845,0.00497838
2.48678,0.0435809,0.332028,0.321733,-3.07096,0.03845,0.00497838
2.49477,0.0435809,0.332028,0.321733,-3.07096,0.03845,0.00497838
2.50275,0.0452521,0.304876,0.321066,-3.07887,0.0738014,0.0318037
2.51071,0.0452521,0.304876,0.321066,-3.07887,0.0738014,0.0318037
2.51874,0.0452521,0.304876,0.321066,-3.07887,0.0738014,0.0318037
2.52675,0.0452521,0.304876,0.321066,-3.07887,0.0738014,0.0318037
2.53479,0.0452521,0.304876,0.321066,-3.07887,0.0738014,0.0318037
2.5428,0.0452521,0.304876,0.321066,-3.07887,0.0738014,0.0318037
2.55075,0.0452521,0.304876,0.321066,-3.07887,0.0738014,0.0318037
2.55874,0.0452521,0.304876,0.321066,-3.07887,0.0738014,0.0318037
2.56679,0.0452521,0.304876,0.321066,-3.07887,0.0738014,0.0318037
2.57474,0.0452521,0.304876,0.321066,-3.07887,0.0738014,0.0318037
2.58286,0.0452521,0.304876,0.321066,-3.07887,0.0738014,0.0318037
2.59074,0.0452521,0.304876,0.321066,-3.07887,0.0738014,0.0318037
2.59871,0.0452521,0.304876,0.321066,-3.07887,0.0738014,0.0318037
2.60674,0.0466762,0.293068,0.316268,-3.09232,0.0800584,0.0435423
2.61469,0.0466762,0.293068,0.316268,-3.09232,0.0800584,0.0435423
2.62272,0.0466762,0.293068,0.316268,-3.09232,0.0800584,0.0435423
2.63074,0.0466762,0.293068,0.316268,-3.09232,0.0800584,0.0435423
2.63874,0.0466762,0.293068,0.316268,-3.09232,0.0800584,0.0435423
2.64677,0.0466762,0.293068,0.316268,-3.09232,0.0800584,0.0435423
2.6547,0.0466762,0.293068,0.316268,-3.09232,0.0800584,0.0435423
2.66277,0.0466762,0.293068,0.316268,-3.09232,0.0800584,0.0435423
2.67079,0.0466762,0.293068,0.316268,-3.09232,0.0800584,0.0435423
2.67884,0.0466762,0.293068,0.316268,-3.09232,0.0800584,0.0435423
2.68675,0.0466762,0.293068,0.316268,-3.09232,0.0800584,0.0435423
2.69482,0.0466762,0.293068,0.316268,-3.09232,0.0800584,0.0435423
2.70273,0.0488021,0.279284,0.306846,-3.1178,0.0756329,0.045247
2.71067,0.0488021,0.279284,0.306846,-3.1178,0.0756329,0.045247
2.71877,0.0488021,0.279284,0.306846,-3.1178,0.0756329,0.045247
2.72677,0.0488021,0.279284,0.306846,-3.1178,0.0756329,0.045247
2.73481,0.0488021,0.279284,0.306846,-3.1178,0.0756329,0.045247
2.74279,0.0488021,0.279284,0.306846,-3.1178,0.0756329,0.045247
2.75081,0.0488021,0.279284,0.306846,-3.1178,0.0756329,0.045247
2.75878,0.0488021,0.279284,0.306846,-3.1178,0.0756329,0.045247
2.76677,0.0488021,0.279284,0.306846,-3.1178,0.0756329,0.045247
2.77479,0.0488021,0.279284,0.306846,-3.1178,0.0756329,0.045247
2.7828,0.0488021,0.279284,0.306846,-3.1178,0.0756329,0.045247
2.79078,0.0488021,0.279284,0.306846,-3.1178,0.0756329,0.045247
2.79869,0.0488021,0.279284,0.306846,-3.1178,0.0756329,0.045247
2.80672,0.0494796,0.268004,0.296338,3.13593,0.0719261,0.0493738
2.8147,0.0494796,0.268004,0.296338,3.13593,0.0719261,0.0493738
2.82265,0.0494796,0.268004,0.296338,3.13593,0.0719261,0.0493738
2.83071,0.0494796,0.268004,0.296338,3.13593,0.0719261,0.0493738
2.83874,0.0494796,0.268004,0.296338,3.13593,0.0719261,0.0493738
2.84676,0.0494796,0.268004,0.296338,3.13593,0.0719261,0.0493738
2.85472,0.0494796,0.268004,0.296338,3.13593,0.0719261,0.0493738
2.86277,0.0494796,0.268004,0.296338,3.13593,0.0719261,0.0493738
2.87077,0.0494796,0.268004,0.296338,3.13593,0.0719261,0.0493738
2.87873,0.0494796,0.268004,0.296338,3.13593,0.0719261,0.0493738
2.88673,0.0494796,0.268004,0.296338,3.13593,0.0719261,0.0493738
2.89478,0.0494796,0.268004,0.296338,3.13593,0.0719261,0.0493738
2.90273,0.0481861,0.258845,0.287459,3.11152,0.0702489,0.0600358
2.91061,0.0481861,0.258845,0.287459,3.11152,0.0702489,0.0600358
2.91867,0.0481861,0.258845,0.287459,3.11152,0.0702489,0.0600358
2.92671,0.0481861,0.258845,0.287459,3.11152,0.0702489,0.0600358
2.93472,0.0481861,0.258845,0.287459,3.11152,0.0702489,0.0600358
2.94278,0.0481861,0.258845,0.287459,3.11152,0.0702489,0.0600358
2.95074,0.0481861,0.258845,0.287459,3.11152,0.0702489,0.0600358
2.95872,0.0481861,0.258845,0.287459,3.11152,0.0702489,0.0600358
2.96679,0.0481861,0.258845,0.287459,3.11152,0.0702489,0.0600358
2.97472,0.0481861,0.258845,0.287459,3.11152,0.0702489,0.0600358
2.98279,0.0481861,0.258845,0.287459,3.11152,0.0702489,0.0600358
2.99079,0.0481861,0.258845,0.287459,3.11152,0.0702489,0.0600358
2.99872,0.0481861,0.258845,0.287459,3.11152,0.0702489,0.0600358
3.00666,0.0422986,0.25067,0.280336,3.09552,0.0674055,0.0912328
3.01468,0.0422986,0.25067,0.280336,3.09552,0.0674055,0.0912328
3.02268,0.0422986,0.25067,0.280336,3.09552,0.0674055,0.0912328
3.03075,0.0422986,0.25067,0.280336,3.09552,0.0674055,0.0912328
3.03879,0.0422986,0.25067,0.280336,3.09552,0.0674055,0.0912328
3.04679,0.0422986,0.25067,0.280336,3.09552,0.0674055,0.0912328
3.05478,0.0422986,0.25067,0.280336,3.09552,0.0674055,0.0912328
3.0627,0.0422986,0.25067,0.280336,3.09552,0.0674055,0.0912328
3.07073,0.0422986,0.25067,0.280336,3.09552,0.0674055,0.0912328
3.07874,0.0422986,0.25067,0.280336,3.09552,0.0674055,0.0912328
3.08673,0.0422986,0.25067,0.280336,3.09552,0.0674055,0.0912328
3.09478,0.0422986,0.25067,0.280336,3.09552,0.0674055,0.0912328
3.10273,0.038093,0.246619,0.276354,3.09213,0.0667663,0.113308
3.11066,0.038093,0.246619,0.276354,3.09213,0.0667663,0.113308
3.11864,0.038093,0.246619,0.276354,3.09213,0.0667663,0.113308
3.12669,0.038093,0.246619,0.276354,3.09213,0.0667663,0.113308
3.13471,0.038093,0.246619,0.276354,3.09213,0.0667663,0.113308
3.14272,0.038093,0.246619,0.276354,3.09213,0.0667663,0.113308
3.15071,0.038093,0.246619,0.276354,3.09213,0.0667663,0.113308
3.15876,0.038093,0.246619,0.276354,3.09213,0.0667663,0.113308
3.16679,0.038093,0.246619,0.276354,3.09213,0.0667663,0.113308
3.17479,0.038093,0.246619,0.276354,3.09213,0.0667663,0.113308
3.18277,0.038093,0.246619,0.276354,3.09213,0.0667663,0.113308
3.19071,0.038093,0.246619,0.276354,3.09213,0.0667663,0.113308
3.19878,0.038093,0.246619,0.276354,3.09213,0.0667663,0.113308
3.20665,0.0351323,0.246601,0.273087,3.10544,0.0688012,0.126258
3.21469,0.0351323,0.246601,0.273087,3.10544,0.0688012,0.126258
3.22265,0.0351323,0.246601,0.273087,3.10544,0.0688012,0.126258
3.23071,0.0351323,0.246601,0.273087,3.10544,0.0688012,0.126258
3.23869,0.0351323,0.246601,0.273087,3.10544,0.0688012,0.126258
3.24671,0.0351323,0.246601,0.273087,3.10544,0.0688012,0.126258
3.25475,0.0351323,0.246601,0.273087,3.10544,0.0688012,0.126258
3.2627,0.0351323,0.246601,0.273087,3.10544,0.0688012,0.126258
3.27078,0.0351323,0.246601,0.273087,3.10544,0.0688012,0.126258
3.27876,0.0351323,0.246601,0.273087,3.10544,0.0688012,0.126258
3.28678,0.0351323,0.246601,0.273087,3.10544,0.0688012,0.126258
3.29479,0.0351323,0.246601,0.273087,3.10544,0.0688012,0.126258
3.30275,0.0344811,0.247767,0.269989,3.12757,0.0716467,0.129374
3.31074,0.0344811,0.247767,0.269989,3.12757,0.0716467,0.129374
3.31882,0.0344811,0.247767,0.269989,3.12757,0.0716467,0.129374
3.32677,0.0344811,0.247767,0.269989,3.12757,0.0716467,0.129374
3.3348,0.0344811,0.247767,0.269989,3.12757,0.0716467,0.129374
3.34279,0.0344811,0.247767,0.269989,3.12757,0.0716467,0.129374
3.35076,0.0344811,0.247767,0.269989,3.12757,0.0716467,0.129374
3.35876,0.0344811,0.247767,0.269989,3.12757,0.0716467,0.129374
3.36668,0.0344811,0.247767,0.269989,3.12757,0.0716467,0.129374
3.37475,0.0344811,0.247767,0.269989,3.12757,0.0716467,0.129374
3.38283,0.0344811,0.247767,0.269989,3.12757,0.0716467,0.129374
3.39074,0.0344811,0.247767,0.269989,3.12757,0.0716467,0.129374
3.39883,0.0344811,0.247767,0.269989,3.12757,0.0716467,0.129374
3.40662,0.0347189,0.247059,0.264948,3.12943,0.0717617,0.129541
3.41471,0.0347189,0.247059,0.264948,3.12943,0.0717617,0.129541
3.42274,0.0347189,0.247059,0.264948,3.12943,0.0717617,0.129541
3.43074,0.0347189,0.247059,0.264948,3.12943,0.0717617,0.129541
3.43883,0.0347189,0.247059,0.264948,3.12943,0.0717617,0.129541
3.44679,0.0347189,0.247059,0.264948,3.12943,0.0717617,0.129541
3.4548,0.0347189,0.247059,0.264948,3.12943,0.0717617,0.129541
3.46272,0.0347189,0.247059,0.264948,3.12943,0.0717617,0.129541
3.4708,0.0347189,0.247059,0.264948,3.12943,0.0717617,0.129541
3.47874,0.0347189,0.247059,0.264948,3.12943,0.0717617,0.129541
3.48675,0.0347189,0.247059,0.264948,3.12943,0.0717617,0.129541
3.49474,0.0347189,0.247059,0.264948,3.12943,0.0717617,0.129541
3.50266,0.0351925,0.245534,0.259641,3.12092,0.0702169,0.129001
3.51058,0.0351925,0.245534,0.259641,3.12092,0.0702169,0.129001
3.51865,0.0351925,0.245534,0.259641,3.12092,0.0702169,0.129001
3.52665,0.0351925,0.245534,0.259641,3.12092,0.0702169,0.129001
3.5347,0.0351925,0.245534,0.259641,3.12092,0.0702169,0.129001
3.54269,0.0351925,0.245534,0.259641,3.12092,0.0702169,0.129001
3.55076,0.0351925,0.245534,0.259641,3.12092,0.0702169,0.129001
3.55876,0.0351925,0.245534,0.259641,3.12092,0.0702169,0.129001
3.56674,0.0351925,0.245534,0.259641,3.12092,0.0702169,0.129001
3.57477,0.0351925,0.245534,0.259641,3.12092,0.0702169,0.129001
3.58277,0.0351925,0.245534,0.259641,3.12092,0.0702169,0.129001
3.59077,0.0351925,0.245534,0.259641,3.12092,0.0702169,0.129001
3.59879,0.0351925,0.245534,0.259641,3.12092,0.0702169,0.129001
3.60665,0.0353452,0.245043,0.256416,3.12402,0.0708553,0.129107
3.61469,0.0353452,0.245043,0.256416,3.12402,0.0708553,0.129107
3.62273,0.0353452,0.245043,0.256416,3.12402,0.0708553,0.129107
3.63078,0.0353452,0.245043,0.256416,3.12402,0.0708553,0.129107
3.63871,0.0353452,0.245043,0.256416,3.12402,0.0708553,0.129107
3.64674,0.0353452,0.245043,0.256416,3.12402,0.0708553,0.129107
3.65474,0.0353452,0.245043,0.256416,3.12402,0.0708553,0.129107
3.66269,0.0353452,0.245043,0.256416,3.12402,0.0708553,0.129107
3.6707,0.0353452,0.245043,0.256416,3.12402,0.0708553,0.129107
3.67871,0.0353452,0.245043,0.256416,3.12402,0.0708553,0.129107
3.68672,0.0353452,0.245043,0.256416,3.12402,0.0708553,0.129107
3.69472,0.0353452,0.245043,0.256416,3.12402,0.0708553,0.129107
3.70272,0.0353369,0.245062,0.256412,3.12407,0.0708289,0.129171
3.71059,0.0353369,0.245062,0.256412,3.12407,0.0708289,0.129171
3.71864,0.0353369,0.245062,0.256412,3.12407,0.0708289,0.129171
3.72665,0.0353369,0.245062,0.256412,3.12407,0.0708289,0.129171
3.73469,0.0353369,0.245062,0.256412,3.12407,0.0708289,0.129171
3.74267,0.0353369,0.245062,0.256412,3.12407,0.0708289,0.129171
3.75067,0.0353369,0.245062,0.256412,3.12407,0.0708289,0.129171
3.75877,0.0353369,0.245062,0.256412,3.12407,0.0708289,0.129171
3.76673,0.0353369,0.245062,0.256412,3.12407,0.0708289,0.129171
3.77472,0.0353369,0.245062,0.256412,3.12407,0.0708289,0.129171
3.78275,0.0353369,0.245062,0.256412,3.12407,0.0708289,0.129171
3.79074,0.0353369,0.245062,0.256412,3.12407,0.0708289,0.129171
3.79873,0.0353369,0.245062,0.256412,3.12407,0.0708289,0.129171
3.80672,0.0353379,0.245063,0.256384,3.12391,0.0709854,0.129123
3.81463,0.0353379,0.245063,0.256384,3.12391,0.0709854,0.129123
3.82268,0.0353379,0.245063,0.256384,3.12391,0.0709854,0.129123
3.8307,0.0353379,0.245063,0.256384,3.12391,0.0709854,0.129123
3.83869,0.0353379,0.245063,0.256384,3.12391,0.0709854,0.129123
3.84671,0.0353379,0.245063,0.256384,3.12391,0.0709854,0.129123
3.85473,0.0353379,0.245063,0.256384,3.12391,0.0709854,0.129123
3.86276,0.0353379,0.245063,0.256384,3.12391,0.0709854,0.129123
3.87079,0.0353379,0.245063,0.256384,3.12391,0.0709854,0.129123
3.87874,0.0353379,0.245063,0.256384,3.12391,0.0709854,0.129123
3.88676,0.0353379,0.245063,0.256384,3.12391,0.0709854,0.129123
3.89475,0.0353379,0.245063,0.256384,3.12391,0.0709854,0.129123
3.90272,0.0353334,0.245067,0.256399,3.12395,0.0710644,0.129125
3.91065,0.0353334,0.245067,0.256399,3.12395,0.0710644,0.129125
3.91873,0.0353334,0.245067,0.256399,3.12395,0.0710644,0.129125
3.92668,0.0353334,0.245067,0.256399,3.12395,0.0710644,0.129125
3.9348,0.0353334,0.245067,0.256399,3.12395,0.0710644,0.129125
3.94275,0.0353334,0.245067,0.256399,3.12395,0.0710644,0.129125
3.95072,0.0353334,0.245067,0.256399,3.12395,0.0710644,0.129125
3.95873,0.0353334,0.245067,0.256399,3.12395,0.0710644,0.129125
3.96678,0.0353334,0.245067,0.256399,3.12395,0.0710644,0.129125
3.97472,0.0353334,0.245067,0.256399,3.12395,0.0710644,0.129125
3.98273,0.0353334,0.245067,0.256399,3.12395,0.0710644,0.129125
3.99069,0.0353334,0.245067,0.256399,3.12395,0.0710644,0.129125
3.99872,0.0353334,0.245067,0.256399,3.12395,0.0710644,0.129125
4.00664,0.0353533,0.245071,0.256468,3.12418,0.0712492,0.129033
4.01457,0.0353533,0.245071,0.256468,3.12418,0.0712492,0.129033
4.02268,0.0353533,0.245071,0.256468,3.12418,0.0712492,0.129033
4.03067,0.0353533,0.245071,0.256468,3.12418,0.0712492,0.129033
4.03868,0.0353533,0.245071,0.256468,3.12418,0.0712492,0.129033
4.04666,0.0353533,0.245071,0.256468,3.12418,0.0712492,0.129033
4.05471,0.0353533,0.245071,0.256468,3.12418,0.0712492,0.129033
4.06277,0.0353533,0.245071,0.256468,3.12418,0.0712492,0.129033
4.07077,0.0353533,0.245071,0.256468,3.12418,0.0712492,0.129033
4.07873,0.0353533,0.245071,0.256468,3.12418,0.0712492,0.129033
4.08677,0.0353533,0.245071,0.256468,3.12418,0.0712492,0.129033
4.09473,0.0353533,0.245071,0.256468,3.12418,0.0712492,0.129033
4.10272,0.0353466,0.245073,0.256486,3.12423,0.071294,0.129013
4.11062,0.0353466,0.245073,0.256486,3.12423,0.071294,0.129013
4.11865,0.0353466,0.245073,0.256486,3.12423,0.071294,0.129013
4.12659,0.0353466,0.245073,0.256486,3.12423,0.071294,0.129013
4.13464,0.0353466,0.245073,0.256486,3.12423,0.071294,0.129013
4.1426,0.0353466,0.245073,0.256486,3.12423,0.071294,0.129013
4.15061,0.0353466,0.245073,0.256486,3.12423,0.071294,0.129013
4.15864,0.0353466,0.245073,0.256486,3.12423,0.071294,0.129013
4.16666,0.0353466,0.245073,0.256486,3.12423,0.071294,0.129013
4.17466,0.0353466,0.245073,0.256486,3.12423,0.071294,0.129013
4.18271,0.0353466,0.245073,0.256486,3.12423,0.071294,0.129013
4.19067,0.0353466,0.245073,0.256486,3.12423,0.071294,0.129013
4.19866,0.0353466,0.245073,0.256486,3.12423,0.071294,0.129013
4.20662,0.0353548,0.245068,0.256478,3.12419,0.0712763,0.128998
4.21458,0.0353548,0.245068,0.256478,3.12419,0.0712763,0.128998
4.22264,0.0353548,0.245068,0.256478,3.12419,0.0712763,0.128998
4.23063,0.0353548,0.245068,0.256478,3.12419,0.0712763,0.128998
4.23865,0.0353548,0.245068,0.256478,3.12419,0.0712763,0.128998
4.24667,0.0353548,0.245068,0.256478,3.12419,0.0712763,0.128998
4.25465,0.0353548,0.245068,0.256478,3.12419,0.0712763,0.128998
4.26267,0.0353548,0.245068,0.256478,3.12419,0.0712763,0.128998
4.27069,0.0353548,0.245068,0.256478,3.12419,0.0712763,0.128998
4.27866,0.0353548,0.245068,0.256478,3.12419,0.0712763,0.128998
4.28666,0.0353548,0.245068,0.256478,3.12419,0.0712763,0.128998
4.29464,0.0353548,0.245068,0.256478,3.12419,0.0712763,0.128998
4.30265,0.0353459,0.245076,0.256475,3.12419,0.0712511,0.129046
4.31055,0.0353459,0.245076,0.256475,3.12419,0.0712511,0.129046
4.3186,0.0353459,0.245076,0.256475,3.12419,0.0712511,0.129046
4.32665,0.0353459,0.245076,0.256475,3.12419,0.0712511,0.129046
4.3347,0.0353459,0.245076,0.256475,3.12419,0.0712511,0.129046
4.34265,0.0353459,0.245076,0.256475,3.12419,0.0712511,0.129046
4.35074,0.0353459,0.245076,0.256475,3.12419,0.0712511,0.129046
4.35868,0.0353459,0.245076,0.256475,3.12419,0.0712511,0.129046
4.36674,0.0353459,0.245076,0.256475,3.12419,0.0712511,0.129046
4.37473,0.0353459,0.245076,0.256475,3.12419,0.0712511,0.129046
4.38276,0.0353459,0.245076,0.256475,3.12419,0.0712511,0.129046
4.39073,0.0353459,0.245076,0.256475,3.12419,0.0712511,0.129046
4.39873,0.0353459,0.245076,0.256475,3.12419,0.0712511,0.129046
4.40668,0.0353505,0.245073,0.256461,3.12413,0.0712649,0.129029
4.41455,0.0353505,0.245073,0.256461,3.12413,0.0712649,0.129029
4.42263,0.0353505,0.245073,0.256461,3.12413,0.0712649,0.129029
4.4306,0.0353505,0.245073,0.256461,3.12413,0.0712649,0.129029
4.43866,0.0353505,0.245073,0.256461,3.12413,0.0712649,0.129029
4.44669,0.0353505,0.245073,0.256461,3.12413,0.0712649,0.129029
4.45468,0.0353505,0.245073,0.256461,3.12413,0.0712649,0.129029
4.46271,0.0353505,0.245073,0.256461,3.12413,0.0712649,0.129029
4.47076,0.0353505,0.245073,0.256461,3.12413,0.0712649,0.129029
4.47867,0.0353505,0.245073,0.256461,3.12413,0.0712649,0.129029
4.48673,0.0353505,0.245073,0.256461,3.12413,0.0712649,0.129029
4.49473,0.0353505,0.245073,0.256461,3.12413,0.0712649,0.129029
4.5026,0.0353498,0.245082,0.256483,3.12422,0.0712572,0.129025
4.51061,0.0353498,0.245082,0.256483,3.12422,0.0712572,0.129025
4.51868,0.0353498,0.245082,0.256483,3.12422,0.0712572,0.129025
4.52668,0.0353498,0.245082,0.256483,3.12422,0.0712572,0.129025
4.53477,0.0353498,0.245082,0.256483,3.12422,0.0712572,0.129025
4.5427,0.0353498,0.245082,0.256483,3.12422,0.0712572,0.129025
4.55064,0.0353498,0.245082,0.256483,3.12422,0.0712572,0.129025
4.55874,0.0353498,0.245082,0.256483,3.12422,0.0712572,0.129025
4.56676,0.0353498,0.245082,0.256483,3.12422,0.0712572,0.129025
4.57471,0.0353498,0.245082,0.256483,3.12422,0.0712572,0.129025
4.58273,0.0353498,0.245082,0.256483,3.12422,0.0712572,0.129025
4.59077,0.0353498,0.245082,0.256483,3.12422,0.0712572,0.129025
4.59872,0.0353498,0.245082,0.256483,3.12422,0.0712572,0.129025
4.60656,0.035351,0.245082,0.256489,3.12424,0.0712473,0.129026
4.61455,0.035351,0.245082,0.256489,3.12424,0.0712473,0.129026
4.62272,0.035351,0.245082,0.256489,3.12424,0.0712473,0.129026
4.63063,0.035351,0.245082,0.256489,3.12424,0.0712473,0.129026
4.63878,0.035351,0.245082,0.256489,3.12424,0.0712473,0.129026
4.64667,0.035351,0.245082,0.256489,3.12424,0.0712473,0.129026
4.65471,0.035351,0.245082,0.256489,3.12424,0.0712473,0.129026
4.66268,0.035351,0.245082,0.256489,3.12424,0.0712473,0.129026
4.67073,0.035351,0.245082,0.256489,3.12424,0.0712473,0.129026
4.6787,0.035351,0.245082,0.256489,3.12424,0.0712473,0.129026
4.6868,0.035351,0.245082,0.256489,3.12424,0.0712473,0.129026
4.69472,0.035351,0.245082,0.256489,3.12424,0.0712473,0.129026
4.70266,0.0353403,0.245079,0.256476,3.12418,0.0712746,0.129046
4.71062,0.0353403,0.245079,0.256476,3.12418,0.0712746,0.129046
4.7186,0.0353403,0.245079,0.256476,3.12418,0.0712746,0.129046
4.72662,0.0353403,0.245079,0.256476,3.12418,0.0712746,0.129046
4.73465,0.0353403,0.245079,0.256476,3.12418,0.0712746,0.129046
4.74258,0.0353403,0.245079,0.256476,3.12418,0.0712746,0.129046
4.75072,0.0353403,0.245079,0.256476,3.12418,0.0712746,0.129046
4.7587,0.0353403,0.245079,0.256476,3.12418,0.0712746,0.129046
4.76674,0.0353403,0.245079,0.256476,3.12418,0.0712746,0.129046
4.77476,0.0353403,0.245079,0.256476,3.12418,0.0712746,0.129046
4.78276,0.0353403,0.245079,0.256476,3.12418,0.0712746,0.129046
4.79069,0.0353403,0.245079,0.256476,3.12418,0.0712746,0.129046
4.7987,0.0353403,0.245079,0.256476,3.12418,0.0712746,0.129046
4.80662,0.0353407,0.245078,0.256468,3.12415,0.0712683,0.129031
4.81462,0.0353407,0.245078,0.256468,3.12415,0.0712683,0.129031
4.82272,0.0353407,0.245078,0.256468,3.12415,0.0712683,0.129031
4.83068,0.0353407,0.245078,0.256468,3.12415,0.0712683,0.129031
4.83871,0.0353407,0.245078,0.256468,3.12415,0.0712683,0.129031
4.84672,0.0353407,0.245078,0.256468,3.12415,0.0712683,0.129031
4.85465,0.0353407,0.245078,0.256468,3.12415,0.0712683,0.129031
4.86275,0.0353407,0.245078,0.256468,3.12415,0.0712683,0.129031
4.87073,0.0353407,0.245078,0.256468,3.12415,0.0712683,0.129031
4.87873,0.0353407,0.245078,0.256468,3.12415,0.0712683,0.129031
4.88677,0.0353407,0.245078,0.256468,3.12415,0.0712683,0.129031
4.89473,0.0353407,0.245078,0.256468,3.12415,0.0712683,0.129031
4.90271,0.0353455,0.245074,0.256473,3.12416,0.0712589,0.129044
4.91055,0.0353455,0.245074,0.256473,3.12416,0.0712589,0.129044
4.91862,0.0353455,0.245074,0.256473,3.12416,0.0712589,0.129044
4.92665,0.0353455,0.245074,0.256473,3.12416,0.0712589,0.129044
4.93464,0.0353455,0.245074,0.256473,3.12416,0.0712589,0.129044
4.94259,0.0353455,0.245074,0.256473,3.12416,0.0712589,0.129044
4.9507,0.0353455,0.245074,0.256473,3.12416,0.0712589,0.129044
4.95868,0.0353455,0.245074,0.256473,3.12416,0.0712589,0.129044
4.96667,0.0353455,0.245074,0.256473,3.12416,0.0712589,0.129044
4.9747,0.0353455,0.245074,0.256473,3.12416,0.0712589,0.129044
4.98271,0.0353455,0.245074,0.256473,3.12416,0.0712589,0.129044
4.99075,0.0353455,0.245074,0.256473,3.12416,0.0712589,0.129044
4.99867,0.0353455,0.245074,0.256473,3.12416,0.0712589,0.129044
5.00657,0.0353479,0.245079,0.256472,3.12416,0.0712467,0.129009
5.01452,0.0353479,0.245079,0.256472,3.12416,0.0712467,0.129009
5.02257,0.0353479,0.245079,0.256472,3.12416,0.0712467,0.129009
5.03058,0.0353479,0.245079,0.256472,3.12416,0.0712467,0.129009
5.03864,0.0353479,0.245079,0.256472,3.12416,0.0712467,0.129009
5.04663,0.0353479,0.245079,0.256472,3.12416,0.0712467,0.129009
5.05463,0.0353479,0.245079,0.256472,3.12416,0.0712467,0.129009
5.06267,0.0353479,0.245079,0.256472,3.12416,0.0712467,0.129009
5.07079,0.0353479,0.245079,0.256472,3.12416,0.0712467,0.129009
5.07874,0.0353479,0.245079,0.256472,3.12416,0.0712467,0.129009
5.08678,0.0353479,0.245079,0.256472,3.12416,0.0712467,0.129009
5.09463,0.0353479,0.245079,0.256472,3.12416,0.0712467,0.129009
5.10265,0.0353501,0.24508,0.256481,3.12422,0.0712928,0.129024
5.11056,0.0353501,0.24508,0.256481,3.12422,0.0712928,0.129024
5.11862,0.0353501,0.24508,0.256481,3.12422,0.0712928,0.129024
5.12665,0.0353501,0.24508,0.256481,3.12422,0.0712928,0.129024
5.13463,0.0353501,0.24508,0.256481,3.12422,0.0712928,0.129024
5.14265,0.0353501,0.24508,0.256481,3.12422,0.0712928,0.129024
5.1507,0.0353501,0.24508,0.256481,3.12422,0.0712928,0.129024
5.15864,0.0353501,0.24508,0.256481,3.12422,0.0712928,0.129024
5.16669,0.0353501,0.24508,0.256481,3.12422,0.0712928,0.129024
5.17467,0.0353501,0.24508,0.256481,3.12422,0.0712928,0.129024
5.18275,0.0353501,0.24508,0.256481,3.12422,0.0712928,0.129024
5.19076,0.0353501,0.24508,0.256481,3.12422,0.0712928,0.129024
5.19869,0.0353501,0.24508,0.256481,3.12422,0.0712928,0.129024
5.2065,0.0353544,0.245077,0.256458,3.12411,0.0712373,0.129016
5.21457,0.0353544,0.245077,0.256458,3.12411,0.0712373,0.129016
5.22261,0.0353544,0.245077,0.256458,3.12411,0.0712373,0.129016
5.23064,0.0353544,0.245077,0.256458,3.12411,0.0712373,0.129016
5.23869,0.0353544,0.245077,0.256458,3.12411,0.0712373,0.129016
5.24672,0.0353544,0.245077,0.256458,3.12411,0.0712373,0.129016
5.25466,0.0353544,0.245077,0.256458,3.12411,0.0712373,0.129016
5.26258,0.0353544,0.245077,0.256458,3.12411,0.0712373,0.129016
5.27059,0.0353544,0.245077,0.256458,3.12411,0.0712373,0.129016
5.27867,0.0353544,0.245077,0.256458,3.12411,0.0712373,0.129016
5.28668,0.0353544,0.245077,0.256458,3.12411,0.0712373,0.129016
5.29459,0.0353544,0.245077,0.256458,3.12411,0.0712373,0.129016
