Time,X,Y,Z,R,P,Y
0.223498,0.0207712,0.443853,0.25915,3.14132,-0.000471933,-7.49221e-05
0.231538,0.0207712,0.443853,0.25915,3.14132,-0.000471933,-7.49221e-05
0.23953,0.0207712,0.443853,0.25915,3.14132,-0.000471933,-7.49221e-05
0.247519,0.0207712,0.443853,0.25915,3.14132,-0.000471933,-7.49221e-05
0.255678,0.0207712,0.443853,0.25915,3.14132,-0.000471933,-7.49221e-05
0.263575,0.0207712,0.443853,0.25915,3.14132,-0.000471933,-7.49221e-05
0.271606,0.0207712,0.443853,0.25915,3.14132,-0.000471933,-7.49221e-05
0.279554,0.0207712,0.443853,0.25915,3.14132,-0.000471933,-7.49221e-05
0.287557,0.0207712,0.443853,0.25915,3.14132,-0.000471933,-7.49221e-05
0.295581,0.0207712,0.443853,0.25915,3.14132,-0.000471933,-7.49221e-05
0.303589,0.0207727,0.443851,0.259141,3.1413,-0.00048856,-0.000158745
0.311573,0.0207727,0.443851,0.259141,3.1413,-0.00048856,-0.000158745
0.319537,0.0207594,0.443859,0.259114,3.14127,-0.000484056,-8.69732e-05
0.327591,0.0207594,0.443859,0.259114,3.14127,-0.000484056,-8.69732e-05
0.335588,0.0207594,0.443859,0.259114,3.14127,-0.000484056,-8.69732e-05
0.343598,0.0207594,0.443859,0.259114,3.14127,-0.000484056,-8.69732e-05
0.351561,0.0207594,0.443859,0.259114,3.14127,-0.000484056,-8.69732e-05
0.359623,0.0207594,0.443859,0.259114,3.14127,-0.000484056,-8.69732e-05
0.367587,0.0207594,0.443859,0.259114,3.14127,-0.000484056,-8.69732e-05
0.37557,0.0207594,0.443859,0.259114,3.14127,-0.000484056,-8.69732e-05
0.383601,0.0207594,0.443859,0.259114,3.14127,-0.000484056,-8.69732e-05
0.391482,0.0207594,0.443859,0.259114,3.14127,-0.000484056,-8.69732e-05
0.39962,0.0207537,0.443857,0.259118,3.14126,-0.000472431,-6.30544e-05
0.407521,0.0207537,0.443857,0.259118,3.14126,-0.000472431,-6.30544e-05
0.415517,0.0207537,0.443857,0.259118,3.14126,-0.000472431,-6.30544e-05
0.423499,0.0207537,0.443857,0.259118,3.14126,-0.000472431,-6.30544e-05
0.431528,0.0207537,0.443857,0.259118,3.14126,-0.000472431,-6.30544e-05
0.439573,0.0207537,0.443857,0.259118,3.14126,-0.000472431,-6.30544e-05
0.447544,0.0207537,0.443857,0.259118,3.14126,-0.000472431,-6.30544e-05
0.455674,0.0207537,0.443857,0.259118,3.14126,-0.000472431,-6.30544e-05
0.463612,0.0207537,0.443857,0.259118,3.14126,-0.000472431,-6.30544e-05
0.471563,0.0207537,0.443857,0.259118,3.14126,-0.000472431,-6.30544e-05
0.479589,0.0207537,0.443857,0.259118,3.14126,-0.000472431,-6.30544e-05
0.487588,0.0207537,0.443857,0.259118,3.14126,-0.000472431,-6.30544e-05
0.495617,0.0207537,0.443857,0.259118,3.14126,-0.000472431,-6.30544e-05
0.503594,0.0207538,0.443857,0.259142,3.14133,-0.000457514,-7.51086e-05
0.511559,0.0207538,0.443857,0.259142,3.14133,-0.000457514,-7.51086e-05
0.519463,0.0207538,0.443857,0.259142,3.14133,-0.000457514,-7.51086e-05
0.527516,0.0207538,0.443857,0.259142,3.14133,-0.000457514,-7.51086e-05
0.535511,0.0207538,0.443857,0.259142,3.14133,-0.000457514,-7.51086e-05
0.543498,0.0207538,0.443857,0.259142,3.14133,-0.000457514,-7.51086e-05
0.55161,0.0207538,0.443857,0.259142,3.14133,-0.000457514,-7.51086e-05
0.55968,0.0207538,0.443857,0.259142,3.14133,-0.000457514,-7.51086e-05
0.567634,0.0207538,0.443857,0.259142,3.14133,-0.000457514,-7.51086e-05
0.575569,0.0207538,0.443857,0.259142,3.14133,-0.000457514,-7.51086e-05
0.58359,0.0207538,0.443857,0.259142,3.14133,-0.000457514,-7.51086e-05
0.591537,0.0207538,0.443857,0.259142,3.14133,-0.000457514,-7.51086e-05
0.599608,0.0207558,0.443852,0.259143,3.1413,-0.000476902,-9.90268e-05
0.607601,0.0207558,0.443852,0.259143,3.1413,-0.000476902,-9.90268e-05
0.615553,0.0207558,0.443852,0.259143,3.1413,-0.000476902,-9.90268e-05
0.623561,0.0207558,0.443852,0.259143,3.1413,-0.000476902,-9.90268e-05
0.63157,0.0207558,0.443852,0.259143,3.1413,-0.000476902,-9.90268e-05
0.639534,0.0207558,0.443852,0.259143,3.1413,-0.000476902,-9.90268e-05
0.647539,0.0207558,0.443852,0.259143,3.1413,-0.000476902,-9.90268e-05
0.655649,0.0207558,0.443852,0.259143,3.1413,-0.000476902,-9.90268e-05
0.663527,0.0207558,0.443852,0.259143,3.1413,-0.000476902,-9.90268e-05
0.671481,0.0207558,0.443852,0.259143,3.1413,-0.000476902,-9.90268e-05
0.679516,0.0207558,0.443852,0.259143,3.1413,-0.000476902,-9.90268e-05
0.687592,0.0207558,0.443852,0.259143,3.1413,-0.000476902,-9.90268e-05
0.695537,0.0207558,0.443852,0.259143,3.1413,-0.000476902,-9.90268e-05
0.70359,0.0207664,0.443851,0.259146,3.1413,-0.000476903,-9.89018e-05
0.711522,0.0207664,0.443851,0.259146,3.1413,-0.000476903,-9.89018e-05
0.719512,0.0207664,0.443851,0.259146,3.1413,-0.000476903,-9.89018e-05
0.7275,0.0207664,0.443851,0.259146,3.1413,-0.000476903,-9.89018e-05
0.735556,0.0207664,0.443851,0.259146,3.1413,-0.000476903,-9.89018e-05
0.743515,0.0207664,0.443851,0.259146,3.1413,-0.000476903,-9.89018e-05
0.751609,0.0207664,0.443851,0.259146,3.1413,-0.000476903,-9.89018e-05
0.759678,0.0207664,0.443851,0.259146,3.1413,-0.000476903,-9.89018e-05
0.767627,0.0207664,0.443851,0.259146,3.1413,-0.000476903,-9.89018e-05
0.775553,0.0207664,0.443851,0.259146,3.1413,-0.000476903,-9.89018e-05
0.783575,0.0207664,0.443851,0.259146,3.1413,-0.000476903,-9.89018e-05
0.791599,0.0207664,0.443851,0.259146,3.1413,-0.000476903,-9.89018e-05
0.799543,0.0208151,0.443632,0.258335,3.13866,-0.00101247,-0.0001049
0.807533,0.0208151,0.443632,0.258335,3.13866,-0.00101247,-0.0001049
0.815479,0.0208151,0.443632,0.258335,3.13866,-0.00101247,-0.0001049
0.823454,0.0208151,0.443632,0.258335,3.13866,-0.00101247,-0.0001049
0.831492,0.0208151,0.443632,0.258335,3.13866,-0.00101247,-0.0001049
0.83947,0.0208151,0.443632,0.258335,3.13866,-0.00101247,-0.0001049
0.847505,0.0208151,0.443632,0.258335,3.13866,-0.00101247,-0.0001049
0.855649,0.0208151,0.443632,0.258335,3.13866,-0.00101247,-0.0001049
0.863536,0.0208151,0.443632,0.258335,3.13866,-0.00101247,-0.0001049
0.871574,0.0208151,0.443632,0.258335,3.13866,-0.00101247,-0.0001049
0.879636,0.0208151,0.443632,0.258335,3.13866,-0.00101247,-0.0001049
0.887525,0.0208151,0.443632,0.258335,3.13866,-0.00101247,-0.0001049
0.895536,0.0208151,0.443632,0.258335,3.13866,-0.00101247,-0.0001049
0.903563,0.0208164,0.443576,0.258158,3.13815,-0.0010579,-6.76849e-05
0.911572,0.0208164,0.443576,0.258158,3.13815,-0.0010579,-6.76849e-05
0.919589,0.0208164,0.443576,0.258158,3.13815,-0.0010579,-6.76849e-05
0.927532,0.0208164,0.443576,0.258158,3.13815,-0.0010579,-6.76849e-05
0.935616,0.0208164,0.443576,0.258158,3.13815,-0.0010579,-6.76849e-05
0.943597,0.0208164,0.443576,0.258158,3.13815,-0.0010579,-6.76849e-05
0.951563,0.0208164,0.443576,0.258158,3.13815,-0.0010579,-6.76849e-05
0.959624,0.0208164,0.443576,0.258158,3.13815,-0.0010579,-6.76849e-05
0.967589,0.0208164,0.443576,0.258158,3.13815,-0.0010579,-6.76849e-05
0.975505,0.0208164,0.443576,0.258158,3.13815,-0.0010579,-6.76849e-05
0.983501,0.0208164,0.443576,0.258158,3.13815,-0.0010579,-6.76849e-05
0.991554,0.0208164,0.443576,0.258158,3.13815,-0.0010579,-6.76849e-05
0.999552,0.0208141,0.443566,0.258145,3.13808,-0.0010872,-9.14755e-05
1.00759,0.0208141,0.443566,0.258145,3.13808,-0.0010872,-9.14755e-05
1.01546,0.0208141,0.443566,0.258145,3.13808,-0.0010872,-9.14755e-05
1.0235,0.0208141,0.443566,0.258145,3.13808,-0.0010872,-9.14755e-05
1.03152,0.0208141,0.443566,0.258145,3.13808,-0.0010872,-9.14755e-05
1.03954,0.0208141,0.443566,0.258145,3.13808,-0.0010872,-9.14755e-05
1.04754,0.0208141,0.443566,0.258145,3.13808,-0.0010872,-9.14755e-05
1.05565,0.0208141,0.443566,0.258145,3.13808,-0.0010872,-9.14755e-05
1.06354,0.0208141,0.443566,0.258145,3.13808,-0.0010872,-9.14755e-05
1.07157,0.0208141,0.443566,0.258145,3.13808,-0.0010872,-9.14755e-05
1.07957,0.0208141,0.443566,0.258145,3.13808,-0.0010872,-9.14755e-05
1.08754,0.0208141,0.443566,0.258145,3.13808,-0.0010872,-9.14755e-05
1.09555,0.0208141,0.443566,0.258145,3.13808,-0.0010872,-9.14755e-05
1.10364,0.0208076,0.443567,0.258148,3.13808,-0.00107312,-6.76239e-05
1.11146,0.0208076,0.443567,0.258148,3.13808,-0.00107312,-6.76239e-05
1.11945,0.0208076,0.443567,0.258148,3.13808,-0.00107312,-6.76239e-05
1.12751,0.0208076,0.443567,0.258148,3.13808,-0.00107312,-6.76239e-05
1.13549,0.0208076,0.443567,0.258148,3.13808,-0.00107312,-6.76239e-05
1.14353,0.0208076,0.443567,0.258148,3.13808,-0.00107312,-6.76239e-05
1.15156,0.0208076,0.443567,0.258148,3.13808,-0.00107312,-6.76239e-05
1.15957,0.0208076,0.443567,0.258148,3.13808,-0.00107312,-6.76239e-05
1.16758,0.0208076,0.443567,0.258148,3.13808,-0.00107312,-6.76239e-05
1.17554,0.0208076,0.443567,0.258148,3.13808,-0.00107312,-6.76239e-05
1.18351,0.0208076,0.443567,0.258148,3.13808,-0.00107312,-6.76239e-05
1.19154,0.0208076,0.443567,0.258148,3.13808,-0.00107312,-6.76239e-05
1.19962,0.0208076,0.443567,0.258148,3.13808,-0.00107312,-6.76239e-05
1.20759,0.0208223,0.443563,0.258164,3.13811,-0.00104222,-7.95219e-05
1.21556,0.0208223,0.443563,0.258164,3.13811,-0.00104222,-7.95219e-05
1.22353,0.0208223,0.443563,0.258164,3.13811,-0.00104222,-7.95219e-05
1.23153,0.0208223,0.443563,0.258164,3.13811,-0.00104222,-7.95219e-05
1.23948,0.0208223,0.443563,0.258164,3.13811,-0.00104222,-7.95219e-05
1.24756,0.0208223,0.443563,0.258164,3.13811,-0.00104222,-7.95219e-05
1.25557,0.0208223,0.443563,0.258164,3.13811,-0.00104222,-7.95219e-05
1.26358,0.0208223,0.443563,0.258164,3.13811,-0.00104222,-7.95219e-05
1.27157,0.0208223,0.443563,0.258164,3.13811,-0.00104222,-7.95219e-05
1.27956,0.0208223,0.443563,0.258164,3.13811,-0.00104222,-7.95219e-05
1.28755,0.0208223,0.443563,0.258164,3.13811,-0.00104222,-7.95219e-05
1.29555,0.0208223,0.443563,0.258164,3.13811,-0.00104222,-7.95219e-05
1.30359,0.0208069,0.443571,0.258137,3.13807,-0.00107534,-5.56396e-05
1.31144,0.0208069,0.443571,0.258137,3.13807,-0.00107534,-5.56396e-05
1.31945,0.0208069,0.443571,0.258137,3.13807,-0.00107534,-5.56396e-05
1.3275,0.0208069,0.443571,0.258137,3.13807,-0.00107534,-5.56396e-05
1.3355,0.0208069,0.443571,0.258137,3.13807,-0.00107534,-5.56396e-05
1.34351,0.0208069,0.443571,0.258137,3.13807,-0.00107534,-5.56396e-05
1.35156,0.0208069,0.443571,0.258137,3.13807,-0.00107534,-5.56396e-05
1.35964,0.0208069,0.443571,0.258137,3.13807,-0.00107534,-5.56396e-05
1.3676,0.0208069,0.443571,0.258137,3.13807,-0.00107534,-5.56396e-05
1.37555,0.0208069,0.443571,0.258137,3.13807,-0.00107534,-5.56396e-05
1.38355,0.0208069,0.443571,0.258137,3.13807,-0.00107534,-5.56396e-05
1.39157,0.0208069,0.443571,0.258137,3.13807,-0.00107534,-5.56396e-05
1.39953,0.0208129,0.443572,0.258157,3.13813,-0.00107476,-7.96226e-05
1.40762,0.0208129,0.443572,0.258157,3.13813,-0.00107476,-7.96226e-05
1.41547,0.0208129,0.443572,0.258157,3.13813,-0.00107476,-7.96226e-05
1.42351,0.0208129,0.443572,0.258157,3.13813,-0.00107476,-7.96226e-05
1.43148,0.0208129,0.443572,0.258157,3.13813,-0.00107476,-7.96226e-05
1.43951,0.0208129,0.443572,0.258157,3.13813,-0.00107476,-7.96226e-05
1.44752,0.0208129,0.443572,0.258157,3.13813,-0.00107476,-7.96226e-05
1.45563,0.0208129,0.443572,0.258157,3.13813,-0.00107476,-7.96226e-05
1.46358,0.0208129,0.443572,0.258157,3.13813,-0.00107476,-7.96226e-05
1.47156,0.0208129,0.443572,0.258157,3.13813,-0.00107476,-7.96226e-05
1.47955,0.0208129,0.443572,0.258157,3.13813,-0.00107476,-7.96226e-05
1.48754,0.0208129,0.443572,0.258157,3.13813,-0.00107476,-7.96226e-05
1.49553,0.0208129,0.443572,0.258157,3.13813,-0.00107476,-7.96226e-05
1.50361,0.0208324,0.443564,0.258148,3.13809,-0.00104716,-0.000103327
1.51152,0.0208324,0.443564,0.258148,3.13809,-0.00104716,-0.000103327
1.51949,0.0208324,0.443564,0.258148,3.13809,-0.00104716,-0.000103327
1.52752,0.0208324,0.443564,0.258148,3.13809,-0.00104716,-0.000103327
1.5356,0.0208324,0.443564,0.258148,3.13809,-0.00104716,-0.000103327
1.5436,0.0208324,0.443564,0.258148,3.13809,-0.00104716,-0.000103327
1.55162,0.0208324,0.443564,0.258148,3.13809,-0.00104716,-0.000103327
1.55964,0.0208324,0.443564,0.258148,3.13809,-0.00104716,-0.000103327
1.56761,0.0208324,0.443564,0.258148,3.13809,-0.00104716,-0.000103327
1.57553,0.0208324,0.443564,0.258148,3.13809,-0.00104716,-0.000103327
1.58361,0.0208324,0.443564,0.258148,3.13809,-0.00104716,-0.000103327
1.59156,0.0208324,0.443564,0.258148,3.13809,-0.00104716,-0.000103327
1.59953,0.0208158,0.443569,0.258136,3.13806,-0.00105435,-6.75466e-05
1.60756,0.0208158,0.443569,0.258136,3.13806,-0.00105435,-6.75466e-05
1.61548,0.0208158,0.443569,0.258136,3.13806,-0.00105435,-6.75466e-05
1.62349,0.0208158,0.443569,0.258136,3.13806,-0.00105435,-6.75466e-05
1.63151,0.0208158,0.443569,0.258136,3.13806,-0.00105435,-6.75466e-05
1.63954,0.0208158,0.443569,0.258136,3.13806,-0.00105435,-6.75466e-05
1.6476,0.0208158,0.443569,0.258136,3.13806,-0.00105435,-6.75466e-05
1.6556,0.0208158,0.443569,0.258136,3.13806,-0.00105435,-6.75466e-05
1.66343,0.0208158,0.443569,0.258136,3.13806,-0.00105435,-6.75466e-05
1.67147,0.0208158,0.443569,0.258136,3.13806,-0.00105435,-6.75466e-05
1.67951,0.0208158,0.443569,0.258136,3.13806,-0.00105435,-6.75466e-05
1.68755,0.0208158,0.443569,0.258136,3.13806,-0.00105435,-6.75466e-05
1.69554,0.0208158,0.443569,0.258136,3.13806,-0.00105435,-6.75466e-05
1.70363,0.0208359,0.443562,0.258134,3.13804,-0.0010946,-0.000103105
1.71144,0.0208359,0.443562,0.258134,3.13804,-0.0010946,-0.000103105
1.71944,0.0208359,0.443562,0.258134,3.13804,-0.0010946,-0.000103105
1.72746,0.0208359,0.443562,0.258134,3.13804,-0.0010946,-0.000103105
1.73551,0.0208359,0.443562,0.258134,3.13804,-0.0010946,-0.000103105
1.74351,0.0208359,0.443562,0.258134,3.13804,-0.0010946,-0.000103105
1.75153,0.0208359,0.443562,0.258134,3.13804,-0.0010946,-0.000103105
1.7596,0.0208359,0.443562,0.258134,3.13804,-0.0010946,-0.000103105
1.76756,0.0208359,0.443562,0.258134,3.13804,-0.0010946,-0.000103105
1.77551,0.0208359,0.443562,0.258134,3.13804,-0.0010946,-0.000103105
1.78355,0.0208359,0.443562,0.258134,3.13804,-0.0010946,-0.000103105
1.79152,0.0208359,0.443562,0.258134,3.13804,-0.0010946,-0.000103105
1.79956,0.0208375,0.44355,0.258105,3.13791,-0.00111058,-0.000150755
1.80757,0.0208375,0.44355,0.258105,3.13791,-0.00111058,-0.000150755
1.8155,0.0208375,0.44355,0.258105,3.13791,-0.00111058,-0.000150755
1.82349,0.0208375,0.44355,0.258105,3.13791,-0.00111058,-0.000150755
1.83154,0.0208375,0.44355,0.258105,3.13791,-0.00111058,-0.000150755
1.83962,0.0208375,0.44355,0.258105,3.13791,-0.00111058,-0.000150755
1.84755,0.0208375,0.44355,0.258105,3.13791,-0.00111058,-0.000150755
1.85562,0.0208375,0.44355,0.258105,3.13791,-0.00111058,-0.000150755
1.86358,0.0208375,0.44355,0.258105,3.13791,-0.00111058,-0.000150755
1.87155,0.0208375,0.44355,0.258105,3.13791,-0.00111058,-0.000150755
1.87952,0.0208375,0.44355,0.258105,3.13791,-0.00111058,-0.000150755
1.88756,0.0208375,0.44355,0.258105,3.13791,-0.00111058,-0.000150755
1.89553,0.0208375,0.44355,0.258105,3.13791,-0.00111058,-0.000150755
1.90346,0.0208509,0.443501,0.258042,3.13761,-0.0010885,-0.000137981
1.91153,0.0208509,0.443501,0.258042,3.13761,-0.0010885,-0.000137981
1.91944,0.0208509,0.443501,0.258042,3.13761,-0.0010885,-0.000137981
1.92754,0.0208509,0.443501,0.258042,3.13761,-0.0010885,-0.000137981
1.93551,0.0208509,0.443501,0.258042,3.13761,-0.0010885,-0.000137981
1.9435,0.0208509,0.443501,0.258042,3.13761,-0.0010885,-0.000137981
1.95153,0.0208509,0.443501,0.258042,3.13761,-0.0010885,-0.000137981
1.95955,0.0208509,0.443501,0.258042,3.13761,-0.0010885,-0.000137981
1.96754,0.0208509,0.443501,0.258042,3.13761,-0.0010885,-0.000137981
1.97552,0.0208509,0.443501,0.258042,3.13761,-0.0010885,-0.000137981
1.98356,0.0208509,0.443501,0.258042,3.13761,-0.0010885,-0.000137981
1.99154,0.0208509,0.443501,0.258042,3.13761,-0.0010885,-0.000137981
1.9996,0.0208773,0.443494,0.258069,3.1377,-0.00111838,-0.00023351
2.00754,0.0208773,0.443494,0.258069,3.1377,-0.00111838,-0.00023351
2.01545,0.0208773,0.443494,0.258069,3.1377,-0.00111838,-0.00023351
2.02344,0.0208773,0.443494,0.258069,3.1377,-0.00111838,-0.00023351
2.03148,0.0208773,0.443494,0.258069,3.1377,-0.00111838,-0.00023351
2.03953,0.0208773,0.443494,0.258069,3.1377,-0.00111838,-0.00023351
2.04754,0.0208773,0.443494,0.258069,3.1377,-0.00111838,-0.00023351
2.0556,0.0208773,0.443494,0.258069,3.1377,-0.00111838,-0.00023351
2.06359,0.0208773,0.443494,0.258069,3.1377,-0.00111838,-0.00023351
2.07158,0.0208773,0.443494,0.258069,3.1377,-0.00111838,-0.00023351
2.07961,0.0208773,0.443494,0.258069,3.1377,-0.00111838,-0.00023351
2.08755,0.0208773,0.443494,0.258069,3.1377,-0.00111838,-0.00023351
2.09559,0.0208773,0.443494,0.258069,3.1377,-0.00111838,-0.00023351
2.10349,0.0209024,0.443466,0.258137,3.1378,-0.00107296,-0.000257756
2.11155,0.0209024,0.443466,0.258137,3.1378,-0.00107296,-0.000257756
2.11946,0.0209024,0.443466,0.258137,3.1378,-0.00107296,-0.000257756
2.12752,0.0209024,0.443466,0.258137,3.1378,-0.00107296,-0.000257756
2.13556,0.0209024,0.443466,0.258137,3.1378,-0.00107296,-0.000257756
2.14354,0.0209024,0.443466,0.258137,3.1378,-0.00107296,-0.000257756
2.15161,0.0209024,0.443466,0.258137,3.1378,-0.00107296,-0.000257756
2.1596,0.0209024,0.443466,0.258137,3.1378,-0.00107296,-0.000257756
2.16762,0.0209024,0.443466,0.258137,3.1378,-0.00107296,-0.000257756
2.17552,0.0209024,0.443466,0.258137,3.1378,-0.00107296,-0.000257756
2.1835,0.0209024,0.443466,0.258137,3.1378,-0.00107296,-0.000257756
2.19143,0.0209024,0.443466,0.258137,3.1378,-0.00107296,-0.000257756
2.19947,0.0209024,0.443466,0.258137,3.1378,-0.00107296,-0.000257756
2.20752,0.0210797,0.443269,0.258914,3.13956,-0.000706863,-0.000606171
2.21546,0.0210797,0.443269,0.258914,3.13956,-0.000706863,-0.000606171
2.22346,0.0210797,0.443269,0.258914,3.13956,-0.000706863,-0.000606171
2.23144,0.0210797,0.443269,0.258914,3.13956,-0.000706863,-0.000606171
2.23946,0.0210797,0.443269,0.258914,3.13956,-0.000706863,-0.000606171
2.2475,0.0210797,0.443269,0.258914,3.13956,-0.000706863,-0.000606171
2.25556,0.0210797,0.443269,0.258914,3.13956,-0.000706863,-0.000606171
2.26352,0.0210797,0.443269,0.258914,3.13956,-0.000706863,-0.000606171
2.27152,0.0210797,0.443269,0.258914,3.13956,-0.000706863,-0.000606171
2.27947,0.0210797,0.443269,0.258914,3.13956,-0.000706863,-0.000606171
2.28751,0.0210797,0.443269,0.258914,3.13956,-0.000706863,-0.000606171
2.29548,0.0210797,0.443269,0.258914,3.13956,-0.000706863,-0.000606171
2.30348,0.0215085,0.443014,0.259836,3.14158,-0.00032472,-0.00144476
2.31153,0.0215085,0.443014,0.259836,3.14158,-0.00032472,-0.00144476
2.31938,0.0215085,0.443014,0.259836,3.14158,-0.00032472,-0.00144476
2.32745,0.0215085,0.443014,0.259836,3.14158,-0.00032472,-0.00144476
2.3354,0.0215085,0.443014,0.259836,3.14158,-0.00032472,-0.00144476
2.34347,0.0215085,0.443014,0.259836,3.14158,-0.00032472,-0.00144476
2.35146,0.0215085,0.443014,0.259836,3.14158,-0.00032472,-0.00144476
2.35947,0.0215085,0.443014,0.259836,3.14158,-0.00032472,-0.00144476
2.36741,0.0215085,0.443014,0.259836,3.14158,-0.00032472,-0.00144476
2.37539,0.0215085,0.443014,0.259836,3.14158,-0.00032472,-0.00144476
2.3834,0.0215085,0.443014,0.259836,3.14158,-0.00032472,-0.00144476
2.39136,0.0215085,0.443014,0.259836,3.14158,-0.00032472,-0.00144476
2.3994,0.0215085,0.443014,0.259836,3.14158,-0.00032472,-0.00144476
2.40751,0.0224083,0.441969,0.262905,-3.13634,0.000785615,-0.00299584
2.41543,0.0224083,0.441969,0.262905,-3.13634,0.000785615,-0.00299584
2.42342,0.0224083,0.441969,0.262905,-3.13634,0.000785615,-0.00299584
2.43149,0.0224083,0.441969,0.262905,-3.13634,0.000785615,-0.00299584
2.43956,0.0224083,0.441969,0.262905,-3.13634,0.000785615,-0.00299584
2.44747,0.0224083,0.441969,0.262905,-3.13634,0.000785615,-0.00299584
2.45558,0.0224083,0.441969,0.262905,-3.13634,0.000785615,-0.00299584
2.46354,0.0224083,0.441969,0.262905,-3.13634,0.000785615,-0.00299584
2.47152,0.0224083,0.441969,0.262905,-3.13634,0.000785615,-0.00299584
2.48027,0.0224083,0.441969,0.262905,-3.13634,0.000785615,-0.00299584
2.48748,0.0224083,0.441969,0.262905,-3.13634,0.000785615,-0.00299584
2.4955,0.0224083,0.441969,0.262905,-3.13634,0.000785615,-0.00299584
2.50338,0.0234349,0.43841,0.270371,-3.12242,0.00365354,-0.00361499
2.51148,0.0234349,0.43841,0.270371,-3.12242,0.00365354,-0.00361499
2.51949,0.0234349,0.43841,0.270371,-3.12242,0.00365354,-0.00361499
2.52746,0.0234349,0.43841,0.270371,-3.12242,0.00365354,-0.00361499
2.53551,0.0234349,0.43841,0.270371,-3.12242,0.00365354,-0.00361499
2.54349,0.0234349,0.43841,0.270371,-3.12242,0.00365354,-0.00361499
2.55152,0.0234349,0.43841,0.270371,-3.12242,0.00365354,-0.00361499
2.55959,0.0234349,0.43841,0.270371,-3.12242,0.00365354,-0.00361499
2.56751,0.0234349,0.43841,0.270371,-3.12242,0.00365354,-0.00361499
2.5755,0.0234349,0.43841,0.270371,-3.12242,0.00365354,-0.00361499
2.58356,0.0234349,0.43841,0.270371,-3.12242,0.00365354,-0.00361499
2.59147,0.0234349,0.43841,0.270371,-3.12242,0.00365354,-0.00361499
2.59951,0.0251529,0.429839,0.279378,-3.11117,0.00591846,-0.00334357
2.60749,0.0251529,0.429839,0.279378,-3.11117,0.00591846,-0.00334357
2.61542,0.0251529,0.429839,0.279378,-3.11117,0.00591846,-0.00334357
2.62339,0.0251529,0.429839,0.279378,-3.11117,0.00591846,-0.00334357
2.63143,0.0251529,0.429839,0.279378,-3.11117,0.00591846,-0.00334357
2.63946,0.0251529,0.429839,0.279378,-3.11117,0.00591846,-0.00334357
2.64746,0.0251529,0.429839,0.279378,-3.11117,0.00591846,-0.00334357
2.65553,0.0251529,0.429839,0.279378,-3.11117,0.00591846,-0.00334357
2.66355,0.0251529,0.429839,0.279378,-3.11117,0.00591846,-0.00334357
2.67149,0.0251529,0.429839,0.279378,-3.11117,0.00591846,-0.00334357
2.67949,0.0251529,0.429839,0.279378,-3.11117,0.00591846,-0.00334357
2.6874,0.0251529,0.429839,0.279378,-3.11117,0.00591846,-0.00334357
2.69548,0.0251529,0.429839,0.279378,-3.11117,0.00591846,-0.00334357
2.70344,0.0283776,0.414061,0.285952,-3.11478,0.0047517,-0.00269709
2.7115,0.0283776,0.414061,0.285952,-3.11478,0.0047517,-0.00269709
2.71951,0.0283776,0.414061,0.285952,-3.11478,0.0047517,-0.00269709
2.7275,0.0283776,0.414061,0.285952,-3.11478,0.0047517,-0.00269709
2.73547,0.0283776,0.414061,0.285952,-3.11478,0.0047517,-0.00269709
2.74348,0.0283776,0.414061,0.285952,-3.11478,0.0047517,-0.00269709
2.75155,0.0283776,0.414061,0.285952,-3.11478,0.0047517,-0.00269709
2.75952,0.0283776,0.414061,0.285952,-3.11478,0.0047517,-0.00269709
2.76748,0.0283776,0.414061,0.285952,-3.11478,0.0047517,-0.00269709
2.77549,0.0283776,0.414061,0.285952,-3.11478,0.0047517,-0.00269709
2.78347,0.0283776,0.414061,0.285952,-3.11478,0.0047517,-0.00269709
2.79144,0.0283776,0.414061,0.285952,-3.11478,0.0047517,-0.00269709
2.79948,0.0283776,0.414061,0.285952,-3.11478,0.0047517,-0.00269709
2.80743,0.0315217,0.398645,0.291558,-3.11698,0.00402758,-0.00248503
2.81548,0.0315217,0.398645,0.291558,-3.11698,0.00402758,-0.00248503
2.8235,0.0315217,0.398645,0.291558,-3.11698,0.00402758,-0.00248503
2.83145,0.0315217,0.398645,0.291558,-3.11698,0.00402758,-0.00248503
2.83948,0.0315217,0.398645,0.291558,-3.11698,0.00402758,-0.00248503
2.84753,0.0315217,0.398645,0.291558,-3.11698,0.00402758,-0.00248503
2.85551,0.0315217,0.398645,0.291558,-3.11698,0.00402758,-0.00248503
2.86356,0.0315217,0.398645,0.291558,-3.11698,0.00402758,-0.00248503
2.87153,0.0315217,0.398645,0.291558,-3.11698,0.00402758,-0.00248503
2.87949,0.0315217,0.398645,0.291558,-3.11698,0.00402758,-0.00248503
2.88747,0.0315217,0.398645,0.291558,-3.11698,0.00402758,-0.00248503
2.89548,0.0315217,0.398645,0.291558,-3.11698,0.00402758,-0.00248503
2.90347,0.0348588,0.381748,0.301881,-3.10291,0.00786716,-0.00212787
2.91143,0.0348588,0.381748,0.301881,-3.10291,0.00786716,-0.00212787
2.91943,0.0348588,0.381748,0.301881,-3.10291,0.00786716,-0.00212787
2.92742,0.0348588,0.381748,0.301881,-3.10291,0.00786716,-0.00212787
2.93548,0.0348588,0.381748,0.301881,-3.10291,0.00786716,-0.00212787
2.9435,0.0348588,0.381748,0.301881,-3.10291,0.00786716,-0.00212787
2.9515,0.0348588,0.381748,0.301881,-3.10291,0.00786716,-0.00212787
2.95951,0.0348588,0.381748,0.301881,-3.10291,0.00786716,-0.00212787
2.96754,0.0348588,0.381748,0.301881,-3.10291,0.00786716,-0.00212787
2.9755,0.0348588,0.381748,0.301881,-3.10291,0.00786716,-0.00212787
2.9835,0.0348588,0.381748,0.301881,-3.10291,0.00786716,-0.00212787
2.99152,0.0348588,0.381748,0.301881,-3.10291,0.00786716,-0.00212787
2.99947,0.0370756,0.369069,0.312124,-3.08213,0.0157587,-0.00122598
3.0075,0.0370756,0.369069,0.312124,-3.08213,0.0157587,-0.00122598
3.01553,0.0370756,0.369069,0.312124,-3.08213,0.0157587,-0.00122598
3.02345,0.0370756,0.369069,0.312124,-3.08213,0.0157587,-0.00122598
3.03157,0.0370756,0.369069,0.312124,-3.08213,0.0157587,-0.00122598
3.03947,0.0370756,0.369069,0.312124,-3.08213,0.0157587,-0.00122598
3.04755,0.0370756,0.369069,0.312124,-3.08213,0.0157587,-0.00122598
3.05548,0.0370756,0.369069,0.312124,-3.08213,0.0157587,-0.00122598
3.06353,0.0370756,0.369069,0.312124,-3.08213,0.0157587,-0.00122598
3.07147,0.0370756,0.369069,0.312124,-3.08213,0.0157587,-0.00122598
3.07945,0.0370756,0.369069,0.312124,-3.08213,0.0157587,-0.00122598
3.08746,0.0370756,0.369069,0.312124,-3.08213,0.0157587,-0.00122598
3.09552,0.0370756,0.369069,0.312124,-3.08213,0.0157587,-0.00122598
3.10339,0.0395679,0.353746,0.325895,-3.04928,0.0291595,0.0018041
3.11146,0.0395679,0.353746,0.325895,-3.04928,0.0291595,0.0018041
3.11943,0.0395679,0.353746,0.325895,-3.04928,0.0291595,0.0018041
3.12749,0.0395679,0.353746,0.325895,-3.04928,0.0291595,0.0018041
3.13547,0.0395679,0.353746,0.325895,-3.04928,0.0291595,0.0018041
3.14353,0.0395679,0.353746,0.325895,-3.04928,0.0291595,0.0018041
3.15143,0.0395679,0.353746,0.325895,-3.04928,0.0291595,0.0018041
3.15954,0.0395679,0.353746,0.325895,-3.04928,0.0291595,0.0018041
3.1675,0.0395679,0.353746,0.325895,-3.04928,0.0291595,0.0018041
3.1755,0.0395679,0.353746,0.325895,-3.04928,0.0291595,0.0018041
3.18357,0.0395679,0.353746,0.325895,-3.04928,0.0291595,0.0018041
3.19151,0.0395679,0.353746,0.325895,-3.04928,0.0291595,0.0018041
3.19951,0.0395679,0.353746,0.325895,-3.04928,0.0291595,0.0018041
3.20745,0.0421864,0.334636,0.334351,-3.031,0.0462834,0.00850471
3.21543,0.0421864,0.334636,0.334351,-3.031,0.0462834,0.00850471
3.22336,0.0421864,0.334636,0.334351,-3.031,0.0462834,0.00850471
3.23142,0.0421864,0.334636,0.334351,-3.031,0.0462834,0.00850471
3.23944,0.0421864,0.334636,0.334351,-3.031,0.0462834,0.00850471
3.24743,0.0421864,0.334636,0.334351,-3.031,0.0462834,0.00850471
3.25547,0.0421864,0.334636,0.334351,-3.031,0.0462834,0.00850471
3.26355,0.0421864,0.334636,0.334351,-3.031,0.0462834,0.00850471
3.27152,0.0421864,0.334636,0.334351,-3.031,0.0462834,0.00850471
3.2796,0.0421864,0.334636,0.334351,-3.031,0.0462834,0.00850471
3.2875,0.0421864,0.334636,0.334351,-3.031,0.0462834,0.00850471
3.29545,0.0421864,0.334636,0.334351,-3.031,0.0462834,0.00850471
3.30343,0.0435393,0.323609,0.331793,-3.04221,0.0548032,0.00927969
3.31144,0.0435393,0.323609,0.331793,-3.04221,0.0548032,0.00927969
3.31937,0.0435393,0.323609,0.331793,-3.04221,0.0548032,0.00927969
3.3274,0.0435393,0.323609,0.331793,-3.04221,0.0548032,0.00927969
3.33539,0.0435393,0.323609,0.331793,-3.04221,0.0548032,0.00927969
3.34342,0.0435393,0.323609,0.331793,-3.04221,0.0548032,0.00927969
3.35143,0.0435393,0.323609,0.331793,-3.04221,0.0548032,0.00927969
3.3595,0.0435393,0.323609,0.331793,-3.04221,0.0548032,0.00927969
3.36747,0.0435393,0.323609,0.331793,-3.04221,0.0548032,0.00927969
3.37548,0.0435393,0.323609,0.331793,-3.04221,0.0548032,0.00927969
3.38344,0.0435393,0.323609,0.331793,-3.04221,0.0548032,0.00927969
3.39142,0.0435393,0.323609,0.331793,-3.04221,0.0548032,0.00927969
3.39943,0.0435393,0.323609,0.331793,-3.04221,0.0548032,0.00927969
3.40741,0.0455555,0.312496,0.3278,-3.05475,0.0536031,0.00933455
3.41545,0.0455555,0.312496,0.3278,-3.05475,0.0536031,0.00933455
3.42346,0.0455555,0.312496,0.3278,-3.05475,0.0536031,0.00933455
3.43148,0.0455555,0.312496,0.3278,-3.05475,0.0536031,0.00933455
3.43944,0.0455555,0.312496,0.3278,-3.05475,0.0536031,0.00933455
3.4475,0.0455555,0.312496,0.3278,-3.05475,0.0536031,0.00933455
3.45549,0.0455555,0.312496,0.3278,-3.05475,0.0536031,0.00933455
3.46352,0.0455555,0.312496,0.3278,-3.05475,0.0536031,0.00933455
3.47148,0.0455555,0.312496,0.3278,-3.05475,0.0536031,0.00933455
3.47949,0.0455555,0.312496,0.3278,-3.05475,0.0536031,0.00933455
3.4875,0.0455555,0.312496,0.3278,-3.05475,0.0536031,0.00933455
3.49556,0.0455555,0.312496,0.3278,-3.05475,0.0536031,0.00933455
3.50344,0.0467315,0.299123,0.326247,-3.05939,0.0652569,0.0148996
3.5114,0.0467315,0.299123,0.326247,-3.05939,0.0652569,0.0148996
3.51942,0.0467315,0.299123,0.326247,-3.05939,0.0652569,0.0148996
3.52742,0.0467315,0.299123,0.326247,-3.05939,0.0652569,0.0148996
3.53539,0.0467315,0.299123,0.326247,-3.05939,0.0652569,0.0148996
3.54344,0.0467315,0.299123,0.326247,-3.05939,0.0652569,0.0148996
3.55143,0.0467315,0.299123,0.326247,-3.05939,0.0652569,0.0148996
3.55956,0.0467315,0.299123,0.326247,-3.05939,0.0652569,0.0148996
3.56749,0.0467315,0.299123,0.326247,-3.05939,0.0652569,0.0148996
3.57547,0.0467315,0.299123,0.326247,-3.05939,0.0652569,0.0148996
3.58348,0.0467315,0.299123,0.326247,-3.05939,0.0652569,0.0148996
3.59145,0.0467315,0.299123,0.326247,-3.05939,0.0652569,0.0148996
3.59943,0.0467315,0.299123,0.326247,-3.05939,0.0652569,0.0148996
3.60744,0.0463931,0.283462,0.324438,-3.06349,0.0937179,0.040328
3.61544,0.0463931,0.283462,0.324438,-3.06349,0.0937179,0.040328
3.62342,0.0463931,0.283462,0.324438,-3.06349,0.0937179,0.040328
3.6314,0.0463931,0.283462,0.324438,-3.06349,0.0937179,0.040328
3.63945,0.0463931,0.283462,0.324438,-3.06349,0.0937179,0.040328
3.64749,0.0463931,0.283462,0.324438,-3.06349,0.0937179,0.040328
3.65546,0.0463931,0.283462,0.324438,-3.06349,0.0937179,0.040328
3.66358,0.0463931,0.283462,0.324438,-3.06349,0.0937179,0.040328
3.67147,0.0463931,0.283462,0.324438,-3.06349,0.0937179,0.040328
3.67953,0.0463931,0.283462,0.324438,-3.06349,0.0937179,0.040328
3.68749,0.0463931,0.283462,0.324438,-3.06349,0.0937179,0.040328
3.69545,0.0463931,0.283462,0.324438,-3.06349,0.0937179,0.040328
3.70344,0.0472104,0.264354,0.31724,-3.07244,0.0963144,0.0843111
3.71137,0.0472104,0.264354,0.31724,-3.07244,0.0963144,0.0843111
3.71939,0.0472104,0.264354,0.31724,-3.07244,0.0963144,0.0843111
3.72737,0.0472104,0.264354,0.31724,-3.07244,0.0963144,0.0843111
3.73543,0.0472104,0.264354,0.31724,-3.07244,0.0963144,0.0843111
3.74344,0.0472104,0.264354,0.31724,-3.07244,0.0963144,0.0843111
3.75149,0.0472104,0.264354,0.31724,-3.07244,0.0963144,0.0843111
3.75958,0.0472104,0.264354,0.31724,-3.07244,0.0963144,0.0843111
3.76758,0.0472104,0.264354,0.31724,-3.07244,0.0963144,0.0843111
3.7755,0.0472104,0.264354,0.31724,-3.07244,0.0963144,0.0843111
3.78344,0.0472104,0.264354,0.31724,-3.07244,0.0963144,0.0843111
3.79153,0.0472104,0.264354,0.31724,-3.07244,0.0963144,0.0843111
3.79948,0.0472104,0.264354,0.31724,-3.07244,0.0963144,0.0843111
3.80735,0.0441506,0.252182,0.30554,-3.09951,0.0916685,0.116904
3.81544,0.0441506,0.252182,0.30554,-3.09951,0.0916685,0.116904
3.82339,0.0441506,0.252182,0.30554,-3.09951,0.0916685,0.116904
3.83136,0.0441506,0.252182,0.30554,-3.09951,0.0916685,0.116904
3.83938,0.0441506,0.252182,0.30554,-3.09951,0.0916685,0.116904
3.84743,0.0441506,0.252182,0.30554,-3.09951,0.0916685,0.116904
3.85544,0.0441506,0.252182,0.30554,-3.09951,0.0916685,0.116904
3.86349,0.0441506,0.252182,0.30554,-3.09951,0.0916685,0.116904
3.87144,0.0441506,0.252182,0.30554,-3.09951,0.0916685,0.116904
3.87947,0.0441506,0.252182,0.30554,-3.09951,0.0916685,0.116904
3.88749,0.0441506,0.252182,0.30554,-3.09951,0.0916685,0.116904
3.89549,0.0441506,0.252182,0.30554,-3.09951,0.0916685,0.116904
3.90337,0.0403995,0.24519,0.296502,-3.12205,0.0862819,0.139041
3.91148,0.0403995,0.24519,0.296502,-3.12205,0.0862819,0.139041
3.91942,0.0403995,0.24519,0.296502,-3.12205,0.0862819,0.139041
3.92748,0.0403995,0.24519,0.296502,-3.12205,0.0862819,0.139041
3.93548,0.0403995,0.24519,0.296502,-3.12205,0.0862819,0.139041
3.94349,0.0403995,0.24519,0.296502,-3.12205,0.0862819,0.139041
3.95142,0.0403995,0.24519,0.296502,-3.12205,0.0862819,0.139041
3.95951,0.0403995,0.24519,0.296502,-3.12205,0.0862819,0.139041
3.96748,0.0403995,0.24519,0.296502,-3.12205,0.0862819,0.139041
3.97546,0.0403995,0.24519,0.296502,-3.12205,0.0862819,0.139041
3.98353,0.0403995,0.24519,0.296502,-3.12205,0.0862819,0.139041
3.99142,0.0403995,0.24519,0.296502,-3.12205,0.0862819,0.139041
3.99945,0.0403995,0.24519,0.296502,-3.12205,0.0862819,0.139041
4.00737,0.0362384,0.238379,0.288418,-3.14113,0.0813743,0.163017
4.01536,0.0362384,0.238379,0.288418,-3.14113,0.0813743,0.163017
4.02333,0.0362384,0.238379,0.288418,-3.14113,0.0813743,0.163017
4.03136,0.0362384,0.238379,0.288418,-3.14113,0.0813743,0.163017
4.03936,0.0362384,0.238379,0.288418,-3.14113,0.0813743,0.163017
4.0474,0.0362384,0.238379,0.288418,-3.14113,0.0813743,0.163017
4.05539,0.0362384,0.238379,0.288418,-3.14113,0.0813743,0.163017
4.06344,0.0362384,0.238379,0.288418,-3.14113,0.0813743,0.163017
4.07138,0.0362384,0.238379,0.288418,-3.14113,0.0813743,0.163017
4.07939,0.0362384,0.238379,0.288418,-3.14113,0.0813743,0.163017
4.08739,0.0362384,0.238379,0.288418,-3.14113,0.0813743,0.163017
4.09544,0.0362384,0.238379,0.288418,-3.14113,0.0813743,0.163017
4.10343,0.0355117,0.235259,0.2848,3.13634,0.0721725,0.169548
4.11139,0.0355117,0.235259,0.2848,3.13634,0.0721725,0.169548
4.1193,0.0355117,0.235259,0.2848,3.13634,0.0721725,0.169548
4.1273,0.0355117,0.235259,0.2848,3.13634,0.0721725,0.169548
4.13535,0.0355117,0.235259,0.2848,3.13634,0.0721725,0.169548
4.14334,0.0355117,0.235259,0.2848,3.13634,0.0721725,0.169548
4.15135,0.0355117,0.235259,0.2848,3.13634,0.0721725,0.169548
4.1594,0.0355117,0.235259,0.2848,3.13634,0.0721725,0.169548
4.16744,0.0355117,0.235259,0.2848,3.13634,0.0721725,0.169548
4.17539,0.0355117,0.235259,0.2848,3.13634,0.0721725,0.169548
4.18338,0.0355117,0.235259,0.2848,3.13634,0.0721725,0.169548
4.19139,0.0355117,0.235259,0.2848,3.13634,0.0721725,0.169548
4.19937,0.0355117,0.235259,0.2848,3.13634,0.0721725,0.169548
4.20739,0.035649,0.235902,0.28241,-3.13761,0.0687265,0.169558
4.21542,0.035649,0.235902,0.28241,-3.13761,0.0687265,0.169558
4.22338,0.035649,0.235902,0.28241,-3.13761,0.0687265,0.169558
4.2314,0.035649,0.235902,0.28241,-3.13761,0.0687265,0.169558
4.23944,0.035649,0.235902,0.28241,-3.13761,0.0687265,0.169558
4.2474,0.035649,0.235902,0.28241,-3.13761,0.0687265,0.169558
4.25543,0.035649,0.235902,0.28241,-3.13761,0.0687265,0.169558
4.26346,0.035649,0.235902,0.28241,-3.13761,0.0687265,0.169558
4.27141,0.035649,0.235902,0.28241,-3.13761,0.0687265,0.169558
4.27941,0.035649,0.235902,0.28241,-3.13761,0.0687265,0.169558
4.28739,0.035649,0.235902,0.28241,-3.13761,0.0687265,0.169558
4.2954,0.035649,0.235902,0.28241,-3.13761,0.0687265,0.169558
4.30338,0.0353275,0.236492,0.281781,-3.12924,0.0698938,0.170373
4.31137,0.0353275,0.236492,0.281781,-3.12924,0.0698938,0.170373
4.31936,0.0353275,0.236492,0.281781,-3.12924,0.0698938,0.170373
4.32733,0.0353275,0.236492,0.281781,-3.12924,0.0698938,0.170373
4.33537,0.0353275,0.236492,0.281781,-3.12924,0.0698938,0.170373
4.34334,0.0353275,0.236492,0.281781,-3.12924,0.0698938,0.170373
4.35137,0.0353275,0.236492,0.281781,-3.12924,0.0698938,0.170373
4.35942,0.0353275,0.236492,0.281781,-3.12924,0.0698938,0.170373
4.36742,0.0353275,0.236492,0.281781,-3.12924,0.0698938,0.170373
4.37537,0.0353275,0.236492,0.281781,-3.12924,0.0698938,0.170373
4.38337,0.0353275,0.236492,0.281781,-3.12924,0.0698938,0.170373
4.39139,0.0353275,0.236492,0.281781,-3.12924,0.0698938,0.170373
4.39945,0.0353275,0.236492,0.281781,-3.12924,0.0698938,0.170373
4.40736,0.0354027,0.236192,0.277854,-3.12957,0.0691786,0.169752
4.41534,0.0354027,0.236192,0.277854,-3.12957,0.0691786,0.169752
4.42333,0.0354027,0.236192,0.277854,-3.12957,0.0691786,0.169752
4.43129,0.0354027,0.236192,0.277854,-3.12957,0.0691786,0.169752
4.43933,0.0354027,0.236192,0.277854,-3.12957,0.0691786,0.169752
4.44738,0.0354027,0.236192,0.277854,-3.12957,0.0691786,0.169752
4.45542,0.0354027,0.236192,0.277854,-3.12957,0.0691786,0.169752
4.46347,0.0354027,0.236192,0.277854,-3.12957,0.0691786,0.169752
4.47142,0.0354027,0.236192,0.277854,-3.12957,0.0691786,0.169752
4.47943,0.0354027,0.236192,0.277854,-3.12957,0.0691786,0.169752
4.48741,0.0354027,0.236192,0.277854,-3.12957,0.0691786,0.169752
4.49541,0.0354027,0.236192,0.277854,-3.12957,0.0691786,0.169752
4.50337,0.0359217,0.234733,0.271455,-3.14096,0.0671889,0.168331
4.51145,0.0359217,0.234733,0.271455,-3.14096,0.0671889,0.168331
4.5194,0.0359217,0.234733,0.271455,-3.14096,0.0671889,0.168331
4.52738,0.0359217,0.234733,0.271455,-3.14096,0.0671889,0.168331
4.53546,0.0359217,0.234733,0.271455,-3.14096,0.0671889,0.168331
4.54344,0.0359217,0.234733,0.271455,-3.14096,0.0671889,0.168331
4.55142,0.0359217,0.234733,0.271455,-3.14096,0.0671889,0.168331
4.55949,0.0359217,0.234733,0.271455,-3.14096,0.0671889,0.168331
4.56749,0.0359217,0.234733,0.271455,-3.14096,0.0671889,0.168331
4.57542,0.0359217,0.234733,0.271455,-3.14096,0.0671889,0.168331
4.58349,0.0359217,0.234733,0.271455,-3.14096,0.0671889,0.168331
4.5914,0.0359217,0.234733,0.271455,-3.14096,0.0671889,0.168331
4.59937,0.0359217,0.234733,0.271455,-3.14096,0.0671889,0.168331
4.60731,0.0363628,0.234308,0.26517,-3.13561,0.0645241,0.166513
4.61543,0.0363628,0.234308,0.26517,-3.13561,0.0645241,0.166513
4.62332,0.0363628,0.234308,0.26517,-3.13561,0.0645241,0.166513
4.63136,0.0363628,0.234308,0.26517,-3.13561,0.0645241,0.166513
4.63947,0.0363628,0.234308,0.26517,-3.13561,0.0645241,0.166513
4.64741,0.0363628,0.234308,0.26517,-3.13561,0.0645241,0.166513
4.65547,0.0363628,0.234308,0.26517,-3.13561,0.0645241,0.166513
4.66349,0.0363628,0.234308,0.26517,-3.13561,0.0645241,0.166513
4.67141,0.0363628,0.234308,0.26517,-3.13561,0.0645241,0.166513
4.67943,0.0363628,0.234308,0.26517,-3.13561,0.0645241,0.166513
4.68739,0.0363628,0.234308,0.26517,-3.13561,0.0645241,0.166513
4.69539,0.0363628,0.234308,0.26517,-3.13561,0.0645241,0.166513
4.70339,0.0362311,0.235068,0.262765,-3.11741,0.0660655,0.165996
4.71144,0.0362311,0.235068,0.262765,-3.11741,0.0660655,0.165996
4.71928,0.0362311,0.235068,0.262765,-3.11741,0.0660655,0.165996
4.72728,0.0362311,0.235068,0.262765,-3.11741,0.0660655,0.165996
4.73535,0.0362311,0.235068,0.262765,-3.11741,0.0660655,0.165996
4.74335,0.0362311,0.235068,0.262765,-3.11741,0.0660655,0.165996
4.7514,0.0362311,0.235068,0.262765,-3.11741,0.0660655,0.165996
4.75943,0.0362311,0.235068,0.262765,-3.11741,0.0660655,0.165996
4.76745,0.0362311,0.235068,0.262765,-3.11741,0.0660655,0.165996
4.7754,0.0362311,0.235068,0.262765,-3.11741,0.0660655,0.165996
4.78346,0.0362311,0.235068,0.262765,-3.11741,0.0660655,0.165996
4.79142,0.0362311,0.235068,0.262765,-3.11741,0.0660655,0.165996
4.79947,0.0361815,0.235221,0.259851,-3.10587,0.067842,0.165624
4.80737,0.0361815,0.235221,0.259851,-3.10587,0.067842,0.165624
4.8155,0.0361815,0.235221,0.259851,-3.10587,0.067842,0.165624
4.82342,0.0361815,0.235221,0.259851,-3.10587,0.067842,0.165624
4.83138,0.0361815,0.235221,0.259851,-3.10587,0.067842,0.165624
4.83938,0.0361815,0.235221,0.259851,-3.10587,0.067842,0.165624
4.8474,0.0361815,0.235221,0.259851,-3.10587,0.067842,0.165624
4.85544,0.0361815,0.235221,0.259851,-3.10587,0.067842,0.165624
4.86348,0.0361815,0.235221,0.259851,-3.10587,0.067842,0.165624
4.87147,0.0361815,0.235221,0.259851,-3.10587,0.067842,0.165624
4.87945,0.0361815,0.235221,0.259851,-3.10587,0.067842,0.165624
4.8874,0.0361815,0.235221,0.259851,-3.10587,0.067842,0.165624
4.89542,0.0361815,0.235221,0.259851,-3.10587,0.067842,0.165624
4.90337,0.0365325,0.234219,0.25622,-3.11004,0.0671566,0.165157
4.91142,0.0365325,0.234219,0.25622,-3.11004,0.0671566,0.165157
4.91936,0.0365325,0.234219,0.25622,-3.11004,0.0671566,0.165157
4.92738,0.0365325,0.234219,0.25622,-3.11004,0.0671566,0.165157
4.93539,0.0365325,0.234219,0.25622,-3.11004,0.0671566,0.165157
4.94338,0.0365325,0.234219,0.25622,-3.11004,0.0671566,0.165157
4.95144,0.0365325,0.234219,0.25622,-3.11004,0.0671566,0.165157
4.95943,0.0365325,0.234219,0.25622,-3.11004,0.0671566,0.165157
4.96746,0.0365325,0.234219,0.25622,-3.11004,0.0671566,0.165157
4.97548,0.0365325,0.234219,0.25622,-3.11004,0.0671566,0.165157
4.98342,0.0365325,0.234219,0.25622,-3.11004,0.0671566,0.165157
4.99141,0.0365325,0.234219,0.25622,-3.11004,0.0671566,0.165157
4.99946,0.036516,0.234221,0.256165,-3.11019,0.0671387,0.165135
5.00746,0.036516,0.234221,0.256165,-3.11019,0.0671387,0.165135
5.01537,0.036516,0.234221,0.256165,-3.11019,0.0671387,0.165135
5.02332,0.036516,0.234221,0.256165,-3.11019,0.0671387,0.165135
5.03129,0.036516,0.234221,0.256165,-3.11019,0.0671387,0.165135
5.03938,0.036516,0.234221,0.256165,-3.11019,0.0671387,0.165135
5.04739,0.036516,0.234221,0.256165,-3.11019,0.0671387,0.165135
5.05534,0.036516,0.234221,0.256165,-3.11019,0.0671387,0.165135
5.06346,0.036516,0.234221,0.256165,-3.11019,0.0671387,0.165135
5.07142,0.036516,0.234221,0.256165,-3.11019,0.0671387,0.165135
5.07943,0.036516,0.234221,0.256165,-3.11019,0.0671387,0.165135
5.08741,0.036516,0.234221,0.256165,-3.11019,0.0671387,0.165135
5.09546,0.036516,0.234221,0.256165,-3.11019,0.0671387,0.165135
5.10334,0.0365254,0.234209,0.25615,-3.11029,0.0671221,0.165127
5.11142,0.0365254,0.234209,0.25615,-3.11029,0.0671221,0.165127
5.11941,0.0365254,0.234209,0.25615,-3.11029,0.0671221,0.165127
5.12737,0.0365254,0.234209,0.25615,-3.11029,0.0671221,0.165127
5.13539,0.0365254,0.234209,0.25615,-3.11029,0.0671221,0.165127
5.14329,0.0365254,0.234209,0.25615,-3.11029,0.0671221,0.165127
5.15138,0.0365254,0.234209,0.25615,-3.11029,0.0671221,0.165127
5.15942,0.0365254,0.234209,0.25615,-3.11029,0.0671221,0.165127
5.16744,0.0365254,0.234209,0.25615,-3.11029,0.0671221,0.165127
5.17537,0.0365254,0.234209,0.25615,-3.11029,0.0671221,0.165127
5.18342,0.0365254,0.234209,0.25615,-3.11029,0.0671221,0.165127
5.19145,0.0365254,0.234209,0.25615,-3.11029,0.0671221,0.165127
5.19937,0.0365263,0.234216,0.256165,-3.11024,0.067212,0.165159
5.20738,0.0365263,0.234216,0.256165,-3.11024,0.067212,0.165159
5.21537,0.0365263,0.234216,0.256165,-3.11024,0.067212,0.165159
5.22334,0.0365263,0.234216,0.256165,-3.11024,0.067212,0.165159
5.23133,0.0365263,0.234216,0.256165,-3.11024,0.067212,0.165159
5.23942,0.0365263,0.234216,0.256165,-3.11024,0.067212,0.165159
5.24739,0.0365263,0.234216,0.256165,-3.11024,0.067212,0.165159
5.25541,0.0365263,0.234216,0.256165,-3.11024,0.067212,0.165159
5.26349,0.0365263,0.234216,0.256165,-3.11024,0.067212,0.165159
5.27138,0.0365263,0.234216,0.256165,-3.11024,0.067212,0.165159
5.27939,0.0365263,0.234216,0.256165,-3.11024,0.067212,0.165159
5.28743,0.0365263,0.234216,0.256165,-3.11024,0.067212,0.165159
5.2954,0.0365263,0.234216,0.256165,-3.11024,0.067212,0.165159
5.30341,0.036541,0.23421,0.256213,-3.11004,0.0673382,0.165068
5.31132,0.036541,0.23421,0.256213,-3.11004,0.0673382,0.165068
5.31932,0.036541,0.23421,0.256213,-3.11004,0.0673382,0.165068
5.32728,0.036541,0.23421,0.256213,-3.11004,0.0673382,0.165068
5.33538,0.036541,0.23421,0.256213,-3.11004,0.0673382,0.165068
5.34332,0.036541,0.23421,0.256213,-3.11004,0.0673382,0.165068
5.35132,0.036541,0.23421,0.256213,-3.11004,0.0673382,0.165068
5.35941,0.036541,0.23421,0.256213,-3.11004,0.0673382,0.165068
5.36746,0.036541,0.23421,0.256213,-3.11004,0.0673382,0.165068
5.37547,0.036541,0.23421,0.256213,-3.11004,0.0673382,0.165068
5.3834,0.036541,0.23421,0.256213,-3.11004,0.0673382,0.165068
5.39147,0.036541,0.23421,0.256213,-3.11004,0.0673382,0.165068
5.39941,0.036541,0.23421,0.256213,-3.11004,0.0673382,0.165068
5.40736,0.0365341,0.234215,0.256208,-3.11008,0.0673327,0.165102
5.41551,0.0365341,0.234215,0.256208,-3.11008,0.0673327,0.165102
5.42335,0.0365341,0.234215,0.256208,-3.11008,0.0673327,0.165102
5.4314,0.0365341,0.234215,0.256208,-3.11008,0.0673327,0.165102
5.43945,0.0365341,0.234215,0.256208,-3.11008,0.0673327,0.165102
5.44737,0.0365341,0.234215,0.256208,-3.11008,0.0673327,0.165102
5.45545,0.0365341,0.234215,0.256208,-3.11008,0.0673327,0.165102
5.46346,0.0365341,0.234215,0.256208,-3.11008,0.0673327,0.165102
5.47144,0.0365341,0.234215,0.256208,-3.11008,0.0673327,0.165102
5.47936,0.0365341,0.234215,0.256208,-3.11008,0.0673327,0.165102
5.48737,0.0365341,0.234215,0.256208,-3.11008,0.0673327,0.165102
5.49536,0.0365341,0.234215,0.256208,-3.11008,0.0673327,0.165102
5.50333,0.036529,0.234218,0.256215,-3.11004,0.067387,0.165119
5.5113,0.036529,0.234218,0.256215,-3.11004,0.067387,0.165119
5.51929,0.036529,0.234218,0.256215,-3.11004,0.067387,0.165119
5.52725,0.036529,0.234218,0.256215,-3.11004,0.067387,0.165119
5.53526,0.036529,0.234218,0.256215,-3.11004,0.067387,0.165119
5.54326,0.036529,0.234218,0.256215,-3.11004,0.067387,0.165119
5.55131,0.036529,0.234218,0.256215,-3.11004,0.067387,0.165119
5.55939,0.036529,0.234218,0.256215,-3.11004,0.067387,0.165119
5.5675,0.036529,0.234218,0.256215,-3.11004,0.067387,0.165119
5.57534,0.036529,0.234218,0.256215,-3.11004,0.067387,0.165119
5.58342,0.036529,0.234218,0.256215,-3.11004,0.067387,0.165119
5.59138,0.036529,0.234218,0.256215,-3.11004,0.067387,0.165119
5.59942,0.036529,0.234218,0.256215,-3.11004,0.067387,0.165119
5.60729,0.0365314,0.234221,0.256232,-3.10999,0.0673587,0.165097
5.61535,0.0365314,0.234221,0.256232,-3.10999,0.0673587,0.165097
5.62331,0.0365314,0.234221,0.256232,-3.10999,0.0673587,0.165097
5.63128,0.0365314,0.234221,0.256232,-3.10999,0.0673587,0.165097
5.63929,0.0365314,0.234221,0.256232,-3.10999,0.0673587,0.165097
5.64731,0.0365314,0.234221,0.256232,-3.10999,0.0673587,0.165097
5.65532,0.0365314,0.234221,0.256232,-3.10999,0.0673587,0.165097
5.66337,0.0365314,0.234221,0.256232,-3.10999,0.0673587,0.165097
5.67133,0.0365314,0.234221,0.256232,-3.10999,0.0673587,0.165097
5.67935,0.0365314,0.234221,0.256232,-3.10999,0.0673587,0.165097
5.68735,0.0365314,0.234221,0.256232,-3.10999,0.0673587,0.165097
5.69536,0.0365314,0.234221,0.256232,-3.10999,0.0673587,0.165097
5.70331,0.0365321,0.23422,0.256215,-3.11008,0.0673692,0.165079
5.71139,0.0365321,0.23422,0.256215,-3.11008,0.0673692,0.165079
5.71939,0.0365321,0.23422,0.256215,-3.11008,0.0673692,0.165079
5.72733,0.0365321,0.23422,0.256215,-3.11008,0.0673692,0.165079
5.73532,0.0365321,0.23422,0.256215,-3.11008,0.0673692,0.165079
5.74332,0.0365321,0.23422,0.256215,-3.11008,0.0673692,0.165079
5.75132,0.0365321,0.23422,0.256215,-3.11008,0.0673692,0.165079
5.75935,0.0365321,0.23422,0.256215,-3.11008,0.0673692,0.165079
5.76741,0.0365321,0.23422,0.256215,-3.11008,0.0673692,0.165079
5.77537,0.0365321,0.23422,0.256215,-3.11008,0.0673692,0.165079
5.78336,0.0365321,0.23422,0.256215,-3.11008,0.0673692,0.165079
5.79137,0.0365321,0.23422,0.256215,-3.11008,0.0673692,0.165079
5.79938,0.0365321,0.23422,0.256215,-3.11008,0.0673692,0.165079
5.80722,0.0365328,0.234226,0.256234,-3.11,0.0673817,0.165061
5.81527,0.0365328,0.234226,0.256234,-3.11,0.0673817,0.165061
5.82327,0.0365328,0.234226,0.256234,-3.11,0.0673817,0.165061
5.83126,0.0365328,0.234226,0.256234,-3.11,0.0673817,0.165061
5.83929,0.0365328,0.234226,0.256234,-3.11,0.0673817,0.165061
5.84729,0.0365328,0.234226,0.256234,-3.11,0.0673817,0.165061
5.85533,0.0365328,0.234226,0.256234,-3.11,0.0673817,0.165061
5.8634,0.0365328,0.234226,0.256234,-3.11,0.0673817,0.165061
5.87138,0.0365328,0.234226,0.256234,-3.11,0.0673817,0.165061
5.87939,0.0365328,0.234226,0.256234,-3.11,0.0673817,0.165061
5.88733,0.0365328,0.234226,0.256234,-3.11,0.0673817,0.165061
5.89537,0.0365328,0.234226,0.256234,-3.11,0.0673817,0.165061
5.90338,0.0365345,0.234216,0.256227,-3.11,0.0673684,0.165096
5.91127,0.0365345,0.234216,0.256227,-3.11,0.0673684,0.165096
5.91936,0.0365345,0.234216,0.256227,-3.11,0.0673684,0.165096
5.9273,0.0365345,0.234216,0.256227,-3.11,0.0673684,0.165096
5.93538,0.0365345,0.234216,0.256227,-3.11,0.0673684,0.165096
5.9433,0.0365345,0.234216,0.256227,-3.11,0.0673684,0.165096
5.95141,0.0365345,0.234216,0.256227,-3.11,0.0673684,0.165096
5.9594,0.0365345,0.234216,0.256227,-3.11,0.0673684,0.165096
5.96753,0.0365345,0.234216,0.256227,-3.11,0.0673684,0.165096
5.97541,0.0365345,0.234216,0.256227,-3.11,0.0673684,0.165096
5.98338,0.0365345,0.234216,0.256227,-3.11,0.0673684,0.165096
5.99143,0.0365345,0.234216,0.256227,-3.11,0.0673684,0.165096
5.99939,0.0365345,0.234216,0.256227,-3.11,0.0673684,0.165096
6.00734,0.0365334,0.234219,0.256219,-3.11004,0.0673641,0.16507
6.01546,0.0365334,0.234219,0.256219,-3.11004,0.0673641,0.16507
6.02341,0.0365334,0.234219,0.256219,-3.11004,0.0673641,0.16507
6.0314,0.0365334,0.234219,0.256219,-3.11004,0.0673641,0.16507
6.03938,0.0365334,0.234219,0.256219,-3.11004,0.0673641,0.16507
6.04747,0.0365334,0.234219,0.256219,-3.11004,0.0673641,0.16507
6.05544,0.0365334,0.234219,0.256219,-3.11004,0.0673641,0.16507
6.06344,0.0365334,0.234219,0.256219,-3.11004,0.0673641,0.16507
6.07148,0.0365334,0.234219,0.256219,-3.11004,0.0673641,0.16507
6.0794,0.0365334,0.234219,0.256219,-3.11004,0.0673641,0.16507
6.08738,0.0365334,0.234219,0.256219,-3.11004,0.0673641,0.16507
6.09545,0.0365334,0.234219,0.256219,-3.11004,0.0673641,0.16507
6.10331,0.0365295,0.234226,0.256227,-3.11004,0.0673527,0.16507
6.11127,0.0365295,0.234226,0.256227,-3.11004,0.0673527,0.16507
6.11929,0.0365295,0.234226,0.256227,-3.11004,0.0673527,0.16507
6.12731,0.0365295,0.234226,0.256227,-3.11004,0.0673527,0.16507
6.13534,0.0365295,0.234226,0.256227,-3.11004,0.0673527,0.16507
6.14336,0.0365295,0.234226,0.256227,-3.11004,0.0673527,0.16507
6.15135,0.0365295,0.234226,0.256227,-3.11004,0.0673527,0.16507
6.1594,0.0365295,0.234226,0.256227,-3.11004,0.0673527,0.16507
6.16748,0.0365295,0.234226,0.256227,-3.11004,0.0673527,0.16507
6.17542,0.0365295,0.234226,0.256227,-3.11004,0.0673527,0.16507
6.18336,0.0365295,0.234226,0.256227,-3.11004,0.0673527,0.16507
6.19139,0.0365295,0.234226,0.256227,-3.11004,0.0673527,0.16507
6.19943,0.0365295,0.234226,0.256227,-3.11004,0.0673527,0.16507
6.20733,0.0365325,0.234222,0.256227,-3.11001,0.0673668,0.165096
6.21539,0.0365325,0.234222,0.256227,-3.11001,0.0673668,0.165096
6.22332,0.0365325,0.234222,0.256227,-3.11001,0.0673668,0.165096
6.23134,0.0365325,0.234222,0.256227,-3.11001,0.0673668,0.165096
6.23933,0.0365325,0.234222,0.256227,-3.11001,0.0673668,0.165096
6.24743,0.0365325,0.234222,0.256227,-3.11001,0.0673668,0.165096
6.25548,0.0365325,0.234222,0.256227,-3.11001,0.0673668,0.165096
6.26342,0.0365325,0.234222,0.256227,-3.11001,0.0673668,0.165096
6.2714,0.0365325,0.234222,0.256227,-3.11001,0.0673668,0.165096
6.2794,0.0365325,0.234222,0.256227,-3.11001,0.0673668,0.165096
6.28739,0.0365325,0.234222,0.256227,-3.11001,0.0673668,0.165096
6.29537,0.0365325,0.234222,0.256227,-3.11001,0.0673668,0.165096
6.30329,0.0365304,0.234219,0.256222,-3.11004,0.0673379,0.165116
6.31127,0.0365304,0.234219,0.256222,-3.11004,0.0673379,0.165116
6.31939,0.0365304,0.234219,0.256222,-3.11004,0.0673379,0.165116
6.32736,0.0365304,0.234219,0.256222,-3.11004,0.0673379,0.165116
6.33532,0.0365304,0.234219,0.256222,-3.11004,0.0673379,0.165116
6.34325,0.0365304,0.234219,0.256222,-3.11004,0.0673379,0.165116
6.35122,0.0365304,0.234219,0.256222,-3.11004,0.0673379,0.165116
6.35933,0.0365304,0.234219,0.256222,-3.11004,0.0673379,0.165116
6.36737,0.0365304,0.234219,0.256222,-3.11004,0.0673379,0.165116
6.3754,0.0365304,0.234219,0.256222,-3.11004,0.0673379,0.165116
6.38339,0.0365304,0.234219,0.256222,-3.11004,0.0673379,0.165116
6.39142,0.0365304,0.234219,0.256222,-3.11004,0.0673379,0.165116
6.39943,0.0365368,0.23422,0.256218,-3.11006,0.0673481,0.16508
6.40743,0.0365368,0.23422,0.256218,-3.11006,0.0673481,0.16508
6.41531,0.0365368,0.23422,0.256218,-3.11006,0.0673481,0.16508
6.42338,0.0365368,0.23422,0.256218,-3.11006,0.0673481,0.16508
6.43132,0.0365368,0.23422,0.256218,-3.11006,0.0673481,0.16508
6.43934,0.0365368,0.23422,0.256218,-3.11006,0.0673481,0.16508
6.44736,0.0365368,0.23422,0.256218,-3.11006,0.0673481,0.16508
6.45538,0.0365368,0.23422,0.256218,-3.11006,0.0673481,0.16508
6.46345,0.0365368,0.23422,0.256218,-3.11006,0.0673481,0.16508
6.47142,0.0365368,0.23422,0.256218,-3.11006,0.0673481,0.16508
6.4794,0.0365368,0.23422,0.256218,-3.11006,0.0673481,0.16508
6.48738,0.0365368,0.23422,0.256218,-3.11006,0.0673481,0.16508
6.49538,0.0365368,0.23422,0.256218,-3.11006,0.0673481,0.16508
6.5033,0.0365374,0.234218,0.256228,-3.11,0.0673567,0.165084
6.51126,0.0365374,0.234218,0.256228,-3.11,0.0673567,0.165084
6.51935,0.0365374,0.234218,0.256228,-3.11,0.0673567,0.165084
6.52728,0.0365374,0.234218,0.256228,-3.11,0.0673567,0.165084
6.53529,0.0365374,0.234218,0.256228,-3.11,0.0673567,0.165084
6.54333,0.0365374,0.234218,0.256228,-3.11,0.0673567,0.165084
6.55128,0.0365374,0.234218,0.256228,-3.11,0.0673567,0.165084
6.55936,0.0365374,0.234218,0.256228,-3.11,0.0673567,0.165084
6.56745,0.0365374,0.234218,0.256228,-3.11,0.0673567,0.165084
6.57537,0.0365374,0.234218,0.256228,-3.11,0.0673567,0.165084
6.58338,0.0365374,0.234218,0.256228,-3.11,0.0673567,0.165084
6.59136,0.0365374,0.234218,0.256228,-3.11,0.0673567,0.165084
6.59934,0.0365374,0.234218,0.256228,-3.11,0.0673567,0.165084
6.60728,0.0365311,0.234223,0.256238,-3.10999,0.0673837,0.165062
6.61533,0.0365311,0.234223,0.256238,-3.10999,0.0673837,0.165062
6.62338,0.0365311,0.234223,0.256238,-3.10999,0.0673837,0.165062
6.63128,0.0365311,0.234223,0.256238,-3.10999,0.0673837,0.165062
6.63937,0.0365311,0.234223,0.256238,-3.10999,0.0673837,0.165062
6.64744,0.0365311,0.234223,0.256238,-3.10999,0.0673837,0.165062
6.6554,0.0365311,0.234223,0.256238,-3.10999,0.0673837,0.165062
6.66343,0.0365311,0.234223,0.256238,-3.10999,0.0673837,0.165062
6.67145,0.0365311,0.234223,0.256238,-3.10999,0.0673837,0.165062
6.67936,0.0365311,0.234223,0.256238,-3.10999,0.0673837,0.165062
6.68744,0.0365311,0.234223,0.256238,-3.10999,0.0673837,0.165062
6.69536,0.0365311,0.234223,0.256238,-3.10999,0.0673837,0.165062
6.70328,0.0365373,0.234222,0.256214,-3.11006,0.067337,0.165056
6.71123,0.0365373,0.234222,0.256214,-3.11006,0.067337,0.165056
6.71938,0.0365373,0.234222,0.256214,-3.11006,0.067337,0.165056
6.72729,0.0365373,0.234222,0.256214,-3.11006,0.067337,0.165056
6.73527,0.0365373,0.234222,0.256214,-3.11006,0.067337,0.165056
6.7433,0.0365373,0.234222,0.256214,-3.11006,0.067337,0.165056
6.75134,0.0365373,0.234222,0.256214,-3.11006,0.067337,0.165056
6.75937,0.0365373,0.234222,0.256214,-3.11006,0.067337,0.165056
6.76744,0.0365373,0.234222,0.256214,-3.11006,0.067337,0.165056
6.77536,0.0365373,0.234222,0.256214,-3.11006,0.067337,0.165056
6.78339,0.0365373,0.234222,0.256214,-3.11006,0.067337,0.165056
6.79135,0.0365373,0.234222,0.256214,-3.11006,0.067337,0.165056
6.79932,0.0365373,0.234222,0.256214,-3.11006,0.067337,0.165056
6.80726,0.0365361,0.234214,0.256219,-3.11005,0.0673504,0.165069
6.81533,0.0365361,0.234214,0.256219,-3.11005,0.0673504,0.165069
6.82335,0.0365361,0.234214,0.256219,-3.11005,0.0673504,0.165069
6.83123,0.0365361,0.234214,0.256219,-3.11005,0.0673504,0.165069
6.83933,0.0365361,0.234214,0.256219,-3.11005,0.0673504,0.165069
6.84728,0.0365361,0.234214,0.256219,-3.11005,0.0673504,0.165069
6.85536,0.0365361,0.234214,0.256219,-3.11005,0.0673504,0.165069
6.86335,0.0365361,0.234214,0.256219,-3.11005,0.0673504,0.165069
6.87139,0.0365361,0.234214,0.256219,-3.11005,0.0673504,0.165069
6.87938,0.0365361,0.234214,0.256219,-3.11005,0.0673504,0.165069
6.8874,0.0365361,0.234214,0.256219,-3.11005,0.0673504,0.165069
6.89535,0.0365361,0.234214,0.256219,-3.11005,0.0673504,0.165069
6.90332,0.036536,0.234215,0.256227,-3.10999,0.0673587,0.165085
6.91127,0.036536,0.234215,0.256227,-3.10999,0.0673587,0.165085
6.91939,0.036536,0.234215,0.256227,-3.10999,0.0673587,0.165085
6.92736,0.036536,0.234215,0.256227,-3.10999,0.0673587,0.165085
6.93533,0.036536,0.234215,0.256227,-3.10999,0.0673587,0.165085
6.94336,0.036536,0.234215,0.256227,-3.10999,0.0673587,0.165085
6.95148,0.036536,0.234215,0.256227,-3.10999,0.0673587,0.165085
6.95942,0.036536,0.234215,0.256227,-3.10999,0.0673587,0.165085
6.96747,0.036536,0.234215,0.256227,-3.10999,0.0673587,0.165085
6.9754,0.036536,0.234215,0.256227,-3.10999,0.0673587,0.165085
6.98332,0.036536,0.234215,0.256227,-3.10999,0.0673587,0.165085
6.9913,0.036536,0.234215,0.256227,-3.10999,0.0673587,0.165085
6.9993,0.036536,0.234215,0.256227,-3.10999,0.0673587,0.165085
7.00727,0.0365372,0.234221,0.256221,-3.11004,0.0673757,0.165071
7.01534,0.0365372,0.234221,0.256221,-3.11004,0.0673757,0.165071
7.02339,0.0365372,0.234221,0.256221,-3.11004,0.0673757,0.165071
7.03133,0.0365372,0.234221,0.256221,-3.11004,0.0673757,0.165071
7.03937,0.0365372,0.234221,0.256221,-3.11004,0.0673757,0.165071
7.04743,0.0365372,0.234221,0.256221,-3.11004,0.0673757,0.165071
7.0554,0.0365372,0.234221,0.256221,-3.11004,0.0673757,0.165071
7.06336,0.0365372,0.234221,0.256221,-3.11004,0.0673757,0.165071
7.07139,0.0365372,0.234221,0.256221,-3.11004,0.0673757,0.165071
7.07941,0.0365372,0.234221,0.256221,-3.11004,0.0673757,0.165071
7.08736,0.0365372,0.234221,0.256221,-3.11004,0.0673757,0.165071
7.09538,0.0365372,0.234221,0.256221,-3.11004,0.0673757,0.165071
7.10327,0.0365248,0.234223,0.256235,-3.10999,0.067333,0.165143
7.1112,0.0365248,0.234223,0.256235,-3.10999,0.067333,0.165143
7.11933,0.0365248,0.234223,0.256235,-3.10999,0.067333,0.165143
7.12729,0.0365248,0.234223,0.256235,-3.10999,0.067333,0.165143
7.13525,0.0365248,0.234223,0.256235,-3.10999,0.067333,0.165143
7.14331,0.0365248,0.234223,0.256235,-3.10999,0.067333,0.165143
7.15129,0.0365248,0.234223,0.256235,-3.10999,0.067333,0.165143
7.15932,0.0365248,0.234223,0.256235,-3.10999,0.067333,0.165143
7.16741,0.0365248,0.234223,0.256235,-3.10999,0.067333,0.165143
7.17538,0.0365248,0.234223,0.256235,-3.10999,0.067333,0.165143
7.18334,0.0365248,0.234223,0.256235,-3.10999,0.067333,0.165143
7.19138,0.0365248,0.234223,0.256235,-3.10999,0.067333,0.165143
7.19939,0.0365248,0.234223,0.256235,-3.10999,0.067333,0.165143
7.20731,0.0365311,0.234218,0.25622,-3.11002,0.0673648,0.165119
7.21528,0.0365311,0.234218,0.25622,-3.11002,0.0673648,0.165119
7.22344,0.0365311,0.234218,0.25622,-3.11002,0.0673648,0.165119
7.23137,0.0365311,0.234218,0.25622,-3.11002,0.0673648,0.165119
7.23935,0.0365311,0.234218,0.25622,-3.11002,0.0673648,0.165119
7.24747,0.0365311,0.234218,0.25622,-3.11002,0.0673648,0.165119
7.25532,0.0365311,0.234218,0.25622,-3.11002,0.0673648,0.165119
7.26338,0.0365311,0.234218,0.25622,-3.11002,0.0673648,0.165119
7.27141,0.0365311,0.234218,0.25622,-3.11002,0.0673648,0.165119
7.27938,0.0365311,0.234218,0.25622,-3.11002,0.0673648,0.165119
7.28738,0.0365311,0.234218,0.25622,-3.11002,0.0673648,0.165119
7.29538,0.0365311,0.234218,0.25622,-3.11002,0.0673648,0.165119
7.30337,0.0365287,0.234221,0.256223,-3.11004,0.0673493,0.165129
7.3112,0.0365287,0.234221,0.256223,-3.11004,0.0673493,0.165129
7.31925,0.0365287,0.234221,0.256223,-3.11004,0.0673493,0.165129
7.3273,0.0365287,0.234221,0.256223,-3.11004,0.0673493,0.165129
7.33526,0.0365287,0.234221,0.256223,-3.11004,0.0673493,0.165129
7.34333,0.0365287,0.234221,0.256223,-3.11004,0.0673493,0.165129
7.35133,0.0365287,0.234221,0.256223,-3.11004,0.0673493,0.165129
7.35937,0.0365287,0.234221,0.256223,-3.11004,0.0673493,0.165129
7.36739,0.0365287,0.234221,0.256223,-3.11004,0.0673493,0.165129
7.3754,0.0365287,0.234221,0.256223,-3.11004,0.0673493,0.165129
7.38335,0.0365287,0.234221,0.256223,-3.11004,0.0673493,0.165129
7.39136,0.0365287,0.234221,0.256223,-3.11004,0.0673493,0.165129
7.39933,0.0365396,0.234216,0.256231,-3.10999,0.0673706,0.165061
7.4073,0.0365396,0.234216,0.256231,-3.10999,0.0673706,0.165061
7.41527,0.0365396,0.234216,0.256231,-3.10999,0.0673706,0.165061
7.42335,0.0365396,0.234216,0.256231,-3.10999,0.0673706,0.165061
7.4313,0.0365396,0.234216,0.256231,-3.10999,0.0673706,0.165061
7.43929,0.0365396,0.234216,0.256231,-3.10999,0.0673706,0.165061
7.44737,0.0365396,0.234216,0.256231,-3.10999,0.0673706,0.165061
7.45531,0.0365396,0.234216,0.256231,-3.10999,0.0673706,0.165061
7.46339,0.0365396,0.234216,0.256231,-3.10999,0.0673706,0.165061
7.4714,0.0365396,0.234216,0.256231,-3.10999,0.0673706,0.165061
7.47936,0.0365396,0.234216,0.256231,-3.10999,0.0673706,0.165061
7.48735,0.0365396,0.234216,0.256231,-3.10999,0.0673706,0.165061
7.49536,0.0365396,0.234216,0.256231,-3.10999,0.0673706,0.165061
7.5033,0.0365399,0.23422,0.256217,-3.11006,0.0673109,0.165078
7.51124,0.0365399,0.23422,0.256217,-3.11006,0.0673109,0.165078
7.51932,0.0365399,0.23422,0.256217,-3.11006,0.0673109,0.165078
7.52733,0.0365399,0.23422,0.256217,-3.11006,0.0673109,0.165078
7.53529,0.0365399,0.23422,0.256217,-3.11006,0.0673109,0.165078
7.54332,0.0365399,0.23422,0.256217,-3.11006,0.0673109,0.165078
7.55128,0.0365399,0.23422,0.256217,-3.11006,0.0673109,0.165078
7.55938,0.0365399,0.23422,0.256217,-3.11006,0.0673109,0.165078
7.5673,0.0365399,0.23422,0.256217,-3.11006,0.0673109,0.165078
7.57537,0.0365399,0.23422,0.256217,-3.11006,0.0673109,0.165078
7.58335,0.0365399,0.23422,0.256217,-3.11006,0.0673109,0.165078
7.59129,0.0365399,0.23422,0.256217,-3.11006,0.0673109,0.165078
7.59928,0.0365399,0.23422,0.256217,-3.11006,0.0673109,0.165078
7.60728,0.0365252,0.234223,0.256222,-3.11005,0.0673501,0.165117
7.61525,0.0365252,0.234223,0.256222,-3.11005,0.0673501,0.165117
7.62333,0.0365252,0.234223,0.256222,-3.11005,0.0673501,0.165117
7.63132,0.0365252,0.234223,0.256222,-3.11005,0.0673501,0.165117
7.63931,0.0365252,0.234223,0.256222,-3.11005,0.0673501,0.165117
7.64732,0.0365252,0.234223,0.256222,-3.11005,0.0673501,0.165117
7.65536,0.0365252,0.234223,0.256222,-3.11005,0.0673501,0.165117
7.6633,0.0365252,0.234223,0.256222,-3.11005,0.0673501,0.165117
7.67141,0.0365252,0.234223,0.256222,-3.11005,0.0673501,0.165117
7.67936,0.0365252,0.234223,0.256222,-3.11005,0.0673501,0.165117
7.68735,0.0365252,0.234223,0.256222,-3.11005,0.0673501,0.165117
7.69533,0.0365252,0.234223,0.256222,-3.11005,0.0673501,0.165117
7.70327,0.0365218,0.234227,0.256248,-3.10994,0.0673903,0.165113
7.71119,0.0365218,0.234227,0.256248,-3.10994,0.0673903,0.165113
7.71929,0.0365218,0.234227,0.256248,-3.10994,0.0673903,0.165113
7.72729,0.0365218,0.234227,0.256248,-3.10994,0.0673903,0.165113
7.73522,0.0365218,0.234227,0.256248,-3.10994,0.0673903,0.165113
7.74328,0.0365218,0.234227,0.256248,-3.10994,0.0673903,0.165113
7.75132,0.0365218,0.234227,0.256248,-3.10994,0.0673903,0.165113
7.75932,0.0365218,0.234227,0.256248,-3.10994,0.0673903,0.165113
7.76731,0.0365218,0.234227,0.256248,-3.10994,0.0673903,0.165113
7.7754,0.0365218,0.234227,0.256248,-3.10994,0.0673903,0.165113
7.7833,0.0365218,0.234227,0.256248,-3.10994,0.0673903,0.165113
7.79131,0.0365218,0.234227,0.256248,-3.10994,0.0673903,0.165113
7.79939,0.0365218,0.234227,0.256248,-3.10994,0.0673903,0.165113
7.80726,0.0365323,0.234221,0.256231,-3.10999,0.0673473,0.165084
7.81525,0.0365323,0.234221,0.256231,-3.10999,0.0673473,0.165084
7.82341,0.0365323,0.234221,0.256231,-3.10999,0.0673473,0.165084
7.83135,0.0365323,0.234221,0.256231,-3.10999,0.0673473,0.165084
7.83932,0.0365323,0.234221,0.256231,-3.10999,0.0673473,0.165084
7.8473,0.0365323,0.234221,0.256231,-3.10999,0.0673473,0.165084
7.85538,0.0365323,0.234221,0.256231,-3.10999,0.0673473,0.165084
7.86334,0.0365323,0.234221,0.256231,-3.10999,0.0673473,0.165084
7.87143,0.0365323,0.234221,0.256231,-3.10999,0.0673473,0.165084
7.87939,0.0365323,0.234221,0.256231,-3.10999,0.0673473,0.165084
7.88735,0.0365323,0.234221,0.256231,-3.10999,0.0673473,0.165084
7.89532,0.0365323,0.234221,0.256231,-3.10999,0.0673473,0.165084
7.90331,0.0365386,0.234218,0.256227,-3.11001,0.0673435,0.165071
7.91119,0.0365386,0.234218,0.256227,-3.11001,0.0673435,0.165071
7.91927,0.0365386,0.234218,0.256227,-3.11001,0.0673435,0.165071
7.92729,0.0365386,0.234218,0.256227,-3.11001,0.0673435,0.165071
7.93532,0.0365386,0.234218,0.256227,-3.11001,0.0673435,0.165071
7.94329,0.0365386,0.234218,0.256227,-3.11001,0.0673435,0.165071
7.95133,0.0365386,0.234218,0.256227,-3.11001,0.0673435,0.165071
7.95933,0.0365386,0.234218,0.256227,-3.11001,0.0673435,0.165071
7.96731,0.0365386,0.234218,0.256227,-3.11001,0.0673435,0.165071
7.97535,0.0365386,0.234218,0.256227,-3.11001,0.0673435,0.165071
7.98334,0.0365386,0.234218,0.256227,-3.11001,0.0673435,0.165071
7.99132,0.0365386,0.234218,0.256227,-3.11001,0.0673435,0.165071
7.9993,0.0365386,0.234218,0.256227,-3.11001,0.0673435,0.165071
8.00723,0.036529,0.234222,0.256216,-3.11007,0.0673702,0.165116
8.01522,0.036529,0.234222,0.256216,-3.11007,0.0673702,0.165116
8.02331,0.036529,0.234222,0.256216,-3.11007,0.0673702,0.165116
8.03124,0.036529,0.234222,0.256216,-3.11007,0.0673702,0.165116
8.03923,0.036529,0.234222,0.256216,-3.11007,0.0673702,0.165116
8.04728,0.036529,0.234222,0.256216,-3.11007,0.0673702,0.165116
8.05531,0.036529,0.234222,0.256216,-3.11007,0.0673702,0.165116
8.06326,0.036529,0.234222,0.256216,-3.11007,0.0673702,0.165116
8.07137,0.036529,0.234222,0.256216,-3.11007,0.0673702,0.165116
8.07934,0.036529,0.234222,0.256216,-3.11007,0.0673702,0.165116
8.08732,0.036529,0.234222,0.256216,-3.11007,0.0673702,0.165116
8.09529,0.036529,0.234222,0.256216,-3.11007,0.0673702,0.165116
8.10336,0.0365306,0.234223,0.256226,-3.11001,0.0673557,0.165083
8.11125,0.0365306,0.234223,0.256226,-3.11001,0.0673557,0.165083
8.11933,0.0365306,0.234223,0.256226,-3.11001,0.0673557,0.165083
8.12729,0.0365306,0.234223,0.256226,-3.11001,0.0673557,0.165083
8.13528,0.0365306,0.234223,0.256226,-3.11001,0.0673557,0.165083
8.14333,0.0365306,0.234223,0.256226,-3.11001,0.0673557,0.165083
8.15134,0.0365306,0.234223,0.256226,-3.11001,0.0673557,0.165083
8.15929,0.0365306,0.234223,0.256226,-3.11001,0.0673557,0.165083
8.16731,0.0365306,0.234223,0.256226,-3.11001,0.0673557,0.165083
8.17538,0.0365306,0.234223,0.256226,-3.11001,0.0673557,0.165083
8.18333,0.0365306,0.234223,0.256226,-3.11001,0.0673557,0.165083
8.19135,0.0365306,0.234223,0.256226,-3.11001,0.0673557,0.165083
8.19933,0.0365306,0.234223,0.256226,-3.11001,0.0673557,0.165083
8.20722,0.0365425,0.234218,0.25623,-3.10998,0.0673961,0.165051
8.21519,0.0365425,0.234218,0.25623,-3.10998,0.0673961,0.165051
8.22329,0.0365425,0.234218,0.25623,-3.10998,0.0673961,0.165051
8.23129,0.0365425,0.234218,0.25623,-3.10998,0.0673961,0.165051
8.2393,0.0365425,0.234218,0.25623,-3.10998,0.0673961,0.165051
8.24731,0.0365425,0.234218,0.25623,-3.10998,0.0673961,0.165051
8.25535,0.0365425,0.234218,0.25623,-3.10998,0.0673961,0.165051
8.26332,0.0365425,0.234218,0.25623,-3.10998,0.0673961,0.165051
8.27142,0.0365425,0.234218,0.25623,-3.10998,0.0673961,0.165051
8.27929,0.0365425,0.234218,0.25623,-3.10998,0.0673961,0.165051
8.28731,0.0365425,0.234218,0.25623,-3.10998,0.0673961,0.165051
8.29528,0.0365425,0.234218,0.25623,-3.10998,0.0673961,0.165051
8.30318,0.0365297,0.234223,0.256221,-3.11003,0.0673635,0.165106
8.3112,0.0365297,0.234223,0.256221,-3.11003,0.0673635,0.165106
8.31928,0.0365297,0.234223,0.256221,-3.11003,0.0673635,0.165106
8.32728,0.0365297,0.234223,0.256221,-3.11003,0.0673635,0.165106
8.33523,0.0365297,0.234223,0.256221,-3.11003,0.0673635,0.165106
8.34327,0.0365297,0.234223,0.256221,-3.11003,0.0673635,0.165106
8.35128,0.0365297,0.234223,0.256221,-3.11003,0.0673635,0.165106
8.35932,0.0365297,0.234223,0.256221,-3.11003,0.0673635,0.165106
8.36729,0.0365297,0.234223,0.256221,-3.11003,0.0673635,0.165106
8.37535,0.0365297,0.234223,0.256221,-3.11003,0.0673635,0.165106
8.3833,0.0365297,0.234223,0.256221,-3.11003,0.0673635,0.165106
8.39135,0.0365297,0.234223,0.256221,-3.11003,0.0673635,0.165106
8.39932,0.0365297,0.234223,0.256221,-3.11003,0.0673635,0.165106
8.40726,0.0365306,0.234225,0.256228,-3.11001,0.06738,0.165072
8.41521,0.0365306,0.234225,0.256228,-3.11001,0.06738,0.165072
8.42331,0.0365306,0.234225,0.256228,-3.11001,0.06738,0.165072
8.4313,0.0365306,0.234225,0.256228,-3.11001,0.06738,0.165072
8.43936,0.0365306,0.234225,0.256228,-3.11001,0.06738,0.165072
8.44731,0.0365306,0.234225,0.256228,-3.11001,0.06738,0.165072
8.45532,0.0365306,0.234225,0.256228,-3.11001,0.06738,0.165072
8.46326,0.0365306,0.234225,0.256228,-3.11001,0.06738,0.165072
8.47137,0.0365306,0.234225,0.256228,-3.11001,0.06738,0.165072
8.47934,0.0365306,0.234225,0.256228,-3.11001,0.06738,0.165072
8.48731,0.0365306,0.234225,0.256228,-3.11001,0.06738,0.165072
8.49532,0.0365306,0.234225,0.256228,-3.11001,0.06738,0.165072
8.50327,0.0365353,0.234217,0.25623,-3.11,0.067357,0.165084
8.51116,0.0365353,0.234217,0.25623,-3.11,0.067357,0.165084
8.5192,0.0365353,0.234217,0.25623,-3.11,0.067357,0.165084
8.52728,0.0365353,0.234217,0.25623,-3.11,0.067357,0.165084
8.53525,0.0365353,0.234217,0.25623,-3.11,0.067357,0.165084
8.54322,0.0365353,0.234217,0.25623,-3.11,0.067357,0.165084
8.55129,0.0365353,0.234217,0.25623,-3.11,0.067357,0.165084
8.55931,0.0365353,0.234217,0.25623,-3.11,0.067357,0.165084
8.56728,0.0365353,0.234217,0.25623,-3.11,0.067357,0.165084
8.57538,0.0365353,0.234217,0.25623,-3.11,0.067357,0.165084
8.58331,0.0365353,0.234217,0.25623,-3.11,0.067357,0.165084
8.59134,0.0365353,0.234217,0.25623,-3.11,0.067357,0.165084
8.59929,0.0365353,0.234217,0.25623,-3.11,0.067357,0.165084
8.60724,0.0365299,0.234222,0.256222,-3.11005,0.067362,0.165093
8.61515,0.0365299,0.234222,0.256222,-3.11005,0.067362,0.165093
8.62328,0.0365299,0.234222,0.256222,-3.11005,0.067362,0.165093
8.63127,0.0365299,0.234222,0.256222,-3.11005,0.067362,0.165093
8.63927,0.0365299,0.234222,0.256222,-3.11005,0.067362,0.165093
8.64729,0.0365299,0.234222,0.256222,-3.11005,0.067362,0.165093
8.65528,0.0365299,0.234222,0.256222,-3.11005,0.067362,0.165093
8.66333,0.0365299,0.234222,0.256222,-3.11005,0.067362,0.165093
8.67134,0.0365299,0.234222,0.256222,-3.11005,0.067362,0.165093
8.67932,0.0365299,0.234222,0.256222,-3.11005,0.067362,0.165093
8.68729,0.0365299,0.234222,0.256222,-3.11005,0.067362,0.165093
8.6953,0.0365299,0.234222,0.256222,-3.11005,0.067362,0.165093
8.7032,0.0365419,0.234222,0.256224,-3.11001,0.0673203,0.165046
8.71123,0.0365419,0.234222,0.256224,-3.11001,0.0673203,0.165046
8.71937,0.0365419,0.234222,0.256224,-3.11001,0.0673203,0.165046
8.72739,0.0365419,0.234222,0.256224,-3.11001,0.0673203,0.165046
8.73535,0.0365419,0.234222,0.256224,-3.11001,0.0673203,0.165046
8.74331,0.0365419,0.234222,0.256224,-3.11001,0.0673203,0.165046
8.7513,0.0365419,0.234222,0.256224,-3.11001,0.0673203,0.165046
8.75929,0.0365419,0.234222,0.256224,-3.11001,0.0673203,0.165046
8.76732,0.0365419,0.234222,0.256224,-3.11001,0.0673203,0.165046
8.77531,0.0365419,0.234222,0.256224,-3.11001,0.0673203,0.165046
8.78324,0.0365419,0.234222,0.256224,-3.11001,0.0673203,0.165046
8.79125,0.0365295,0.234218,0.256232,-3.11,0.0673573,0.165096
8.79919,0.0365295,0.234218,0.256232,-3.11,0.0673573,0.165096
8.80755,0.0365327,0.234226,0.25623,-3.11002,0.0673775,0.165083
8.81515,0.0365327,0.234226,0.25623,-3.11002,0.0673775,0.165083
8.82323,0.0365327,0.234226,0.25623,-3.11002,0.0673775,0.165083
8.83127,0.0365327,0.234226,0.25623,-3.11002,0.0673775,0.165083
8.83923,0.0365327,0.234226,0.25623,-3.11002,0.0673775,0.165083
8.84723,0.0365327,0.234226,0.25623,-3.11002,0.0673775,0.165083
8.85526,0.0365327,0.234226,0.25623,-3.11002,0.0673775,0.165083
8.86327,0.0365327,0.234226,0.25623,-3.11002,0.0673775,0.165083
8.87131,0.0365327,0.234226,0.25623,-3.11002,0.0673775,0.165083
8.87929,0.0365327,0.234226,0.25623,-3.11002,0.0673775,0.165083
8.88725,0.0365327,0.234226,0.25623,-3.11002,0.0673775,0.165083
8.89527,0.0365327,0.234226,0.25623,-3.11002,0.0673775,0.165083
8.90318,0.0365355,0.234221,0.256235,-3.10998,0.0673724,0.165074
8.91116,0.0365355,0.234221,0.256235,-3.10998,0.0673724,0.165074
8.91919,0.0365355,0.234221,0.256235,-3.10998,0.0673724,0.165074
8.92728,0.0365355,0.234221,0.256235,-3.10998,0.0673724,0.165074
8.93532,0.0365355,0.234221,0.256235,-3.10998,0.0673724,0.165074
8.94329,0.0365355,0.234221,0.256235,-3.10998,0.0673724,0.165074
8.95133,0.0365355,0.234221,0.256235,-3.10998,0.0673724,0.165074
8.95934,0.0365355,0.234221,0.256235,-3.10998,0.0673724,0.165074
8.96727,0.0365355,0.234221,0.256235,-3.10998,0.0673724,0.165074
8.97539,0.0365355,0.234221,0.256235,-3.10998,0.0673724,0.165074
8.98328,0.0365355,0.234221,0.256235,-3.10998,0.0673724,0.165074
8.99126,0.0365355,0.234221,0.256235,-3.10998,0.0673724,0.165074
8.99931,0.0365355,0.234221,0.256235,-3.10998,0.0673724,0.165074
9.00723,0.0365315,0.234219,0.256229,-3.10999,0.0673947,0.165086
9.01524,0.0365315,0.234219,0.256229,-3.10999,0.0673947,0.165086
9.02335,0.0365315,0.234219,0.256229,-3.10999,0.0673947,0.165086
9.0313,0.0365315,0.234219,0.256229,-3.10999,0.0673947,0.165086
9.03928,0.0365315,0.234219,0.256229,-3.10999,0.0673947,0.165086
9.04722,0.0365315,0.234219,0.256229,-3.10999,0.0673947,0.165086
9.0553,0.0365315,0.234219,0.256229,-3.10999,0.0673947,0.165086
9.06332,0.0365315,0.234219,0.256229,-3.10999,0.0673947,0.165086
9.07139,0.0365315,0.234219,0.256229,-3.10999,0.0673947,0.165086
9.07936,0.0365315,0.234219,0.256229,-3.10999,0.0673947,0.165086
9.08725,0.0365315,0.234219,0.256229,-3.10999,0.0673947,0.165086
9.09528,0.0365315,0.234219,0.256229,-3.10999,0.0673947,0.165086
9.1033,0.0365276,0.234224,0.256239,-3.10996,0.0673626,0.165098
9.11117,0.0365276,0.234224,0.256239,-3.10996,0.0673626,0.165098
9.11926,0.0365276,0.234224,0.256239,-3.10996,0.0673626,0.165098
9.12738,0.0365276,0.234224,0.256239,-3.10996,0.0673626,0.165098
9.1353,0.0365276,0.234224,0.256239,-3.10996,0.0673626,0.165098
9.14336,0.0365276,0.234224,0.256239,-3.10996,0.0673626,0.165098
9.15132,0.0365276,0.234224,0.256239,-3.10996,0.0673626,0.165098
9.1593,0.0365276,0.234224,0.256239,-3.10996,0.0673626,0.165098
9.16729,0.0365276,0.234224,0.256239,-3.10996,0.0673626,0.165098
9.17534,0.0365276,0.234224,0.256239,-3.10996,0.0673626,0.165098
9.18328,0.0365276,0.234224,0.256239,-3.10996,0.0673626,0.165098
9.19127,0.0365276,0.234224,0.256239,-3.10996,0.0673626,0.165098
9.19927,0.0365276,0.234224,0.256239,-3.10996,0.0673626,0.165098
9.20729,0.0365274,0.234226,0.256231,-3.11,0.0673802,0.165133
9.2151,0.0365274,0.234226,0.256231,-3.11,0.0673802,0.165133
9.22323,0.0365274,0.234226,0.256231,-3.11,0.0673802,0.165133
9.23126,0.0365274,0.234226,0.256231,-3.11,0.0673802,0.165133
9.23924,0.0365274,0.234226,0.256231,-3.11,0.0673802,0.165133
9.24725,0.0365274,0.234226,0.256231,-3.11,0.0673802,0.165133
9.25531,0.0365274,0.234226,0.256231,-3.11,0.0673802,0.165133
9.26329,0.0365274,0.234226,0.256231,-3.11,0.0673802,0.165133
9.27136,0.0365274,0.234226,0.256231,-3.11,0.0673802,0.165133
9.27934,0.0365274,0.234226,0.256231,-3.11,0.0673802,0.165133
9.28736,0.0365274,0.234226,0.256231,-3.11,0.0673802,0.165133
9.29531,0.0365274,0.234226,0.256231,-3.11,0.0673802,0.165133
9.3032,0.0365358,0.234222,0.256222,-3.11006,0.0673844,0.165057
9.31121,0.0365358,0.234222,0.256222,-3.11006,0.0673844,0.165057
9.31927,0.0365358,0.234222,0.256222,-3.11006,0.0673844,0.165057
9.32736,0.0365358,0.234222,0.256222,-3.11006,0.0673844,0.165057
9.33529,0.0365358,0.234222,0.256222,-3.11006,0.0673844,0.165057
9.3433,0.0365358,0.234222,0.256222,-3.11006,0.0673844,0.165057
9.35127,0.0365358,0.234222,0.256222,-3.11006,0.0673844,0.165057
9.35932,0.0365358,0.234222,0.256222,-3.11006,0.0673844,0.165057
9.36731,0.0365358,0.234222,0.256222,-3.11006,0.0673844,0.165057
9.37532,0.0365358,0.234222,0.256222,-3.11006,0.0673844,0.165057
9.38328,0.0365358,0.234222,0.256222,-3.11006,0.0673844,0.165057
9.3913,0.0365358,0.234222,0.256222,-3.11006,0.0673844,0.165057
9.39926,0.0365358,0.234222,0.256222,-3.11006,0.0673844,0.165057
9.40718,0.0365349,0.234218,0.256217,-3.11006,0.0673483,0.16508
9.41512,0.0365349,0.234218,0.256217,-3.11006,0.0673483,0.16508
9.4232,0.0365349,0.234218,0.256217,-3.11006,0.0673483,0.16508
9.43123,0.0365349,0.234218,0.256217,-3.11006,0.0673483,0.16508
9.43916,0.0365349,0.234218,0.256217,-3.11006,0.0673483,0.16508
9.44723,0.0365349,0.234218,0.256217,-3.11006,0.0673483,0.16508
9.45528,0.0365349,0.234218,0.256217,-3.11006,0.0673483,0.16508
9.46321,0.0365349,0.234218,0.256217,-3.11006,0.0673483,0.16508
9.47124,0.0365349,0.234218,0.256217,-3.11006,0.0673483,0.16508
9.47928,0.0365349,0.234218,0.256217,-3.11006,0.0673483,0.16508
9.48726,0.0365349,0.234218,0.256217,-3.11006,0.0673483,0.16508
9.49519,0.0365349,0.234218,0.256217,-3.11006,0.0673483,0.16508
9.50325,0.0365346,0.234217,0.256246,-3.10994,0.067402,0.165065
9.51123,0.0365346,0.234217,0.256246,-3.10994,0.067402,0.165065
9.5192,0.0365346,0.234217,0.256246,-3.10994,0.067402,0.165065
9.52731,0.0365346,0.234217,0.256246,-3.10994,0.067402,0.165065
9.53528,0.0365346,0.234217,0.256246,-3.10994,0.067402,0.165065
9.54325,0.0365346,0.234217,0.256246,-3.10994,0.067402,0.165065
9.55124,0.0365346,0.234217,0.256246,-3.10994,0.067402,0.165065
9.55926,0.0365346,0.234217,0.256246,-3.10994,0.067402,0.165065
9.56726,0.0365346,0.234217,0.256246,-3.10994,0.067402,0.165065
9.57531,0.0365346,0.234217,0.256246,-3.10994,0.067402,0.165065
9.58326,0.0365346,0.234217,0.256246,-3.10994,0.067402,0.165065
9.59127,0.0365346,0.234217,0.256246,-3.10994,0.067402,0.165065
9.59926,0.0365346,0.234217,0.256246,-3.10994,0.067402,0.165065
9.60718,0.0365342,0.234222,0.256231,-3.11003,0.0673778,0.165071
9.61522,0.0365342,0.234222,0.256231,-3.11003,0.0673778,0.165071
9.62326,0.0365342,0.234222,0.256231,-3.11003,0.0673778,0.165071
9.63127,0.0365342,0.234222,0.256231,-3.11003,0.0673778,0.165071
9.63923,0.0365342,0.234222,0.256231,-3.11003,0.0673778,0.165071
9.6472,0.0365342,0.234222,0.256231,-3.11003,0.0673778,0.165071
9.65533,0.0365342,0.234222,0.256231,-3.11003,0.0673778,0.165071
9.66323,0.0365342,0.234222,0.256231,-3.11003,0.0673778,0.165071
9.67126,0.0365342,0.234222,0.256231,-3.11003,0.0673778,0.165071
9.67934,0.0365342,0.234222,0.256231,-3.11003,0.0673778,0.165071
9.68726,0.0365342,0.234222,0.256231,-3.11003,0.0673778,0.165071
9.69533,0.0365342,0.234222,0.256231,-3.11003,0.0673778,0.165071
9.70328,0.0365326,0.234223,0.25623,-3.10998,0.0673355,0.165084
9.71112,0.0365326,0.234223,0.25623,-3.10998,0.0673355,0.165084
9.7191,0.0365326,0.234223,0.25623,-3.10998,0.0673355,0.165084
9.72723,0.0365326,0.234223,0.25623,-3.10998,0.0673355,0.165084
9.73525,0.0365326,0.234223,0.25623,-3.10998,0.0673355,0.165084
9.74322,0.0365326,0.234223,0.25623,-3.10998,0.0673355,0.165084
9.75127,0.0365326,0.234223,0.25623,-3.10998,0.0673355,0.165084
9.75927,0.0365326,0.234223,0.25623,-3.10998,0.0673355,0.165084
9.76727,0.0365326,0.234223,0.25623,-3.10998,0.0673355,0.165084
9.77526,0.0365326,0.234223,0.25623,-3.10998,0.0673355,0.165084
9.78324,0.0365326,0.234223,0.25623,-3.10998,0.0673355,0.165084
9.79124,0.0365326,0.234223,0.25623,-3.10998,0.0673355,0.165084
9.79922,0.0365326,0.234223,0.25623,-3.10998,0.0673355,0.165084
9.80715,0.0365311,0.234221,0.25624,-3.10996,0.0673618,0.16511
9.81517,0.0365311,0.234221,0.25624,-3.10996,0.0673618,0.16511
9.82326,0.0365311,0.234221,0.25624,-3.10996,0.0673618,0.16511
9.83131,0.0365311,0.234221,0.25624,-3.10996,0.0673618,0.16511
9.83924,0.0365311,0.234221,0.25624,-3.10996,0.0673618,0.16511
9.84722,0.0365311,0.234221,0.25624,-3.10996,0.0673618,0.16511
9.85525,0.0365311,0.234221,0.25624,-3.10996,0.0673618,0.16511
9.86327,0.0365311,0.234221,0.25624,-3.10996,0.0673618,0.16511
9.8713,0.0365311,0.234221,0.25624,-3.10996,0.0673618,0.16511
9.87933,0.0365311,0.234221,0.25624,-3.10996,0.0673618,0.16511
9.88724,0.0365311,0.234221,0.25624,-3.10996,0.0673618,0.16511
9.89524,0.0365311,0.234221,0.25624,-3.10996,0.0673618,0.16511
9.90317,0.036527,0.234229,0.256244,-3.10994,0.0673544,0.1651
9.91121,0.036527,0.234229,0.256244,-3.10994,0.0673544,0.1651
9.9192,0.036527,0.234229,0.256244,-3.10994,0.0673544,0.1651
9.92732,0.036527,0.234229,0.256244,-3.10994,0.0673544,0.1651
9.93525,0.036527,0.234229,0.256244,-3.10994,0.0673544,0.1651
9.94323,0.036527,0.234229,0.256244,-3.10994,0.0673544,0.1651
9.95122,0.036527,0.234229,0.256244,-3.10994,0.0673544,0.1651
9.95925,0.036527,0.234229,0.256244,-3.10994,0.0673544,0.1651
9.96717,0.036527,0.234229,0.256244,-3.10994,0.0673544,0.1651
9.97527,0.036527,0.234229,0.256244,-3.10994,0.0673544,0.1651
9.98323,0.036527,0.234229,0.256244,-3.10994,0.0673544,0.1651
9.99126,0.036527,0.234229,0.256244,-3.10994,0.0673544,0.1651
9.9992,0.036527,0.234229,0.256244,-3.10994,0.0673544,0.1651
