Time,J0,J1,J2,J3,J4,J5,J6
0.294787,-1.49786,-1.3657,-1.07211,1.56956,0.210181,3.16202e-322,-2.14208
0.302691,-1.49784,-1.3657,-1.07204,1.56955,0.210205,3.16202e-322,-2.14204
0.310748,-1.49784,-1.36574,-1.07212,1.56955,0.210193,3.16202e-322,-2.14206
0.318755,-1.49786,-1.36572,-1.07213,1.56956,0.210169,3.16202e-322,-2.14209
0.326737,-1.4979,-1.36572,-1.07209,1.56961,0.210169,3.16202e-322,-2.14209
0.334853,-1.49786,-1.36575,-1.07212,1.56957,0.210169,3.16202e-322,-2.14209
0.342759,-1.49786,-1.36575,-1.07209,1.56958,0.210181,3.16202e-322,-2.1421
0.350854,-1.49785,-1.3657,-1.07209,1.56955,0.210157,3.16202e-322,-2.14208
0.358765,-1.49784,-1.36575,-1.07213,1.56957,0.210169,3.16202e-322,-2.14205
0.366799,-1.49782,-1.36574,-1.07208,1.56958,0.210193,3.16202e-322,-2.14209
0.374898,-1.49786,-1.36574,-1.07213,1.56958,0.210169,3.16202e-322,-2.14205
0.382845,-1.49788,-1.36573,-1.07211,1.56957,0.210193,3.16202e-322,-2.1421
0.390861,-1.49786,-1.36575,-1.07209,1.56956,0.210181,3.16202e-322,-2.1421
0.398819,-1.49786,-1.36574,-1.07209,1.56958,0.210181,3.16202e-322,-2.14209
0.40672,-1.49786,-1.36578,-1.07211,1.56957,0.210181,3.16202e-322,-2.14206
0.414693,-1.49785,-1.36573,-1.07208,1.56955,0.210181,3.16202e-322,-2.14208
0.422677,-1.49785,-1.36578,-1.07208,1.56954,0.210169,3.16202e-322,-2.14208
0.43075,-1.49791,-1.36573,-1.07212,1.56958,0.210157,3.16202e-322,-2.1421
0.438775,-1.49786,-1.36576,-1.07208,1.56956,0.210157,3.16202e-322,-2.1421
0.446791,-1.49787,-1.36576,-1.0721,1.56958,0.210181,3.16202e-322,-2.14209
0.454792,-1.49791,-1.36575,-1.07206,1.56956,0.210169,3.16202e-322,-2.1421
0.462837,-1.49785,-1.36576,-1.07208,1.56957,0.210193,3.16202e-322,-2.14208
0.470798,-1.49787,-1.3657,-1.07212,1.56956,0.210181,3.16202e-322,-2.14208
0.478841,-1.4979,-1.36576,-1.07215,1.56956,0.210169,3.16202e-322,-2.14208
0.486853,-1.49786,-1.36572,-1.0721,1.56958,0.210169,3.16202e-322,-2.14205
0.494925,-1.49788,-1.36574,-1.0721,1.56957,0.210157,3.16202e-322,-2.14208
0.502736,-1.49785,-1.36572,-1.0721,1.56955,0.210193,3.16202e-322,-2.14204
0.510799,-1.49786,-1.36578,-1.07209,1.56957,0.210181,3.16202e-322,-2.14206
0.518811,-1.49786,-1.36575,-1.07208,1.56957,0.210169,3.16202e-322,-2.14206
0.526842,-1.49787,-1.36575,-1.0721,1.56956,0.210169,3.16202e-322,-2.14211
0.534785,-1.49786,-1.36578,-1.0721,1.56956,0.210169,3.16202e-322,-2.14206
0.542814,-1.49784,-1.36574,-1.0721,1.56956,0.210169,3.16202e-322,-2.14208
0.550867,-1.4979,-1.36574,-1.07208,1.56956,0.210145,3.16202e-322,-2.14205
0.5588,-1.49788,-1.3657,-1.07212,1.56956,0.210169,3.16202e-322,-2.14203
0.566788,-1.49785,-1.3657,-1.07212,1.56958,0.210181,3.16202e-322,-2.14206
0.574824,-1.49788,-1.3657,-1.07212,1.56957,0.210157,3.16202e-322,-2.14205
0.582907,-1.49784,-1.36574,-1.07211,1.56958,0.210181,3.16202e-322,-2.14205
0.590843,-1.49786,-1.36575,-1.07211,1.56954,0.210157,3.16202e-322,-2.14205
0.59878,-1.4979,-1.36573,-1.07215,1.5696,0.210169,3.16202e-322,-2.14209
0.606783,-1.49786,-1.36575,-1.07209,1.56958,0.210205,3.16202e-322,-2.14208
0.614863,-1.4979,-1.36574,-1.0721,1.56958,0.210157,3.16202e-322,-2.14205
0.622792,-1.49788,-1.36573,-1.07211,1.56957,0.210169,3.16202e-322,-2.14206
0.630839,-1.49786,-1.3657,-1.07208,1.56956,0.210133,3.16202e-322,-2.14209
0.638758,-1.49788,-1.36574,-1.07212,1.56958,0.210181,3.16202e-322,-2.1421
0.646844,-1.49788,-1.36573,-1.07216,1.56958,0.210145,3.16202e-322,-2.14209
0.654805,-1.49785,-1.36572,-1.07234,1.5696,0.210157,3.16202e-322,-2.1421
0.662782,-1.49793,-1.36575,-1.0727,1.5696,0.210145,3.16202e-322,-2.14212
0.670862,-1.49792,-1.36573,-1.07301,1.56955,0.210157,3.16202e-322,-2.14209
0.678814,-1.49792,-1.36575,-1.07339,1.5696,0.210145,3.16202e-322,-2.1421
0.686862,-1.49793,-1.36573,-1.07388,1.56955,0.210145,3.16202e-322,-2.14212
0.69489,-1.49793,-1.36574,-1.07439,1.56956,0.210157,3.16202e-322,-2.14212
0.70283,-1.49796,-1.36572,-1.07472,1.56957,0.210157,3.16202e-322,-2.14218
0.710789,-1.49786,-1.36575,-1.07481,1.56954,0.210157,3.16202e-322,-2.14214
0.718841,-1.49785,-1.3657,-1.07491,1.56954,0.210181,3.16202e-322,-2.14216
0.726857,-1.4979,-1.36573,-1.07491,1.56954,0.210169,3.16202e-322,-2.14216
0.734831,-1.49797,-1.36572,-1.07499,1.56952,0.210169,3.16202e-322,-2.14218
0.742803,-1.4979,-1.36573,-1.07501,1.56956,0.210109,3.16202e-322,-2.14209
0.750844,-1.49792,-1.36575,-1.07502,1.5696,0.210145,3.16202e-322,-2.14215
0.758831,-1.49787,-1.36575,-1.07504,1.56955,0.210157,3.16202e-322,-2.14214
0.76683,-1.49791,-1.36574,-1.07506,1.56954,0.210133,3.16202e-322,-2.14215
0.774803,-1.49791,-1.36575,-1.07507,1.56954,0.210169,3.16202e-322,-2.14214
0.782885,-1.49791,-1.36576,-1.07504,1.56958,0.210169,3.16202e-322,-2.14212
0.790855,-1.4979,-1.36575,-1.07508,1.56957,0.210121,3.16202e-322,-2.14215
0.798835,-1.49791,-1.36573,-1.07511,1.56955,0.210121,3.16202e-322,-2.14217
0.806729,-1.49791,-1.36574,-1.07506,1.56954,0.210169,3.16202e-322,-2.14215
0.814768,-1.4979,-1.3657,-1.07506,1.56955,0.210145,3.16202e-322,-2.14216
0.822749,-1.49793,-1.36572,-1.07508,1.56956,0.210157,3.16202e-322,-2.14214
0.830878,-1.49792,-1.36575,-1.07509,1.56955,0.210121,3.16202e-322,-2.14212
0.838808,-1.49791,-1.36578,-1.07508,1.56956,0.210181,3.16202e-322,-2.14215
0.846838,-1.49791,-1.36573,-1.07507,1.56958,0.210109,3.16202e-322,-2.14214
0.854812,-1.49792,-1.36574,-1.07507,1.56958,0.210181,3.16202e-322,-2.14214
0.862814,-1.4979,-1.36573,-1.07511,1.56954,0.210181,3.16202e-322,-2.14216
0.870751,-1.4979,-1.36575,-1.07508,1.56957,0.210133,3.16202e-322,-2.14214
0.878772,-1.49793,-1.36573,-1.07504,1.56957,0.210133,3.16202e-322,-2.14216
0.88679,-1.49788,-1.36575,-1.07506,1.56954,0.210193,3.16202e-322,-2.14217
0.894857,-1.4979,-1.36574,-1.07511,1.56956,0.210145,3.16202e-322,-2.14216
0.902787,-1.49788,-1.36572,-1.07506,1.56957,0.210121,3.16202e-322,-2.14217
0.910812,-1.49792,-1.36575,-1.07507,1.5696,0.210133,3.16202e-322,-2.14214
0.918796,-1.49788,-1.36574,-1.07508,1.56955,0.210157,3.16202e-322,-2.14216
0.926771,-1.49788,-1.36573,-1.07508,1.56955,0.210121,3.16202e-322,-2.14212
0.934835,-1.4979,-1.36575,-1.07514,1.56956,0.210145,3.16202e-322,-2.14215
0.942758,-1.49792,-1.36573,-1.07507,1.56954,0.210133,3.16202e-322,-2.14215
0.950806,-1.4979,-1.36574,-1.07508,1.56956,0.210121,3.16202e-322,-2.14214
0.958858,-1.49791,-1.36575,-1.07506,1.56956,0.210169,3.16202e-322,-2.14214
0.966805,-1.49791,-1.36574,-1.07508,1.56956,0.210157,3.16202e-322,-2.14214
0.974776,-1.49791,-1.36578,-1.07512,1.56952,0.210169,3.16202e-322,-2.14216
0.982833,-1.49794,-1.36575,-1.07509,1.56957,0.210121,3.16202e-322,-2.14212
0.990917,-1.49791,-1.36575,-1.07509,1.56955,0.210121,3.16202e-322,-2.14216
0.998839,-1.49792,-1.36574,-1.07509,1.56956,0.210133,3.16202e-322,-2.14214
1.00677,-1.49793,-1.36572,-1.07508,1.56954,0.210145,3.16202e-322,-2.14215
1.01475,-1.4979,-1.36578,-1.07508,1.56958,0.210157,3.16202e-322,-2.14212
1.02277,-1.49788,-1.36574,-1.07509,1.56955,0.210157,3.16202e-322,-2.14214
1.03083,-1.49793,-1.36573,-1.07507,1.56952,0.210157,3.16202e-322,-2.14212
1.03882,-1.49791,-1.36574,-1.07507,1.56957,0.210109,3.16202e-322,-2.14214
1.04678,-1.4979,-1.36572,-1.07508,1.56956,0.210133,3.16202e-322,-2.14212
1.0548,-1.49791,-1.36578,-1.07508,1.5696,0.210145,3.16202e-322,-2.14211
1.0628,-1.4979,-1.36574,-1.07513,1.56957,0.210145,3.16202e-322,-2.14214
1.0707,-1.49792,-1.36575,-1.07511,1.56956,0.210157,3.16202e-322,-2.14215
1.07882,-1.4979,-1.36575,-1.07508,1.56955,0.210157,3.16202e-322,-2.14215
1.08679,-1.49788,-1.36573,-1.07508,1.56955,0.210121,3.16202e-322,-2.14216
1.09487,-1.49791,-1.36572,-1.07509,1.56957,0.210121,3.16202e-322,-2.14216
1.10281,-1.4979,-1.36575,-1.07509,1.56954,0.210121,3.16202e-322,-2.14215
1.11079,-1.49787,-1.36573,-1.07511,1.56957,0.210109,3.16202e-322,-2.14216
1.11882,-1.4979,-1.36573,-1.07511,1.56957,0.210157,3.16202e-322,-2.14216
1.12681,-1.49792,-1.36576,-1.07511,1.56955,0.210133,3.16202e-322,-2.14217
1.1348,-1.49791,-1.36573,-1.07508,1.56955,0.210109,3.16202e-322,-2.14217
1.14281,-1.49791,-1.36575,-1.07513,1.56957,0.210145,3.16202e-322,-2.14212
1.1508,-1.49792,-1.36572,-1.07509,1.56955,0.210121,3.16202e-322,-2.14216
1.15871,-1.49788,-1.36575,-1.07512,1.56955,0.210133,3.16202e-322,-2.14216
1.16676,-1.49791,-1.36574,-1.07508,1.56956,0.210181,3.16202e-322,-2.14216
1.17477,-1.49791,-1.36575,-1.07509,1.56958,0.210097,3.16202e-322,-2.14218
1.18279,-1.49788,-1.36573,-1.07514,1.56956,0.210121,3.16202e-322,-2.14217
1.19082,-1.4979,-1.36572,-1.07504,1.56951,0.210133,3.16202e-322,-2.14217
1.19874,-1.49791,-1.36574,-1.07509,1.56958,0.210157,3.16202e-322,-2.14216
1.20688,-1.49787,-1.36575,-1.07509,1.56958,0.210145,3.16202e-322,-2.14215
1.21484,-1.49793,-1.36573,-1.07511,1.56957,0.210121,3.16202e-322,-2.14217
1.2228,-1.49793,-1.36573,-1.07508,1.56958,0.210181,3.16202e-322,-2.1422
1.23084,-1.4979,-1.36575,-1.07511,1.56956,0.210133,3.16202e-322,-2.14216
1.23879,-1.49791,-1.36573,-1.07507,1.56956,0.210145,3.16202e-322,-2.14216
1.24678,-1.49791,-1.36575,-1.07508,1.56955,0.210157,3.16202e-322,-2.14214
1.25479,-1.49788,-1.36573,-1.07509,1.56954,0.210121,3.16202e-322,-2.14212
1.26274,-1.49793,-1.36576,-1.07508,1.56955,0.210145,3.16202e-322,-2.14208
1.27074,-1.49791,-1.36575,-1.07509,1.56955,0.210145,3.16202e-322,-2.14212
1.27874,-1.4979,-1.36573,-1.07513,1.56957,0.210121,3.16202e-322,-2.14216
1.28675,-1.49788,-1.36574,-1.07512,1.56956,0.210133,3.16202e-322,-2.14217
1.29486,-1.49787,-1.36572,-1.07511,1.56956,0.210145,3.16202e-322,-2.14215
1.30277,-1.49791,-1.36572,-1.07511,1.5696,0.210121,3.16202e-322,-2.14215
1.31061,-1.49788,-1.36574,-1.07509,1.56954,0.210133,3.16202e-322,-2.14216
1.31862,-1.49791,-1.36574,-1.07508,1.56955,0.210157,3.16202e-322,-2.14217
1.32665,-1.4979,-1.36576,-1.07508,1.56957,0.210109,3.16202e-322,-2.14214
1.33466,-1.49792,-1.36573,-1.07509,1.56951,0.210133,3.16202e-322,-2.14216
1.34267,-1.49791,-1.36576,-1.07506,1.56956,0.210121,3.16202e-322,-2.14217
1.35068,-1.49788,-1.36576,-1.07507,1.56958,0.210145,3.16202e-322,-2.14214
1.35871,-1.49788,-1.36574,-1.07509,1.56956,0.210169,3.16202e-322,-2.14216
1.36673,-1.49793,-1.36574,-1.07512,1.56956,0.210121,3.16202e-322,-2.14215
1.37472,-1.4979,-1.36575,-1.07511,1.56955,0.210133,3.16202e-322,-2.14212
1.38276,-1.49792,-1.36573,-1.07512,1.56958,0.210157,3.16202e-322,-2.14217
1.39081,-1.49792,-1.36575,-1.07509,1.56955,0.210145,3.16202e-322,-2.14216
1.39874,-1.4979,-1.36575,-1.07507,1.56952,0.210145,3.16202e-322,-2.14217
1.40669,-1.49791,-1.36574,-1.07506,1.56952,0.210133,3.16202e-322,-2.14216
1.41467,-1.49791,-1.36575,-1.07509,1.56952,0.210157,3.16202e-322,-2.14212
1.4226,-1.49792,-1.36575,-1.07511,1.56957,0.210145,3.16202e-322,-2.14214
1.43062,-1.49792,-1.36574,-1.07512,1.56956,0.210133,3.16202e-322,-2.14217
1.43864,-1.49788,-1.36574,-1.07514,1.56955,0.210145,3.16202e-322,-2.14216
1.44666,-1.49791,-1.3657,-1.07509,1.56954,0.210121,3.16202e-322,-2.14216
1.45469,-1.4979,-1.36573,-1.07509,1.56955,0.210121,3.16202e-322,-2.14215
1.4627,-1.49788,-1.36574,-1.07514,1.56955,0.210145,3.16202e-322,-2.14216
1.47069,-1.49788,-1.3657,-1.07512,1.56958,0.210157,3.16202e-322,-2.14214
1.47869,-1.4979,-1.36575,-1.07511,1.56955,0.210157,3.16202e-322,-2.14214
1.48676,-1.4979,-1.36576,-1.07508,1.56955,0.210145,3.16202e-322,-2.14217
1.49483,-1.49793,-1.36576,-1.07513,1.56957,0.210181,3.16202e-322,-2.14215
1.50282,-1.49791,-1.36575,-1.07511,1.56954,0.210145,3.16202e-322,-2.14215
1.51077,-1.4979,-1.36578,-1.07511,1.56956,0.210145,3.16202e-322,-2.14215
1.51872,-1.49791,-1.36578,-1.07512,1.56957,0.210121,3.16202e-322,-2.14212
1.52666,-1.49791,-1.36578,-1.07515,1.56952,0.210145,3.16202e-322,-2.14216
1.53475,-1.49791,-1.36579,-1.07518,1.56955,0.210133,3.16202e-322,-2.14212
1.54272,-1.4979,-1.3658,-1.07518,1.56952,0.210169,3.16202e-322,-2.14216
1.55073,-1.49791,-1.36579,-1.0752,1.56954,0.210121,3.16202e-322,-2.14212
1.55882,-1.49793,-1.36579,-1.07523,1.56954,0.210157,3.16202e-322,-2.14212
1.56673,-1.49791,-1.36575,-1.07524,1.56956,0.210121,3.16202e-322,-2.14212
1.57477,-1.4979,-1.36578,-1.07524,1.56954,0.210121,3.16202e-322,-2.14211
1.58271,-1.49792,-1.36578,-1.07525,1.5696,0.210145,3.16202e-322,-2.1421
1.59081,-1.49788,-1.36578,-1.07526,1.56954,0.210157,3.16202e-322,-2.14214
1.59876,-1.49792,-1.36578,-1.07526,1.56956,0.210121,3.16202e-322,-2.14208
1.60674,-1.49792,-1.36578,-1.07527,1.56955,0.210145,3.16202e-322,-2.1421
1.61477,-1.4979,-1.36579,-1.07526,1.56954,0.210145,3.16202e-322,-2.14208
1.62272,-1.49792,-1.36578,-1.07527,1.56958,0.210145,3.16202e-322,-2.14208
1.63075,-1.49793,-1.36579,-1.07526,1.56955,0.210157,3.16202e-322,-2.14205
1.63871,-1.49793,-1.36579,-1.07526,1.56956,0.210145,3.16202e-322,-2.14206
1.64673,-1.49792,-1.36579,-1.07526,1.56955,0.210157,3.16202e-322,-2.14206
1.65472,-1.49792,-1.36588,-1.07528,1.56955,0.210145,3.16202e-322,-2.14203
1.66275,-1.4979,-1.36588,-1.07527,1.56957,0.210145,3.16202e-322,-2.14203
1.67075,-1.49791,-1.36588,-1.0753,1.56956,0.210157,3.16202e-322,-2.14202
1.67874,-1.49791,-1.3659,-1.07524,1.56956,0.210157,3.16202e-322,-2.14196
1.68671,-1.4979,-1.36587,-1.07525,1.56956,0.210169,3.16202e-322,-2.14196
1.69478,-1.49793,-1.36588,-1.07523,1.56954,0.210145,3.16202e-322,-2.14193
1.70279,-1.49792,-1.36592,-1.07526,1.56954,0.210157,3.16202e-322,-2.14192
1.7107,-1.4979,-1.3659,-1.07519,1.56952,0.210181,3.16202e-322,-2.1419
1.71867,-1.49792,-1.36596,-1.07526,1.56954,0.210157,3.16202e-322,-2.14181
1.72671,-1.49791,-1.366,-1.07526,1.56954,0.210157,3.16202e-322,-2.1417
1.73476,-1.49792,-1.36603,-1.07521,1.56955,0.210181,3.16202e-322,-2.14163
1.74275,-1.49793,-1.36609,-1.07525,1.56951,0.210169,3.16202e-322,-2.14163
1.75074,-1.49791,-1.3661,-1.07523,1.56946,0.210109,3.16202e-322,-2.14156
1.7587,-1.49788,-1.36624,-1.07521,1.56942,0.210181,3.16202e-322,-2.14148
1.76688,-1.49793,-1.36636,-1.07525,1.56938,0.210169,3.16202e-322,-2.14138
1.77476,-1.4979,-1.36646,-1.0753,1.56938,0.210157,3.16202e-322,-2.14125
1.78292,-1.4979,-1.36655,-1.07521,1.56937,0.210181,3.16202e-322,-2.14109
1.79086,-1.49791,-1.36674,-1.07523,1.56938,0.210157,3.16202e-322,-2.14093
1.79879,-1.49791,-1.3669,-1.07523,1.56939,0.210145,3.16202e-322,-2.14084
1.80669,-1.4979,-1.36713,-1.07523,1.56934,0.210145,3.16202e-322,-2.1407
1.8147,-1.49792,-1.36738,-1.07521,1.56934,0.210133,3.16202e-322,-2.14049
1.82263,-1.4979,-1.36761,-1.07521,1.56926,0.210157,3.16202e-322,-2.14031
1.83068,-1.49792,-1.36789,-1.07523,1.5692,0.210157,3.16202e-322,-2.14006
1.83875,-1.49791,-1.36823,-1.07521,1.56918,0.210121,3.16202e-322,-2.13986
1.84672,-1.49791,-1.36852,-1.07526,1.5691,0.210181,3.16202e-322,-2.13954
1.85476,-1.49791,-1.36882,-1.07527,1.56909,0.210157,3.16202e-322,-2.13922
1.86276,-1.49791,-1.36919,-1.07521,1.56905,0.210169,3.16202e-322,-2.13888
1.87078,-1.49793,-1.36962,-1.07523,1.56902,0.210157,3.16202e-322,-2.13852
1.87869,-1.49791,-1.37006,-1.0752,1.56904,0.210145,3.16202e-322,-2.13812
1.88681,-1.4979,-1.37056,-1.07519,1.56903,0.210157,3.16202e-322,-2.13763
1.89485,-1.49793,-1.37107,-1.07525,1.56907,0.210145,3.16202e-322,-2.1372
1.90279,-1.49794,-1.37159,-1.07524,1.56904,0.210145,3.16202e-322,-2.13655
1.9108,-1.49793,-1.37213,-1.07524,1.56905,0.210157,3.16202e-322,-2.13586
1.91877,-1.49793,-1.3728,-1.07525,1.56909,0.210145,3.16202e-322,-2.13514
1.92679,-1.49792,-1.37345,-1.07523,1.56909,0.210157,3.16202e-322,-2.13435
1.93489,-1.4979,-1.37413,-1.07524,1.56911,0.210157,3.16202e-322,-2.13345
1.94279,-1.49792,-1.37475,-1.07526,1.56911,0.210145,3.16202e-322,-2.13251
1.9508,-1.49792,-1.3754,-1.07526,1.56911,0.210133,3.16202e-322,-2.13142
1.95882,-1.49794,-1.3761,-1.0753,1.56914,0.210157,3.16202e-322,-2.13019
1.96683,-1.49797,-1.37677,-1.07526,1.56914,0.210133,3.16202e-322,-2.12882
1.97481,-1.49798,-1.3775,-1.07527,1.56918,0.210157,3.16202e-322,-2.12726
1.98287,-1.49799,-1.37827,-1.0753,1.56916,0.210145,3.16202e-322,-2.12556
1.99082,-1.49797,-1.37897,-1.0753,1.56916,0.210121,3.16202e-322,-2.12362
1.99884,-1.49804,-1.37971,-1.07534,1.56916,0.210133,3.16202e-322,-2.12156
2.00676,-1.49809,-1.38048,-1.0754,1.56913,0.210145,3.16202e-322,-2.11933
2.01465,-1.4981,-1.38123,-1.07551,1.56918,0.210157,3.16202e-322,-2.11685
2.02269,-1.49822,-1.382,-1.07558,1.56919,0.210109,3.16202e-322,-2.1141
2.03067,-1.49836,-1.38276,-1.07567,1.56921,0.210085,3.16202e-322,-2.1112
2.03872,-1.49851,-1.38345,-1.07573,1.56919,0.210133,3.16202e-322,-2.10808
2.04671,-1.49872,-1.38424,-1.07576,1.5692,0.210121,3.16202e-322,-2.1048
2.05475,-1.49896,-1.38493,-1.07575,1.56921,0.210121,3.16202e-322,-2.10139
2.06276,-1.49916,-1.38564,-1.07575,1.56926,0.210121,3.16202e-322,-2.09773
2.07075,-1.4994,-1.38632,-1.07574,1.56929,0.210109,3.16202e-322,-2.09408
2.07878,-1.49969,-1.38703,-1.07575,1.56934,0.210109,3.16202e-322,-2.09021
2.08681,-1.49996,-1.38764,-1.0758,1.56939,0.210061,3.16202e-322,-2.08596
2.0948,-1.50028,-1.38822,-1.0758,1.56939,0.210085,3.16202e-322,-2.08148
2.10274,-1.50055,-1.38883,-1.07587,1.56944,0.210037,3.16202e-322,-2.07684
2.11064,-1.50084,-1.38939,-1.07592,1.56946,0.210025,3.16202e-322,-2.07219
2.11865,-1.50115,-1.38994,-1.07596,1.56951,0.209954,3.16202e-322,-2.06741
2.12665,-1.50136,-1.39037,-1.07593,1.56952,0.20987,3.16202e-322,-2.06273
2.1347,-1.50158,-1.39075,-1.07599,1.56955,0.209762,3.16202e-322,-2.05796
2.14268,-1.50184,-1.39113,-1.07603,1.56954,0.209618,3.16202e-322,-2.05253
2.15075,-1.50208,-1.39146,-1.07603,1.56957,0.209486,3.16202e-322,-2.04716
2.15873,-1.50245,-1.39172,-1.07605,1.56957,0.209307,3.16202e-322,-2.04165
2.16674,-1.50286,-1.39198,-1.07604,1.56963,0.209116,3.16202e-322,-2.0361
2.17482,-1.50331,-1.3922,-1.07606,1.5696,0.209008,3.16202e-322,-2.03075
2.18269,-1.50394,-1.39245,-1.07615,1.5697,0.2089,3.16202e-322,-2.02528
2.19076,-1.50464,-1.39263,-1.07617,1.56975,0.208793,3.16202e-322,-2.01974
2.19881,-1.50544,-1.39281,-1.07628,1.56981,0.208745,3.16202e-322,-2.014
2.2067,-1.50646,-1.39291,-1.0764,1.56992,0.208673,3.16202e-322,-2.00815
2.21472,-1.50766,-1.39298,-1.07654,1.56999,0.208613,3.16202e-322,-2.00229
2.22278,-1.50902,-1.39302,-1.07684,1.57002,0.208541,3.16202e-322,-1.99657
2.23069,-1.5108,-1.39301,-1.0773,1.57003,0.208421,3.16202e-322,-1.99063
2.23871,-1.51298,-1.39301,-1.07781,1.57,0.208194,3.16202e-322,-1.98452
2.24677,-1.51568,-1.39304,-1.07828,1.57008,0.207967,3.16202e-322,-1.9783
2.25472,-1.5188,-1.39305,-1.07884,1.57008,0.207595,3.16202e-322,-1.97201
2.26273,-1.52225,-1.39301,-1.07937,1.57009,0.207212,3.16202e-322,-1.96594
2.2707,-1.52616,-1.39305,-1.07991,1.57011,0.206793,3.16202e-322,-1.9597
2.27878,-1.53027,-1.39305,-1.08049,1.57014,0.206266,3.16202e-322,-1.95338
2.28682,-1.53454,-1.39304,-1.08143,1.57011,0.205704,3.16202e-322,-1.94696
2.29478,-1.53891,-1.39305,-1.0823,1.57011,0.205046,3.16202e-322,-1.94056
2.30269,-1.54351,-1.39307,-1.08336,1.57011,0.204399,3.16202e-322,-1.93443
2.31068,-1.54855,-1.39306,-1.08447,1.57011,0.203729,3.16202e-322,-1.92808
2.31862,-1.55399,-1.39305,-1.08569,1.57016,0.203238,3.16202e-322,-1.9215
2.3267,-1.55982,-1.39301,-1.08695,1.57023,0.202915,3.16202e-322,-1.91467
2.33471,-1.56555,-1.39307,-1.08847,1.5703,0.202663,3.16202e-322,-1.90793
2.34271,-1.57136,-1.39301,-1.09008,1.57046,0.202436,3.16202e-322,-1.90144
2.35077,-1.57754,-1.39304,-1.09179,1.57064,0.202148,3.16202e-322,-1.8947
2.35874,-1.5843,-1.393,-1.09361,1.57086,0.201897,3.16202e-322,-1.8879
2.36675,-1.59126,-1.39304,-1.09544,1.57116,0.201586,3.16202e-322,-1.88101
2.37473,-1.59815,-1.39301,-1.09739,1.57151,0.201442,3.16202e-322,-1.87424
2.38279,-1.60508,-1.39306,-1.09941,1.5719,0.201226,3.16202e-322,-1.86754
2.3907,-1.61263,-1.39304,-1.10138,1.57239,0.201023,3.16202e-322,-1.86064
2.39884,-1.62047,-1.39302,-1.10348,1.57293,0.200892,3.16202e-322,-1.85354
2.40674,-1.62809,-1.39301,-1.10561,1.57356,0.200664,3.16202e-322,-1.84648
2.41461,-1.63559,-1.39304,-1.10784,1.57428,0.200413,3.16202e-322,-1.83968
2.42265,-1.64351,-1.39302,-1.11006,1.57493,0.200005,3.16202e-322,-1.83266
2.43072,-1.65146,-1.39305,-1.11234,1.57562,0.199479,3.16202e-322,-1.82553
2.43871,-1.65935,-1.39304,-1.11456,1.57638,0.198856,3.16202e-322,-1.8182
2.44669,-1.66695,-1.39304,-1.11688,1.5772,0.198138,3.16202e-322,-1.81118
2.45474,-1.6747,-1.39301,-1.11909,1.57802,0.197336,3.16202e-322,-1.80413
2.46272,-1.68261,-1.39305,-1.12129,1.5789,0.196474,3.16202e-322,-1.79685
2.47068,-1.69012,-1.39305,-1.12362,1.57989,0.195672,3.16202e-322,-1.78944
2.47878,-1.69725,-1.39305,-1.12604,1.58101,0.194894,3.16202e-322,-1.78216
2.48671,-1.70449,-1.39305,-1.12836,1.58234,0.194247,3.16202e-322,-1.77498
2.49479,-1.71189,-1.39306,-1.13086,1.58388,0.193637,3.16202e-322,-1.76762
2.50266,-1.71905,-1.39304,-1.13325,1.58556,0.193194,3.16202e-322,-1.7601
2.51065,-1.72587,-1.39305,-1.13573,1.5874,0.192787,3.16202e-322,-1.75252
2.51867,-1.73251,-1.39302,-1.13816,1.58939,0.192356,3.16202e-322,-1.74514
2.52672,-1.73921,-1.39306,-1.14059,1.59158,0.191961,3.16202e-322,-1.73762
2.53474,-1.7459,-1.39301,-1.14293,1.59389,0.19153,3.16202e-322,-1.72991
2.54271,-1.7523,-1.39305,-1.14536,1.59637,0.191051,3.16202e-322,-1.72228
2.55066,-1.75831,-1.39301,-1.14771,1.59899,0.190489,3.16202e-322,-1.71494
2.55868,-1.76426,-1.39302,-1.15008,1.6018,0.189878,3.16202e-322,-1.70745
2.56669,-1.77024,-1.39302,-1.15247,1.60477,0.189207,3.16202e-322,-1.69971
2.57471,-1.77613,-1.39298,-1.1549,1.60793,0.188429,3.16202e-322,-1.69196
2.583,-1.78158,-1.39299,-1.15737,1.61128,0.187531,3.16202e-322,-1.68446
2.59073,-1.78661,-1.39299,-1.16003,1.61484,0.186418,3.16202e-322,-1.67695
2.59879,-1.79119,-1.393,-1.16287,1.61847,0.184922,3.16202e-322,-1.66918
2.60666,-1.79564,-1.39299,-1.16573,1.62229,0.183198,3.16202e-322,-1.66141
2.61462,-1.79995,-1.39299,-1.16865,1.62616,0.181247,3.16202e-322,-1.65397
2.62261,-1.80411,-1.39295,-1.17168,1.63006,0.179188,3.16202e-322,-1.64647
2.63069,-1.80808,-1.39297,-1.17482,1.6339,0.176889,3.16202e-322,-1.6389
2.63871,-1.8118,-1.39297,-1.17802,1.63769,0.174399,3.16202e-322,-1.63124
2.64674,-1.81506,-1.39294,-1.18132,1.64143,0.171718,3.16202e-322,-1.62375
2.65473,-1.81784,-1.39297,-1.18476,1.64504,0.168989,3.16202e-322,-1.61655
2.6627,-1.82021,-1.39295,-1.18846,1.64847,0.166283,3.16202e-322,-1.60923
2.67068,-1.82223,-1.39289,-1.19235,1.65166,0.163423,3.16202e-322,-1.60191
2.67871,-1.8239,-1.39291,-1.1964,1.65458,0.160441,3.16202e-322,-1.59479
2.68679,-1.82538,-1.39287,-1.20053,1.65727,0.157341,3.16202e-322,-1.58801
2.69483,-1.8266,-1.39291,-1.20476,1.65975,0.154073,3.16202e-322,-1.58109
2.70272,-1.82771,-1.39288,-1.20919,1.66207,0.150769,3.16202e-322,-1.57415
2.71072,-1.8287,-1.39288,-1.2137,1.66419,0.147286,3.16202e-322,-1.56731
2.71858,-1.82937,-1.39285,-1.21831,1.6662,0.143922,3.16202e-322,-1.5608
2.72664,-1.82986,-1.39285,-1.22318,1.66797,0.140535,3.16202e-322,-1.55454
2.73468,-1.83012,-1.39288,-1.22827,1.66958,0.137207,3.16202e-322,-1.5481
2.74267,-1.83005,-1.39285,-1.23373,1.67109,0.133903,3.16202e-322,-1.54177
2.75066,-1.82999,-1.39281,-1.23933,1.67245,0.130587,3.16202e-322,-1.53561
2.75868,-1.83003,-1.39279,-1.24482,1.67365,0.127259,3.16202e-322,-1.52979
2.76675,-1.82997,-1.39279,-1.25054,1.67477,0.124028,3.16202e-322,-1.52407
2.7747,-1.82996,-1.39274,-1.2565,1.67571,0.120712,3.16202e-322,-1.51803
2.78273,-1.82994,-1.39275,-1.26267,1.67656,0.117564,3.16202e-322,-1.51237
2.79075,-1.82997,-1.39267,-1.26886,1.67724,0.114547,3.16202e-322,-1.50684
2.79882,-1.82998,-1.39268,-1.27519,1.67782,0.11159,3.16202e-322,-1.50167
2.80666,-1.82992,-1.39263,-1.28161,1.67818,0.108718,3.16202e-322,-1.49676
2.81472,-1.82991,-1.39261,-1.28831,1.67833,0.105977,3.16202e-322,-1.49206
2.82266,-1.82986,-1.39256,-1.2951,1.67837,0.103511,3.16202e-322,-1.48732
2.83072,-1.82987,-1.39249,-1.30211,1.67837,0.1012,3.16202e-322,-1.48268
2.83881,-1.82991,-1.39247,-1.30917,1.67836,0.0990698,3.16202e-322,-1.47813
2.84673,-1.82981,-1.39243,-1.31643,1.67835,0.0970827,3.16202e-322,-1.47381
2.85473,-1.82962,-1.39238,-1.324,1.67835,0.0953592,3.16202e-322,-1.46973
2.86273,-1.82954,-1.39233,-1.33159,1.67836,0.0936114,3.16202e-322,-1.46597
2.87063,-1.82963,-1.39231,-1.33917,1.67836,0.0919478,3.16202e-322,-1.46224
2.87872,-1.82954,-1.39222,-1.34691,1.67839,0.0904041,3.16202e-322,-1.45864
2.88684,-1.82933,-1.39214,-1.35487,1.67836,0.0889675,3.16202e-322,-1.45507
2.89474,-1.82917,-1.39206,-1.36308,1.67833,0.0877103,3.16202e-322,-1.45163
2.90269,-1.82898,-1.39195,-1.37122,1.67835,0.0865613,3.16202e-322,-1.44832
2.91068,-1.82865,-1.39191,-1.37962,1.67833,0.0855082,3.16202e-322,-1.44523
2.91861,-1.82814,-1.39184,-1.38811,1.67832,0.0845746,3.16202e-322,-1.4423
2.92671,-1.82749,-1.39179,-1.39654,1.67832,0.0837963,3.16202e-322,-1.43947
2.93479,-1.82692,-1.39176,-1.40485,1.67838,0.0831143,3.16202e-322,-1.43677
2.94272,-1.82624,-1.39165,-1.41323,1.67835,0.0826234,3.16202e-322,-1.43411
2.95072,-1.82545,-1.39162,-1.4218,1.67835,0.0823601,3.16202e-322,-1.43151
2.95871,-1.82456,-1.39159,-1.43031,1.67836,0.0821923,3.16202e-322,-1.42895
2.96677,-1.82375,-1.39152,-1.43864,1.67835,0.0822043,3.16202e-322,-1.42654
2.97474,-1.82249,-1.39135,-1.44718,1.67832,0.0821923,3.16202e-322,-1.42425
2.98284,-1.82112,-1.39128,-1.45582,1.67831,0.0822163,3.16202e-322,-1.42209
2.99078,-1.8196,-1.39121,-1.46425,1.67837,0.0822163,3.16202e-322,-1.42004
2.99881,-1.81784,-1.39112,-1.4727,1.67836,0.0822283,3.16202e-322,-1.41804
3.00674,-1.81572,-1.39106,-1.48118,1.67836,0.0822402,3.16202e-322,-1.41606
3.01458,-1.81334,-1.391,-1.48968,1.67842,0.0822402,3.16202e-322,-1.41405
3.02259,-1.81051,-1.39094,-1.49798,1.67844,0.0822043,3.16202e-322,-1.41205
3.03062,-1.80727,-1.39089,-1.50652,1.67842,0.0822163,3.16202e-322,-1.41014
3.03873,-1.80334,-1.39083,-1.51513,1.67843,0.0822283,3.16202e-322,-1.40815
3.04672,-1.79905,-1.39081,-1.52366,1.67843,0.0822163,3.16202e-322,-1.40633
3.05466,-1.79449,-1.39071,-1.53217,1.67845,0.0822043,3.16202e-322,-1.40453
3.06273,-1.7896,-1.39069,-1.54077,1.67843,0.0822522,3.16202e-322,-1.40268
3.07071,-1.7845,-1.39061,-1.54945,1.67839,0.0822163,3.16202e-322,-1.40075
3.07873,-1.77916,-1.39052,-1.55791,1.67845,0.0822402,3.16202e-322,-1.39875
3.08674,-1.77321,-1.39044,-1.5664,1.67845,0.0822522,3.16202e-322,-1.39671
3.09481,-1.76674,-1.39026,-1.57516,1.67843,0.0822522,3.16202e-322,-1.39465
3.10273,-1.75992,-1.39009,-1.58396,1.67842,0.0822043,3.16202e-322,-1.39254
3.11059,-1.75314,-1.38985,-1.59245,1.67842,0.0822522,3.16202e-322,-1.39048
3.11863,-1.74595,-1.38957,-1.60121,1.67839,0.0822283,3.16202e-322,-1.38837
3.12667,-1.73818,-1.38921,-1.61003,1.67837,0.0822163,3.16202e-322,-1.38623
3.1348,-1.73008,-1.38883,-1.61874,1.67837,0.0822402,3.16202e-322,-1.384
3.14274,-1.72205,-1.38848,-1.62733,1.67837,0.0822522,3.16202e-322,-1.38185
3.15077,-1.71372,-1.38816,-1.63608,1.67837,0.0822283,3.16202e-322,-1.37958
3.15868,-1.70475,-1.3879,-1.64477,1.67837,0.0822402,3.16202e-322,-1.37735
3.16673,-1.69585,-1.38759,-1.65331,1.67837,0.0822522,3.16202e-322,-1.37526
3.1748,-1.6872,-1.38739,-1.66176,1.67838,0.0822882,3.16202e-322,-1.37315
3.18274,-1.67807,-1.38715,-1.67036,1.67837,0.0822642,3.16202e-322,-1.37115
3.19078,-1.66883,-1.38691,-1.67886,1.67843,0.0822762,3.16202e-322,-1.36912
3.19886,-1.66002,-1.3867,-1.6871,1.67841,0.0822642,3.16202e-322,-1.36709
3.20663,-1.65111,-1.38642,-1.69551,1.67837,0.0822522,3.16202e-322,-1.36499
3.2147,-1.64192,-1.38614,-1.70397,1.67838,0.0822522,3.16202e-322,-1.36298
3.2227,-1.6328,-1.38578,-1.71221,1.67838,0.0822642,3.16202e-322,-1.36097
3.23071,-1.62421,-1.38545,-1.72037,1.67837,0.0822402,3.16202e-322,-1.35911
3.23882,-1.61531,-1.38509,-1.72858,1.67833,0.0822522,3.16202e-322,-1.35734
3.24675,-1.60648,-1.38466,-1.73669,1.67839,0.0822882,3.16202e-322,-1.35553
3.25472,-1.5981,-1.38432,-1.74461,1.67842,0.0822522,3.16202e-322,-1.35383
3.2627,-1.59008,-1.38387,-1.75251,1.67837,0.0822762,3.16202e-322,-1.35217
3.27076,-1.58173,-1.38341,-1.76046,1.67832,0.0822522,3.16202e-322,-1.3507
3.27874,-1.5735,-1.38299,-1.76838,1.67833,0.0822642,3.16202e-322,-1.34925
3.28671,-1.56592,-1.38253,-1.77607,1.67836,0.0822283,3.16202e-322,-1.3479
3.29474,-1.55843,-1.38206,-1.78359,1.67837,0.0822522,3.16202e-322,-1.3467
3.30276,-1.55087,-1.38148,-1.79116,1.67833,0.0822762,3.16202e-322,-1.34556
3.31057,-1.54345,-1.38092,-1.79873,1.67832,0.0822642,3.16202e-322,-1.34464
3.31858,-1.53646,-1.38033,-1.80611,1.6783,0.0822762,3.16202e-322,-1.34383
3.32666,-1.52985,-1.37978,-1.81321,1.67832,0.0822522,3.16202e-322,-1.34309
3.33463,-1.52316,-1.37917,-1.82044,1.67833,0.0822882,3.16202e-322,-1.34251
3.34265,-1.51647,-1.3785,-1.82749,1.67833,0.0823241,3.16202e-322,-1.3421
3.35064,-1.50988,-1.37792,-1.83445,1.67837,0.0823002,3.16202e-322,-1.34194
3.35868,-1.50377,-1.37732,-1.84112,1.67836,0.0823002,3.16202e-322,-1.34192
3.36668,-1.49803,-1.37683,-1.84773,1.67838,0.0823601,3.16202e-322,-1.34189
3.37472,-1.49217,-1.37618,-1.85432,1.67838,0.0823361,3.16202e-322,-1.34191
3.3827,-1.48641,-1.37565,-1.86087,1.67833,0.0823241,3.16202e-322,-1.34192
3.39075,-1.48078,-1.37517,-1.86728,1.67831,0.0823241,3.16202e-322,-1.34198
3.39877,-1.47547,-1.37461,-1.87344,1.67832,0.0823241,3.16202e-322,-1.34195
3.40663,-1.47048,-1.37412,-1.87963,1.6783,0.0823122,3.16202e-322,-1.34193
3.41468,-1.46552,-1.37362,-1.88565,1.67826,0.0823241,3.16202e-322,-1.34193
3.42265,-1.46048,-1.37309,-1.89156,1.67825,0.0823361,3.16202e-322,-1.34197
3.43069,-1.45554,-1.37265,-1.89737,1.67827,0.0823241,3.16202e-322,-1.34197
3.43869,-1.45067,-1.37223,-1.90303,1.67827,0.0823841,3.16202e-322,-1.34195
3.44672,-1.44597,-1.37182,-1.90841,1.6783,0.082432,3.16202e-322,-1.34194
3.45469,-1.44166,-1.37143,-1.91372,1.67832,0.082444,3.16202e-322,-1.34191
3.46272,-1.43751,-1.37104,-1.91889,1.6783,0.082456,3.16202e-322,-1.34194
3.47068,-1.43344,-1.37067,-1.92383,1.67831,0.082456,3.16202e-322,-1.34194
3.47871,-1.42952,-1.37035,-1.92863,1.67831,0.082444,3.16202e-322,-1.34197
3.48675,-1.42571,-1.36997,-1.93319,1.6783,0.08242,3.16202e-322,-1.34195
3.49477,-1.42199,-1.36964,-1.93771,1.67831,0.082444,3.16202e-322,-1.34194
3.50279,-1.41834,-1.36928,-1.94201,1.67833,0.082456,3.16202e-322,-1.34195
3.51058,-1.41491,-1.36903,-1.94625,1.67829,0.0824676,3.16202e-322,-1.34194
3.51859,-1.41177,-1.3688,-1.95022,1.67833,0.0825155,3.16202e-322,-1.34191
3.52664,-1.40892,-1.3686,-1.9541,1.67833,0.0825155,3.16202e-322,-1.34193
3.53468,-1.40625,-1.36846,-1.95769,1.67833,0.0825515,3.16202e-322,-1.34193
3.54265,-1.40384,-1.36829,-1.96109,1.67832,0.0825515,3.16202e-322,-1.34193
3.5506,-1.40157,-1.36817,-1.9644,1.67831,0.0825754,3.16202e-322,-1.34197
3.55867,-1.39935,-1.368,-1.96751,1.67832,0.0825874,3.16202e-322,-1.34195
3.56671,-1.3972,-1.36783,-1.97058,1.67827,0.0825634,3.16202e-322,-1.34197
3.57472,-1.39514,-1.3676,-1.97349,1.67829,0.0825515,3.16202e-322,-1.34195
3.58266,-1.39309,-1.36737,-1.9763,1.67832,0.0825634,3.16202e-322,-1.34197
3.59072,-1.39106,-1.36714,-1.97895,1.67831,0.0825754,3.16202e-322,-1.342
3.59874,-1.38908,-1.36694,-1.98149,1.67832,0.0825634,3.16202e-322,-1.34195
3.60658,-1.38725,-1.3667,-1.98391,1.67833,0.0825515,3.16202e-322,-1.34194
3.61459,-1.38553,-1.36647,-1.98619,1.67833,0.0825994,3.16202e-322,-1.34195
3.62263,-1.38404,-1.36622,-1.98831,1.67836,0.0825874,3.16202e-322,-1.34195
3.63065,-1.38272,-1.36605,-1.99035,1.6783,0.0825634,3.16202e-322,-1.342
3.63873,-1.38168,-1.3658,-1.99216,1.67833,0.0825395,3.16202e-322,-1.34197
3.64677,-1.3808,-1.36554,-1.99398,1.67835,0.0825275,3.16202e-322,-1.34198
3.65476,-1.38014,-1.36521,-1.99564,1.67837,0.0825395,3.16202e-322,-1.34195
3.66269,-1.3797,-1.36484,-1.99721,1.67835,0.0825754,3.16202e-322,-1.34198
3.67072,-1.37953,-1.36446,-1.99868,1.67833,0.0825634,3.16202e-322,-1.34195
3.67868,-1.37953,-1.36403,-2.00015,1.67833,0.0825515,3.16202e-322,-1.34197
3.68674,-1.37957,-1.36357,-2.00158,1.67833,0.0825994,3.16202e-322,-1.34199
3.69475,-1.37955,-1.36309,-2.00293,1.67832,0.0825754,3.16202e-322,-1.34195
3.70275,-1.37951,-1.3626,-2.00436,1.67832,0.0825754,3.16202e-322,-1.34197
3.71063,-1.37957,-1.36206,-2.00558,1.67837,0.0825874,3.16202e-322,-1.34199
3.71866,-1.37955,-1.36155,-2.00681,1.67841,0.0825754,3.16202e-322,-1.34198
3.72667,-1.37955,-1.36107,-2.00808,1.67839,0.0825874,3.16202e-322,-1.34201
3.73474,-1.37955,-1.36056,-2.00928,1.67836,0.0825754,3.16202e-322,-1.34203
3.74277,-1.37957,-1.36008,-2.01043,1.67837,0.0825754,3.16202e-322,-1.34199
3.75074,-1.37952,-1.35961,-2.01158,1.67838,0.0825634,3.16202e-322,-1.342
3.75872,-1.37957,-1.35911,-2.01273,1.67836,0.0825874,3.16202e-322,-1.34201
3.76673,-1.37952,-1.35858,-2.01381,1.67839,0.0826234,3.16202e-322,-1.34199
3.77471,-1.37952,-1.35804,-2.01498,1.67839,0.0826234,3.16202e-322,-1.34198
3.78269,-1.37948,-1.35749,-2.01617,1.67839,0.0826473,3.16202e-322,-1.34197
3.79077,-1.37953,-1.3569,-2.01734,1.67839,0.0826354,3.16202e-322,-1.34203
3.7988,-1.37953,-1.35632,-2.01849,1.67839,0.0826354,3.16202e-322,-1.34199
3.80666,-1.37951,-1.35573,-2.0197,1.67836,0.0826354,3.16202e-322,-1.34201
3.81456,-1.37952,-1.3551,-2.02084,1.67837,0.0826593,3.16202e-322,-1.34203
3.82256,-1.37946,-1.35446,-2.02204,1.67838,0.0826713,3.16202e-322,-1.34204
3.83062,-1.37946,-1.35384,-2.02321,1.67837,0.0826354,3.16202e-322,-1.34204
3.83865,-1.37946,-1.35318,-2.02428,1.67839,0.0826713,3.16202e-322,-1.34204
3.84668,-1.37941,-1.35257,-2.02539,1.67838,0.0826953,3.16202e-322,-1.34204
3.85472,-1.37934,-1.35184,-2.02637,1.67835,0.0827432,3.16202e-322,-1.342
3.86276,-1.379,-1.35129,-2.02678,1.67821,0.0827792,3.16202e-322,-1.34198
3.87072,-1.37853,-1.35074,-2.02716,1.67797,0.082887,3.16202e-322,-1.34194
3.87874,-1.37786,-1.35037,-2.02731,1.67789,0.0830424,3.16202e-322,-1.342
3.88682,-1.37743,-1.34995,-2.02755,1.67789,0.0831743,3.16202e-322,-1.34195
3.89471,-1.37714,-1.34954,-2.02763,1.6779,0.0833653,3.16202e-322,-1.34195
3.90274,-1.37703,-1.34913,-2.02764,1.67784,0.083533,3.16202e-322,-1.34197
3.91063,-1.37708,-1.34875,-2.02764,1.6777,0.0837484,3.16202e-322,-1.34194
3.91859,-1.37708,-1.34842,-2.02762,1.67753,0.0839881,3.16202e-322,-1.34198
3.92662,-1.37705,-1.34807,-2.02767,1.67731,0.0842633,3.16202e-322,-1.34197
3.93468,-1.37704,-1.34772,-2.02768,1.67718,0.0845146,3.16202e-322,-1.34194
3.94265,-1.37704,-1.34745,-2.02767,1.67719,0.0847899,3.16202e-322,-1.34195
3.95067,-1.37704,-1.34713,-2.02765,1.67713,0.0850292,3.16202e-322,-1.34199
3.95869,-1.37705,-1.3469,-2.02765,1.677,0.0852925,3.16202e-322,-1.34194
3.9667,-1.37711,-1.3467,-2.0277,1.67683,0.0856161,3.16202e-322,-1.34201
3.97468,-1.37708,-1.34658,-2.0277,1.67668,0.0858554,3.16202e-322,-1.34198
3.98262,-1.37709,-1.34649,-2.02774,1.67658,0.0861906,3.16202e-322,-1.34199
3.99077,-1.37709,-1.34645,-2.02773,1.67653,0.0865254,3.16202e-322,-1.342
3.99879,-1.37713,-1.34638,-2.02774,1.67654,0.0868006,3.16202e-322,-1.34203
4.00671,-1.3771,-1.34638,-2.02774,1.67653,0.0871242,3.16202e-322,-1.34203
4.01458,-1.37711,-1.34634,-2.02775,1.67653,0.0873755,3.16202e-322,-1.342
4.02265,-1.37711,-1.34634,-2.02775,1.67652,0.0875549,3.16202e-322,-1.34205
4.03066,-1.3771,-1.34631,-2.02779,1.6765,0.0876863,3.16202e-322,-1.34204
4.03874,-1.3771,-1.34631,-2.02777,1.67653,0.0877103,3.16202e-322,-1.34205
4.04663,-1.37713,-1.34632,-2.02777,1.67654,0.0877702,3.16202e-322,-1.34201
4.05472,-1.37711,-1.34631,-2.02776,1.6765,0.0877343,3.16202e-322,-1.34204
4.06264,-1.37714,-1.3463,-2.02777,1.67653,0.0877343,3.16202e-322,-1.34205
4.07074,-1.37711,-1.34636,-2.02777,1.67651,0.0877462,3.16202e-322,-1.34207
4.07865,-1.37716,-1.34632,-2.02779,1.67654,0.0877343,3.16202e-322,-1.34209
4.08668,-1.37711,-1.34633,-2.02776,1.67654,0.0877702,3.16202e-322,-1.34206
4.09466,-1.37711,-1.34634,-2.02776,1.67654,0.0877223,3.16202e-322,-1.34209
4.10272,-1.37711,-1.34634,-2.02776,1.67654,0.0877343,3.16202e-322,-1.34206
4.11059,-1.37716,-1.34631,-2.02777,1.67654,0.0877343,3.16202e-322,-1.34211
4.1186,-1.37715,-1.34636,-2.02779,1.67656,0.0877223,3.16202e-322,-1.3421
4.12663,-1.37715,-1.34636,-2.0278,1.67653,0.0877103,3.16202e-322,-1.34211
4.13461,-1.3772,-1.34637,-2.0278,1.67657,0.0876983,3.16202e-322,-1.3421
4.14269,-1.37713,-1.34636,-2.02774,1.67657,0.0876983,3.16202e-322,-1.3421
4.15063,-1.37713,-1.34638,-2.02774,1.67659,0.0876863,3.16202e-322,-1.34211
4.15866,-1.37719,-1.34637,-2.02773,1.67659,0.0876743,3.16202e-322,-1.34209
4.16659,-1.37716,-1.3464,-2.02774,1.67658,0.0876384,3.16202e-322,-1.34209
4.17459,-1.37716,-1.34638,-2.02775,1.67663,0.0876624,3.16202e-322,-1.34211
4.1826,-1.37713,-1.3464,-2.02772,1.6766,0.0876384,3.16202e-322,-1.3421
4.1906,-1.37715,-1.3464,-2.02775,1.67664,0.0876504,3.16202e-322,-1.3421
4.19868,-1.37714,-1.3464,-2.02775,1.6766,0.0876624,3.16202e-322,-1.34207
4.20667,-1.37713,-1.34644,-2.02774,1.67664,0.0876268,3.16202e-322,-1.3421
4.21461,-1.37716,-1.34642,-2.02773,1.67663,0.0876504,3.16202e-322,-1.34212
4.2225,-1.37717,-1.34639,-2.02773,1.67666,0.0876268,3.16202e-322,-1.34209
4.23054,-1.37716,-1.34642,-2.02775,1.67664,0.0876148,3.16202e-322,-1.3421
4.23867,-1.37713,-1.34643,-2.0277,1.67666,0.0876504,3.16202e-322,-1.3421
4.24662,-1.37714,-1.34643,-2.02769,1.67666,0.0875908,3.16202e-322,-1.3421
4.25469,-1.37713,-1.34643,-2.0277,1.67669,0.0876384,3.16202e-322,-1.34209
4.26267,-1.37713,-1.34643,-2.02769,1.67668,0.0876504,3.16202e-322,-1.34206
4.27065,-1.37713,-1.34643,-2.02765,1.67677,0.0876504,3.16202e-322,-1.34206
4.27863,-1.37714,-1.34644,-2.02767,1.6767,0.0876384,3.16202e-322,-1.34205
4.28668,-1.37715,-1.34644,-2.02767,1.67669,0.0876384,3.16202e-322,-1.34205
4.29468,-1.37714,-1.3464,-2.02764,1.67669,0.0876624,3.16202e-322,-1.34204
4.30274,-1.37714,-1.34644,-2.02763,1.67669,0.0876504,3.16202e-322,-1.34206
4.31069,-1.37717,-1.34643,-2.02764,1.67671,0.0876504,3.16202e-322,-1.34209
4.31867,-1.37716,-1.34643,-2.02763,1.67665,0.0876268,3.16202e-322,-1.34212
4.32672,-1.37714,-1.34643,-2.02764,1.67671,0.0876028,3.16202e-322,-1.34206
4.33468,-1.37716,-1.34643,-2.02768,1.67671,0.0876384,3.16202e-322,-1.34209
4.3427,-1.37714,-1.34642,-2.02765,1.67672,0.0876148,3.16202e-322,-1.34206
4.35068,-1.37715,-1.34644,-2.02763,1.67668,0.0876028,3.16202e-322,-1.34201
4.35878,-1.37719,-1.3464,-2.02767,1.67669,0.0876384,3.16202e-322,-1.34209
4.36668,-1.37713,-1.34644,-2.02762,1.67675,0.0876624,3.16202e-322,-1.34206
4.37467,-1.37711,-1.34644,-2.02767,1.6767,0.0876268,3.16202e-322,-1.34203
4.3827,-1.37713,-1.34644,-2.02764,1.67671,0.0876384,3.16202e-322,-1.34207
4.39066,-1.37714,-1.34642,-2.02763,1.67674,0.0876148,3.16202e-322,-1.3421
4.39869,-1.37715,-1.34642,-2.02762,1.67672,0.0876268,3.16202e-322,-1.34204
4.40665,-1.37716,-1.34645,-2.02765,1.67668,0.0876268,3.16202e-322,-1.34203
4.41464,-1.37717,-1.34643,-2.02768,1.67669,0.0876028,3.16202e-322,-1.34206
4.42262,-1.37715,-1.34643,-2.02762,1.67671,0.0876504,3.16202e-322,-1.34206
4.43067,-1.37715,-1.34643,-2.02762,1.67666,0.0876148,3.16202e-322,-1.34206
4.43871,-1.37715,-1.34642,-2.02764,1.6767,0.0876268,3.16202e-322,-1.34204
4.44669,-1.3771,-1.34643,-2.02763,1.67669,0.0876148,3.16202e-322,-1.34206
4.45469,-1.37713,-1.34638,-2.02764,1.6767,0.0876148,3.16202e-322,-1.34206
4.46268,-1.37713,-1.34645,-2.02763,1.67669,0.0876148,3.16202e-322,-1.34209
4.47065,-1.37716,-1.3464,-2.02765,1.67669,0.0876148,3.16202e-322,-1.34205
4.47864,-1.37714,-1.34643,-2.02762,1.67671,0.0876268,3.16202e-322,-1.34206
4.48669,-1.37714,-1.34643,-2.02764,1.67671,0.0875908,3.16202e-322,-1.34209
4.49465,-1.37714,-1.34643,-2.02763,1.67669,0.0876268,3.16202e-322,-1.34207
4.50275,-1.37714,-1.34644,-2.02759,1.6767,0.0876504,3.16202e-322,-1.34203
4.51071,-1.37716,-1.34643,-2.02759,1.67668,0.0876384,3.16202e-322,-1.34205
4.51851,-1.37717,-1.3464,-2.02758,1.6767,0.0876384,3.16202e-322,-1.34205
4.52654,-1.37716,-1.3464,-2.02761,1.67671,0.0876268,3.16202e-322,-1.3421
4.53455,-1.37714,-1.34643,-2.02758,1.67671,0.0876268,3.16202e-322,-1.34207
4.54259,-1.37716,-1.34644,-2.02761,1.67672,0.0876148,3.16202e-322,-1.34204
4.55061,-1.37717,-1.34643,-2.02761,1.67669,0.0876028,3.16202e-322,-1.34204
4.55865,-1.37714,-1.34643,-2.02759,1.67671,0.0876504,3.16202e-322,-1.34206
4.56674,-1.37713,-1.34644,-2.02758,1.67669,0.0876148,3.16202e-322,-1.34206
4.5747,-1.37715,-1.34642,-2.02758,1.67671,0.0876384,3.16202e-322,-1.34207
4.58264,-1.37716,-1.34642,-2.02758,1.67671,0.0876268,3.16202e-322,-1.34211
4.59068,-1.37713,-1.34643,-2.02763,1.67669,0.0876268,3.16202e-322,-1.34209
4.59868,-1.37711,-1.34639,-2.02761,1.67674,0.0876504,3.16202e-322,-1.3421
4.60674,-1.37715,-1.34643,-2.02761,1.6767,0.0876504,3.16202e-322,-1.34205
4.61454,-1.37719,-1.34645,-2.02759,1.67669,0.0876268,3.16202e-322,-1.34209
4.62252,-1.37715,-1.34644,-2.02759,1.67672,0.0876268,3.16202e-322,-1.34205
4.63059,-1.37714,-1.3464,-2.02761,1.67669,0.0876148,3.16202e-322,-1.34206
4.63861,-1.37713,-1.34648,-2.02761,1.67672,0.0876384,3.16202e-322,-1.34207
4.64665,-1.37715,-1.3464,-2.02762,1.67671,0.0876028,3.16202e-322,-1.34207
4.65458,-1.37713,-1.34645,-2.02761,1.67666,0.0876028,3.16202e-322,-1.34206
4.66271,-1.37715,-1.34643,-2.02757,1.6767,0.0876504,3.16202e-322,-1.34206
4.6707,-1.37715,-1.34638,-2.02762,1.6767,0.0876268,3.16202e-322,-1.34207
4.67868,-1.37717,-1.34644,-2.02761,1.67668,0.0876384,3.16202e-322,-1.34209
4.6867,-1.37715,-1.34643,-2.02762,1.67671,0.0876148,3.16202e-322,-1.34209
4.69467,-1.37711,-1.34644,-2.02761,1.67669,0.0876028,3.16202e-322,-1.34206
4.70273,-1.37714,-1.34643,-2.02757,1.67669,0.0876148,3.16202e-322,-1.34207
4.7107,-1.37713,-1.34645,-2.02761,1.67669,0.0876268,3.16202e-322,-1.34206
4.71867,-1.37715,-1.34643,-2.02758,1.67672,0.0876384,3.16202e-322,-1.34205
4.72667,-1.37711,-1.34643,-2.02758,1.67671,0.0876504,3.16202e-322,-1.34207
4.73466,-1.37717,-1.34644,-2.02756,1.67668,0.0876028,3.16202e-322,-1.34205
4.74275,-1.37716,-1.34644,-2.02762,1.6767,0.0876028,3.16202e-322,-1.34204
4.75067,-1.37717,-1.34643,-2.02757,1.67671,0.0876028,3.16202e-322,-1.34207
4.75864,-1.37715,-1.34643,-2.02758,1.6767,0.0876028,3.16202e-322,-1.34209
4.76672,-1.37717,-1.34644,-2.02757,1.67668,0.0876384,3.16202e-322,-1.34207
4.77463,-1.37717,-1.34645,-2.02764,1.67669,0.0876148,3.16202e-322,-1.34207
4.78262,-1.37711,-1.34645,-2.02759,1.67668,0.0876148,3.16202e-322,-1.34206
4.79067,-1.37719,-1.34642,-2.02761,1.67671,0.0876268,3.16202e-322,-1.34206
4.79867,-1.37716,-1.34643,-2.02762,1.67668,0.0876268,3.16202e-322,-1.34207
4.80663,-1.37719,-1.34645,-2.02759,1.67666,0.0876268,3.16202e-322,-1.34206
4.81454,-1.37714,-1.34643,-2.02757,1.6767,0.0876028,3.16202e-322,-1.34204
4.82261,-1.37715,-1.34645,-2.02761,1.6767,0.0876504,3.16202e-322,-1.34205
4.83063,-1.37713,-1.34646,-2.02761,1.6767,0.0876268,3.16202e-322,-1.34206
4.83871,-1.37717,-1.34646,-2.02761,1.67668,0.0876624,3.16202e-322,-1.34205
4.84672,-1.37716,-1.34645,-2.02758,1.67672,0.0876504,3.16202e-322,-1.34209
4.85472,-1.37717,-1.34639,-2.02759,1.67669,0.0876028,3.16202e-322,-1.34207
4.86265,-1.37711,-1.34643,-2.02762,1.67668,0.0876268,3.16202e-322,-1.34204
4.87073,-1.37719,-1.34644,-2.02759,1.67668,0.0876384,3.16202e-322,-1.3421
4.87866,-1.37719,-1.34643,-2.02759,1.67668,0.0875908,3.16202e-322,-1.34205
4.88676,-1.37715,-1.34643,-2.02759,1.67674,0.0876268,3.16202e-322,-1.34206
4.89469,-1.37713,-1.34643,-2.02758,1.67669,0.0876504,3.16202e-322,-1.34204
4.90272,-1.37715,-1.34643,-2.02761,1.67666,0.0876384,3.16202e-322,-1.34204
4.91053,-1.37715,-1.34645,-2.02761,1.6767,0.0876624,3.16202e-322,-1.34207
4.91853,-1.37713,-1.34643,-2.02763,1.6767,0.0876504,3.16202e-322,-1.34206
4.92658,-1.37714,-1.34639,-2.02762,1.67669,0.0876384,3.16202e-322,-1.34209
4.93458,-1.37714,-1.34643,-2.02757,1.67669,0.0876504,3.16202e-322,-1.34209
4.94265,-1.37714,-1.34645,-2.02762,1.67669,0.0876504,3.16202e-322,-1.34204
4.95068,-1.37713,-1.34642,-2.02759,1.6767,0.0876268,3.16202e-322,-1.34206
4.95868,-1.37715,-1.34644,-2.02758,1.67671,0.0876268,3.16202e-322,-1.34207
4.96667,-1.37719,-1.34645,-2.02762,1.67671,0.0876384,3.16202e-322,-1.34207
4.97466,-1.37719,-1.34645,-2.02762,1.67669,0.0876384,3.16202e-322,-1.34206
4.98269,-1.37717,-1.34643,-2.02759,1.67668,0.0876504,3.16202e-322,-1.34206
4.9907,-1.37716,-1.3464,-2.02759,1.6767,0.0876504,3.16202e-322,-1.34205
4.99867,-1.37716,-1.34646,-2.02758,1.67669,0.0876028,3.16202e-322,-1.34206
5.00675,-1.37715,-1.34643,-2.02762,1.67671,0.0876268,3.16202e-322,-1.34207
5.0146,-1.37711,-1.3464,-2.02763,1.67671,0.0876384,3.16202e-322,-1.34205
5.02266,-1.37715,-1.34643,-2.02759,1.67669,0.0876268,3.16202e-322,-1.34207
5.03067,-1.37717,-1.34644,-2.02759,1.67671,0.0876268,3.16202e-322,-1.34207
5.03869,-1.37715,-1.34642,-2.02759,1.6767,0.0876384,3.16202e-322,-1.34209
5.04667,-1.37713,-1.34645,-2.02758,1.6767,0.0876384,3.16202e-322,-1.34207
5.05461,-1.37715,-1.34643,-2.02758,1.67668,0.0876384,3.16202e-322,-1.34209
5.06268,-1.37715,-1.34643,-2.02761,1.67669,0.0876624,3.16202e-322,-1.34207
5.07063,-1.37715,-1.34644,-2.02761,1.67666,0.0876268,3.16202e-322,-1.34209
5.07866,-1.37714,-1.34642,-2.02762,1.6767,0.0876384,3.16202e-322,-1.3421
5.08667,-1.37716,-1.34645,-2.02758,1.67672,0.0876028,3.16202e-322,-1.34207
5.09459,-1.37714,-1.34643,-2.02761,1.6767,0.0876148,3.16202e-322,-1.34206
5.10275,-1.37715,-1.34643,-2.02759,1.67672,0.0876268,3.16202e-322,-1.34205
5.11054,-1.37717,-1.34644,-2.02757,1.6767,0.0876028,3.16202e-322,-1.34209
5.11854,-1.37719,-1.34645,-2.02759,1.67668,0.0876268,3.16202e-322,-1.34211
5.12656,-1.37716,-1.34644,-2.02759,1.6767,0.0876384,3.16202e-322,-1.34206
5.13457,-1.37716,-1.34643,-2.02758,1.67671,0.0876624,3.16202e-322,-1.34204
5.14263,-1.37717,-1.3464,-2.02763,1.6767,0.0876268,3.16202e-322,-1.34207
5.1506,-1.37714,-1.34643,-2.02756,1.6767,0.0876148,3.16202e-322,-1.34209
5.15861,-1.37715,-1.34643,-2.02761,1.67669,0.0876268,3.16202e-322,-1.34207
5.16659,-1.37716,-1.34642,-2.02759,1.67668,0.0876148,3.16202e-322,-1.34207
5.17467,-1.37715,-1.34645,-2.02761,1.6767,0.0876148,3.16202e-322,-1.34206
5.18256,-1.37714,-1.34643,-2.02758,1.6767,0.0876028,3.16202e-322,-1.34205
5.19059,-1.37715,-1.34642,-2.02758,1.67669,0.0876384,3.16202e-322,-1.34207
5.19867,-1.37711,-1.34642,-2.02759,1.67671,0.0876148,3.16202e-322,-1.34205
5.20675,-1.3771,-1.34643,-2.02761,1.6767,0.0876268,3.16202e-322,-1.34206
5.21451,-1.37717,-1.34643,-2.02758,1.67669,0.0876268,3.16202e-322,-1.34206
5.22252,-1.37713,-1.34643,-2.02761,1.67666,0.0876384,3.16202e-322,-1.34209
5.2306,-1.37716,-1.34645,-2.02758,1.67672,0.0876268,3.16202e-322,-1.34205
5.23863,-1.37715,-1.34645,-2.02757,1.67669,0.0876268,3.16202e-322,-1.34205
5.24665,-1.37716,-1.34644,-2.02758,1.6767,0.0876028,3.16202e-322,-1.34209
5.25466,-1.37716,-1.34639,-2.02761,1.67668,0.0876384,3.16202e-322,-1.34205
5.26272,-1.37715,-1.34642,-2.02762,1.6767,0.0876384,3.16202e-322,-1.34211
5.27069,-1.37714,-1.34643,-2.02761,1.67674,0.0876028,3.16202e-322,-1.3421
5.27866,-1.37714,-1.34644,-2.02762,1.67672,0.0876268,3.16202e-322,-1.34206
5.28667,-1.37715,-1.34645,-2.02761,1.6767,0.0876028,3.16202e-322,-1.34204
5.29465,-1.37713,-1.34644,-2.02762,1.6767,0.0876268,3.16202e-322,-1.34209
5.30269,-1.37717,-1.34645,-2.02757,1.67668,0.0875908,3.16202e-322,-1.34209
5.31059,-1.37716,-1.34645,-2.02761,1.67671,0.0876504,3.16202e-322,-1.34207
5.31854,-1.37714,-1.34643,-2.02761,1.67669,0.0876268,3.16202e-322,-1.34211
5.3266,-1.37713,-1.34643,-2.02758,1.67666,0.0876504,3.16202e-322,-1.34207
5.33459,-1.37716,-1.34646,-2.02759,1.6767,0.0876268,3.16202e-322,-1.34206
5.34263,-1.37715,-1.3464,-2.02758,1.6767,0.0876268,3.16202e-322,-1.34207
5.35059,-1.37713,-1.34645,-2.02762,1.6767,0.0876504,3.16202e-322,-1.34205
5.35867,-1.37714,-1.34644,-2.02758,1.67668,0.0876148,3.16202e-322,-1.34206
5.36663,-1.37714,-1.34645,-2.02757,1.67671,0.0876384,3.16202e-322,-1.34207
5.37463,-1.37715,-1.34643,-2.02759,1.6767,0.0876148,3.16202e-322,-1.3421
5.38261,-1.37716,-1.3464,-2.02762,1.67669,0.0876268,3.16202e-322,-1.34209
5.39065,-1.37717,-1.34648,-2.02764,1.67672,0.0876268,3.16202e-322,-1.34205
5.39859,-1.37715,-1.34642,-2.02761,1.6767,0.0876624,3.16202e-322,-1.34207
5.40658,-1.37716,-1.34644,-2.02761,1.6767,0.0876028,3.16202e-322,-1.34207
5.41448,-1.37716,-1.34643,-2.02761,1.67669,0.0876268,3.16202e-322,-1.3421
5.42249,-1.37715,-1.34644,-2.02758,1.6767,0.0876384,3.16202e-322,-1.34207
5.43055,-1.37714,-1.3464,-2.02758,1.67669,0.0876384,3.16202e-322,-1.34209
5.43862,-1.37715,-1.34642,-2.02758,1.67669,0.0876268,3.16202e-322,-1.34207
5.44664,-1.37714,-1.34643,-2.02761,1.6767,0.0876384,3.16202e-322,-1.34206
5.45465,-1.37713,-1.34645,-2.02759,1.6767,0.0876028,3.16202e-322,-1.34207
5.46259,-1.37717,-1.34643,-2.02757,1.6767,0.0876148,3.16202e-322,-1.34206
5.47066,-1.37717,-1.34644,-2.02761,1.67671,0.0876268,3.16202e-322,-1.34205
5.47868,-1.37714,-1.34642,-2.02759,1.67668,0.0876148,3.16202e-322,-1.3421
5.48671,-1.37715,-1.34644,-2.02761,1.67671,0.0876384,3.16202e-322,-1.34207
5.49459,-1.37713,-1.34645,-2.02763,1.67671,0.0876504,3.16202e-322,-1.34206
5.50264,-1.37713,-1.34646,-2.02762,1.6767,0.0876268,3.16202e-322,-1.34206
5.51058,-1.37714,-1.34643,-2.02763,1.6767,0.0876384,3.16202e-322,-1.34205
5.51847,-1.37715,-1.34642,-2.02762,1.67671,0.0876028,3.16202e-322,-1.34207
5.52656,-1.37716,-1.34645,-2.02761,1.67666,0.0876268,3.16202e-322,-1.3421
5.53458,-1.37714,-1.34642,-2.02757,1.67671,0.0876504,3.16202e-322,-1.34207
5.54262,-1.37716,-1.34642,-2.02761,1.67672,0.0876268,3.16202e-322,-1.34209
5.55057,-1.37717,-1.34645,-2.02758,1.67668,0.0876384,3.16202e-322,-1.34207
5.55869,-1.37714,-1.3464,-2.02758,1.67668,0.0876384,3.16202e-322,-1.34206
5.56659,-1.37719,-1.34643,-2.02759,1.67669,0.0875908,3.16202e-322,-1.34207
5.57463,-1.37717,-1.34646,-2.02764,1.67671,0.0876384,3.16202e-322,-1.34207
5.58269,-1.37713,-1.34642,-2.02761,1.67669,0.0876384,3.16202e-322,-1.34206
5.59066,-1.37716,-1.3464,-2.02759,1.67666,0.0876148,3.16202e-322,-1.34209
5.59859,-1.37713,-1.34643,-2.02763,1.67669,0.0876504,3.16202e-322,-1.34205
5.60658,-1.37715,-1.3464,-2.02761,1.67668,0.0875908,3.16202e-322,-1.34207
5.61456,-1.37711,-1.34644,-2.02759,1.67669,0.0876268,3.16202e-322,-1.34206
5.6226,-1.37715,-1.34643,-2.02762,1.6767,0.0876028,3.16202e-322,-1.34206
5.63063,-1.37713,-1.34648,-2.02761,1.67669,0.0876504,3.16202e-322,-1.34205
5.63863,-1.37714,-1.3464,-2.02757,1.67671,0.0876268,3.16202e-322,-1.34207
5.64663,-1.37717,-1.34643,-2.02761,1.67669,0.0876148,3.16202e-322,-1.34206
5.65456,-1.37711,-1.34643,-2.02755,1.67666,0.0876028,3.16202e-322,-1.34204
5.66263,-1.37713,-1.34643,-2.02756,1.67672,0.0876148,3.16202e-322,-1.34207
5.67065,-1.37711,-1.34646,-2.02762,1.67669,0.0876148,3.16202e-322,-1.34207
5.67859,-1.37714,-1.34643,-2.02761,1.6767,0.0876504,3.16202e-322,-1.34206
5.68671,-1.37715,-1.34643,-2.02758,1.67669,0.0876384,3.16202e-322,-1.34204
5.69462,-1.37714,-1.34645,-2.02758,1.67669,0.0876504,3.16202e-322,-1.34206
5.70262,-1.37716,-1.34643,-2.02762,1.67671,0.0876148,3.16202e-322,-1.34205
5.71052,-1.37714,-1.34643,-2.02762,1.67668,0.0876504,3.16202e-322,-1.34206
5.71855,-1.37715,-1.34643,-2.02757,1.67672,0.0876384,3.16202e-322,-1.34206
5.72655,-1.37716,-1.34644,-2.02761,1.67668,0.0876028,3.16202e-322,-1.34209
5.73461,-1.37715,-1.34643,-2.02759,1.6767,0.0876504,3.16202e-322,-1.34207
5.74261,-1.37715,-1.34643,-2.02758,1.67668,0.0876148,3.16202e-322,-1.3421
5.7506,-1.37714,-1.34642,-2.02759,1.6767,0.0876504,3.16202e-322,-1.34207
5.75863,-1.37711,-1.34644,-2.02758,1.67671,0.0876028,3.16202e-322,-1.34207
5.76662,-1.37716,-1.34644,-2.02761,1.67668,0.0876148,3.16202e-322,-1.34206
5.77458,-1.37715,-1.34645,-2.02759,1.6767,0.0876504,3.16202e-322,-1.3421
5.78261,-1.37716,-1.34645,-2.02761,1.67671,0.0876268,3.16202e-322,-1.34206
5.79063,-1.37715,-1.34643,-2.02761,1.67669,0.0876148,3.16202e-322,-1.34205
5.79857,-1.37715,-1.34644,-2.02759,1.67672,0.0876268,3.16202e-322,-1.34209
5.80667,-1.37719,-1.34644,-2.02761,1.6767,0.0876504,3.16202e-322,-1.34206
5.81452,-1.37713,-1.34644,-2.02759,1.67672,0.0876268,3.16202e-322,-1.34209
5.82243,-1.37715,-1.34642,-2.02758,1.67668,0.0876148,3.16202e-322,-1.34209
5.83049,-1.37716,-1.34645,-2.02761,1.67671,0.0876148,3.16202e-322,-1.34206
5.83857,-1.37716,-1.34642,-2.02762,1.67669,0.0876268,3.16202e-322,-1.34206
5.84658,-1.37717,-1.34645,-2.02758,1.67669,0.0876148,3.16202e-322,-1.34205
5.85456,-1.37714,-1.34643,-2.02762,1.67668,0.0876148,3.16202e-322,-1.34205
5.86257,-1.37716,-1.34644,-2.02762,1.67668,0.0876148,3.16202e-322,-1.34204
5.87058,-1.37713,-1.34645,-2.02761,1.67669,0.0876028,3.16202e-322,-1.34207
5.87864,-1.37717,-1.34643,-2.02758,1.67671,0.0876384,3.16202e-322,-1.34207
5.88665,-1.37714,-1.34642,-2.02761,1.67671,0.0876028,3.16202e-322,-1.34206
5.89468,-1.37716,-1.34644,-2.02761,1.67668,0.0876268,3.16202e-322,-1.34205
5.90432,-1.37715,-1.3464,-2.02758,1.6767,0.0876148,3.16202e-322,-1.34205
5.9106,-1.37716,-1.34642,-2.02758,1.67672,0.0876384,3.16202e-322,-1.34209
5.91856,-1.37716,-1.34645,-2.02761,1.67671,0.0876268,3.16202e-322,-1.34207
5.9266,-1.37719,-1.34645,-2.02757,1.67669,0.0876148,3.16202e-322,-1.34206
5.93462,-1.37717,-1.34643,-2.02759,1.67669,0.0876504,3.16202e-322,-1.34205
5.9427,-1.37717,-1.34642,-2.02759,1.67669,0.0876268,3.16202e-322,-1.34207
5.95066,-1.37714,-1.34642,-2.02762,1.67666,0.0876268,3.16202e-322,-1.34206
5.95864,-1.37715,-1.34644,-2.02761,1.67668,0.0876504,3.16202e-322,-1.34206
5.96661,-1.37715,-1.34644,-2.02762,1.67669,0.0876148,3.16202e-322,-1.34207
5.97461,-1.37713,-1.34642,-2.02758,1.67671,0.0876268,3.16202e-322,-1.34204
5.9827,-1.37715,-1.34642,-2.02761,1.67671,0.0876148,3.16202e-322,-1.34209
5.99064,-1.37717,-1.34645,-2.02759,1.67669,0.0876268,3.16202e-322,-1.34209
5.99863,-1.37713,-1.34646,-2.02759,1.67668,0.0876504,3.16202e-322,-1.34209
6.00654,-1.37719,-1.34639,-2.02761,1.67668,0.0876504,3.16202e-322,-1.34207
6.01451,-1.37716,-1.34644,-2.02758,1.67671,0.0876504,3.16202e-322,-1.34207
6.02253,-1.37717,-1.34643,-2.02762,1.67671,0.0876504,3.16202e-322,-1.3421
6.03052,-1.37715,-1.34643,-2.02757,1.6767,0.0876148,3.16202e-322,-1.34207
6.0386,-1.37714,-1.34648,-2.02758,1.6767,0.0876268,3.16202e-322,-1.34209
6.0466,-1.37716,-1.34645,-2.02755,1.67668,0.0876268,3.16202e-322,-1.34205
6.0546,-1.37716,-1.34642,-2.02759,1.67669,0.0876028,3.16202e-322,-1.34209
6.06262,-1.37714,-1.34643,-2.02761,1.67669,0.0876268,3.16202e-322,-1.34209
6.07063,-1.37715,-1.34643,-2.02759,1.67666,0.0876384,3.16202e-322,-1.34205
6.07862,-1.37716,-1.34643,-2.02759,1.67671,0.0876028,3.16202e-322,-1.34204
6.08659,-1.37716,-1.34642,-2.02761,1.67668,0.0876384,3.16202e-322,-1.34207
6.09463,-1.37716,-1.34643,-2.02761,1.67671,0.0876148,3.16202e-322,-1.34206
6.10257,-1.37715,-1.3464,-2.02761,1.6767,0.0876028,3.16202e-322,-1.3421
6.11058,-1.37715,-1.34645,-2.02765,1.67669,0.0876148,3.16202e-322,-1.3421
6.11846,-1.37719,-1.34646,-2.02764,1.67668,0.0876384,3.16202e-322,-1.34205
6.12651,-1.37716,-1.34648,-2.02759,1.6767,0.0876148,3.16202e-322,-1.34206
6.13454,-1.37715,-1.3464,-2.02758,1.67672,0.0876384,3.16202e-322,-1.34209
6.14258,-1.3771,-1.34644,-2.02758,1.67669,0.0875908,3.16202e-322,-1.3421
6.15057,-1.37715,-1.3464,-2.02758,1.67668,0.0876384,3.16202e-322,-1.34207
6.15856,-1.37715,-1.34644,-2.02761,1.67669,0.0876268,3.16202e-322,-1.3421
6.16667,-1.37711,-1.34642,-2.02761,1.67666,0.0876268,3.16202e-322,-1.34211
6.17458,-1.37716,-1.34642,-2.02759,1.67671,0.0876268,3.16202e-322,-1.34209
6.1826,-1.37714,-1.34644,-2.02758,1.6767,0.0876148,3.16202e-322,-1.34209
6.19061,-1.37715,-1.34643,-2.02758,1.67671,0.0876504,3.16202e-322,-1.34209
6.19859,-1.37715,-1.34643,-2.02763,1.6767,0.0876268,3.16202e-322,-1.34207
6.20663,-1.37716,-1.34643,-2.02757,1.67666,0.0876268,3.16202e-322,-1.34207
6.21466,-1.37714,-1.34643,-2.02758,1.6767,0.0876268,3.16202e-322,-1.3421
6.2226,-1.37716,-1.34644,-2.02762,1.67669,0.0876504,3.16202e-322,-1.34203
6.23055,-1.37711,-1.34644,-2.02758,1.67668,0.0876384,3.16202e-322,-1.34204
6.23867,-1.37716,-1.34643,-2.02758,1.67671,0.0876148,3.16202e-322,-1.34209
6.24667,-1.37714,-1.34644,-2.02763,1.67669,0.0876028,3.16202e-322,-1.34209
6.25462,-1.37714,-1.34643,-2.02761,1.67666,0.0876504,3.16202e-322,-1.34207
6.26261,-1.37717,-1.34643,-2.02758,1.67671,0.0876504,3.16202e-322,-1.34209
6.27058,-1.37714,-1.34645,-2.02758,1.67671,0.0876504,3.16202e-322,-1.34207
6.27862,-1.37715,-1.34643,-2.02758,1.67671,0.0876148,3.16202e-322,-1.34205
6.28663,-1.37714,-1.34642,-2.02759,1.6767,0.0876384,3.16202e-322,-1.3421
6.29463,-1.37715,-1.34643,-2.02762,1.67672,0.0876268,3.16202e-322,-1.34204
6.30264,-1.37717,-1.34645,-2.02757,1.6767,0.0876384,3.16202e-322,-1.3421
6.3105,-1.37714,-1.3464,-2.02762,1.67669,0.0876268,3.16202e-322,-1.34207
6.31853,-1.37715,-1.34645,-2.02759,1.67668,0.0876148,3.16202e-322,-1.34206
6.32652,-1.37714,-1.34639,-2.02761,1.6767,0.0876384,3.16202e-322,-1.34205
6.33453,-1.37715,-1.34644,-2.02758,1.6767,0.0876268,3.16202e-322,-1.34209
6.34263,-1.37716,-1.34643,-2.02764,1.67671,0.0876028,3.16202e-322,-1.34206
6.3506,-1.37715,-1.34642,-2.02761,1.6767,0.0876148,3.16202e-322,-1.34206
6.35856,-1.37715,-1.3464,-2.02762,1.6767,0.0876384,3.16202e-322,-1.34205
6.36656,-1.37717,-1.34642,-2.02761,1.67668,0.0876384,3.16202e-322,-1.34204
6.37453,-1.37715,-1.34643,-2.02761,1.6767,0.0876268,3.16202e-322,-1.34207
6.38247,-1.37715,-1.34646,-2.02761,1.6767,0.0876028,3.16202e-322,-1.34209
6.39046,-1.37716,-1.34643,-2.02762,1.67671,0.0876268,3.16202e-322,-1.34206
6.39857,-1.37714,-1.34645,-2.02761,1.67666,0.0876504,3.16202e-322,-1.34207
