Time,X,Y,Z,R,P,Y
0.247275,0.111236,0.0971204,0.352059,-3.13519,-0.00476601,0.00311446
0.255159,0.111236,0.0971204,0.352059,-3.13519,-0.00476601,0.00311446
0.263206,0.111236,0.0971204,0.352059,-3.13519,-0.00476601,0.00311446
0.271182,0.111236,0.0971204,0.352059,-3.13519,-0.00476601,0.00311446
0.279199,0.111236,0.0971204,0.352059,-3.13519,-0.00476601,0.00311446
0.28723,0.111236,0.0971204,0.352059,-3.13519,-0.00476601,0.00311446
0.29524,0.111236,0.0971204,0.352059,-3.13519,-0.00476601,0.00311446
0.303264,0.111237,0.0971205,0.352059,-3.13522,-0.00477789,0.00311442
0.311255,0.111237,0.0971205,0.352059,-3.13522,-0.00477789,0.00311442
0.319245,0.111237,0.0971205,0.352059,-3.13522,-0.00477789,0.00311442
0.327263,0.111237,0.0971205,0.352059,-3.13522,-0.00477789,0.00311442
0.335307,0.111237,0.0971205,0.352059,-3.13522,-0.00477789,0.00311442
0.343335,0.111237,0.0971205,0.352059,-3.13522,-0.00477789,0.00311442
0.351329,0.111237,0.0971205,0.352059,-3.13522,-0.00477789,0.00311442
0.359298,0.111237,0.0971205,0.352059,-3.13522,-0.00477789,0.00311442
0.367273,0.111237,0.0971205,0.352059,-3.13522,-0.00477789,0.00311442
0.375248,0.111237,0.0971205,0.352059,-3.13522,-0.00477789,0.00311442
0.383347,0.111237,0.0971205,0.352059,-3.13522,-0.00477789,0.00311442
0.391304,0.111237,0.0971205,0.352059,-3.13522,-0.00477789,0.00311442
0.399213,0.111237,0.0971205,0.352059,-3.13522,-0.00477789,0.00311442
0.407188,0.111239,0.097116,0.352077,-3.13511,-0.00479056,0.00312562
0.415221,0.111239,0.097116,0.352077,-3.13511,-0.00479056,0.00312562
0.423175,0.111239,0.097116,0.352077,-3.13511,-0.00479056,0.00312562
0.431155,0.111239,0.097116,0.352077,-3.13511,-0.00479056,0.00312562
0.439153,0.111239,0.097116,0.352077,-3.13511,-0.00479056,0.00312562
0.447212,0.111239,0.097116,0.352077,-3.13511,-0.00479056,0.00312562
0.455174,0.111239,0.097116,0.352077,-3.13511,-0.00479056,0.00312562
0.463192,0.111239,0.097116,0.352077,-3.13511,-0.00479056,0.00312562
0.471208,0.111239,0.097116,0.352077,-3.13511,-0.00479056,0.00312562
0.479147,0.111239,0.097116,0.352077,-3.13511,-0.00479056,0.00312562
0.48716,0.111239,0.097116,0.352077,-3.13511,-0.00479056,0.00312562
0.495126,0.111239,0.097116,0.352077,-3.13511,-0.00479056,0.00312562
0.503154,0.111237,0.0971188,0.352073,-3.13516,-0.00476607,0.00311398
0.511164,0.111237,0.0971188,0.352073,-3.13516,-0.00476607,0.00311398
0.519113,0.111237,0.0971188,0.352073,-3.13516,-0.00476607,0.00311398
0.52716,0.111237,0.0971188,0.352073,-3.13516,-0.00476607,0.00311398
0.535173,0.111237,0.0971188,0.352073,-3.13516,-0.00476607,0.00311398
0.543174,0.111237,0.0971188,0.352073,-3.13516,-0.00476607,0.00311398
0.551271,0.111237,0.0971188,0.352073,-3.13516,-0.00476607,0.00311398
0.559211,0.111237,0.0971188,0.352073,-3.13516,-0.00476607,0.00311398
0.56725,0.111237,0.0971188,0.352073,-3.13516,-0.00476607,0.00311398
0.575275,0.111237,0.0971188,0.352073,-3.13516,-0.00476607,0.00311398
0.58332,0.111237,0.0971188,0.352073,-3.13516,-0.00476607,0.00311398
0.591318,0.111237,0.0971188,0.352073,-3.13516,-0.00476607,0.00311398
0.599276,0.111237,0.0971188,0.352073,-3.13516,-0.00476607,0.00311398
0.607281,0.111238,0.0971218,0.352065,-3.13517,-0.00477783,0.00308961
0.61525,0.111238,0.0971218,0.352065,-3.13517,-0.00477783,0.00308961
0.623304,0.111238,0.0971218,0.352065,-3.13517,-0.00477783,0.00308961
0.631242,0.111238,0.0971218,0.352065,-3.13517,-0.00477783,0.00308961
0.639326,0.111238,0.0971218,0.352065,-3.13517,-0.00477783,0.00308961
0.647329,0.111238,0.0971218,0.352065,-3.13517,-0.00477783,0.00308961
0.655263,0.111238,0.0971218,0.352065,-3.13517,-0.00477783,0.00308961
0.663291,0.111238,0.0971218,0.352065,-3.13517,-0.00477783,0.00308961
0.671288,0.111238,0.0971218,0.352065,-3.13517,-0.00477783,0.00308961
0.67933,0.111238,0.0971218,0.352065,-3.13517,-0.00477783,0.00308961
0.687276,0.111238,0.0971218,0.352065,-3.13517,-0.00477783,0.00308961
0.695324,0.111238,0.0971218,0.352065,-3.13517,-0.00477783,0.00308961
0.703296,0.111237,0.0971232,0.352063,-3.13519,-0.00476595,0.00310215
0.711156,0.111237,0.0971232,0.352063,-3.13519,-0.00476595,0.00310215
0.719123,0.111237,0.0971232,0.352063,-3.13519,-0.00476595,0.00310215
0.727164,0.111237,0.0971232,0.352063,-3.13519,-0.00476595,0.00310215
0.73519,0.111237,0.0971232,0.352063,-3.13519,-0.00476595,0.00310215
0.743296,0.111237,0.0971232,0.352063,-3.13519,-0.00476595,0.00310215
0.751269,0.111237,0.0971232,0.352063,-3.13519,-0.00476595,0.00310215
0.759287,0.111237,0.0971232,0.352063,-3.13519,-0.00476595,0.00310215
0.767253,0.111237,0.0971232,0.352063,-3.13519,-0.00476595,0.00310215
0.775234,0.111237,0.0971232,0.352063,-3.13519,-0.00476595,0.00310215
0.783288,0.111237,0.0971232,0.352063,-3.13519,-0.00476595,0.00310215
0.791321,0.111237,0.0971232,0.352063,-3.13519,-0.00476595,0.00310215
0.799226,0.111237,0.0971232,0.352063,-3.13519,-0.00476595,0.00310215
0.807153,0.111236,0.0971167,0.352071,-3.13516,-0.00475399,0.0031021
0.815136,0.111236,0.0971167,0.352071,-3.13516,-0.00475399,0.0031021
0.823169,0.111236,0.0971167,0.352071,-3.13516,-0.00475399,0.0031021
0.831151,0.111236,0.0971167,0.352071,-3.13516,-0.00475399,0.0031021
0.839175,0.111236,0.0971167,0.352071,-3.13516,-0.00475399,0.0031021
0.847344,0.111236,0.0971167,0.352071,-3.13516,-0.00475399,0.0031021
0.855251,0.111236,0.0971167,0.352071,-3.13516,-0.00475399,0.0031021
0.863224,0.111236,0.0971167,0.352071,-3.13516,-0.00475399,0.0031021
0.871274,0.111236,0.0971167,0.352071,-3.13516,-0.00475399,0.0031021
0.879153,0.111236,0.0971167,0.352071,-3.13516,-0.00475399,0.0031021
0.887187,0.111236,0.0971167,0.352071,-3.13516,-0.00475399,0.0031021
0.895245,0.111236,0.0971167,0.352071,-3.13516,-0.00475399,0.0031021
0.903228,0.111243,0.0971406,0.351893,-3.13591,-0.00481397,0.00312647
0.911171,0.111243,0.0971406,0.351893,-3.13591,-0.00481397,0.00312647
0.919191,0.111243,0.0971406,0.351893,-3.13591,-0.00481397,0.00312647
0.927253,0.111243,0.0971406,0.351893,-3.13591,-0.00481397,0.00312647
0.935207,0.111243,0.0971406,0.351893,-3.13591,-0.00481397,0.00312647
0.94328,0.111243,0.0971406,0.351893,-3.13591,-0.00481397,0.00312647
0.9513,0.111243,0.0971406,0.351893,-3.13591,-0.00481397,0.00312647
0.959216,0.111243,0.0971406,0.351893,-3.13591,-0.00481397,0.00312647
0.967266,0.111243,0.0971406,0.351893,-3.13591,-0.00481397,0.00312647
0.975229,0.111243,0.0971406,0.351893,-3.13591,-0.00481397,0.00312647
0.983205,0.111243,0.0971406,0.351893,-3.13591,-0.00481397,0.00312647
0.991252,0.111243,0.0971406,0.351893,-3.13591,-0.00481397,0.00312647
0.999253,0.111243,0.0971406,0.351893,-3.13591,-0.00481397,0.00312647
1.00715,0.111236,0.0971639,0.351848,-3.13612,-0.00476513,0.00311532
1.01513,0.111236,0.0971639,0.351848,-3.13612,-0.00476513,0.00311532
1.02322,0.111236,0.0971639,0.351848,-3.13612,-0.00476513,0.00311532
1.03121,0.111236,0.0971639,0.351848,-3.13612,-0.00476513,0.00311532
1.03922,0.111236,0.0971639,0.351848,-3.13612,-0.00476513,0.00311532
1.04733,0.111236,0.0971639,0.351848,-3.13612,-0.00476513,0.00311532
1.05529,0.111236,0.0971639,0.351848,-3.13612,-0.00476513,0.00311532
1.06326,0.111236,0.0971639,0.351848,-3.13612,-0.00476513,0.00311532
1.07926,0.111236,0.0971639,0.351848,-3.13612,-0.00476513,0.00311532
1.08729,0.111236,0.0971639,0.351848,-3.13612,-0.00476513,0.00311532
1.09527,0.111236,0.0971639,0.351848,-3.13612,-0.00476513,0.00311532
1.10325,0.111234,0.0971655,0.351834,-3.13618,-0.00475326,0.0031636
1.11113,0.111234,0.0971655,0.351834,-3.13618,-0.00475326,0.0031636
1.11915,0.111234,0.0971655,0.351834,-3.13618,-0.00475326,0.0031636
1.12714,0.111234,0.0971655,0.351834,-3.13618,-0.00475326,0.0031636
1.13516,0.111234,0.0971655,0.351834,-3.13618,-0.00475326,0.0031636
1.14316,0.111234,0.0971655,0.351834,-3.13618,-0.00475326,0.0031636
1.15126,0.111234,0.0971655,0.351834,-3.13618,-0.00475326,0.0031636
1.15919,0.111234,0.0971655,0.351834,-3.13618,-0.00475326,0.0031636
1.1672,0.111234,0.0971655,0.351834,-3.13618,-0.00475326,0.0031636
1.17526,0.111234,0.0971655,0.351834,-3.13618,-0.00475326,0.0031636
1.18323,0.111234,0.0971655,0.351834,-3.13618,-0.00475326,0.0031636
1.19125,0.111234,0.0971655,0.351834,-3.13618,-0.00475326,0.0031636
1.19926,0.111234,0.0971655,0.351834,-3.13618,-0.00475326,0.0031636
1.20723,0.111238,0.0971639,0.351855,-3.13609,-0.00476504,0.00307911
1.21519,0.111238,0.0971639,0.351855,-3.13609,-0.00476504,0.00307911
1.22322,0.111238,0.0971639,0.351855,-3.13609,-0.00476504,0.00307911
1.23123,0.111238,0.0971639,0.351855,-3.13609,-0.00476504,0.00307911
1.23928,0.111238,0.0971639,0.351855,-3.13609,-0.00476504,0.00307911
1.24729,0.111238,0.0971639,0.351855,-3.13609,-0.00476504,0.00307911
1.25531,0.111238,0.0971639,0.351855,-3.13609,-0.00476504,0.00307911
1.26327,0.111238,0.0971639,0.351855,-3.13609,-0.00476504,0.00307911
1.27126,0.111238,0.0971639,0.351855,-3.13609,-0.00476504,0.00307911
1.27923,0.111238,0.0971639,0.351855,-3.13609,-0.00476504,0.00307911
1.28727,0.111238,0.0971639,0.351855,-3.13609,-0.00476504,0.00307911
1.29523,0.111238,0.0971639,0.351855,-3.13609,-0.00476504,0.00307911
1.3032,0.111237,0.0971543,0.351851,-3.13607,-0.00476542,0.00312751
1.31115,0.111237,0.0971543,0.351851,-3.13607,-0.00476542,0.00312751
1.31915,0.111237,0.0971543,0.351851,-3.13607,-0.00476542,0.00312751
1.3272,0.111237,0.0971543,0.351851,-3.13607,-0.00476542,0.00312751
1.33521,0.111237,0.0971543,0.351851,-3.13607,-0.00476542,0.00312751
1.34325,0.111237,0.0971543,0.351851,-3.13607,-0.00476542,0.00312751
1.35134,0.111237,0.0971543,0.351851,-3.13607,-0.00476542,0.00312751
1.35929,0.111237,0.0971543,0.351851,-3.13607,-0.00476542,0.00312751
1.36726,0.111237,0.0971543,0.351851,-3.13607,-0.00476542,0.00312751
1.37526,0.111237,0.0971543,0.351851,-3.13607,-0.00476542,0.00312751
1.38328,0.111237,0.0971543,0.351851,-3.13607,-0.00476542,0.00312751
1.39127,0.111237,0.0971543,0.351851,-3.13607,-0.00476542,0.00312751
1.39924,0.111237,0.0971543,0.351851,-3.13607,-0.00476542,0.00312751
1.4071,0.111239,0.0971559,0.351857,-3.13609,-0.0047771,0.00309084
1.4151,0.111239,0.0971559,0.351857,-3.13609,-0.0047771,0.00309084
1.4231,0.111239,0.0971559,0.351857,-3.13609,-0.0047771,0.00309084
1.43113,0.111239,0.0971559,0.351857,-3.13609,-0.0047771,0.00309084
1.43914,0.111239,0.0971559,0.351857,-3.13609,-0.0047771,0.00309084
1.44723,0.111239,0.0971559,0.351857,-3.13609,-0.0047771,0.00309084
1.45523,0.111239,0.0971559,0.351857,-3.13609,-0.0047771,0.00309084
1.4632,0.111239,0.0971559,0.351857,-3.13609,-0.0047771,0.00309084
1.47122,0.111239,0.0971559,0.351857,-3.13609,-0.0047771,0.00309084
1.47921,0.111239,0.0971559,0.351857,-3.13609,-0.0047771,0.00309084
1.48721,0.111239,0.0971559,0.351857,-3.13609,-0.0047771,0.00309084
1.49531,0.111239,0.0971559,0.351857,-3.13609,-0.0047771,0.00309084
1.50326,0.111231,0.0971655,0.35186,-3.13605,-0.00475329,0.00317539
1.5111,0.111231,0.0971655,0.35186,-3.13605,-0.00475329,0.00317539
1.51915,0.111231,0.0971655,0.35186,-3.13605,-0.00475329,0.00317539
1.5272,0.111231,0.0971655,0.35186,-3.13605,-0.00475329,0.00317539
1.53526,0.111231,0.0971655,0.35186,-3.13605,-0.00475329,0.00317539
1.54323,0.111231,0.0971655,0.35186,-3.13605,-0.00475329,0.00317539
1.5513,0.111231,0.0971655,0.35186,-3.13605,-0.00475329,0.00317539
1.55929,0.111231,0.0971655,0.35186,-3.13605,-0.00475329,0.00317539
1.5673,0.111231,0.0971655,0.35186,-3.13605,-0.00475329,0.00317539
1.57527,0.111231,0.0971655,0.35186,-3.13605,-0.00475329,0.00317539
1.58322,0.111231,0.0971655,0.35186,-3.13605,-0.00475329,0.00317539
1.59133,0.111231,0.0971655,0.35186,-3.13605,-0.00475329,0.00317539
1.59925,0.111236,0.0971652,0.35185,-3.13609,-0.00480148,0.00315128
1.60716,0.111236,0.0971652,0.35185,-3.13609,-0.00480148,0.00315128
1.61513,0.111236,0.0971652,0.35185,-3.13609,-0.00480148,0.00315128
1.62323,0.111236,0.0971652,0.35185,-3.13609,-0.00480148,0.00315128
1.63122,0.111236,0.0971652,0.35185,-3.13609,-0.00480148,0.00315128
1.63923,0.111236,0.0971652,0.35185,-3.13609,-0.00480148,0.00315128
1.6473,0.111236,0.0971652,0.35185,-3.13609,-0.00480148,0.00315128
1.65531,0.111236,0.0971652,0.35185,-3.13609,-0.00480148,0.00315128
1.66327,0.111236,0.0971652,0.35185,-3.13609,-0.00480148,0.00315128
1.67126,0.111236,0.0971652,0.35185,-3.13609,-0.00480148,0.00315128
1.67932,0.111236,0.0971652,0.35185,-3.13609,-0.00480148,0.00315128
1.68728,0.111236,0.0971652,0.35185,-3.13609,-0.00480148,0.00315128
1.69526,0.111236,0.0971652,0.35185,-3.13609,-0.00480148,0.00315128
1.70314,0.11123,0.0971868,0.351839,-3.13616,-0.0047409,0.00316397
1.71116,0.11123,0.0971868,0.351839,-3.13616,-0.0047409,0.00316397
1.71905,0.11123,0.0971868,0.351839,-3.13616,-0.0047409,0.00316397
1.72712,0.11123,0.0971868,0.351839,-3.13616,-0.0047409,0.00316397
1.73515,0.11123,0.0971868,0.351839,-3.13616,-0.0047409,0.00316397
1.74318,0.11123,0.0971868,0.351839,-3.13616,-0.0047409,0.00316397
1.75124,0.11123,0.0971868,0.351839,-3.13616,-0.0047409,0.00316397
1.7592,0.11123,0.0971868,0.351839,-3.13616,-0.0047409,0.00316397
1.76722,0.11123,0.0971868,0.351839,-3.13616,-0.0047409,0.00316397
1.77523,0.11123,0.0971868,0.351839,-3.13616,-0.0047409,0.00316397
1.7833,0.11123,0.0971868,0.351839,-3.13616,-0.0047409,0.00316397
1.79125,0.11123,0.0971868,0.351839,-3.13616,-0.0047409,0.00316397
1.79924,0.11123,0.0971868,0.351839,-3.13616,-0.0047409,0.00316397
1.80718,0.111191,0.0973455,0.35178,-3.13682,-0.00430606,0.00320589
1.81517,0.111191,0.0973455,0.35178,-3.13682,-0.00430606,0.00320589
1.8232,0.111191,0.0973455,0.35178,-3.13682,-0.00430606,0.00320589
1.83123,0.111191,0.0973455,0.35178,-3.13682,-0.00430606,0.00320589
1.83924,0.111191,0.0973455,0.35178,-3.13682,-0.00430606,0.00320589
1.84722,0.111191,0.0973455,0.35178,-3.13682,-0.00430606,0.00320589
1.85529,0.111191,0.0973455,0.35178,-3.13682,-0.00430606,0.00320589
1.86327,0.111191,0.0973455,0.35178,-3.13682,-0.00430606,0.00320589
1.87121,0.111191,0.0973455,0.35178,-3.13682,-0.00430606,0.00320589
1.87921,0.111191,0.0973455,0.35178,-3.13682,-0.00430606,0.00320589
1.88723,0.111191,0.0973455,0.35178,-3.13682,-0.00430606,0.00320589
1.89524,0.111191,0.0973455,0.35178,-3.13682,-0.00430606,0.00320589
1.90321,0.110906,0.0977544,0.351639,-3.13821,-0.0014784,0.00378655
1.91108,0.110906,0.0977544,0.351639,-3.13821,-0.0014784,0.00378655
1.91906,0.110906,0.0977544,0.351639,-3.13821,-0.0014784,0.00378655
1.92717,0.110906,0.0977544,0.351639,-3.13821,-0.0014784,0.00378655
1.93515,0.110906,0.0977544,0.351639,-3.13821,-0.0014784,0.00378655
1.94321,0.110906,0.0977544,0.351639,-3.13821,-0.0014784,0.00378655
1.95128,0.110906,0.0977544,0.351639,-3.13821,-0.0014784,0.00378655
1.95929,0.110906,0.0977544,0.351639,-3.13821,-0.0014784,0.00378655
1.9672,0.110906,0.0977544,0.351639,-3.13821,-0.0014784,0.00378655
1.97518,0.110906,0.0977544,0.351639,-3.13821,-0.0014784,0.00378655
1.98318,0.110906,0.0977544,0.351639,-3.13821,-0.0014784,0.00378655
1.99122,0.110906,0.0977544,0.351639,-3.13821,-0.0014784,0.00378655
1.99922,0.110906,0.0977544,0.351639,-3.13821,-0.0014784,0.00378655
2.00712,0.110494,0.0984935,0.351425,-3.14032,0.00221769,0.00496076
2.01513,0.110494,0.0984935,0.351425,-3.14032,0.00221769,0.00496076
2.0231,0.110494,0.0984935,0.351425,-3.14032,0.00221769,0.00496076
2.03111,0.110494,0.0984935,0.351425,-3.14032,0.00221769,0.00496076
2.03916,0.110494,0.0984935,0.351425,-3.14032,0.00221769,0.00496076
2.04715,0.110494,0.0984935,0.351425,-3.14032,0.00221769,0.00496076
2.05525,0.110494,0.0984935,0.351425,-3.14032,0.00221769,0.00496076
2.0632,0.110494,0.0984935,0.351425,-3.14032,0.00221769,0.00496076
2.07121,0.110494,0.0984935,0.351425,-3.14032,0.00221769,0.00496076
2.07925,0.110494,0.0984935,0.351425,-3.14032,0.00221769,0.00496076
2.08722,0.110494,0.0984935,0.351425,-3.14032,0.00221769,0.00496076
2.09523,0.110494,0.0984935,0.351425,-3.14032,0.00221769,0.00496076
2.10321,0.10963,0.100299,0.351459,-3.13897,0.0115183,0.00597115
2.11114,0.10963,0.100299,0.351459,-3.13897,0.0115183,0.00597115
2.11917,0.10963,0.100299,0.351459,-3.13897,0.0115183,0.00597115
2.12721,0.10963,0.100299,0.351459,-3.13897,0.0115183,0.00597115
2.13524,0.10963,0.100299,0.351459,-3.13897,0.0115183,0.00597115
2.14322,0.10963,0.100299,0.351459,-3.13897,0.0115183,0.00597115
2.15134,0.10963,0.100299,0.351459,-3.13897,0.0115183,0.00597115
2.15926,0.10963,0.100299,0.351459,-3.13897,0.0115183,0.00597115
2.16722,0.10963,0.100299,0.351459,-3.13897,0.0115183,0.00597115
2.17532,0.10963,0.100299,0.351459,-3.13897,0.0115183,0.00597115
2.18324,0.10963,0.100299,0.351459,-3.13897,0.0115183,0.00597115
2.19125,0.10963,0.100299,0.351459,-3.13897,0.0115183,0.00597115
2.19919,0.10963,0.100299,0.351459,-3.13897,0.0115183,0.00597115
2.20713,0.107839,0.107534,0.353097,-3.11677,0.0313955,0.0079876
2.21504,0.107839,0.107534,0.353097,-3.11677,0.0313955,0.0079876
2.22308,0.107839,0.107534,0.353097,-3.11677,0.0313955,0.0079876
2.23112,0.107839,0.107534,0.353097,-3.11677,0.0313955,0.0079876
2.23916,0.107839,0.107534,0.353097,-3.11677,0.0313955,0.0079876
2.24717,0.107839,0.107534,0.353097,-3.11677,0.0313955,0.0079876
2.25523,0.107839,0.107534,0.353097,-3.11677,0.0313955,0.0079876
2.26324,0.107839,0.107534,0.353097,-3.11677,0.0313955,0.0079876
2.27118,0.107839,0.107534,0.353097,-3.11677,0.0313955,0.0079876
2.27924,0.107839,0.107534,0.353097,-3.11677,0.0313955,0.0079876
2.28724,0.107839,0.107534,0.353097,-3.11677,0.0313955,0.0079876
2.29517,0.107839,0.107534,0.353097,-3.11677,0.0313955,0.0079876
2.3032,0.105192,0.12587,0.353347,-3.09614,0.0577757,0.0130682
2.31111,0.105192,0.12587,0.353347,-3.09614,0.0577757,0.0130682
2.31908,0.105192,0.12587,0.353347,-3.09614,0.0577757,0.0130682
2.3271,0.105192,0.12587,0.353347,-3.09614,0.0577757,0.0130682
2.3351,0.105192,0.12587,0.353347,-3.09614,0.0577757,0.0130682
2.34309,0.105192,0.12587,0.353347,-3.09614,0.0577757,0.0130682
2.35122,0.105192,0.12587,0.353347,-3.09614,0.0577757,0.0130682
2.35923,0.105192,0.12587,0.353347,-3.09614,0.0577757,0.0130682
2.36718,0.105192,0.12587,0.353347,-3.09614,0.0577757,0.0130682
2.37526,0.105192,0.12587,0.353347,-3.09614,0.0577757,0.0130682
2.38321,0.105192,0.12587,0.353347,-3.09614,0.0577757,0.0130682
2.39125,0.105192,0.12587,0.353347,-3.09614,0.0577757,0.0130682
2.39924,0.105192,0.12587,0.353347,-3.09614,0.0577757,0.0130682
2.40718,0.102926,0.14508,0.349479,-3.10291,0.0733335,0.0193051
2.41513,0.102926,0.14508,0.349479,-3.10291,0.0733335,0.0193051
2.42316,0.102926,0.14508,0.349479,-3.10291,0.0733335,0.0193051
2.43117,0.102926,0.14508,0.349479,-3.10291,0.0733335,0.0193051
2.43924,0.102926,0.14508,0.349479,-3.10291,0.0733335,0.0193051
2.44722,0.102926,0.14508,0.349479,-3.10291,0.0733335,0.0193051
2.45531,0.102926,0.14508,0.349479,-3.10291,0.0733335,0.0193051
2.46319,0.102926,0.14508,0.349479,-3.10291,0.0733335,0.0193051
2.47124,0.102926,0.14508,0.349479,-3.10291,0.0733335,0.0193051
2.47928,0.102926,0.14508,0.349479,-3.10291,0.0733335,0.0193051
2.48722,0.102926,0.14508,0.349479,-3.10291,0.0733335,0.0193051
2.49518,0.102926,0.14508,0.349479,-3.10291,0.0733335,0.0193051
2.50312,0.0990758,0.165641,0.341674,-3.12547,0.0908217,0.0296334
2.51105,0.0990758,0.165641,0.341674,-3.12547,0.0908217,0.0296334
2.51914,0.0990758,0.165641,0.341674,-3.12547,0.0908217,0.0296334
2.52716,0.0990758,0.165641,0.341674,-3.12547,0.0908217,0.0296334
2.53517,0.0990758,0.165641,0.341674,-3.12547,0.0908217,0.0296334
2.5432,0.0990758,0.165641,0.341674,-3.12547,0.0908217,0.0296334
2.55124,0.0990758,0.165641,0.341674,-3.12547,0.0908217,0.0296334
2.55926,0.0990758,0.165641,0.341674,-3.12547,0.0908217,0.0296334
2.56726,0.0990758,0.165641,0.341674,-3.12547,0.0908217,0.0296334
2.57524,0.0990758,0.165641,0.341674,-3.12547,0.0908217,0.0296334
2.5832,0.0990758,0.165641,0.341674,-3.12547,0.0908217,0.0296334
2.5913,0.0990758,0.165641,0.341674,-3.12547,0.0908217,0.0296334
2.5992,0.0990758,0.165641,0.341674,-3.12547,0.0908217,0.0296334
2.60714,0.0915463,0.185669,0.331552,3.13357,0.10362,0.0405218
2.61509,0.0915463,0.185669,0.331552,3.13357,0.10362,0.0405218
2.6231,0.0915463,0.185669,0.331552,3.13357,0.10362,0.0405218
2.63113,0.0915463,0.185669,0.331552,3.13357,0.10362,0.0405218
2.6391,0.0915463,0.185669,0.331552,3.13357,0.10362,0.0405218
2.64706,0.0915463,0.185669,0.331552,3.13357,0.10362,0.0405218
2.65526,0.0915463,0.185669,0.331552,3.13357,0.10362,0.0405218
2.66315,0.0915463,0.185669,0.331552,3.13357,0.10362,0.0405218
2.67119,0.0915463,0.185669,0.331552,3.13357,0.10362,0.0405218
2.67919,0.0915463,0.185669,0.331552,3.13357,0.10362,0.0405218
2.68722,0.0915463,0.185669,0.331552,3.13357,0.10362,0.0405218
2.69525,0.0915463,0.185669,0.331552,3.13357,0.10362,0.0405218
2.70307,0.0772069,0.207397,0.318373,3.11562,0.10739,0.0253587
2.71112,0.0772069,0.207397,0.318373,3.11562,0.10739,0.0253587
2.71915,0.0772069,0.207397,0.318373,3.11562,0.10739,0.0253587
2.72718,0.0772069,0.207397,0.318373,3.11562,0.10739,0.0253587
2.73521,0.0772069,0.207397,0.318373,3.11562,0.10739,0.0253587
2.74317,0.0772069,0.207397,0.318373,3.11562,0.10739,0.0253587
2.75133,0.0772069,0.207397,0.318373,3.11562,0.10739,0.0253587
2.75928,0.0772069,0.207397,0.318373,3.11562,0.10739,0.0253587
2.76725,0.0772069,0.207397,0.318373,3.11562,0.10739,0.0253587
2.77525,0.0772069,0.207397,0.318373,3.11562,0.10739,0.0253587
2.7832,0.0772069,0.207397,0.318373,3.11562,0.10739,0.0253587
2.79122,0.0772069,0.207397,0.318373,3.11562,0.10739,0.0253587
2.79923,0.0772069,0.207397,0.318373,3.11562,0.10739,0.0253587
2.80719,0.0628953,0.22133,0.306874,3.10803,0.105607,0.0171148
2.81505,0.0628953,0.22133,0.306874,3.10803,0.105607,0.0171148
2.82309,0.0628953,0.22133,0.306874,3.10803,0.105607,0.0171148
2.8311,0.0628953,0.22133,0.306874,3.10803,0.105607,0.0171148
2.83913,0.0628953,0.22133,0.306874,3.10803,0.105607,0.0171148
2.84718,0.0628953,0.22133,0.306874,3.10803,0.105607,0.0171148
2.85527,0.0628953,0.22133,0.306874,3.10803,0.105607,0.0171148
2.86319,0.0628953,0.22133,0.306874,3.10803,0.105607,0.0171148
2.87116,0.0628953,0.22133,0.306874,3.10803,0.105607,0.0171148
2.87911,0.0628953,0.22133,0.306874,3.10803,0.105607,0.0171148
2.88709,0.0628953,0.22133,0.306874,3.10803,0.105607,0.0171148
2.89511,0.0628953,0.22133,0.306874,3.10803,0.105607,0.0171148
2.9031,0.0491815,0.230528,0.29419,3.0956,0.10192,0.0105501
2.91111,0.0491815,0.230528,0.29419,3.0956,0.10192,0.0105501
2.91904,0.0491815,0.230528,0.29419,3.0956,0.10192,0.0105501
2.92708,0.0491815,0.230528,0.29419,3.0956,0.10192,0.0105501
2.93505,0.0491815,0.230528,0.29419,3.0956,0.10192,0.0105501
2.9431,0.0491815,0.230528,0.29419,3.0956,0.10192,0.0105501
2.95117,0.0491815,0.230528,0.29419,3.0956,0.10192,0.0105501
2.95916,0.0491815,0.230528,0.29419,3.0956,0.10192,0.0105501
2.96714,0.0491815,0.230528,0.29419,3.0956,0.10192,0.0105501
2.97522,0.0491815,0.230528,0.29419,3.0956,0.10192,0.0105501
2.98314,0.0491815,0.230528,0.29419,3.0956,0.10192,0.0105501
2.99123,0.0491815,0.230528,0.29419,3.0956,0.10192,0.0105501
2.9992,0.0491815,0.230528,0.29419,3.0956,0.10192,0.0105501
3.00717,0.0403389,0.234743,0.284572,3.08817,0.0991313,0.008884
3.0151,0.0403389,0.234743,0.284572,3.08817,0.0991313,0.008884
3.02314,0.0403389,0.234743,0.284572,3.08817,0.0991313,0.008884
3.03113,0.0403389,0.234743,0.284572,3.08817,0.0991313,0.008884
3.03916,0.0403389,0.234743,0.284572,3.08817,0.0991313,0.008884
3.04718,0.0403389,0.234743,0.284572,3.08817,0.0991313,0.008884
3.05525,0.0403389,0.234743,0.284572,3.08817,0.0991313,0.008884
3.06321,0.0403389,0.234743,0.284572,3.08817,0.0991313,0.008884
3.07119,0.0403389,0.234743,0.284572,3.08817,0.0991313,0.008884
3.07922,0.0403389,0.234743,0.284572,3.08817,0.0991313,0.008884
3.08717,0.0403389,0.234743,0.284572,3.08817,0.0991313,0.008884
3.09519,0.0403389,0.234743,0.284572,3.08817,0.0991313,0.008884
3.10317,0.0312907,0.237651,0.272508,3.07769,0.0901596,0.0110245
3.11103,0.0312907,0.237651,0.272508,3.07769,0.0901596,0.0110245
3.11907,0.0312907,0.237651,0.272508,3.07769,0.0901596,0.0110245
3.1272,0.0312907,0.237651,0.272508,3.07769,0.0901596,0.0110245
3.13513,0.0312907,0.237651,0.272508,3.07769,0.0901596,0.0110245
3.14323,0.0312907,0.237651,0.272508,3.07769,0.0901596,0.0110245
3.15119,0.0312907,0.237651,0.272508,3.07769,0.0901596,0.0110245
3.15931,0.0312907,0.237651,0.272508,3.07769,0.0901596,0.0110245
3.16718,0.0312907,0.237651,0.272508,3.07769,0.0901596,0.0110245
3.17528,0.0312907,0.237651,0.272508,3.07769,0.0901596,0.0110245
3.1832,0.0312907,0.237651,0.272508,3.07769,0.0901596,0.0110245
3.19117,0.0312907,0.237651,0.272508,3.07769,0.0901596,0.0110245
3.19921,0.0298275,0.23782,0.269626,3.07454,0.0849339,0.0110863
3.20705,0.0266768,0.237825,0.258019,3.07502,0.0539025,0.0155716
3.21502,0.0266768,0.237825,0.258019,3.07502,0.0539025,0.0155716
3.22305,0.0266768,0.237825,0.258019,3.07502,0.0539025,0.0155716
3.23105,0.0266768,0.237825,0.258019,3.07502,0.0539025,0.0155716
3.23906,0.0266768,0.237825,0.258019,3.07502,0.0539025,0.0155716
3.24713,0.0266768,0.237825,0.258019,3.07502,0.0539025,0.0155716
3.25527,0.0266768,0.237825,0.258019,3.07502,0.0539025,0.0155716
3.26314,0.0266768,0.237825,0.258019,3.07502,0.0539025,0.0155716
3.27117,0.0266768,0.237825,0.258019,3.07502,0.0539025,0.0155716
3.27922,0.0266768,0.237825,0.258019,3.07502,0.0539025,0.0155716
3.28719,0.0266768,0.237825,0.258019,3.07502,0.0539025,0.0155716
3.29525,0.0266768,0.237825,0.258019,3.07502,0.0539025,0.0155716
3.30321,0.0253059,0.238567,0.254198,3.09081,0.0559907,0.0137288
3.31105,0.0253059,0.238567,0.254198,3.09081,0.0559907,0.0137288
3.31906,0.0253059,0.238567,0.254198,3.09081,0.0559907,0.0137288
3.32714,0.0253059,0.238567,0.254198,3.09081,0.0559907,0.0137288
3.33513,0.0253059,0.238567,0.254198,3.09081,0.0559907,0.0137288
3.34318,0.0253059,0.238567,0.254198,3.09081,0.0559907,0.0137288
3.35128,0.0253059,0.238567,0.254198,3.09081,0.0559907,0.0137288
3.35925,0.0253059,0.238567,0.254198,3.09081,0.0559907,0.0137288
3.36725,0.0253059,0.238567,0.254198,3.09081,0.0559907,0.0137288
3.37519,0.0253059,0.238567,0.254198,3.09081,0.0559907,0.0137288
3.38319,0.0253059,0.238567,0.254198,3.09081,0.0559907,0.0137288
3.39124,0.0253059,0.238567,0.254198,3.09081,0.0559907,0.0137288
3.39919,0.0253059,0.238567,0.254198,3.09081,0.0559907,0.0137288
3.40709,0.0243457,0.240095,0.251364,3.12037,0.0661272,0.0153986
3.41506,0.0243457,0.240095,0.251364,3.12037,0.0661272,0.0153986
3.42312,0.0243457,0.240095,0.251364,3.12037,0.0661272,0.0153986
3.43112,0.0243457,0.240095,0.251364,3.12037,0.0661272,0.0153986
3.43914,0.0243457,0.240095,0.251364,3.12037,0.0661272,0.0153986
3.44714,0.0243457,0.240095,0.251364,3.12037,0.0661272,0.0153986
3.45525,0.0243457,0.240095,0.251364,3.12037,0.0661272,0.0153986
3.46323,0.0243457,0.240095,0.251364,3.12037,0.0661272,0.0153986
3.47124,0.0243457,0.240095,0.251364,3.12037,0.0661272,0.0153986
3.47921,0.0243457,0.240095,0.251364,3.12037,0.0661272,0.0153986
3.4872,0.0243457,0.240095,0.251364,3.12037,0.0661272,0.0153986
3.49519,0.0243457,0.240095,0.251364,3.12037,0.0661272,0.0153986
3.50321,0.0247564,0.239955,0.24744,3.13092,0.0650297,0.0162541
3.51103,0.0247564,0.239955,0.24744,3.13092,0.0650297,0.0162541
3.51904,0.0247564,0.239955,0.24744,3.13092,0.0650297,0.0162541
3.52707,0.0247564,0.239955,0.24744,3.13092,0.0650297,0.0162541
3.53502,0.0247564,0.239955,0.24744,3.13092,0.0650297,0.0162541
3.54312,0.0247564,0.239955,0.24744,3.13092,0.0650297,0.0162541
3.55111,0.0247564,0.239955,0.24744,3.13092,0.0650297,0.0162541
3.55921,0.0247564,0.239955,0.24744,3.13092,0.0650297,0.0162541
3.56719,0.0247564,0.239955,0.24744,3.13092,0.0650297,0.0162541
3.57522,0.0247564,0.239955,0.24744,3.13092,0.0650297,0.0162541
3.58318,0.0247564,0.239955,0.24744,3.13092,0.0650297,0.0162541
3.59122,0.0247564,0.239955,0.24744,3.13092,0.0650297,0.0162541
3.59918,0.0247564,0.239955,0.24744,3.13092,0.0650297,0.0162541
3.60711,0.0264012,0.236972,0.24026,3.11041,0.0514838,0.0149834
3.61512,0.0264012,0.236972,0.24026,3.11041,0.0514838,0.0149834
3.62319,0.0264012,0.236972,0.24026,3.11041,0.0514838,0.0149834
3.63116,0.0264012,0.236972,0.24026,3.11041,0.0514838,0.0149834
3.63925,0.0264012,0.236972,0.24026,3.11041,0.0514838,0.0149834
3.6472,0.0264012,0.236972,0.24026,3.11041,0.0514838,0.0149834
3.65524,0.0264012,0.236972,0.24026,3.11041,0.0514838,0.0149834
3.66323,0.0264012,0.236972,0.24026,3.11041,0.0514838,0.0149834
3.67119,0.0264012,0.236972,0.24026,3.11041,0.0514838,0.0149834
3.67921,0.0264012,0.236972,0.24026,3.11041,0.0514838,0.0149834
3.68717,0.0264012,0.236972,0.24026,3.11041,0.0514838,0.0149834
3.69514,0.0264012,0.236972,0.24026,3.11041,0.0514838,0.0149834
3.70314,0.0265144,0.236679,0.239659,3.1086,0.0508347,0.014875
3.71104,0.0265144,0.236679,0.239659,3.1086,0.0508347,0.014875
3.7191,0.0265144,0.236679,0.239659,3.1086,0.0508347,0.014875
3.72711,0.0265144,0.236679,0.239659,3.1086,0.0508347,0.014875
3.73518,0.0265144,0.236679,0.239659,3.1086,0.0508347,0.014875
3.74316,0.0265144,0.236679,0.239659,3.1086,0.0508347,0.014875
3.75123,0.0265144,0.236679,0.239659,3.1086,0.0508347,0.014875
3.75923,0.0265144,0.236679,0.239659,3.1086,0.0508347,0.014875
3.76719,0.0265144,0.236679,0.239659,3.1086,0.0508347,0.014875
3.77516,0.0265144,0.236679,0.239659,3.1086,0.0508347,0.014875
3.78309,0.0265144,0.236679,0.239659,3.1086,0.0508347,0.014875
3.79115,0.0265144,0.236679,0.239659,3.1086,0.0508347,0.014875
3.79914,0.0265144,0.236679,0.239659,3.1086,0.0508347,0.014875
3.80713,0.0265072,0.236696,0.239684,3.10877,0.0509062,0.0148957
3.81505,0.0265072,0.236696,0.239684,3.10877,0.0509062,0.0148957
3.82305,0.0265072,0.236696,0.239684,3.10877,0.0509062,0.0148957
3.83102,0.0265072,0.236696,0.239684,3.10877,0.0509062,0.0148957
3.8391,0.0265072,0.236696,0.239684,3.10877,0.0509062,0.0148957
3.8471,0.0265072,0.236696,0.239684,3.10877,0.0509062,0.0148957
3.85524,0.0265072,0.236696,0.239684,3.10877,0.0509062,0.0148957
3.86319,0.0265072,0.236696,0.239684,3.10877,0.0509062,0.0148957
3.87114,0.0265072,0.236696,0.239684,3.10877,0.0509062,0.0148957
3.87914,0.0265072,0.236696,0.239684,3.10877,0.0509062,0.0148957
3.88714,0.0265072,0.236696,0.239684,3.10877,0.0509062,0.0148957
3.89515,0.0265072,0.236696,0.239684,3.10877,0.0509062,0.0148957
3.90312,0.02651,0.236691,0.239665,3.10866,0.0508553,0.0148901
3.91109,0.02651,0.236691,0.239665,3.10866,0.0508553,0.0148901
3.91905,0.02651,0.236691,0.239665,3.10866,0.0508553,0.0148901
3.92719,0.02651,0.236691,0.239665,3.10866,0.0508553,0.0148901
3.93509,0.02651,0.236691,0.239665,3.10866,0.0508553,0.0148901
3.94318,0.02651,0.236691,0.239665,3.10866,0.0508553,0.0148901
3.95115,0.02651,0.236691,0.239665,3.10866,0.0508553,0.0148901
3.95921,0.02651,0.236691,0.239665,3.10866,0.0508553,0.0148901
3.96722,0.02651,0.236691,0.239665,3.10866,0.0508553,0.0148901
3.9752,0.02651,0.236691,0.239665,3.10866,0.0508553,0.0148901
3.98316,0.02651,0.236691,0.239665,3.10866,0.0508553,0.0148901
3.99116,0.02651,0.236691,0.239665,3.10866,0.0508553,0.0148901
3.99914,0.02651,0.236691,0.239665,3.10866,0.0508553,0.0148901
4.00705,0.02651,0.236696,0.239688,3.10879,0.0509155,0.014921
4.01502,0.02651,0.236696,0.239688,3.10879,0.0509155,0.014921
4.02306,0.02651,0.236696,0.239688,3.10879,0.0509155,0.014921
4.03106,0.02651,0.236696,0.239688,3.10879,0.0509155,0.014921
4.03909,0.02651,0.236696,0.239688,3.10879,0.0509155,0.014921
4.0471,0.02651,0.236696,0.239688,3.10879,0.0509155,0.014921
4.05526,0.02651,0.236696,0.239688,3.10879,0.0509155,0.014921
4.06321,0.02651,0.236696,0.239688,3.10879,0.0509155,0.014921
4.07118,0.02651,0.236696,0.239688,3.10879,0.0509155,0.014921
4.07917,0.02651,0.236696,0.239688,3.10879,0.0509155,0.014921
4.08715,0.02651,0.236696,0.239688,3.10879,0.0509155,0.014921
4.0952,0.02651,0.236696,0.239688,3.10879,0.0509155,0.014921
4.10314,0.0265037,0.236707,0.239704,3.10887,0.0509702,0.0149371
4.11105,0.0265037,0.236707,0.239704,3.10887,0.0509702,0.0149371
4.11901,0.0265037,0.236707,0.239704,3.10887,0.0509702,0.0149371
4.12703,0.0265037,0.236707,0.239704,3.10887,0.0509702,0.0149371
4.13502,0.0265037,0.236707,0.239704,3.10887,0.0509702,0.0149371
4.14306,0.0265037,0.236707,0.239704,3.10887,0.0509702,0.0149371
4.15103,0.0265037,0.236707,0.239704,3.10887,0.0509702,0.0149371
4.15918,0.0265037,0.236707,0.239704,3.10887,0.0509702,0.0149371
4.1671,0.0265037,0.236707,0.239704,3.10887,0.0509702,0.0149371
4.17505,0.0265037,0.236707,0.239704,3.10887,0.0509702,0.0149371
4.18312,0.0265037,0.236707,0.239704,3.10887,0.0509702,0.0149371
4.19113,0.0265037,0.236707,0.239704,3.10887,0.0509702,0.0149371
4.19912,0.0265037,0.236707,0.239704,3.10887,0.0509702,0.0149371
4.20704,0.0265059,0.236698,0.239696,3.10885,0.0509749,0.0149715
4.21506,0.0265059,0.236698,0.239696,3.10885,0.0509749,0.0149715
4.22313,0.0265059,0.236698,0.239696,3.10885,0.0509749,0.0149715
4.23112,0.0265059,0.236698,0.239696,3.10885,0.0509749,0.0149715
4.23914,0.0265059,0.236698,0.239696,3.10885,0.0509749,0.0149715
4.24718,0.0265059,0.236698,0.239696,3.10885,0.0509749,0.0149715
4.25523,0.0265059,0.236698,0.239696,3.10885,0.0509749,0.0149715
4.26322,0.0265059,0.236698,0.239696,3.10885,0.0509749,0.0149715
4.27121,0.0265059,0.236698,0.239696,3.10885,0.0509749,0.0149715
4.27915,0.0265059,0.236698,0.239696,3.10885,0.0509749,0.0149715
4.28712,0.0265059,0.236698,0.239696,3.10885,0.0509749,0.0149715
4.29518,0.0265059,0.236698,0.239696,3.10885,0.0509749,0.0149715
4.30302,0.0265021,0.236701,0.239697,3.10885,0.0509735,0.0149474
4.31111,0.0265021,0.236701,0.239697,3.10885,0.0509735,0.0149474
4.31915,0.0265021,0.236701,0.239697,3.10885,0.0509735,0.0149474
4.32713,0.0265021,0.236701,0.239697,3.10885,0.0509735,0.0149474
4.33521,0.0265021,0.236701,0.239697,3.10885,0.0509735,0.0149474
4.34315,0.0265021,0.236701,0.239697,3.10885,0.0509735,0.0149474
4.35122,0.0265021,0.236701,0.239697,3.10885,0.0509735,0.0149474
4.35923,0.0265021,0.236701,0.239697,3.10885,0.0509735,0.0149474
4.36716,0.0265021,0.236701,0.239697,3.10885,0.0509735,0.0149474
4.37519,0.0265021,0.236701,0.239697,3.10885,0.0509735,0.0149474
4.38314,0.0265021,0.236701,0.239697,3.10885,0.0509735,0.0149474
4.39112,0.0265021,0.236701,0.239697,3.10885,0.0509735,0.0149474
4.39913,0.0265021,0.236701,0.239697,3.10885,0.0509735,0.0149474
4.40707,0.0264953,0.236704,0.239704,3.10886,0.0510152,0.0149594
4.41499,0.0264953,0.236704,0.239704,3.10886,0.0510152,0.0149594
4.42298,0.0264953,0.236704,0.239704,3.10886,0.0510152,0.0149594
4.43099,0.0264953,0.236704,0.239704,3.10886,0.0510152,0.0149594
4.43906,0.0264953,0.236704,0.239704,3.10886,0.0510152,0.0149594
4.44705,0.0264953,0.236704,0.239704,3.10886,0.0510152,0.0149594
4.4551,0.0264953,0.236704,0.239704,3.10886,0.0510152,0.0149594
4.46317,0.0264953,0.236704,0.239704,3.10886,0.0510152,0.0149594
4.47111,0.0264953,0.236704,0.239704,3.10886,0.0510152,0.0149594
4.47911,0.0264953,0.236704,0.239704,3.10886,0.0510152,0.0149594
4.48717,0.0264953,0.236704,0.239704,3.10886,0.0510152,0.0149594
4.49512,0.0264953,0.236704,0.239704,3.10886,0.0510152,0.0149594
4.50302,0.0265062,0.236697,0.239695,3.10884,0.0509709,0.0149709
4.51109,0.0265062,0.236697,0.239695,3.10884,0.0509709,0.0149709
4.51903,0.0265062,0.236697,0.239695,3.10884,0.0509709,0.0149709
4.52716,0.0265062,0.236697,0.239695,3.10884,0.0509709,0.0149709
4.53513,0.0265062,0.236697,0.239695,3.10884,0.0509709,0.0149709
4.54319,0.0265062,0.236697,0.239695,3.10884,0.0509709,0.0149709
4.55116,0.0265062,0.236697,0.239695,3.10884,0.0509709,0.0149709
4.55926,0.0265062,0.236697,0.239695,3.10884,0.0509709,0.0149709
4.56714,0.0265062,0.236697,0.239695,3.10884,0.0509709,0.0149709
4.57513,0.0265062,0.236697,0.239695,3.10884,0.0509709,0.0149709
4.58317,0.0265062,0.236697,0.239695,3.10884,0.0509709,0.0149709
4.59114,0.0265062,0.236697,0.239695,3.10884,0.0509709,0.0149709
4.59913,0.0265062,0.236697,0.239695,3.10884,0.0509709,0.0149709
4.60703,0.0265081,0.236697,0.239695,3.1088,0.0509697,0.0149443
4.61504,0.0265081,0.236697,0.239695,3.1088,0.0509697,0.0149443
4.62311,0.0265081,0.236697,0.239695,3.1088,0.0509697,0.0149443
4.63113,0.0265081,0.236697,0.239695,3.1088,0.0509697,0.0149443
4.63911,0.0265081,0.236697,0.239695,3.1088,0.0509697,0.0149443
4.64712,0.0265081,0.236697,0.239695,3.1088,0.0509697,0.0149443
4.65513,0.0265081,0.236697,0.239695,3.1088,0.0509697,0.0149443
4.66324,0.0265081,0.236697,0.239695,3.1088,0.0509697,0.0149443
4.67113,0.0265081,0.236697,0.239695,3.1088,0.0509697,0.0149443
4.6792,0.0265081,0.236697,0.239695,3.1088,0.0509697,0.0149443
4.68714,0.0265081,0.236697,0.239695,3.1088,0.0509697,0.0149443
4.6952,0.0265081,0.236697,0.239695,3.1088,0.0509697,0.0149443
4.70316,0.026508,0.236697,0.239685,3.10882,0.0509128,0.0149584
4.71098,0.026508,0.236697,0.239685,3.10882,0.0509128,0.0149584
4.71901,0.026508,0.236697,0.239685,3.10882,0.0509128,0.0149584
4.72704,0.026508,0.236697,0.239685,3.10882,0.0509128,0.0149584
4.73505,0.026508,0.236697,0.239685,3.10882,0.0509128,0.0149584
4.74305,0.026508,0.236697,0.239685,3.10882,0.0509128,0.0149584
4.75112,0.026508,0.236697,0.239685,3.10882,0.0509128,0.0149584
4.75923,0.026508,0.236697,0.239685,3.10882,0.0509128,0.0149584
4.7672,0.026508,0.236697,0.239685,3.10882,0.0509128,0.0149584
4.77514,0.026508,0.236697,0.239685,3.10882,0.0509128,0.0149584
4.78313,0.026508,0.236697,0.239685,3.10882,0.0509128,0.0149584
4.79119,0.026508,0.236697,0.239685,3.10882,0.0509128,0.0149584
4.79914,0.026508,0.236697,0.239685,3.10882,0.0509128,0.0149584
4.80712,0.0265014,0.236699,0.239699,3.10883,0.050956,0.0150065
4.81502,0.0265014,0.236699,0.239699,3.10883,0.050956,0.0150065
4.82302,0.0265014,0.236699,0.239699,3.10883,0.050956,0.0150065
4.83102,0.0265014,0.236699,0.239699,3.10883,0.050956,0.0150065
4.83901,0.0265014,0.236699,0.239699,3.10883,0.050956,0.0150065
4.84705,0.0265014,0.236699,0.239699,3.10883,0.050956,0.0150065
4.85502,0.0265014,0.236699,0.239699,3.10883,0.050956,0.0150065
4.86315,0.0265014,0.236699,0.239699,3.10883,0.050956,0.0150065
4.87107,0.0265014,0.236699,0.239699,3.10883,0.050956,0.0150065
4.87913,0.0265014,0.236699,0.239699,3.10883,0.050956,0.0150065
4.88717,0.0265014,0.236699,0.239699,3.10883,0.050956,0.0150065
4.89513,0.0265014,0.236699,0.239699,3.10883,0.050956,0.0150065
4.90302,0.0265124,0.236694,0.239684,3.10875,0.0509164,0.0149544
4.91107,0.0265124,0.236694,0.239684,3.10875,0.0509164,0.0149544
4.91912,0.0265124,0.236694,0.239684,3.10875,0.0509164,0.0149544
4.9272,0.0265124,0.236694,0.239684,3.10875,0.0509164,0.0149544
4.93518,0.0265124,0.236694,0.239684,3.10875,0.0509164,0.0149544
4.94314,0.0265124,0.236694,0.239684,3.10875,0.0509164,0.0149544
4.95113,0.0265124,0.236694,0.239684,3.10875,0.0509164,0.0149544
4.95925,0.0265124,0.236694,0.239684,3.10875,0.0509164,0.0149544
4.9672,0.0265124,0.236694,0.239684,3.10875,0.0509164,0.0149544
4.97513,0.0265124,0.236694,0.239684,3.10875,0.0509164,0.0149544
4.98311,0.0265124,0.236694,0.239684,3.10875,0.0509164,0.0149544
4.99112,0.0265124,0.236694,0.239684,3.10875,0.0509164,0.0149544
4.99918,0.0265124,0.236694,0.239684,3.10875,0.0509164,0.0149544
5.00697,0.0265053,0.2367,0.239688,3.10879,0.0509545,0.0149565
5.01506,0.0265053,0.2367,0.239688,3.10879,0.0509545,0.0149565
5.02304,0.0265053,0.2367,0.239688,3.10879,0.0509545,0.0149565
5.03113,0.0265053,0.2367,0.239688,3.10879,0.0509545,0.0149565
5.03905,0.0265053,0.2367,0.239688,3.10879,0.0509545,0.0149565
5.04716,0.0265053,0.2367,0.239688,3.10879,0.0509545,0.0149565
5.05518,0.0265053,0.2367,0.239688,3.10879,0.0509545,0.0149565
5.06323,0.0265053,0.2367,0.239688,3.10879,0.0509545,0.0149565
5.07113,0.0265053,0.2367,0.239688,3.10879,0.0509545,0.0149565
5.07918,0.0265053,0.2367,0.239688,3.10879,0.0509545,0.0149565
5.0872,0.0265053,0.2367,0.239688,3.10879,0.0509545,0.0149565
5.09511,0.0265053,0.2367,0.239688,3.10879,0.0509545,0.0149565
5.10312,0.0265089,0.236695,0.239689,3.10879,0.0509658,0.0149437
5.11098,0.0265089,0.236695,0.239689,3.10879,0.0509658,0.0149437
5.11896,0.0265089,0.236695,0.239689,3.10879,0.0509658,0.0149437
5.12696,0.0265089,0.236695,0.239689,3.10879,0.0509658,0.0149437
5.13501,0.0265089,0.236695,0.239689,3.10879,0.0509658,0.0149437
5.14306,0.0265089,0.236695,0.239689,3.10879,0.0509658,0.0149437
5.15106,0.0265089,0.236695,0.239689,3.10879,0.0509658,0.0149437
5.15916,0.0265089,0.236695,0.239689,3.10879,0.0509658,0.0149437
5.16721,0.0265089,0.236695,0.239689,3.10879,0.0509658,0.0149437
5.17518,0.0265089,0.236695,0.239689,3.10879,0.0509658,0.0149437
5.18312,0.0265089,0.236695,0.239689,3.10879,0.0509658,0.0149437
5.19119,0.0265089,0.236695,0.239689,3.10879,0.0509658,0.0149437
5.19915,0.0265089,0.236695,0.239689,3.10879,0.0509658,0.0149437
5.20713,0.0265111,0.236689,0.23969,3.10876,0.0509577,0.0149424
5.21505,0.0265111,0.236689,0.23969,3.10876,0.0509577,0.0149424
5.2231,0.0265111,0.236689,0.23969,3.10876,0.0509577,0.0149424
5.23112,0.0265111,0.236689,0.23969,3.10876,0.0509577,0.0149424
5.2392,0.0265111,0.236689,0.23969,3.10876,0.0509577,0.0149424
5.24714,0.0265111,0.236689,0.23969,3.10876,0.0509577,0.0149424
5.25519,0.0265111,0.236689,0.23969,3.10876,0.0509577,0.0149424
5.26323,0.0265111,0.236689,0.23969,3.10876,0.0509577,0.0149424
5.27111,0.0265111,0.236689,0.23969,3.10876,0.0509577,0.0149424
5.27913,0.0265111,0.236689,0.23969,3.10876,0.0509577,0.0149424
5.28713,0.0265111,0.236689,0.23969,3.10876,0.0509577,0.0149424
5.29511,0.0265111,0.236689,0.23969,3.10876,0.0509577,0.0149424
5.30302,0.0265085,0.236694,0.239691,3.10879,0.0509425,0.0149328
5.31099,0.0265085,0.236694,0.239691,3.10879,0.0509425,0.0149328
5.31902,0.0265085,0.236694,0.239691,3.10879,0.0509425,0.0149328
5.32701,0.0265085,0.236694,0.239691,3.10879,0.0509425,0.0149328
5.33507,0.0265085,0.236694,0.239691,3.10879,0.0509425,0.0149328
5.34306,0.0265085,0.236694,0.239691,3.10879,0.0509425,0.0149328
5.35111,0.0265085,0.236694,0.239691,3.10879,0.0509425,0.0149328
5.35913,0.0265085,0.236694,0.239691,3.10879,0.0509425,0.0149328
5.36721,0.0265085,0.236694,0.239691,3.10879,0.0509425,0.0149328
5.37507,0.0265085,0.236694,0.239691,3.10879,0.0509425,0.0149328
5.3832,0.0265085,0.236694,0.239691,3.10879,0.0509425,0.0149328
5.39111,0.0265085,0.236694,0.239691,3.10879,0.0509425,0.0149328
5.39903,0.0265085,0.236694,0.239691,3.10879,0.0509425,0.0149328
5.40697,0.026506,0.236691,0.239677,3.10872,0.0509301,0.0149527
5.41497,0.026506,0.236691,0.239677,3.10872,0.0509301,0.0149527
5.42293,0.026506,0.236691,0.239677,3.10872,0.0509301,0.0149527
5.43093,0.026506,0.236691,0.239677,3.10872,0.0509301,0.0149527
5.43897,0.026506,0.236691,0.239677,3.10872,0.0509301,0.0149527
5.44695,0.026506,0.236691,0.239677,3.10872,0.0509301,0.0149527
5.455,0.026506,0.236691,0.239677,3.10872,0.0509301,0.0149527
5.46309,0.026506,0.236691,0.239677,3.10872,0.0509301,0.0149527
5.47104,0.026506,0.236691,0.239677,3.10872,0.0509301,0.0149527
5.47905,0.026506,0.236691,0.239677,3.10872,0.0509301,0.0149527
5.48715,0.026506,0.236691,0.239677,3.10872,0.0509301,0.0149527
5.49507,0.026506,0.236691,0.239677,3.10872,0.0509301,0.0149527
5.50305,0.0265113,0.236696,0.239698,3.10881,0.050975,0.014969
5.51099,0.0265113,0.236696,0.239698,3.10881,0.050975,0.014969
5.51903,0.0265113,0.236696,0.239698,3.10881,0.050975,0.014969
5.52705,0.0265113,0.236696,0.239698,3.10881,0.050975,0.014969
5.53503,0.0265113,0.236696,0.239698,3.10881,0.050975,0.014969
5.54306,0.0265113,0.236696,0.239698,3.10881,0.050975,0.014969
5.55104,0.0265113,0.236696,0.239698,3.10881,0.050975,0.014969
5.55912,0.0265113,0.236696,0.239698,3.10881,0.050975,0.014969
5.56716,0.0265113,0.236696,0.239698,3.10881,0.050975,0.014969
5.57511,0.0265113,0.236696,0.239698,3.10881,0.050975,0.014969
5.58305,0.0265113,0.236696,0.239698,3.10881,0.050975,0.014969
5.59112,0.0265113,0.236696,0.239698,3.10881,0.050975,0.014969
5.59904,0.0265113,0.236696,0.239698,3.10881,0.050975,0.014969
5.60695,0.0265085,0.236688,0.239673,3.10871,0.0509381,0.0149639
5.61505,0.0265085,0.236688,0.239673,3.10871,0.0509381,0.0149639
5.62306,0.0265085,0.236688,0.239673,3.10871,0.0509381,0.0149639
5.6311,0.0265085,0.236688,0.239673,3.10871,0.0509381,0.0149639
5.63914,0.0265085,0.236688,0.239673,3.10871,0.0509381,0.0149639
5.64714,0.0265085,0.236688,0.239673,3.10871,0.0509381,0.0149639
5.65511,0.0265085,0.236688,0.239673,3.10871,0.0509381,0.0149639
5.66326,0.0265085,0.236688,0.239673,3.10871,0.0509381,0.0149639
5.67114,0.0265085,0.236688,0.239673,3.10871,0.0509381,0.0149639
5.67914,0.0265085,0.236688,0.239673,3.10871,0.0509381,0.0149639
5.68712,0.0265085,0.236688,0.239673,3.10871,0.0509381,0.0149639
5.69505,0.0265085,0.236688,0.239673,3.10871,0.0509381,0.0149639
5.70304,0.0265045,0.236694,0.239681,3.10872,0.0509685,0.0149524
5.71094,0.0265045,0.236694,0.239681,3.10872,0.0509685,0.0149524
5.71899,0.0265045,0.236694,0.239681,3.10872,0.0509685,0.0149524
5.72701,0.0265045,0.236694,0.239681,3.10872,0.0509685,0.0149524
5.73498,0.0265045,0.236694,0.239681,3.10872,0.0509685,0.0149524
5.74299,0.0265045,0.236694,0.239681,3.10872,0.0509685,0.0149524
5.751,0.0265045,0.236694,0.239681,3.10872,0.0509685,0.0149524
5.75904,0.0265045,0.236694,0.239681,3.10872,0.0509685,0.0149524
5.76711,0.0265045,0.236694,0.239681,3.10872,0.0509685,0.0149524
5.77503,0.0265045,0.236694,0.239681,3.10872,0.0509685,0.0149524
5.78319,0.0265045,0.236694,0.239681,3.10872,0.0509685,0.0149524
5.79104,0.0265045,0.236694,0.239681,3.10872,0.0509685,0.0149524
5.79906,0.0265045,0.236694,0.239681,3.10872,0.0509685,0.0149524
5.80702,0.0265039,0.236691,0.239686,3.10876,0.0509698,0.0149904
5.815,0.0265039,0.236691,0.239686,3.10876,0.0509698,0.0149904
5.8231,0.0265039,0.236691,0.239686,3.10876,0.0509698,0.0149904
5.83103,0.0265039,0.236691,0.239686,3.10876,0.0509698,0.0149904
5.83905,0.0265039,0.236691,0.239686,3.10876,0.0509698,0.0149904
5.84701,0.0265039,0.236691,0.239686,3.10876,0.0509698,0.0149904
5.855,0.0265039,0.236691,0.239686,3.10876,0.0509698,0.0149904
5.86312,0.0265039,0.236691,0.239686,3.10876,0.0509698,0.0149904
5.871,0.0265039,0.236691,0.239686,3.10876,0.0509698,0.0149904
5.87902,0.0265039,0.236691,0.239686,3.10876,0.0509698,0.0149904
5.88702,0.0265039,0.236691,0.239686,3.10876,0.0509698,0.0149904
5.89504,0.0265039,0.236691,0.239686,3.10876,0.0509698,0.0149904
5.90302,0.0265122,0.236688,0.239676,3.1087,0.0509599,0.0149148
5.91098,0.0265122,0.236688,0.239676,3.1087,0.0509599,0.0149148
5.91898,0.0265122,0.236688,0.239676,3.1087,0.0509599,0.0149148
5.92701,0.0265122,0.236688,0.239676,3.1087,0.0509599,0.0149148
5.93502,0.0265122,0.236688,0.239676,3.1087,0.0509599,0.0149148
5.94309,0.0265122,0.236688,0.239676,3.1087,0.0509599,0.0149148
5.95099,0.0265122,0.236688,0.239676,3.1087,0.0509599,0.0149148
5.95911,0.0265122,0.236688,0.239676,3.1087,0.0509599,0.0149148
5.96716,0.0265122,0.236688,0.239676,3.1087,0.0509599,0.0149148
5.9751,0.0265122,0.236688,0.239676,3.1087,0.0509599,0.0149148
5.9831,0.0265122,0.236688,0.239676,3.1087,0.0509599,0.0149148
5.99104,0.0265122,0.236688,0.239676,3.1087,0.0509599,0.0149148
5.99909,0.0265122,0.236688,0.239676,3.1087,0.0509599,0.0149148
