Time,J0,J1,J2,J3,J4,J5,J6
0.30167,-1.49794,-1.36572,-1.07556,1.56957,0.210049,3.16202e-322,-2.14205
0.309734,-1.49793,-1.36573,-1.07555,1.56954,0.210109,3.16202e-322,-2.14209
0.31769,-1.49797,-1.36573,-1.0755,1.56956,0.210073,3.16202e-322,-2.14205
0.325723,-1.49796,-1.36573,-1.07554,1.56954,0.210109,3.16202e-322,-2.14209
0.333701,-1.49797,-1.36572,-1.07555,1.56955,0.210109,3.16202e-322,-2.14204
0.341757,-1.49794,-1.36573,-1.07555,1.56954,0.210085,3.16202e-322,-2.14206
0.349747,-1.49793,-1.36574,-1.07556,1.56954,0.210049,3.16202e-322,-2.14209
0.357742,-1.49797,-1.36573,-1.07554,1.56954,0.210085,3.16202e-322,-2.14205
0.365737,-1.49799,-1.3657,-1.07554,1.56955,0.210085,3.16202e-322,-2.14208
0.373704,-1.49797,-1.36574,-1.07556,1.56955,0.210061,3.16202e-322,-2.14202
0.381702,-1.49796,-1.36576,-1.07555,1.56956,0.210085,3.16202e-322,-2.14206
0.389784,-1.49793,-1.36572,-1.07556,1.56954,0.210073,3.16202e-322,-2.14205
0.397783,-1.49797,-1.36572,-1.07555,1.56956,0.210061,3.16202e-322,-2.14205
0.405642,-1.49794,-1.36575,-1.07552,1.56951,0.210085,3.16202e-322,-2.14209
0.413717,-1.49798,-1.36573,-1.07556,1.56954,0.210073,3.16202e-322,-2.14209
0.421695,-1.49793,-1.36578,-1.0756,1.56956,0.210109,3.16202e-322,-2.14206
0.429669,-1.49796,-1.36573,-1.07555,1.56955,0.210061,3.16202e-322,-2.14205
0.43778,-1.49799,-1.36574,-1.07556,1.56955,0.210061,3.16202e-322,-2.14204
0.445761,-1.49796,-1.36573,-1.07554,1.56955,0.210061,3.16202e-322,-2.14209
0.453769,-1.49797,-1.36572,-1.07556,1.56956,0.210061,3.16202e-322,-2.14202
0.461755,-1.49796,-1.36573,-1.07556,1.56957,0.210061,3.16202e-322,-2.14209
0.469717,-1.49796,-1.36573,-1.07554,1.56955,0.210109,3.16202e-322,-2.14205
0.477734,-1.49798,-1.36573,-1.07552,1.56954,0.210073,3.16202e-322,-2.14208
0.485775,-1.49798,-1.36573,-1.07555,1.56955,0.210049,3.16202e-322,-2.14205
0.493792,-1.49798,-1.36574,-1.0755,1.56952,0.210073,3.16202e-322,-2.14208
0.501763,-1.49798,-1.36573,-1.07552,1.56955,0.210097,3.16202e-322,-2.14202
0.50961,-1.49797,-1.36574,-1.07555,1.56954,0.210049,3.16202e-322,-2.14205
0.51764,-1.49796,-1.36572,-1.07554,1.56956,0.210097,3.16202e-322,-2.1421
0.525663,-1.49796,-1.36575,-1.07555,1.56956,0.210085,3.16202e-322,-2.14208
0.533585,-1.49797,-1.36574,-1.07554,1.56956,0.210061,3.16202e-322,-2.14205
0.541696,-1.49793,-1.36572,-1.07554,1.56954,0.210085,3.16202e-322,-2.14206
0.549673,-1.49794,-1.36574,-1.07555,1.56956,0.210073,3.16202e-322,-2.1421
0.557717,-1.49794,-1.36574,-1.07551,1.56952,0.210085,3.16202e-322,-2.14205
0.565691,-1.49797,-1.36574,-1.07552,1.56956,0.210085,3.16202e-322,-2.14206
0.573693,-1.49796,-1.36573,-1.07554,1.56952,0.210061,3.16202e-322,-2.14209
0.581682,-1.49798,-1.3657,-1.07554,1.56955,0.210097,3.16202e-322,-2.14205
0.589739,-1.49797,-1.36573,-1.07554,1.56957,0.210085,3.16202e-322,-2.14204
0.597687,-1.49793,-1.36574,-1.07557,1.56955,0.210049,3.16202e-322,-2.14209
0.605624,-1.49797,-1.36574,-1.07554,1.56955,0.210073,3.16202e-322,-2.14205
0.61365,-1.49796,-1.36578,-1.07557,1.56955,0.210061,3.16202e-322,-2.14205
0.621599,-1.49796,-1.36574,-1.07555,1.56955,0.210061,3.16202e-322,-2.14204
0.629652,-1.49798,-1.36572,-1.07558,1.56956,0.210037,3.16202e-322,-2.14205
0.637699,-1.49794,-1.36569,-1.07551,1.56954,0.210061,3.16202e-322,-2.14206
0.645682,-1.49798,-1.36572,-1.07555,1.56956,0.210073,3.16202e-322,-2.14205
0.653666,-1.49797,-1.3657,-1.07556,1.56955,0.210073,3.16202e-322,-2.14205
0.661727,-1.49793,-1.36567,-1.07555,1.56955,0.210085,3.16202e-322,-2.14209
0.669714,-1.49796,-1.3657,-1.07556,1.56954,0.210109,3.16202e-322,-2.14208
0.677718,-1.49797,-1.36569,-1.07557,1.56954,0.210061,3.16202e-322,-2.14208
0.685745,-1.498,-1.36569,-1.07554,1.56951,0.210073,3.16202e-322,-2.14205
0.693775,-1.49797,-1.3657,-1.07551,1.56958,0.210061,3.16202e-322,-2.14206
0.701788,-1.49797,-1.3657,-1.07555,1.56956,0.210073,3.16202e-322,-2.14208
0.709699,-1.49796,-1.36573,-1.07555,1.56955,0.210073,3.16202e-322,-2.14204
0.717667,-1.49799,-1.3657,-1.07555,1.56957,0.210061,3.16202e-322,-2.14204
0.725727,-1.49796,-1.36573,-1.07557,1.56955,0.210073,3.16202e-322,-2.14206
0.733732,-1.49796,-1.36569,-1.07554,1.56954,0.210049,3.16202e-322,-2.14204
0.741729,-1.49796,-1.3657,-1.07552,1.56956,0.210073,3.16202e-322,-2.14205
0.749746,-1.49797,-1.36569,-1.07552,1.56955,0.210073,3.16202e-322,-2.14205
0.757706,-1.49794,-1.3657,-1.07557,1.56954,0.210085,3.16202e-322,-2.14206
0.765723,-1.49797,-1.36572,-1.07557,1.56956,0.210073,3.16202e-322,-2.14214
0.773739,-1.49797,-1.36573,-1.07555,1.56955,0.210097,3.16202e-322,-2.14208
0.78171,-1.49797,-1.36573,-1.07556,1.56955,0.210061,3.16202e-322,-2.14208
0.789778,-1.49797,-1.36573,-1.07558,1.56954,0.210085,3.16202e-322,-2.14205
0.797702,-1.49794,-1.3657,-1.0756,1.56958,0.210049,3.16202e-322,-2.1421
0.805679,-1.49797,-1.36573,-1.07556,1.56956,0.210061,3.16202e-322,-2.14205
0.813652,-1.49798,-1.36575,-1.07554,1.56957,0.210061,3.16202e-322,-2.1421
0.821595,-1.49794,-1.36575,-1.07558,1.56956,0.210085,3.16202e-322,-2.14205
0.829669,-1.49794,-1.36576,-1.07557,1.56956,0.210049,3.16202e-322,-2.14208
0.837729,-1.49794,-1.36576,-1.07555,1.56956,0.210061,3.16202e-322,-2.14205
0.845677,-1.49794,-1.36574,-1.07555,1.56956,0.210085,3.16202e-322,-2.14208
0.8537,-1.49796,-1.36573,-1.07557,1.56955,0.210061,3.16202e-322,-2.14209
0.861706,-1.49798,-1.36569,-1.07552,1.56954,0.210049,3.16202e-322,-2.14205
0.869715,-1.49794,-1.36573,-1.07555,1.56951,0.210073,3.16202e-322,-2.14205
0.877725,-1.49794,-1.36574,-1.07558,1.56952,0.210061,3.16202e-322,-2.14205
0.885702,-1.49798,-1.36574,-1.07555,1.56955,0.210049,3.16202e-322,-2.14206
0.893729,-1.49796,-1.36574,-1.07556,1.56954,0.210037,3.16202e-322,-2.14208
0.901686,-1.49798,-1.36574,-1.07554,1.56956,0.210073,3.16202e-322,-2.14206
0.90975,-1.49794,-1.3657,-1.07556,1.56957,0.210061,3.16202e-322,-2.14208
0.917581,-1.49798,-1.36576,-1.07558,1.56957,0.210085,3.16202e-322,-2.14205
0.925576,-1.49798,-1.36576,-1.07563,1.56956,0.210097,3.16202e-322,-2.14205
0.933662,-1.49799,-1.36584,-1.0756,1.56956,0.210097,3.16202e-322,-2.14205
0.941684,-1.49797,-1.36579,-1.07563,1.5696,0.210085,3.16202e-322,-2.142
0.949688,-1.49796,-1.36585,-1.0756,1.56955,0.210097,3.16202e-322,-2.14198
0.957673,-1.49794,-1.36599,-1.07558,1.56957,0.210085,3.16202e-322,-2.14191
0.965631,-1.49796,-1.36605,-1.07556,1.56954,0.210097,3.16202e-322,-2.14192
0.973748,-1.49792,-1.36611,-1.07558,1.5696,0.210109,3.16202e-322,-2.14188
0.981669,-1.49796,-1.36617,-1.07557,1.56957,0.210073,3.16202e-322,-2.14187
0.989739,-1.49797,-1.36628,-1.07554,1.56954,0.210097,3.16202e-322,-2.14178
0.997706,-1.49798,-1.36636,-1.07558,1.56955,0.210085,3.16202e-322,-2.14167
1.00569,-1.49797,-1.36649,-1.07558,1.56955,0.210061,3.16202e-322,-2.1416
1.01368,-1.49798,-1.36667,-1.07558,1.56954,0.210121,3.16202e-322,-2.14148
1.02167,-1.49798,-1.36685,-1.07557,1.56956,0.210085,3.16202e-322,-2.14138
1.0297,-1.49798,-1.36707,-1.07555,1.56954,0.210109,3.16202e-322,-2.14124
1.03777,-1.49797,-1.36728,-1.07554,1.56952,0.210097,3.16202e-322,-2.14102
1.04578,-1.49802,-1.3676,-1.07556,1.56951,0.210085,3.16202e-322,-2.14078
1.05372,-1.49798,-1.36792,-1.07555,1.56951,0.210097,3.16202e-322,-2.14049
1.06172,-1.49802,-1.36821,-1.07552,1.56949,0.210121,3.16202e-322,-2.14012
1.06969,-1.49799,-1.36858,-1.07555,1.56945,0.210121,3.16202e-322,-2.13974
1.07767,-1.49798,-1.36885,-1.07556,1.56944,0.210121,3.16202e-322,-2.13924
1.08564,-1.49799,-1.36931,-1.07555,1.5694,0.210121,3.16202e-322,-2.13864
1.0937,-1.49798,-1.36968,-1.07557,1.56933,0.210157,3.16202e-322,-2.13804
1.10164,-1.49802,-1.37013,-1.07555,1.56931,0.210109,3.16202e-322,-2.13731
1.10958,-1.49798,-1.37059,-1.07551,1.56932,0.210133,3.16202e-322,-2.13638
1.11753,-1.49799,-1.37106,-1.07555,1.56932,0.210121,3.16202e-322,-2.13534
1.12554,-1.49799,-1.37153,-1.07558,1.56932,0.210109,3.16202e-322,-2.13423
1.13355,-1.49805,-1.37198,-1.07556,1.56934,0.210109,3.16202e-322,-2.13284
1.14166,-1.49813,-1.37249,-1.07557,1.56936,0.210109,3.16202e-322,-2.13123
1.14962,-1.49829,-1.37303,-1.07561,1.56937,0.210121,3.16202e-322,-2.12947
1.15769,-1.4984,-1.37357,-1.0756,1.56932,0.210133,3.16202e-322,-2.1276
1.16569,-1.49855,-1.3741,-1.07558,1.56937,0.210133,3.16202e-322,-2.12557
1.17372,-1.49871,-1.37461,-1.07558,1.56937,0.210121,3.16202e-322,-2.12331
1.18174,-1.49896,-1.37522,-1.07561,1.56937,0.210121,3.16202e-322,-2.12079
1.18973,-1.49926,-1.37581,-1.07562,1.56942,0.210109,3.16202e-322,-2.11833
1.19776,-1.49958,-1.37636,-1.07566,1.56942,0.210121,3.16202e-322,-2.11512
1.20566,-1.5,-1.3769,-1.07566,1.5694,0.210085,3.16202e-322,-2.11196
1.21362,-1.50032,-1.37745,-1.07564,1.56939,0.210085,3.16202e-322,-2.10857
1.22164,-1.50072,-1.37796,-1.07567,1.56938,0.210085,3.16202e-322,-2.10513
1.22962,-1.50111,-1.37847,-1.07564,1.56939,0.210085,3.16202e-322,-2.10147
1.23763,-1.50141,-1.37896,-1.07566,1.56938,0.210097,3.16202e-322,-2.0977
1.24566,-1.50172,-1.37951,-1.07563,1.56942,0.210097,3.16202e-322,-2.09374
1.2537,-1.502,-1.37999,-1.07564,1.56945,0.210073,3.16202e-322,-2.08962
1.26166,-1.50226,-1.38047,-1.07569,1.56944,0.210073,3.16202e-322,-2.08511
1.26965,-1.50262,-1.38092,-1.0757,1.56944,0.210097,3.16202e-322,-2.08043
1.27771,-1.5031,-1.38129,-1.07578,1.56945,0.210037,3.16202e-322,-2.07554
1.28572,-1.50367,-1.38172,-1.07582,1.56942,0.210097,3.16202e-322,-2.07067
1.29376,-1.50441,-1.38206,-1.07591,1.56939,0.210085,3.16202e-322,-2.06577
1.3017,-1.50517,-1.38247,-1.0759,1.56939,0.210085,3.16202e-322,-2.06102
1.30966,-1.50609,-1.38274,-1.0759,1.5694,0.210049,3.16202e-322,-2.05601
1.31766,-1.50714,-1.38303,-1.07587,1.56934,0.210061,3.16202e-322,-2.05074
1.32565,-1.50839,-1.38338,-1.07587,1.56942,0.210061,3.16202e-322,-2.04522
1.33367,-1.50993,-1.38375,-1.07591,1.56934,0.210085,3.16202e-322,-2.03952
1.34173,-1.51185,-1.38397,-1.07591,1.56937,0.210061,3.16202e-322,-2.03377
1.34974,-1.51414,-1.38426,-1.07587,1.56933,0.210061,3.16202e-322,-2.02821
1.35765,-1.51679,-1.3845,-1.0759,1.56932,0.210025,3.16202e-322,-2.0225
1.36566,-1.51991,-1.3847,-1.0759,1.56932,0.210049,3.16202e-322,-2.01661
1.37362,-1.52326,-1.38493,-1.07586,1.56934,0.210025,3.16202e-322,-2.01061
1.38165,-1.52694,-1.38504,-1.07588,1.56939,0.210013,3.16202e-322,-2.00451
1.38971,-1.53062,-1.38522,-1.0759,1.56932,0.210061,3.16202e-322,-1.99858
1.39771,-1.53439,-1.38537,-1.07587,1.56939,0.210073,3.16202e-322,-1.99251
1.40566,-1.53831,-1.38554,-1.07596,1.56937,0.210049,3.16202e-322,-1.98628
1.41361,-1.54259,-1.38571,-1.07591,1.56938,0.210073,3.16202e-322,-1.97999
1.42158,-1.54727,-1.38591,-1.0759,1.56938,0.210061,3.16202e-322,-1.97367
1.4296,-1.55242,-1.38609,-1.07592,1.5694,0.210049,3.16202e-322,-1.96753
1.43765,-1.55784,-1.38625,-1.07598,1.56937,0.210037,3.16202e-322,-1.96146
1.4457,-1.56361,-1.38637,-1.07597,1.56937,0.210049,3.16202e-322,-1.95513
1.45367,-1.56941,-1.3865,-1.07596,1.56942,0.210049,3.16202e-322,-1.94871
1.46171,-1.57553,-1.38656,-1.07591,1.56942,0.210001,3.16202e-322,-1.94219
1.46977,-1.58221,-1.38658,-1.07593,1.56943,0.210061,3.16202e-322,-1.93585
1.47767,-1.58914,-1.38664,-1.07598,1.56944,0.210049,3.16202e-322,-1.92947
1.48569,-1.5962,-1.3867,-1.07603,1.56949,0.210061,3.16202e-322,-1.92284
1.4937,-1.60348,-1.38678,-1.07608,1.56956,0.210073,3.16202e-322,-1.91612
1.50172,-1.61144,-1.38684,-1.07611,1.56958,0.210061,3.16202e-322,-1.90944
1.5096,-1.6198,-1.38694,-1.07609,1.56957,0.210037,3.16202e-322,-1.90295
1.51756,-1.62804,-1.38701,-1.07618,1.56958,0.210037,3.16202e-322,-1.89628
1.52556,-1.63634,-1.38707,-1.07624,1.56961,0.210013,3.16202e-322,-1.88951
1.53355,-1.64512,-1.38713,-1.0762,1.56952,0.210001,3.16202e-322,-1.88261
1.54168,-1.6538,-1.38719,-1.07621,1.56957,0.209989,3.16202e-322,-1.87581
1.54962,-1.66224,-1.38723,-1.07632,1.56961,0.210025,3.16202e-322,-1.86901
1.55759,-1.67057,-1.38733,-1.07641,1.56968,0.209989,3.16202e-322,-1.86209
1.5656,-1.67923,-1.38743,-1.07649,1.56986,0.209989,3.16202e-322,-1.85505
1.57363,-1.68778,-1.38748,-1.07664,1.57012,0.210025,3.16202e-322,-1.84795
1.58165,-1.69577,-1.38763,-1.07679,1.57053,0.210001,3.16202e-322,-1.84113
1.58969,-1.70397,-1.38765,-1.07713,1.57098,0.209965,3.16202e-322,-1.83409
1.59768,-1.71229,-1.38776,-1.07742,1.57142,0.209942,3.16202e-322,-1.82694
1.60561,-1.72037,-1.38776,-1.07772,1.57189,0.20993,3.16202e-322,-1.81956
1.61363,-1.72807,-1.38778,-1.0779,1.57236,0.209906,3.16202e-322,-1.81239
1.62159,-1.73575,-1.38777,-1.07796,1.57285,0.209918,3.16202e-322,-1.8053
1.62962,-1.74343,-1.38782,-1.07808,1.57339,0.209882,3.16202e-322,-1.798
1.63762,-1.75084,-1.3878,-1.07818,1.57403,0.20987,3.16202e-322,-1.7906
1.64568,-1.75769,-1.38784,-1.0784,1.57477,0.209882,3.16202e-322,-1.7833
1.65367,-1.76444,-1.38784,-1.07855,1.57579,0.209894,3.16202e-322,-1.77619
1.66167,-1.7713,-1.38785,-1.07889,1.57699,0.209882,3.16202e-322,-1.76893
1.66965,-1.77803,-1.38783,-1.07915,1.57847,0.209858,3.16202e-322,-1.76165
1.67766,-1.78465,-1.38782,-1.07951,1.58027,0.209858,3.16202e-322,-1.75435
1.68562,-1.79074,-1.38783,-1.07984,1.58235,0.209822,3.16202e-322,-1.74721
1.69368,-1.79674,-1.38784,-1.08022,1.58463,0.209762,3.16202e-322,-1.74019
1.70165,-1.80278,-1.38784,-1.08083,1.58704,0.209642,3.16202e-322,-1.733
1.70948,-1.80862,-1.38782,-1.08157,1.58955,0.209618,3.16202e-322,-1.72587
1.71759,-1.81401,-1.38778,-1.0823,1.59223,0.209463,3.16202e-322,-1.71884
1.72553,-1.81889,-1.38784,-1.08329,1.59501,0.209296,3.16202e-322,-1.71215
1.73353,-1.82353,-1.38785,-1.08447,1.59803,0.209128,3.16202e-322,-1.70518
1.74162,-1.8281,-1.3878,-1.08582,1.60114,0.208936,3.16202e-322,-1.69822
1.74956,-1.83274,-1.38776,-1.08742,1.60418,0.208661,3.16202e-322,-1.69136
1.75758,-1.83716,-1.38773,-1.08918,1.60725,0.208314,3.16202e-322,-1.68473
1.76561,-1.84154,-1.38779,-1.09125,1.61029,0.207883,3.16202e-322,-1.6781
1.77367,-1.84556,-1.38779,-1.09356,1.61337,0.207344,3.16202e-322,-1.6715
1.78159,-1.84917,-1.38775,-1.09609,1.61638,0.206805,3.16202e-322,-1.66475
1.78964,-1.85246,-1.38778,-1.09893,1.61946,0.206207,3.16202e-322,-1.65819
1.79767,-1.85547,-1.3878,-1.10191,1.62254,0.205536,3.16202e-322,-1.65173
1.80554,-1.85839,-1.38778,-1.10515,1.62572,0.204806,3.16202e-322,-1.6452
1.81354,-1.86125,-1.38773,-1.10871,1.62902,0.204052,3.16202e-322,-1.63861
1.8215,-1.86408,-1.38771,-1.11254,1.63235,0.20331,3.16202e-322,-1.63207
1.82951,-1.86678,-1.38772,-1.1166,1.63563,0.202675,3.16202e-322,-1.62566
1.83752,-1.86937,-1.38769,-1.12087,1.63876,0.201981,3.16202e-322,-1.6195
1.8456,-1.87182,-1.38769,-1.12553,1.64176,0.201203,3.16202e-322,-1.61334
1.85363,-1.87393,-1.38767,-1.13052,1.64454,0.200389,3.16202e-322,-1.60716
1.86163,-1.87556,-1.38764,-1.13575,1.64716,0.199551,3.16202e-322,-1.60095
1.86969,-1.87681,-1.38765,-1.14128,1.64959,0.198749,3.16202e-322,-1.59487
1.87764,-1.87767,-1.38761,-1.1469,1.65199,0.197994,3.16202e-322,-1.589
1.88565,-1.87827,-1.38766,-1.15286,1.65413,0.197348,3.16202e-322,-1.58305
1.89375,-1.87841,-1.38761,-1.15908,1.65617,0.196702,3.16202e-322,-1.57705
1.90171,-1.87838,-1.3876,-1.16577,1.65793,0.196103,3.16202e-322,-1.571
1.9096,-1.87832,-1.38751,-1.17274,1.65936,0.195493,3.16202e-322,-1.56521
1.91767,-1.87837,-1.38747,-1.1798,1.66053,0.194822,3.16202e-322,-1.55959
1.92562,-1.87833,-1.38739,-1.18701,1.66141,0.194223,3.16202e-322,-1.55407
1.93363,-1.87825,-1.38736,-1.19446,1.662,0.193733,3.16202e-322,-1.54842
1.94173,-1.87826,-1.38731,-1.20211,1.66237,0.193361,3.16202e-322,-1.54273
1.94969,-1.87829,-1.38721,-1.20984,1.66267,0.193134,3.16202e-322,-1.53712
1.9577,-1.87826,-1.38713,-1.21777,1.66281,0.193038,3.16202e-322,-1.53166
1.96568,-1.87819,-1.38709,-1.22589,1.6628,0.19299,3.16202e-322,-1.52648
1.97364,-1.87815,-1.387,-1.23436,1.66275,0.192919,3.16202e-322,-1.5213
1.98168,-1.8782,-1.38694,-1.24289,1.66281,0.192811,3.16202e-322,-1.51608
1.98965,-1.87809,-1.38678,-1.25143,1.66278,0.192703,3.16202e-322,-1.51087
1.99771,-1.87791,-1.38657,-1.26034,1.66276,0.19256,3.16202e-322,-1.5058
2.00555,-1.87776,-1.3864,-1.2694,1.66279,0.192428,3.16202e-322,-1.50099
2.01366,-1.87762,-1.38625,-1.27828,1.66279,0.19232,3.16202e-322,-1.49639
2.02156,-1.87754,-1.38608,-1.28735,1.66288,0.192296,3.16202e-322,-1.49183
2.02962,-1.87735,-1.38596,-1.29668,1.66297,0.192272,3.16202e-322,-1.48728
2.0376,-1.87723,-1.38578,-1.30608,1.66308,0.192308,3.16202e-322,-1.48278
2.04574,-1.87704,-1.38567,-1.31554,1.66323,0.19226,3.16202e-322,-1.47831
2.05367,-1.8767,-1.38547,-1.32533,1.6633,0.1922,3.16202e-322,-1.47399
2.06163,-1.87619,-1.3853,-1.3351,1.66334,0.192116,3.16202e-322,-1.46993
2.06969,-1.87567,-1.38512,-1.34461,1.66329,0.192045,3.16202e-322,-1.46611
2.07773,-1.87493,-1.38493,-1.35439,1.66332,0.191937,3.16202e-322,-1.46239
2.08569,-1.87393,-1.3847,-1.36432,1.66335,0.191805,3.16202e-322,-1.45864
2.09373,-1.87272,-1.38448,-1.374,1.66338,0.191769,3.16202e-322,-1.45483
2.10178,-1.87115,-1.38426,-1.38398,1.66339,0.191793,3.16202e-322,-1.45115
2.10955,-1.86901,-1.384,-1.39404,1.6634,0.191781,3.16202e-322,-1.44753
2.1176,-1.86646,-1.38378,-1.40398,1.66353,0.191781,3.16202e-322,-1.44416
2.12552,-1.8635,-1.38357,-1.41407,1.66363,0.191757,3.16202e-322,-1.44091
2.13359,-1.85994,-1.38333,-1.42442,1.66378,0.191769,3.16202e-322,-1.43772
2.14163,-1.85602,-1.38309,-1.43455,1.66395,0.191769,3.16202e-322,-1.43459
2.14958,-1.85195,-1.38281,-1.44449,1.66417,0.191757,3.16202e-322,-1.43139
2.15764,-1.84747,-1.38253,-1.45462,1.66435,0.191769,3.16202e-322,-1.42821
2.16563,-1.84255,-1.38227,-1.46457,1.66448,0.191781,3.16202e-322,-1.42495
2.17364,-1.83703,-1.38201,-1.47446,1.66471,0.191781,3.16202e-322,-1.42182
2.1817,-1.83075,-1.38176,-1.4847,1.665,0.191805,3.16202e-322,-1.41886
2.1896,-1.82399,-1.38148,-1.49489,1.66532,0.191805,3.16202e-322,-1.41595
2.19766,-1.81721,-1.38118,-1.5049,1.66566,0.191805,3.16202e-322,-1.41306
2.2056,-1.80999,-1.38093,-1.51517,1.66601,0.191757,3.16202e-322,-1.41021
2.21361,-1.80204,-1.38051,-1.52524,1.66626,0.191793,3.16202e-322,-1.40731
2.22166,-1.79389,-1.38012,-1.53516,1.66638,0.191817,3.16202e-322,-1.40444
2.22965,-1.78576,-1.3797,-1.54522,1.66631,0.191817,3.16202e-322,-1.40165
2.23767,-1.77727,-1.37926,-1.55522,1.66632,0.191841,3.16202e-322,-1.39877
2.24574,-1.76841,-1.37871,-1.565,1.66639,0.191877,3.16202e-322,-1.39593
2.25369,-1.75944,-1.37818,-1.57503,1.66636,0.191841,3.16202e-322,-1.39342
2.26165,-1.75046,-1.3776,-1.58516,1.66638,0.191901,3.16202e-322,-1.39055
2.26971,-1.74142,-1.37704,-1.595,1.66649,0.191913,3.16202e-322,-1.38784
2.27768,-1.73224,-1.37648,-1.60502,1.66651,0.191901,3.16202e-322,-1.38508
2.28564,-1.72323,-1.37598,-1.61508,1.6665,0.191877,3.16202e-322,-1.38237
2.2937,-1.71446,-1.37549,-1.62474,1.66652,0.191925,3.16202e-322,-1.37964
2.30162,-1.70528,-1.37496,-1.63453,1.66649,0.191865,3.16202e-322,-1.37692
2.30953,-1.69618,-1.3745,-1.64437,1.6664,0.191877,3.16202e-322,-1.37436
2.31763,-1.68758,-1.37399,-1.65381,1.66639,0.191865,3.16202e-322,-1.37186
2.32557,-1.67873,-1.37345,-1.66323,1.66643,0.191889,3.16202e-322,-1.36941
2.3336,-1.66995,-1.3729,-1.67279,1.66637,0.191889,3.16202e-322,-1.367
2.3417,-1.66152,-1.37234,-1.68213,1.66649,0.191901,3.16202e-322,-1.36456
2.34968,-1.65347,-1.37171,-1.69132,1.66651,0.191913,3.16202e-322,-1.3621
2.35769,-1.64529,-1.37113,-1.70073,1.66648,0.191949,3.16202e-322,-1.35971
2.3657,-1.63721,-1.3705,-1.71004,1.66648,0.191913,3.16202e-322,-1.35734
2.37369,-1.62966,-1.3698,-1.71911,1.6665,0.191889,3.16202e-322,-1.35493
2.38166,-1.62236,-1.36903,-1.72819,1.6665,0.191901,3.16202e-322,-1.35259
2.38964,-1.61487,-1.36827,-1.73725,1.6665,0.191937,3.16202e-322,-1.35029
2.39774,-1.60758,-1.36749,-1.74609,1.66648,0.191961,3.16202e-322,-1.348
2.40568,-1.60067,-1.36666,-1.75481,1.6665,0.191925,3.16202e-322,-1.34578
2.41358,-1.59405,-1.36586,-1.76368,1.66652,0.191949,3.16202e-322,-1.34349
2.42163,-1.58741,-1.36505,-1.77233,1.66662,0.191973,3.16202e-322,-1.34128
2.42955,-1.58084,-1.36423,-1.78077,1.66669,0.191961,3.16202e-322,-1.33913
2.43763,-1.57438,-1.36333,-1.78929,1.66684,0.191949,3.16202e-322,-1.33686
2.44567,-1.5683,-1.36241,-1.79783,1.6669,0.191937,3.16202e-322,-1.3347
2.45373,-1.56252,-1.36142,-1.80619,1.66692,0.191925,3.16202e-322,-1.33244
2.4617,-1.55683,-1.36028,-1.81448,1.66687,0.191913,3.16202e-322,-1.33019
2.46965,-1.551,-1.35905,-1.82292,1.66687,0.191937,3.16202e-322,-1.32788
2.4777,-1.54536,-1.35759,-1.83126,1.66688,0.191937,3.16202e-322,-1.32557
2.48563,-1.54002,-1.35607,-1.83929,1.6669,0.191961,3.16202e-322,-1.32316
2.4937,-1.53514,-1.3544,-1.84727,1.6669,0.191961,3.16202e-322,-1.32073
2.50173,-1.53051,-1.35262,-1.85528,1.66686,0.191973,3.16202e-322,-1.31832
2.50964,-1.5258,-1.35065,-1.86324,1.66687,0.192021,3.16202e-322,-1.31595
2.51761,-1.52124,-1.34864,-1.87105,1.66686,0.192009,3.16202e-322,-1.31365
2.52563,-1.51676,-1.34652,-1.87887,1.6668,0.192021,3.16202e-322,-1.31139
2.5337,-1.51218,-1.34432,-1.88658,1.66669,0.192045,3.16202e-322,-1.30924
2.54165,-1.50781,-1.34195,-1.89413,1.66656,0.192033,3.16202e-322,-1.307
2.54969,-1.50378,-1.33957,-1.90143,1.66645,0.192045,3.16202e-322,-1.3047
2.55761,-1.5001,-1.33719,-1.90845,1.66644,0.192152,3.16202e-322,-1.30232
2.56568,-1.49634,-1.33477,-1.91555,1.6664,0.192272,3.16202e-322,-1.29994
2.57373,-1.49249,-1.33238,-1.92253,1.66643,0.192416,3.16202e-322,-1.29757
2.58162,-1.48872,-1.33,-1.92927,1.66648,0.192595,3.16202e-322,-1.29522
2.58966,-1.48494,-1.32769,-1.93595,1.66642,0.192715,3.16202e-322,-1.29285
2.59765,-1.48128,-1.32531,-1.94249,1.66645,0.192847,3.16202e-322,-1.29049
2.60565,-1.47777,-1.32297,-1.94899,1.66644,0.192907,3.16202e-322,-1.28813
2.61353,-1.47439,-1.32059,-1.95529,1.66637,0.192907,3.16202e-322,-1.28566
2.6216,-1.47124,-1.31811,-1.96132,1.66631,0.192943,3.16202e-322,-1.28332
2.62958,-1.46816,-1.31565,-1.96709,1.66625,0.193002,3.16202e-322,-1.28099
2.63763,-1.46503,-1.31327,-1.97279,1.66615,0.193062,3.16202e-322,-1.27867
2.64565,-1.46161,-1.31091,-1.97827,1.66606,0.193254,3.16202e-322,-1.27632
2.65367,-1.45814,-1.30864,-1.98367,1.66598,0.193481,3.16202e-322,-1.27407
2.66167,-1.45462,-1.30645,-1.98895,1.66589,0.193768,3.16202e-322,-1.27179
2.66963,-1.45122,-1.30438,-1.99398,1.66584,0.194164,3.16202e-322,-1.26949
2.67767,-1.44793,-1.30236,-1.99891,1.66572,0.194606,3.16202e-322,-1.26725
2.68561,-1.44479,-1.30049,-2.00372,1.6655,0.195062,3.16202e-322,-1.26501
2.69366,-1.44177,-1.29872,-2.00829,1.66518,0.195481,3.16202e-322,-1.26282
2.70168,-1.43895,-1.29712,-2.01261,1.66467,0.195899,3.16202e-322,-1.26068
2.70953,-1.43607,-1.29555,-2.0168,1.66404,0.196318,3.16202e-322,-1.25858
2.71758,-1.43326,-1.29411,-2.02071,1.66329,0.19669,3.16202e-322,-1.25655
2.72553,-1.4303,-1.29287,-2.0244,1.66245,0.197192,3.16202e-322,-1.25467
2.73355,-1.42728,-1.2916,-2.02786,1.6615,0.197635,3.16202e-322,-1.25276
2.74155,-1.4243,-1.29048,-2.03114,1.66054,0.19821,3.16202e-322,-1.25118
2.74967,-1.42129,-1.28944,-2.03422,1.65941,0.198785,3.16202e-322,-1.24969
2.7576,-1.41831,-1.28848,-2.03714,1.65814,0.199323,3.16202e-322,-1.24842
2.76558,-1.41545,-1.28753,-2.03956,1.65676,0.199814,3.16202e-322,-1.24726
2.77363,-1.41283,-1.2866,-2.04235,1.65518,0.200233,3.16202e-322,-1.24623
2.78162,-1.41035,-1.28574,-2.04472,1.6536,0.200604,3.16202e-322,-1.2453
2.78958,-1.40809,-1.28493,-2.0469,1.6518,0.200963,3.16202e-322,-1.24453
2.79763,-1.40607,-1.28417,-2.04881,1.65004,0.201286,3.16202e-322,-1.24399
2.80562,-1.40405,-1.28354,-2.05063,1.64837,0.201633,3.16202e-322,-1.24367
2.81356,-1.40203,-1.28305,-2.05228,1.64692,0.202005,3.16202e-322,-1.24361
2.82168,-1.40004,-1.28273,-2.05383,1.64563,0.202352,3.16202e-322,-1.24369
2.8296,-1.39808,-1.28246,-2.05531,1.64471,0.202711,3.16202e-322,-1.2437
2.83761,-1.39612,-1.28225,-2.05677,1.6439,0.20295,3.16202e-322,-1.24374
2.84564,-1.39425,-1.28208,-2.05831,1.64328,0.20319,3.16202e-322,-1.24379
2.85358,-1.3924,-1.28194,-2.05973,1.64277,0.20331,3.16202e-322,-1.24383
2.86163,-1.39053,-1.28174,-2.06124,1.64232,0.203417,3.16202e-322,-1.24388
2.8696,-1.38876,-1.28161,-2.0627,1.64197,0.203501,3.16202e-322,-1.24388
2.8776,-1.38702,-1.28144,-2.06414,1.64157,0.203609,3.16202e-322,-1.24385
2.8856,-1.38539,-1.28134,-2.06552,1.64131,0.203717,3.16202e-322,-1.24388
2.89368,-1.38392,-1.28119,-2.06677,1.64118,0.203932,3.16202e-322,-1.24386
2.90163,-1.38256,-1.28109,-2.06795,1.64113,0.204112,3.16202e-322,-1.24391
2.90948,-1.38142,-1.28094,-2.06907,1.64119,0.204279,3.16202e-322,-1.24388
2.91753,-1.38045,-1.28075,-2.07017,1.64119,0.204351,3.16202e-322,-1.24392
2.92555,-1.37961,-1.28052,-2.07121,1.64124,0.204363,3.16202e-322,-1.24393
2.9335,-1.37898,-1.2802,-2.07223,1.64119,0.204351,3.16202e-322,-1.24394
2.94156,-1.37848,-1.27985,-2.07332,1.64122,0.204363,3.16202e-322,-1.24393
2.94967,-1.37808,-1.27953,-2.07432,1.64122,0.204339,3.16202e-322,-1.24394
2.95759,-1.37783,-1.27921,-2.07523,1.64127,0.204399,3.16202e-322,-1.24395
2.96561,-1.37769,-1.27892,-2.07624,1.64126,0.204411,3.16202e-322,-1.24392
2.97359,-1.3775,-1.27857,-2.07717,1.64131,0.204375,3.16202e-322,-1.24393
2.98158,-1.37741,-1.27832,-2.07818,1.64132,0.204399,3.16202e-322,-1.24394
2.98962,-1.37738,-1.27809,-2.07918,1.64127,0.204411,3.16202e-322,-1.24397
2.99757,-1.3774,-1.27782,-2.08021,1.6413,0.204411,3.16202e-322,-1.24399
3.00552,-1.37738,-1.27764,-2.08126,1.64127,0.204375,3.16202e-322,-1.244
3.01348,-1.37743,-1.27743,-2.08239,1.64122,0.204423,3.16202e-322,-1.24404
3.02152,-1.37738,-1.27722,-2.08344,1.64122,0.204387,3.16202e-322,-1.24404
3.02952,-1.37737,-1.27705,-2.08465,1.6412,0.204423,3.16202e-322,-1.24404
3.03753,-1.37737,-1.27692,-2.08578,1.64118,0.204423,3.16202e-322,-1.24406
3.04562,-1.37729,-1.27681,-2.08691,1.64118,0.204435,3.16202e-322,-1.244
3.05365,-1.37728,-1.27676,-2.08802,1.64121,0.204447,3.16202e-322,-1.24409
3.06154,-1.37729,-1.27669,-2.08905,1.64119,0.204471,3.16202e-322,-1.2441
3.06956,-1.37726,-1.27663,-2.09014,1.64122,0.204459,3.16202e-322,-1.24415
3.07757,-1.37729,-1.27657,-2.09133,1.64126,0.204495,3.16202e-322,-1.24415
3.08561,-1.37728,-1.27646,-2.09259,1.64125,0.204483,3.16202e-322,-1.24422
3.09364,-1.37721,-1.27638,-2.09391,1.64121,0.204507,3.16202e-322,-1.24429
3.1016,-1.37716,-1.27636,-2.09544,1.64119,0.204507,3.16202e-322,-1.24439
3.1095,-1.37716,-1.2762,-2.09704,1.64115,0.204495,3.16202e-322,-1.24442
3.11756,-1.37707,-1.27611,-2.09878,1.64118,0.204543,3.16202e-322,-1.24449
3.12558,-1.37699,-1.27601,-2.10061,1.64115,0.204603,3.16202e-322,-1.24455
3.1336,-1.3766,-1.27593,-2.10225,1.64121,0.20465,3.16202e-322,-1.24441
3.14155,-1.37538,-1.2759,-2.10334,1.64121,0.20477,3.16202e-322,-1.24432
3.14959,-1.3736,-1.27588,-2.10411,1.64112,0.204938,3.16202e-322,-1.2443
3.15758,-1.37191,-1.27589,-2.10475,1.64112,0.205129,3.16202e-322,-1.24435
3.16554,-1.37031,-1.27591,-2.10541,1.64125,0.205416,3.16202e-322,-1.24437
3.17361,-1.36885,-1.27583,-2.10594,1.64132,0.205811,3.16202e-322,-1.24443
3.18161,-1.36761,-1.27585,-2.10598,1.64134,0.206302,3.16202e-322,-1.24443
3.18957,-1.36631,-1.27584,-2.10613,1.64131,0.206841,3.16202e-322,-1.24443
3.19762,-1.365,-1.27587,-2.10621,1.64128,0.207476,3.16202e-322,-1.24444
3.2055,-1.36374,-1.27578,-2.10636,1.64122,0.208218,3.16202e-322,-1.24443
3.21348,-1.36227,-1.27584,-2.10668,1.64127,0.208972,3.16202e-322,-1.24444
3.22152,-1.36085,-1.27584,-2.10705,1.64127,0.209786,3.16202e-322,-1.24446
3.22949,-1.35953,-1.27581,-2.10733,1.6413,0.210516,3.16202e-322,-1.24447
3.23749,-1.35829,-1.27584,-2.10753,1.64128,0.211211,3.16202e-322,-1.24452
3.24559,-1.35739,-1.27577,-2.10779,1.6413,0.211785,3.16202e-322,-1.24455
3.25354,-1.35667,-1.27576,-2.10802,1.64133,0.212276,3.16202e-322,-1.24468
3.26154,-1.35623,-1.27568,-2.10831,1.64128,0.212635,3.16202e-322,-1.2448
3.26959,-1.35611,-1.27569,-2.10855,1.64132,0.212851,3.16202e-322,-1.24494
3.27756,-1.35612,-1.27568,-2.10873,1.6413,0.21303,3.16202e-322,-1.245
3.28555,-1.35606,-1.27565,-2.10894,1.64127,0.213162,3.16202e-322,-1.24502
3.29363,-1.35595,-1.27563,-2.10904,1.6413,0.213102,3.16202e-322,-1.245
3.30163,-1.35582,-1.27566,-2.10913,1.64128,0.213138,3.16202e-322,-1.24507
3.30942,-1.35569,-1.27564,-2.10913,1.64133,0.213138,3.16202e-322,-1.24506
3.31751,-1.35567,-1.2756,-2.10911,1.64134,0.213138,3.16202e-322,-1.24502
3.32558,-1.35569,-1.27565,-2.10921,1.64128,0.213126,3.16202e-322,-1.24504
3.33353,-1.35567,-1.27563,-2.10919,1.64127,0.213114,3.16202e-322,-1.24506
3.34158,-1.35569,-1.27564,-2.10923,1.64132,0.213102,3.16202e-322,-1.24506
3.34961,-1.35566,-1.27565,-2.10921,1.64131,0.213138,3.16202e-322,-1.24508
3.35762,-1.35568,-1.27565,-2.10921,1.6413,0.213126,3.16202e-322,-1.24512
3.36559,-1.35567,-1.27566,-2.10923,1.64132,0.213114,3.16202e-322,-1.24508
3.37364,-1.35566,-1.27565,-2.10921,1.64134,0.213138,3.16202e-322,-1.24504
3.38164,-1.35567,-1.27565,-2.10925,1.64136,0.213102,3.16202e-322,-1.24503
3.3896,-1.35568,-1.27565,-2.10925,1.64137,0.213114,3.16202e-322,-1.24506
3.39765,-1.35568,-1.27565,-2.10923,1.64134,0.213114,3.16202e-322,-1.24507
3.40559,-1.3557,-1.27569,-2.10922,1.64137,0.213126,3.16202e-322,-1.24507
3.41357,-1.35568,-1.27568,-2.10924,1.64138,0.21315,3.16202e-322,-1.24507
3.42155,-1.35567,-1.27568,-2.10922,1.64137,0.213126,3.16202e-322,-1.24507
3.42963,-1.35564,-1.27568,-2.10925,1.64138,0.21309,3.16202e-322,-1.24509
3.44566,-1.35568,-1.27566,-2.10919,1.64142,0.213102,3.16202e-322,-1.24507
3.45363,-1.3557,-1.27569,-2.10922,1.64142,0.213114,3.16202e-322,-1.24512
3.46165,-1.3557,-1.27566,-2.10917,1.6414,0.21309,3.16202e-322,-1.2451
3.46961,-1.35566,-1.27565,-2.10922,1.64142,0.213102,3.16202e-322,-1.24514
3.47764,-1.35567,-1.27568,-2.10924,1.64142,0.213102,3.16202e-322,-1.2451
3.48558,-1.35569,-1.27571,-2.10925,1.64143,0.213066,3.16202e-322,-1.24508
3.49359,-1.35568,-1.27565,-2.10923,1.64144,0.213102,3.16202e-322,-1.24507
3.50168,-1.35568,-1.27568,-2.10916,1.64143,0.213114,3.16202e-322,-1.24509
3.50942,-1.35567,-1.27568,-2.10919,1.64143,0.213078,3.16202e-322,-1.24504
3.51755,-1.35569,-1.27568,-2.10923,1.64143,0.213114,3.16202e-322,-1.24509
3.52558,-1.35569,-1.27571,-2.10919,1.64138,0.213078,3.16202e-322,-1.24508
3.53356,-1.35572,-1.2757,-2.10924,1.6414,0.213066,3.16202e-322,-1.24507
3.54158,-1.35567,-1.27572,-2.10918,1.64144,0.21309,3.16202e-322,-1.2451
3.54971,-1.35568,-1.27571,-2.10917,1.64145,0.213066,3.16202e-322,-1.24504
3.55764,-1.35568,-1.27573,-2.10921,1.64145,0.213102,3.16202e-322,-1.24504
3.56565,-1.35564,-1.27573,-2.10918,1.64149,0.213054,3.16202e-322,-1.24507
3.57368,-1.35564,-1.27576,-2.10916,1.64154,0.213042,3.16202e-322,-1.24501
3.58164,-1.35563,-1.27576,-2.10913,1.64155,0.213066,3.16202e-322,-1.24498
3.58965,-1.35566,-1.27576,-2.10909,1.6416,0.21303,3.16202e-322,-1.24497
3.59772,-1.35562,-1.27576,-2.10909,1.64162,0.213054,3.16202e-322,-1.24497
3.60555,-1.35567,-1.27578,-2.1091,1.64162,0.21303,3.16202e-322,-1.24494
3.61356,-1.35563,-1.27582,-2.10905,1.64164,0.213042,3.16202e-322,-1.24497
3.62169,-1.35566,-1.27583,-2.10903,1.64164,0.213066,3.16202e-322,-1.24501
3.6296,-1.35562,-1.27585,-2.1091,1.64167,0.213018,3.16202e-322,-1.24496
3.63761,-1.3556,-1.27583,-2.10901,1.64168,0.213066,3.16202e-322,-1.24495
3.64566,-1.35563,-1.27584,-2.10907,1.64164,0.213054,3.16202e-322,-1.24497
3.6536,-1.3556,-1.27584,-2.10894,1.64167,0.213054,3.16202e-322,-1.24498
3.66158,-1.35563,-1.27584,-2.10894,1.64168,0.21303,3.16202e-322,-1.245
3.66958,-1.35562,-1.27585,-2.10888,1.6417,0.213042,3.16202e-322,-1.24496
3.67765,-1.35563,-1.27584,-2.10888,1.64167,0.213042,3.16202e-322,-1.24497
3.68557,-1.35561,-1.27584,-2.1089,1.64169,0.213054,3.16202e-322,-1.24497
3.69362,-1.3556,-1.27585,-2.10884,1.64166,0.213018,3.16202e-322,-1.24497
3.70166,-1.3556,-1.27583,-2.10885,1.6417,0.213018,3.16202e-322,-1.24495
3.70956,-1.35561,-1.27583,-2.10886,1.64168,0.213018,3.16202e-322,-1.24496
3.71759,-1.35563,-1.27587,-2.10886,1.64168,0.213042,3.16202e-322,-1.24496
3.72565,-1.35566,-1.27584,-2.10888,1.64172,0.213018,3.16202e-322,-1.24496
3.73361,-1.35562,-1.27584,-2.10887,1.64167,0.213018,3.16202e-322,-1.24497
3.74161,-1.35561,-1.27583,-2.10885,1.64168,0.213018,3.16202e-322,-1.245
3.74973,-1.35563,-1.27584,-2.10885,1.6417,0.213018,3.16202e-322,-1.24495
3.75766,-1.35563,-1.27584,-2.10888,1.64169,0.21303,3.16202e-322,-1.245
3.76563,-1.35564,-1.27582,-2.10886,1.64169,0.213054,3.16202e-322,-1.24495
3.77364,-1.35562,-1.27587,-2.10886,1.6417,0.213042,3.16202e-322,-1.24498
3.78155,-1.35561,-1.27584,-2.10886,1.64169,0.213018,3.16202e-322,-1.24496
3.78956,-1.3556,-1.27582,-2.10882,1.64167,0.213042,3.16202e-322,-1.24494
3.79771,-1.35564,-1.27584,-2.10884,1.64169,0.213018,3.16202e-322,-1.24497
3.80563,-1.35564,-1.27584,-2.10878,1.64172,0.21303,3.16202e-322,-1.24498
3.81345,-1.35567,-1.27583,-2.10878,1.64172,0.213042,3.16202e-322,-1.24498
3.82154,-1.35562,-1.27584,-2.10879,1.64173,0.213042,3.16202e-322,-1.24496
3.8296,-1.35563,-1.27584,-2.10879,1.64167,0.213018,3.16202e-322,-1.24495
3.83756,-1.35564,-1.27587,-2.10876,1.64167,0.213054,3.16202e-322,-1.24496
3.84564,-1.35566,-1.27584,-2.10879,1.6417,0.213018,3.16202e-322,-1.24494
3.85365,-1.35562,-1.27585,-2.10876,1.64168,0.213042,3.16202e-322,-1.24496
3.8616,-1.35562,-1.27585,-2.10878,1.6417,0.21303,3.16202e-322,-1.24495
3.86958,-1.35557,-1.27587,-2.10874,1.64172,0.213054,3.16202e-322,-1.24496
3.87761,-1.35562,-1.27587,-2.10879,1.6417,0.213042,3.16202e-322,-1.24501
3.8856,-1.35564,-1.27587,-2.10881,1.64167,0.213066,3.16202e-322,-1.24496
3.89362,-1.35567,-1.27583,-2.10881,1.64169,0.213042,3.16202e-322,-1.24498
3.90169,-1.35564,-1.27588,-2.10879,1.64169,0.213054,3.16202e-322,-1.245
3.90947,-1.35563,-1.27589,-2.10875,1.64169,0.21303,3.16202e-322,-1.24497
3.91748,-1.35568,-1.27583,-2.10878,1.64172,0.213042,3.16202e-322,-1.24495
3.92549,-1.35563,-1.27584,-2.10875,1.6417,0.213042,3.16202e-322,-1.24498
3.93348,-1.35562,-1.27589,-2.10876,1.6417,0.213054,3.16202e-322,-1.24494
3.94147,-1.35562,-1.27585,-2.10875,1.64167,0.213054,3.16202e-322,-1.245
3.94957,-1.35562,-1.27588,-2.10874,1.64166,0.213042,3.16202e-322,-1.24497
3.9576,-1.35563,-1.27585,-2.10875,1.64173,0.21303,3.16202e-322,-1.24497
3.96556,-1.35562,-1.27585,-2.10874,1.6417,0.213042,3.16202e-322,-1.24497
3.97366,-1.35564,-1.27584,-2.10876,1.64168,0.213078,3.16202e-322,-1.24496
3.98162,-1.35566,-1.27588,-2.10881,1.64172,0.213042,3.16202e-322,-1.24492
3.98955,-1.35563,-1.27585,-2.10882,1.64168,0.213054,3.16202e-322,-1.24498
3.99755,-1.35563,-1.27584,-2.10874,1.6417,0.213018,3.16202e-322,-1.245
4.00562,-1.35562,-1.27587,-2.10875,1.6417,0.21303,3.16202e-322,-1.24494
4.01358,-1.35564,-1.27588,-2.10878,1.6417,0.21303,3.16202e-322,-1.24498
4.02166,-1.35561,-1.27587,-2.10879,1.64169,0.21303,3.16202e-322,-1.24497
4.02957,-1.35561,-1.27583,-2.10881,1.64168,0.213018,3.16202e-322,-1.24496
4.03758,-1.35564,-1.27587,-2.10878,1.6417,0.21303,3.16202e-322,-1.24498
4.04563,-1.35564,-1.27587,-2.10876,1.64172,0.213042,3.16202e-322,-1.24498
4.05365,-1.35563,-1.27588,-2.10875,1.64172,0.213042,3.16202e-322,-1.24495
4.06159,-1.35564,-1.27584,-2.10878,1.64167,0.21303,3.16202e-322,-1.24498
4.06968,-1.35562,-1.27585,-2.1088,1.64169,0.21303,3.16202e-322,-1.24495
4.07761,-1.35566,-1.27587,-2.10875,1.64169,0.213042,3.16202e-322,-1.24495
4.08558,-1.35566,-1.27585,-2.10875,1.6417,0.21303,3.16202e-322,-1.24498
4.09358,-1.35564,-1.27588,-2.10878,1.6417,0.213054,3.16202e-322,-1.24496
4.10163,-1.35562,-1.27584,-2.10875,1.6417,0.213018,3.16202e-322,-1.24497
4.10951,-1.35563,-1.27587,-2.10873,1.6417,0.21303,3.16202e-322,-1.24495
4.11741,-1.35564,-1.27585,-2.10876,1.64169,0.213042,3.16202e-322,-1.24496
4.12549,-1.35566,-1.27584,-2.10878,1.64172,0.213006,3.16202e-322,-1.24494
4.13344,-1.35562,-1.27587,-2.10875,1.64169,0.213006,3.16202e-322,-1.24497
4.14146,-1.35564,-1.27587,-2.10879,1.64172,0.213042,3.16202e-322,-1.24497
4.14952,-1.35564,-1.27589,-2.10878,1.64169,0.213042,3.16202e-322,-1.24501
4.15748,-1.35561,-1.27585,-2.10875,1.64172,0.21303,3.16202e-322,-1.245
4.16551,-1.35562,-1.27589,-2.10875,1.6417,0.213078,3.16202e-322,-1.24497
4.17355,-1.35563,-1.27584,-2.10874,1.64169,0.21303,3.16202e-322,-1.24496
4.18154,-1.35563,-1.27585,-2.10876,1.64169,0.21303,3.16202e-322,-1.24497
4.1896,-1.35561,-1.27584,-2.10878,1.6417,0.213018,3.16202e-322,-1.24496
4.19766,-1.35563,-1.27585,-2.1088,1.64166,0.21303,3.16202e-322,-1.24497
4.20552,-1.35563,-1.27585,-2.10876,1.64166,0.213018,3.16202e-322,-1.245
4.21345,-1.35563,-1.27587,-2.10878,1.64168,0.213042,3.16202e-322,-1.24497
4.22151,-1.35563,-1.27587,-2.10879,1.64169,0.213054,3.16202e-322,-1.24496
4.22943,-1.35563,-1.27588,-2.10876,1.64167,0.213018,3.16202e-322,-1.24497
4.23748,-1.35561,-1.27588,-2.10876,1.64168,0.213018,3.16202e-322,-1.24498
4.2455,-1.35562,-1.27588,-2.10876,1.64168,0.213018,3.16202e-322,-1.24495
4.25358,-1.35564,-1.27585,-2.10879,1.64173,0.213042,3.16202e-322,-1.24495
4.26151,-1.35561,-1.27588,-2.10874,1.64169,0.213006,3.16202e-322,-1.24497
4.2695,-1.35561,-1.27588,-2.10878,1.64169,0.21303,3.16202e-322,-1.24497
4.27753,-1.35564,-1.27588,-2.10875,1.6417,0.213042,3.16202e-322,-1.24494
4.28552,-1.35561,-1.27587,-2.10881,1.64169,0.213018,3.16202e-322,-1.24496
4.29354,-1.35562,-1.27587,-2.10876,1.64169,0.213054,3.16202e-322,-1.24496
4.30163,-1.35563,-1.27585,-2.10874,1.64169,0.21303,3.16202e-322,-1.24497
4.30947,-1.35564,-1.27589,-2.10878,1.6417,0.213042,3.16202e-322,-1.24498
4.31747,-1.35563,-1.27585,-2.10879,1.64167,0.213054,3.16202e-322,-1.24498
4.32555,-1.35566,-1.27584,-2.10878,1.64172,0.21303,3.16202e-322,-1.24495
4.33352,-1.35563,-1.27587,-2.10876,1.6417,0.213042,3.16202e-322,-1.24494
4.34159,-1.35563,-1.27588,-2.10878,1.64169,0.21303,3.16202e-322,-1.24501
4.34965,-1.35563,-1.27588,-2.10879,1.64169,0.21303,3.16202e-322,-1.24497
4.35755,-1.3556,-1.27585,-2.1088,1.64167,0.213018,3.16202e-322,-1.24496
4.36561,-1.35562,-1.27589,-2.10878,1.64168,0.213042,3.16202e-322,-1.24496
4.37361,-1.35561,-1.27584,-2.10879,1.6417,0.213054,3.16202e-322,-1.24496
4.38159,-1.35564,-1.27587,-2.10878,1.64169,0.213042,3.16202e-322,-1.245
4.38958,-1.35561,-1.27588,-2.10876,1.64167,0.213018,3.16202e-322,-1.24498
4.39763,-1.35561,-1.27584,-2.10878,1.64168,0.213042,3.16202e-322,-1.24495
4.40549,-1.35561,-1.27587,-2.10879,1.64173,0.213042,3.16202e-322,-1.24501
4.41344,-1.35563,-1.27587,-2.10878,1.64174,0.213042,3.16202e-322,-1.24495
4.42155,-1.35567,-1.27589,-2.10879,1.6417,0.212995,3.16202e-322,-1.24497
4.42949,-1.35563,-1.2759,-2.10876,1.64169,0.213006,3.16202e-322,-1.24495
4.43746,-1.35563,-1.27588,-2.10876,1.6417,0.213018,3.16202e-322,-1.24496
4.44549,-1.35564,-1.27589,-2.10878,1.64172,0.213018,3.16202e-322,-1.24501
4.45352,-1.35563,-1.27588,-2.10878,1.64167,0.213018,3.16202e-322,-1.24497
4.4615,-1.35566,-1.27585,-2.10876,1.64168,0.213006,3.16202e-322,-1.24496
4.46947,-1.35563,-1.27588,-2.10882,1.64168,0.21303,3.16202e-322,-1.245
4.47746,-1.35562,-1.27583,-2.10881,1.6417,0.21303,3.16202e-322,-1.24495
4.48552,-1.35563,-1.27587,-2.10876,1.64167,0.21303,3.16202e-322,-1.24494
4.49352,-1.35563,-1.27587,-2.10879,1.64172,0.213018,3.16202e-322,-1.24498
4.5017,-1.35562,-1.27585,-2.10879,1.64167,0.21303,3.16202e-322,-1.24498
4.50948,-1.35564,-1.27588,-2.10878,1.64169,0.213042,3.16202e-322,-1.24497
4.51739,-1.35563,-1.27587,-2.10878,1.6417,0.21303,3.16202e-322,-1.24497
4.52548,-1.35568,-1.27585,-2.1088,1.64174,0.213042,3.16202e-322,-1.24498
4.53342,-1.35562,-1.27587,-2.10881,1.6417,0.21303,3.16202e-322,-1.24496
4.54143,-1.35562,-1.27589,-2.10882,1.6417,0.213042,3.16202e-322,-1.24497
4.54949,-1.35561,-1.27588,-2.10881,1.64168,0.213054,3.16202e-322,-1.24497
4.55745,-1.35562,-1.27588,-2.10878,1.6417,0.213054,3.16202e-322,-1.245
4.56549,-1.35563,-1.27588,-2.10882,1.64167,0.213018,3.16202e-322,-1.24497
4.57349,-1.35562,-1.27584,-2.10879,1.6417,0.213006,3.16202e-322,-1.24497
4.58152,-1.35563,-1.27584,-2.10882,1.64166,0.213018,3.16202e-322,-1.24497
4.58954,-1.3556,-1.27587,-2.10881,1.64168,0.213042,3.16202e-322,-1.24497
4.59759,-1.35563,-1.27587,-2.10882,1.64168,0.213018,3.16202e-322,-1.24497
4.60554,-1.35563,-1.27582,-2.10879,1.64168,0.213042,3.16202e-322,-1.24494
4.61347,-1.35562,-1.27584,-2.10879,1.64168,0.21303,3.16202e-322,-1.24494
4.62157,-1.35561,-1.27585,-2.10876,1.6417,0.213042,3.16202e-322,-1.24495
4.62949,-1.35566,-1.27587,-2.1088,1.6417,0.213042,3.16202e-322,-1.24495
4.63755,-1.35562,-1.27584,-2.10881,1.64168,0.213018,3.16202e-322,-1.24495
4.64552,-1.35564,-1.27587,-2.10885,1.64169,0.21303,3.16202e-322,-1.24496
4.65365,-1.35563,-1.27587,-2.1088,1.64169,0.213042,3.16202e-322,-1.24496
4.66156,-1.35562,-1.27588,-2.1088,1.64167,0.213054,3.16202e-322,-1.24497
4.66955,-1.35561,-1.2759,-2.10881,1.6417,0.213042,3.16202e-322,-1.24496
4.67751,-1.3556,-1.27588,-2.1088,1.64168,0.213018,3.16202e-322,-1.24498
4.68556,-1.35562,-1.27584,-2.1088,1.64172,0.21303,3.16202e-322,-1.24497
4.69354,-1.3556,-1.27585,-2.10879,1.64169,0.21303,3.16202e-322,-1.245
4.70164,-1.35561,-1.27587,-2.10879,1.64169,0.21303,3.16202e-322,-1.24494
4.70942,-1.35564,-1.27584,-2.10881,1.64168,0.213006,3.16202e-322,-1.24496
4.71744,-1.35561,-1.27587,-2.1088,1.64169,0.213018,3.16202e-322,-1.24496
4.7255,-1.35564,-1.27588,-2.10881,1.64167,0.213042,3.16202e-322,-1.245
4.73348,-1.3556,-1.27587,-2.1088,1.64169,0.21303,3.16202e-322,-1.24496
4.74145,-1.35561,-1.2759,-2.10879,1.64172,0.213042,3.16202e-322,-1.24495
4.74958,-1.3556,-1.27587,-2.1088,1.64167,0.213042,3.16202e-322,-1.24497
4.75752,-1.35562,-1.27583,-2.10882,1.64169,0.21303,3.16202e-322,-1.24495
4.76549,-1.35562,-1.27587,-2.10876,1.64172,0.213042,3.16202e-322,-1.24496
4.77354,-1.35563,-1.27585,-2.1088,1.64166,0.213066,3.16202e-322,-1.24494
4.78155,-1.3556,-1.27582,-2.10878,1.64167,0.21303,3.16202e-322,-1.24497
4.78953,-1.35564,-1.27584,-2.10876,1.64172,0.213054,3.16202e-322,-1.24494
4.79759,-1.3556,-1.27587,-2.10878,1.64172,0.213042,3.16202e-322,-1.24495
4.80543,-1.35558,-1.27588,-2.10881,1.64172,0.213042,3.16202e-322,-1.24496
4.81344,-1.35561,-1.27585,-2.10882,1.64169,0.213054,3.16202e-322,-1.24497
4.82146,-1.35564,-1.27585,-2.1088,1.64169,0.213006,3.16202e-322,-1.24495
4.82943,-1.35561,-1.27584,-2.10879,1.64169,0.213042,3.16202e-322,-1.24496
4.83739,-1.35561,-1.27588,-2.10881,1.64172,0.212995,3.16202e-322,-1.24496
4.84543,-1.3556,-1.27588,-2.10882,1.64168,0.213018,3.16202e-322,-1.24496
4.85351,-1.35563,-1.27588,-2.1088,1.64173,0.213042,3.16202e-322,-1.24497
4.86144,-1.35564,-1.27588,-2.10882,1.64169,0.21303,3.16202e-322,-1.24496
4.86945,-1.35564,-1.27585,-2.10879,1.6417,0.21303,3.16202e-322,-1.24498
4.87749,-1.35564,-1.27588,-2.10875,1.64166,0.21303,3.16202e-322,-1.245
4.88551,-1.35561,-1.27588,-2.10879,1.64169,0.213078,3.16202e-322,-1.24496
4.89354,-1.35563,-1.27583,-2.1088,1.6417,0.213042,3.16202e-322,-1.24496
4.9016,-1.35557,-1.27585,-2.1088,1.64172,0.213006,3.16202e-322,-1.24495
4.90947,-1.35558,-1.27588,-2.10881,1.6417,0.213018,3.16202e-322,-1.24501
4.91754,-1.3556,-1.27587,-2.1088,1.64169,0.213042,3.16202e-322,-1.24497
4.92564,-1.35561,-1.27587,-2.10875,1.64168,0.21303,3.16202e-322,-1.24496
4.93358,-1.35564,-1.27588,-2.10879,1.64169,0.213006,3.16202e-322,-1.24497
4.9416,-1.35561,-1.27585,-2.10875,1.64172,0.213042,3.16202e-322,-1.24496
4.94964,-1.35562,-1.27585,-2.10878,1.64169,0.213018,3.16202e-322,-1.24495
4.95757,-1.35564,-1.27585,-2.10879,1.6417,0.212983,3.16202e-322,-1.24496
4.96555,-1.35562,-1.27585,-2.1088,1.6417,0.213054,3.16202e-322,-1.24494
4.97358,-1.35561,-1.27589,-2.10879,1.64169,0.213018,3.16202e-322,-1.24496
4.98147,-1.35562,-1.27587,-2.10876,1.64168,0.21303,3.16202e-322,-1.24497
4.9895,-1.35566,-1.27587,-2.10876,1.6417,0.213042,3.16202e-322,-1.24496
4.99756,-1.35563,-1.27588,-2.10876,1.64172,0.21303,3.16202e-322,-1.24492
5.00549,-1.35561,-1.27584,-2.10879,1.6417,0.213042,3.16202e-322,-1.24495
5.01338,-1.3556,-1.27585,-2.10881,1.64172,0.213006,3.16202e-322,-1.24501
5.02153,-1.35561,-1.27587,-2.10881,1.64168,0.21303,3.16202e-322,-1.24495
5.02949,-1.35561,-1.27587,-2.1088,1.64169,0.213006,3.16202e-322,-1.24497
5.03747,-1.3556,-1.27585,-2.1088,1.64169,0.213018,3.16202e-322,-1.24498
5.04552,-1.35563,-1.27588,-2.10878,1.6417,0.213018,3.16202e-322,-1.24495
5.05361,-1.35563,-1.27587,-2.10881,1.64169,0.213042,3.16202e-322,-1.24495
5.06155,-1.35561,-1.27585,-2.1088,1.64172,0.213066,3.16202e-322,-1.245
5.06964,-1.35557,-1.27585,-2.1088,1.6417,0.213054,3.16202e-322,-1.24496
5.07756,-1.35561,-1.27587,-2.10876,1.64172,0.21303,3.16202e-322,-1.24495
5.08552,-1.35557,-1.27584,-2.10879,1.64173,0.213018,3.16202e-322,-1.24495
5.09357,-1.3556,-1.27587,-2.10879,1.64173,0.213042,3.16202e-322,-1.24497
5.10159,-1.35564,-1.27587,-2.10879,1.64169,0.213006,3.16202e-322,-1.24496
5.10944,-1.35561,-1.27587,-2.10878,1.64169,0.213018,3.16202e-322,-1.24496
5.11744,-1.35564,-1.27585,-2.1088,1.64168,0.213042,3.16202e-322,-1.24501
5.12555,-1.3556,-1.27587,-2.10882,1.64167,0.213018,3.16202e-322,-1.24495
5.1335,-1.35561,-1.27587,-2.10878,1.6417,0.213018,3.16202e-322,-1.24495
5.14155,-1.35562,-1.27588,-2.10876,1.64172,0.212995,3.16202e-322,-1.24498
5.14963,-1.35561,-1.27588,-2.10879,1.64167,0.213018,3.16202e-322,-1.24495
5.15752,-1.35563,-1.27584,-2.10881,1.64169,0.213018,3.16202e-322,-1.24502
5.16556,-1.3556,-1.27587,-2.10881,1.64167,0.213018,3.16202e-322,-1.24496
5.17358,-1.35561,-1.27588,-2.10878,1.64172,0.21303,3.16202e-322,-1.24497
5.18157,-1.35564,-1.27589,-2.1088,1.64168,0.213018,3.16202e-322,-1.24496
5.18956,-1.35561,-1.27585,-2.10884,1.6417,0.213006,3.16202e-322,-1.24497
5.19756,-1.35563,-1.27584,-2.10881,1.64168,0.21303,3.16202e-322,-1.245
5.20556,-1.35563,-1.27587,-2.10881,1.6417,0.21303,3.16202e-322,-1.24498
5.21346,-1.3556,-1.27588,-2.10881,1.64168,0.213018,3.16202e-322,-1.24498
5.22146,-1.35561,-1.27587,-2.10881,1.6417,0.213042,3.16202e-322,-1.24498
5.22951,-1.3556,-1.27585,-2.10881,1.6417,0.213006,3.16202e-322,-1.24496
5.23754,-1.3556,-1.27589,-2.10881,1.64167,0.213042,3.16202e-322,-1.24498
5.2455,-1.35561,-1.27588,-2.10882,1.64168,0.213054,3.16202e-322,-1.24498
5.25364,-1.35562,-1.27585,-2.10879,1.64169,0.213018,3.16202e-322,-1.24497
5.26155,-1.35561,-1.27587,-2.10878,1.64169,0.213042,3.16202e-322,-1.24495
5.26954,-1.35562,-1.27587,-2.10879,1.64169,0.213042,3.16202e-322,-1.24496
5.27757,-1.35561,-1.27587,-2.1088,1.64172,0.213054,3.16202e-322,-1.245
5.28556,-1.35562,-1.27588,-2.10881,1.6417,0.21303,3.16202e-322,-1.24498
5.29353,-1.35562,-1.27588,-2.10878,1.64169,0.213006,3.16202e-322,-1.24497
5.30159,-1.35563,-1.27587,-2.10884,1.64172,0.21303,3.16202e-322,-1.24496
5.30943,-1.35558,-1.27585,-2.10879,1.64172,0.21303,3.16202e-322,-1.24498
5.31746,-1.35561,-1.27584,-2.10879,1.6417,0.213018,3.16202e-322,-1.24496
5.32552,-1.35563,-1.27584,-2.10884,1.64169,0.213018,3.16202e-322,-1.24496
5.3335,-1.35563,-1.27585,-2.10881,1.6417,0.213042,3.16202e-322,-1.24495
5.3415,-1.35563,-1.27587,-2.10882,1.6417,0.213042,3.16202e-322,-1.24495
5.34958,-1.35562,-1.27588,-2.10881,1.64169,0.213054,3.16202e-322,-1.24496
5.35757,-1.35562,-1.27588,-2.1088,1.64172,0.21303,3.16202e-322,-1.24498
5.36551,-1.35561,-1.27584,-2.10881,1.64167,0.213042,3.16202e-322,-1.245
5.37364,-1.35562,-1.27585,-2.10881,1.6417,0.213018,3.16202e-322,-1.24496
5.38154,-1.35561,-1.27588,-2.1088,1.64169,0.213054,3.16202e-322,-1.24496
5.3895,-1.35563,-1.27588,-2.10879,1.64173,0.213018,3.16202e-322,-1.24495
5.39756,-1.3556,-1.27587,-2.10879,1.64169,0.213018,3.16202e-322,-1.24497
5.40545,-1.35562,-1.27588,-2.10881,1.64169,0.213006,3.16202e-322,-1.245
5.41337,-1.35557,-1.27588,-2.10881,1.6417,0.213054,3.16202e-322,-1.24496
5.42138,-1.35561,-1.27584,-2.10879,1.64169,0.213054,3.16202e-322,-1.24494
5.42946,-1.3556,-1.27589,-2.1088,1.64172,0.213006,3.16202e-322,-1.24497
5.43741,-1.35562,-1.27588,-2.1088,1.64172,0.213042,3.16202e-322,-1.24501
5.44544,-1.3556,-1.27588,-2.10881,1.6417,0.213042,3.16202e-322,-1.245
5.45348,-1.3556,-1.27587,-2.10878,1.64169,0.213054,3.16202e-322,-1.24494
5.46145,-1.35561,-1.27589,-2.10881,1.64169,0.213018,3.16202e-322,-1.24494
5.46945,-1.35561,-1.27588,-2.10878,1.64169,0.213042,3.16202e-322,-1.24494
5.4775,-1.35561,-1.27585,-2.10878,1.64172,0.213018,3.16202e-322,-1.24497
5.48551,-1.35564,-1.27587,-2.1088,1.64167,0.21303,3.16202e-322,-1.24495
5.49349,-1.3556,-1.27588,-2.10881,1.64172,0.213018,3.16202e-322,-1.24501
5.50155,-1.3556,-1.27589,-2.10882,1.64169,0.213054,3.16202e-322,-1.24497
5.50939,-1.35557,-1.27587,-2.10885,1.6417,0.213054,3.16202e-322,-1.24497
5.51738,-1.35561,-1.27588,-2.1088,1.6417,0.213018,3.16202e-322,-1.24497
5.52548,-1.35558,-1.27585,-2.1088,1.64169,0.21303,3.16202e-322,-1.24497
5.53337,-1.35561,-1.27584,-2.10878,1.6417,0.213042,3.16202e-322,-1.24497
5.54146,-1.35561,-1.27588,-2.10881,1.64168,0.213018,3.16202e-322,-1.24494
5.54947,-1.35558,-1.27584,-2.10882,1.64172,0.213042,3.16202e-322,-1.245
5.55745,-1.35561,-1.2759,-2.10876,1.64169,0.213006,3.16202e-322,-1.24498
5.56546,-1.3556,-1.27584,-2.10882,1.6417,0.213054,3.16202e-322,-1.24498
5.57344,-1.35564,-1.27585,-2.1088,1.64169,0.213042,3.16202e-322,-1.24495
5.58147,-1.35563,-1.27585,-2.10881,1.6417,0.213042,3.16202e-322,-1.24497
5.58947,-1.35562,-1.27591,-2.1088,1.6417,0.213042,3.16202e-322,-1.24497
5.59755,-1.35562,-1.27584,-2.10879,1.64168,0.21303,3.16202e-322,-1.24496
