2.492469283646522871e-02,3.950268494963827814e-01,2.800536700920576161e-01,-3.126610647483206051e+00,-1.355100654075891775e-05,3.618641515635219123e-06
2.492469283646522871e-02,3.950268494963827814e-01,2.800536700920576161e-01,-3.126610647483206051e+00,-1.355100654075891775e-05,3.618641515635219123e-06
2.492496878544483291e-02,3.950267495221529424e-01,2.800161067330187437e-01,-3.126610647483206051e+00,-1.350037614217145430e-05,3.618845380653645008e-06
2.492500030078505929e-02,3.950267381089508922e-01,2.800118184458663118e-01,-3.126610647483206051e+00,-1.349459610295305350e-05,3.618868654177746681e-06
2.492477149913612314e-02,3.950268210020195236e-01,2.800429638930821974e-01,-3.126610647483206051e+00,-1.353657601227337812e-05,3.618699620647971810e-06
2.492433293414207662e-02,3.950269798939839427e-01,2.801026644370747110e-01,-3.126610647483206051e+00,-1.361704438398077266e-05,3.618375612017989282e-06
2.492376030037703541e-02,3.950271873585373128e-01,2.801806151801530809e-01,-3.126610647483206051e+00,-1.372211159023931073e-05,3.617952555345749821e-06
2.492313096830285971e-02,3.950274153607725158e-01,2.802662825549828707e-01,-3.126610647483206051e+00,-1.383757978702363129e-05,3.617487618732127281e-06
2.492251375739933106e-02,3.950276389749624029e-01,2.803503012076903889e-01,-3.126610647483206051e+00,-1.395082572625977129e-05,3.617031630113953480e-06
2.492196502636080321e-02,3.950278377749513736e-01,2.804249964103408543e-01,-3.126610647483206051e+00,-1.405150489818374076e-05,3.616626242010909288e-06
2.492152779109740868e-02,3.950279961843954912e-01,2.804845156567676856e-01,-3.126610647483206051e+00,-1.413172890494988771e-05,3.616303217324671672e-06
2.492123168246183212e-02,3.950281034611301534e-01,2.805248227889709511e-01,-3.126610647483206051e+00,-1.418605754384864088e-05,3.616084461216103781e-06
2.492109554713031402e-02,3.950281527834155759e-01,2.805433546718257287e-01,-3.126610647483206051e+00,-1.421103605054645238e-05,3.615983884411056372e-06
2.492112493302093765e-02,3.950281421382628166e-01,2.805393549641451156e-01,-3.126610647483206051e+00,-1.420564497798647065e-05,3.616005591747705879e-06
2.492131815765587580e-02,3.950280721317677712e-01,2.805130513945867654e-01,-3.126610647483206051e+00,-1.417019127402548953e-05,3.616148347290072498e-06
2.492167217244185828e-02,3.950279438757790529e-01,2.804648617185567794e-01,-3.126610647483206051e+00,-1.410523801724304024e-05,3.616409883783163455e-06
2.492217984834572617e-02,3.950277599452841626e-01,2.803957534371115945e-01,-3.126610647483206051e+00,-1.401208927003968635e-05,3.616784950375458869e-06
2.492283111447697944e-02,3.950275239931584359e-01,2.803070990466186019e-01,-3.126610647483206051e+00,-1.389259497448186133e-05,3.617266098212434299e-06
2.492361268688122675e-02,3.950272408351753750e-01,2.802007079796764444e-01,-3.126610647483206051e+00,-1.374919400441050124e-05,3.617843507085788203e-06
2.492450962288091793e-02,3.950269158795258195e-01,2.800786122580423143e-01,-3.126610647483206051e+00,-1.358462525416266659e-05,3.618506148744494127e-06
2.492550698136859408e-02,3.950265545425806768e-01,2.799428469770646188e-01,-3.126610647483206051e+00,-1.340163176087408268e-05,3.619242978256437376e-06
2.492658440241392673e-02,3.950261642018674801e-01,2.797961840982460813e-01,-3.126610647483206051e+00,-1.320394975897331136e-05,3.620038951546872861e-06
2.492772903779139765e-02,3.950257495056803680e-01,2.796403701271044095e-01,-3.126610647483206051e+00,-1.299393330500200177e-05,3.620884589927232811e-06
2.492893080662172967e-02,3.950253141141895630e-01,2.794767803008828544e-01,-3.126610647483206051e+00,-1.277343603536362778e-05,3.621772429667620392e-06
2.493017996496036878e-02,3.950248615497706228e-01,2.793067380832198188e-01,-3.126610647483206051e+00,-1.254424180254552471e-05,3.622695288025449437e-06
2.493146690085290898e-02,3.950243953023807597e-01,2.791315547571565636e-01,-3.126610647483206051e+00,-1.230811804122928045e-05,3.623646048364983198e-06
2.493277924127026285e-02,3.950239198491140025e-01,2.789529125031626755e-01,-3.126610647483206051e+00,-1.206733210633828956e-05,3.624615581104661586e-06
2.493410966354333083e-02,3.950234378458798434e-01,2.787718092271649351e-01,-3.126610647483206051e+00,-1.182322904198253063e-05,3.625598470378721370e-06
2.493544689894713895e-02,3.950229533752943056e-01,2.785897788922271356e-01,-3.126610647483206051e+00,-1.157787642579951108e-05,3.626586391015640472e-06
2.493678249403680561e-02,3.950224694952554905e-01,2.784079704436340785e-01,-3.126610647483206051e+00,-1.133282288281995832e-05,3.627573107424152349e-06
2.493811364101862493e-02,3.950219872305983926e-01,2.782267689430827917e-01,-3.126610647483206051e+00,-1.108858742485942941e-05,3.628556529785564233e-06
2.493943814426984040e-02,3.950215073688521095e-01,2.780464702892168072e-01,-3.126610647483206051e+00,-1.084556888382725289e-05,3.629535052189654309e-06
2.494075391925977200e-02,3.950210306730329024e-01,2.778673611704376989e-01,-3.126610647483206051e+00,-1.060415367747005547e-05,3.630507118712253062e-06
2.494205690500260475e-02,3.950205586078438524e-01,2.776899919202817646e-01,-3.126610647483206051e+00,-1.036508358199048023e-05,3.631469742566316927e-06
2.494334088004587086e-02,3.950200934320745039e-01,2.775152112346522815e-01,-3.126610647483206051e+00,-1.012950252628178099e-05,3.632418317683313761e-06
2.494460620659173442e-02,3.950196350120477873e-01,2.773429688870037157e-01,-3.126610647483206051e+00,-9.897342811659234370e-06,3.633353116654295246e-06
2.494584796323349660e-02,3.950191851339239779e-01,2.771739359928137580e-01,-3.126610647483206051e+00,-9.669509012290045677e-06,3.634270497180674352e-06
2.494706657441908559e-02,3.950187436369483329e-01,2.770080521507425897e-01,-3.126610647483206051e+00,-9.445919715221516162e-06,3.635170787074468975e-06
2.494826383763707259e-02,3.950183098779196378e-01,2.768450756905624366e-01,-3.126610647483206051e+00,-9.226249181215254221e-06,3.636055297935780562e-06
2.494944120871590842e-02,3.950178833216696495e-01,2.766848055333064882e-01,-3.126610647483206051e+00,-9.010226382628460252e-06,3.636925121066610492e-06
2.495059926155497251e-02,3.950174637676550082e-01,2.765271663287621196e-01,-3.126610647483206051e+00,-8.797749757437802988e-06,3.637780665409893839e-06
2.495173438053372578e-02,3.950170525214407591e-01,2.763726486174395980e-01,-3.126610647483206051e+00,-8.589480488833820120e-06,3.638619268689072101e-06
2.495284616500560368e-02,3.950166497277928790e-01,2.762213067923497967e-01,-3.126610647483206051e+00,-8.385491891344364559e-06,3.639440635700724904e-06
2.495393568569876513e-02,3.950162550021860675e-01,2.760729963756231586e-01,-3.126610647483206051e+00,-8.185589228071522109e-06,3.640245550559564106e-06
2.495500313972376025e-02,3.950158682672587074e-01,2.759276883001560154e-01,-3.126610647483206051e+00,-7.989733320426950858e-06,3.641034171019504975e-06
2.495605118003715525e-02,3.950154885698204943e-01,2.757850244233955861e-01,-3.126610647483206051e+00,-7.797441440010508776e-06,3.641808440802837868e-06
2.495708210667165958e-02,3.950151150686880830e-01,2.756446886871866675e-01,-3.126610647483206051e+00,-7.608287582579867447e-06,3.642570075230105440e-06
2.495809777243554115e-02,3.950147471003169208e-01,2.755064317776610427e-01,-3.126610647483206051e+00,-7.421935706292287956e-06,3.643320427385214070e-06
2.495909766989512155e-02,3.950143848423721127e-01,2.753703204489957312e-01,-3.126610647483206051e+00,-7.238475786870989014e-06,3.644059134977835762e-06
2.496007866207155743e-02,3.950140294323131740e-01,2.752367820793509834e-01,-3.126610647483206051e+00,-7.058483873081605377e-06,3.644783878528061928e-06
2.496104328891829427e-02,3.950136799500070239e-01,2.751054709467120607e-01,-3.126610647483206051e+00,-6.881493977760466770e-06,3.645496534349026702e-06
2.496199240333615843e-02,3.950133360916000536e-01,2.749762728841048665e-01,-3.126610647483206051e+00,-6.707352219043144404e-06,3.646197722051280984e-06
2.496292789660548711e-02,3.950129971645459093e-01,2.748489276807546955e-01,-3.126610647483206051e+00,-6.535707867507401332e-06,3.646888853858751101e-06
2.496385185923626071e-02,3.950126624192731861e-01,2.747231536998635537e-01,-3.126610647483206051e+00,-6.366181314309567576e-06,3.647571458279327788e-06
2.496476587005369910e-02,3.950123312760128180e-01,2.745987331045885993e-01,-3.126610647483206051e+00,-6.198478944434866598e-06,3.648246717563834704e-06
2.496567081633159144e-02,3.950120034203277175e-01,2.744755477513032282e-01,-3.126610647483206051e+00,-6.032441516031902098e-06,3.648915272904993124e-06
2.496656461808949637e-02,3.950116796022898891e-01,2.743538794649204582e-01,-3.126610647483206051e+00,-5.868448891501767082e-06,3.649575594773962325e-06
2.496744678912819759e-02,3.950113599952728149e-01,2.742337933871279998e-01,-3.126610647483206051e+00,-5.706588873138000622e-06,3.650227329631811764e-06
2.496831939845539985e-02,3.950110438556146408e-01,2.741150101015986107e-01,-3.126610647483206051e+00,-5.546484845007613283e-06,3.650871993935381452e-06
2.496918354468565665e-02,3.950107307783786714e-01,2.739973774612206592e-01,-3.126610647483206051e+00,-5.387931733093990514e-06,3.651510413422161302e-06
2.497004071693945462e-02,3.950104202318739932e-01,2.738806956935802561e-01,-3.126610647483206051e+00,-5.230660270825921327e-06,3.652143672303141410e-06
2.497089191231623845e-02,3.950101118472839068e-01,2.737648262230014673e-01,-3.126610647483206051e+00,-5.074483676662967548e-06,3.652772522660551498e-06
2.497173800156969603e-02,3.950098053161653078e-01,2.736496531580890346e-01,-3.126610647483206051e+00,-4.919245744470531223e-06,3.653397593463672282e-06
2.497257863306738893e-02,3.950095007604968456e-01,2.735352223298689323e-01,-3.126610647483206051e+00,-4.765008248358151332e-06,3.654018635976954273e-06
2.497341248172752284e-02,3.950091986600743899e-01,2.734217140122366385e-01,-3.126610647483206051e+00,-4.612014173495624084e-06,3.654634671812365801e-06
2.497424046830675967e-02,3.950088986870245455e-01,2.733090050132016557e-01,-3.126610647483206051e+00,-4.460097473508142179e-06,3.655246369561273387e-06
2.497506361132909719e-02,3.950086004717662247e-01,2.731969564699013864e-01,-3.126610647483206051e+00,-4.309070979770946343e-06,3.655854482864479142e-06
2.497588267696044390e-02,3.950083037291822197e-01,2.730854612551227301e-01,-3.126610647483206051e+00,-4.158790299091913621e-06,3.656459593126093049e-06
2.497669828879613141e-02,3.950080082412358307e-01,2.729744374458814571e-01,-3.126610647483206051e+00,-4.009145010198975538e-06,3.657062144961115157e-06
2.497751073697586019e-02,3.950077138958499323e-01,2.728638429314053093e-01,-3.126610647483206051e+00,-3.860078353404193363e-06,3.657662366914356189e-06
2.497832030782426091e-02,3.950074205953974515e-01,2.727536410301721337e-01,-3.126610647483206051e+00,-3.711540886906535144e-06,3.658260458064908674e-06
2.497912672355308283e-02,3.950071284381694858e-01,2.726438686731515459e-01,-3.126610647483206051e+00,-3.563582388726659955e-06,3.658856217979878759e-06
2.497993016558629209e-02,3.950068373545445599e-01,2.725344997014619297e-01,-3.126610647483206051e+00,-3.416167600180095086e-06,3.659449788629556220e-06
2.498073106805220531e-02,3.950065471945100049e-01,2.724254777500377811e-01,-3.126610647483206051e+00,-3.269220548675356280e-06,3.660041475920161007e-06
2.498152966511761261e-02,3.950062578656382550e-01,2.723167680919311162e-01,-3.126610647483206051e+00,-3.122694426917451117e-06,3.660631468322853763e-06
2.498232609927029946e-02,3.950059693241979031e-01,2.722083542958929070e-01,-3.126610647483206051e+00,-2.976567087776751817e-06,3.661219855013822639e-06
2.498312046180832177e-02,3.950056815298245150e-01,2.721002211957587735e-01,-3.126610647483206051e+00,-2.830818089281241133e-06,3.661806718303336313e-06
2.498391282331623511e-02,3.950053944629572933e-01,2.719923614419160196e-01,-3.126610647483206051e+00,-2.685437525132098401e-06,3.662392098079444704e-06
2.498470342123807961e-02,3.950051080338233822e-01,2.718847413039516270e-01,-3.126610647483206051e+00,-2.540379931231411097e-06,3.662976177404881958e-06
2.498549330218501410e-02,3.950048218618855689e-01,2.717772178024389640e-01,-3.126610647483206051e+00,-2.395452590388230720e-06,3.663559732261960607e-06
2.498628248454462866e-02,3.950045359470308881e-01,2.716697908948979556e-01,-3.126610647483206051e+00,-2.250655445331008993e-06,3.664142762881268431e-06
2.498707054172961961e-02,3.950042504360476991e-01,2.715625157342110296e-01,-3.126610647483206051e+00,-2.106062834795082415e-06,3.664724969935386194e-06
2.498785709330033841e-02,3.950039654745994833e-01,2.714554470505487482e-01,-3.126610647483206051e+00,-1.961748527751275188e-06,3.665306056391049519e-06
2.498864185049687672e-02,3.950036811659538016e-01,2.713486236446815969e-01,-3.126610647483206051e+00,-1.817764822477243629e-06,3.665885811667467690e-06
2.498942539457467416e-02,3.950033972940258931e-01,2.712419643269844971e-01,-3.126610647483206051e+00,-1.674002286170017739e-06,3.666464676399536274e-06
2.499020719903902524e-02,3.950031140534803753e-01,2.711355422388700975e-01,-3.126610647483206051e+00,-1.530559503697406654e-06,3.667042253631926031e-06
2.499098906576044041e-02,3.950028307908782232e-01,2.710291118634336471e-01,-3.126610647483206051e+00,-1.387105551009009406e-06,3.667619875841573435e-06
2.499177184909094976e-02,3.950025471919948461e-01,2.709225551369656704e-01,-3.126610647483206051e+00,-1.243481293982161007e-06,3.668198183787424444e-06
2.499255459349064568e-02,3.950022636106382823e-01,2.708160049958487359e-01,-3.126610647483206051e+00,-1.099865913131260632e-06,3.668776455993054822e-06
2.499333626645228526e-02,3.950019804132270385e-01,2.707095991146538649e-01,-3.126610647483206051e+00,-9.564449754218163208e-07,3.669353945266798525e-06
2.499411602588603315e-02,3.950016979127514150e-01,2.706034550933520411e-01,-3.126610647483206051e+00,-8.133769899388688728e-07,3.669930013366417700e-06
2.499489415430891648e-02,3.950014160001676378e-01,2.704975319608572404e-01,-3.126610647483206051e+00,-6.706067331061215304e-07,3.670504882651517387e-06
2.499567152621550228e-02,3.950011343622506499e-01,2.703917120290307285e-01,-3.126610647483206051e+00,-5.279755770092277786e-07,3.671079191842781157e-06
2.499644763134683742e-02,3.950008531831810110e-01,2.702860645001258777e-01,-3.126610647483206051e+00,-3.855767970505919714e-07,3.671652565363635604e-06
2.499722569950338022e-02,3.950005712901624721e-01,2.701801487189383066e-01,-3.126610647483206051e+00,-2.428164487852518786e-07,3.672227394751534030e-06
2.499800492476595207e-02,3.950002889821153662e-01,2.700740769988703716e-01,-3.126610647483206051e+00,-9.984591570482817460e-08,3.672803070455726733e-06
2.499861001802025640e-02,3.950000697607696232e-01,2.699917088713920665e-01,-3.126610647483206051e+00,1.117533564202592374e-08,3.673250101292588674e-06
2.499907233732019673e-02,3.949999022653513658e-01,2.699287757481937944e-01,-3.126610647483206051e+00,9.600079304378786189e-08,3.673591653875986197e-06
2.499941812196300808e-02,3.949997769895707278e-01,2.698817058270077118e-01,-3.126610647483206051e+00,1.594447696270944023e-07,3.673847113201132203e-06
2.499966928221581189e-02,3.949996859955103301e-01,2.698475165908396645e-01,-3.126610647483206051e+00,2.055273005557329046e-07,3.674032666076062725e-06
2.499984407159022357e-02,3.949996226700657753e-01,2.698237232952303555e-01,-3.126610647483206051e+00,2.375974899989477310e-07,3.674161797782391760e-06
