1.123380354449711321e-01,9.596469867673002030e-02,3.523485137085772267e-01,-3.129204894172131546e+00,-7.873742593467494529e-04,8.368267932534986277e-04
1.123380354449711321e-01,9.596469867673002030e-02,3.523485137085772267e-01,-3.129204894172131546e+00,-7.873742593467494529e-04,8.368267932534986277e-04
1.123350931332682545e-01,9.597231146020747394e-02,3.523481830620657784e-01,-3.129198493017677940e+00,-7.749665996063998842e-04,8.366797623105061725e-04
1.123293873479958016e-01,9.598707461640162975e-02,3.523475420408977987e-01,-3.129185768229402420e+00,-7.611272448834712542e-04,8.363946286831331831e-04
1.123210941684432418e-01,9.600853261293205987e-02,3.523466104585044056e-01,-3.129166856667765728e+00,-7.546868861123293094e-04,8.359801899917452660e-04
1.123103808680105814e-01,9.603625710633956203e-02,3.523454096557681603e-01,-3.129141925607437980e+00,-7.625806992247342181e-04,8.354446812751341453e-04
1.122974002944701760e-01,9.606984427844822427e-02,3.523439520392251390e-01,-3.129111177179902725e+00,-7.901729228450669754e-04,8.347959727480841691e-04
1.122823047777105759e-01,9.610891058778572860e-02,3.523422607776710569e-01,-3.129074824312794600e+00,-8.414475515091360443e-04,8.340413819566327644e-04
1.122652296845781106e-01,9.615309861742073194e-02,3.523403469828794710e-01,-3.129033102917719411e+00,-9.192743271805412127e-04,8.331878729688022706e-04
1.122463068167699057e-01,9.620206882093815248e-02,3.523382263064486764e-01,-3.128986256262774823e+00,-1.025561031941637623e-03,8.322419911735667820e-04
1.122256614515208806e-01,9.625549997385045298e-02,3.523359144900904960e-01,-3.128934534449240523e+00,-1.161421916432601401e-03,8.312099158417910394e-04
1.122034060933717048e-01,9.631309432639474644e-02,3.523334203703476497e-01,-3.128878193232941918e+00,-1.327317007856435938e-03,8.300974542731165374e-04
1.121796553536539703e-01,9.637456337371394510e-02,3.523307614177469960e-01,-3.128817486500086620e+00,-1.523161871790389751e-03,8.289101102302287843e-04
1.121545093347683236e-01,9.643964270266039418e-02,3.523279457882105836e-01,-3.128752669307622192e+00,-1.748435578372140118e-03,8.276530365461797368e-04
1.121280662123907285e-01,9.650807958422336075e-02,3.523249852489601652e-01,-3.128683992457384822e+00,-2.002262255716105287e-03,8.263311034172633870e-04
1.121004183056198283e-01,9.657963614210829384e-02,3.523218907375001430e-01,-3.128611702250518878e+00,-2.283486184923781519e-03,8.249488967327357454e-04
1.120716502524696651e-01,9.665409076599935922e-02,3.523186702667380210e-01,-3.128536039628549759e+00,-2.590734151445507529e-03,8.235107189078672181e-04
1.120418449329439042e-01,9.673123162453461932e-02,3.523153346406637243e-01,-3.128457238188234513e+00,-2.922468790619759879e-03,8.220206390075254083e-04
1.120110777417931969e-01,9.681086211357187166e-02,3.523118914566518156e-01,-3.128375524482867487e+00,-3.277033112412697582e-03,8.204824672099193892e-04
1.119794206670452763e-01,9.689279622597661568e-02,3.523083489478399666e-01,-3.128291116864039711e+00,-3.652688883387508398e-03,8.188997938652102168e-04
1.119469331157786907e-01,9.697688153326505800e-02,3.523047186283544963e-01,-3.128204150007193540e+00,-4.047582768251049672e-03,8.172755758758284798e-04
1.119011118253171178e-01,9.709842936842937033e-02,3.523079336836238418e-01,-3.127992710962884892e+00,-4.353996714041619837e-03,8.149420494183938881e-04
1.118483995118311203e-01,9.724719280918706077e-02,3.523183107331882558e-01,-3.127661383975647524e+00,-4.620584326390592134e-03,8.123017479441940747e-04
1.117896925442113665e-01,9.743660928458985904e-02,3.523428194279762948e-01,-3.127106104666211639e+00,-4.847451332259606130e-03,8.094984200272721531e-04
1.117304611574180540e-01,9.762730458309122616e-02,3.523671952079337477e-01,-3.126550194895969526e+00,-5.087027444087821246e-03,8.066686672763285614e-04
1.116707600226071462e-01,9.781909637386818068e-02,3.523914213009984864e-01,-3.125994152466985643e+00,-5.337659403334253823e-03,8.038150384416917118e-04
1.116106355083835017e-01,9.801187535822841745e-02,3.524155103080590656e-01,-3.125438070043384808e+00,-5.597650883248193356e-03,8.009397187505811573e-04
1.115501225503148092e-01,9.820554694905497817e-02,3.524394648417472076e-01,-3.124882043193690340e+00,-5.865369252273836854e-03,7.980447103967006984e-04
1.114892389531435962e-01,9.840008284070077271e-02,3.524632988081785601e-01,-3.124326149214319503e+00,-6.139054723288950126e-03,7.951311452369078147e-04
1.114145504652894608e-01,9.863350698381863346e-02,3.524876775314040867e-01,-3.123768899279618427e+00,-6.310643040828725278e-03,7.917615713975589180e-04
1.113380703447528902e-01,9.887183571460642084e-02,3.525120199069559090e-01,-3.123211763618931158e+00,-6.473520217432073183e-03,7.883283922914155299e-04
1.112613918887848941e-01,9.911058196737863868e-02,3.525362620262453839e-01,-3.122654986828765633e+00,-6.638660346563129110e-03,7.848839748487767892e-04
1.111845272332700196e-01,9.934969440551361108e-02,3.525604029986367238e-01,-3.122098613107827880e+00,-6.804705312245818045e-03,7.814295903295249979e-04
1.110942147104805461e-01,9.960472284538172960e-02,3.525872576809923609e-01,-3.121496738998591258e+00,-6.826539979904030706e-03,7.777921097484416946e-04
1.109999929632403404e-01,9.986443288829421894e-02,3.526148223396362580e-01,-3.120882327206951690e+00,-6.806071846461269476e-03,7.740976235453411866e-04
1.109057134056535832e-01,1.001242737447630426e-01,3.526422939131720891e-01,-3.120268671145107309e+00,-6.783711220468140700e-03,7.703975090487849261e-04
1.108114054918159092e-01,1.003841884323495304e-01,3.526696840446943981e-01,-3.119655819866729018e+00,-6.758499972908102449e-03,7.666928693925665348e-04
1.107170751024214306e-01,1.006441449052740550e-01,3.526969867036648387e-01,-3.119043814451884611e+00,-6.729499510449812524e-03,7.629845762681033029e-04
1.106227453644483688e-01,1.009040978502915853e-01,3.527242163423158217e-01,-3.118432675118278485e+00,-6.695830705193099065e-03,7.592735262457196146e-04
1.105284255819890954e-01,1.011640163390712804e-01,3.527513729844436452e-01,-3.117822430359680208e+00,-6.656688494874970011e-03,7.555604867896465252e-04
1.104341261069225200e-01,1.014238774061444054e-01,3.527784587208821487e-01,-3.117213108414310430e+00,-6.611319095674576818e-03,7.518461333616268880e-04
1.103376370084384189e-01,1.016964413429010533e-01,3.528028646966582804e-01,-3.116615158638500027e+00,-6.540265515400677833e-03,7.480549149342665370e-04
1.101950899235171061e-01,1.020728115762776639e-01,3.527868105400454590e-01,-3.116336219441828259e+00,-5.975212858471671933e-03,7.436299476839718699e-04
1.100490690241143488e-01,1.024497562144186108e-01,3.527687813523566196e-01,-3.116080819098545618e+00,-5.360662557025433136e-03,7.391840522962011585e-04
1.099032683228958335e-01,1.028261616623241947e-01,3.527508381178154351e-01,-3.115825315183243571e+00,-4.739183825896277694e-03,7.347415512001530301e-04
1.097576955669103405e-01,1.032020219843877984e-01,3.527329819160969770e-01,-3.115569717107068648e+00,-4.110327090048966972e-03,7.303028660620323673e-04
1.096123585950054269e-01,1.035773283286129109e-01,3.527152186719690885e-01,-3.115314072318158711e+00,-3.473600338772501236e-03,7.258683703630289382e-04
1.094672448114228924e-01,1.039520891832311916e-01,3.526975316893233847e-01,-3.115058434485107774e+00,-2.828585646917464690e-03,7.214383112627864060e-04
1.093223644618346313e-01,1.043262953653500691e-01,3.526799306724518468e-01,-3.114802841671130640e+00,-2.174881830545202094e-03,7.170130094160476544e-04
1.091777104489889266e-01,1.046999523995309767e-01,3.526624061261229293e-01,-3.114547337076868150e+00,-1.512152691047602719e-03,7.125926776240413619e-04
1.090332819066657938e-01,1.050730614330089019e-01,3.526449560509702374e-01,-3.114291957224794238e+00,-8.400946659272227586e-04,7.081775302802275447e-04
1.088890852512162388e-01,1.054456183597348995e-01,3.526275871179823107e-01,-3.114036731596992347e+00,-1.584329143953243412e-04,7.037677895794892469e-04
1.087451053196573786e-01,1.058176369689546176e-01,3.526102818545064910e-01,-3.113781697709208540e+00,5.330439184503257474e-04,6.993635570081442989e-04
1.086012710976868439e-01,1.061891313472249077e-01,3.525930430957339712e-01,-3.113526635022640932e+00,1.235059213417128311e-03,6.949613933252349199e-04
1.084183591563766536e-01,1.065697595621125371e-01,3.525717556560177823e-01,-3.113154121630595128e+00,2.196621014779922675e-03,6.888005786444792748e-04
1.082320136251347098e-01,1.069507558192234059e-01,3.525501497851470378e-01,-3.112770943232008758e+00,3.191654484403159443e-03,6.824817945499998774e-04
1.080460240811890044e-01,1.073311881263704637e-01,3.525286287572221844e-01,-3.112388450090595171e+00,4.196262033712307334e-03,6.761750734100473517e-04
1.078603712935371078e-01,1.077110741775911540e-01,3.525071743418754511e-01,-3.112006660720860740e+00,5.210520756783560900e-03,6.698803077302447999e-04
1.076750588725865071e-01,1.080904116830085498e-01,3.524857985641793312e-01,-3.111625565998916709e+00,6.234544159735707150e-03,6.635973193865276785e-04
1.074900705222742725e-01,1.084692151691276918e-01,3.524644895462724636e-01,-3.111245170056344378e+00,7.268386863870101265e-03,6.573258832313235269e-04
1.073053964709059921e-01,1.088475180726565517e-01,3.524432423703681150e-01,-3.110865430102483398e+00,8.312106872740795960e-03,6.510658148100268924e-04
1.071169522104741673e-01,1.092609332451119353e-01,3.524160497163573158e-01,-3.110434200476083877e+00,9.377328204929430075e-03,6.448482224550792629e-04
1.069242157829613238e-01,1.097275389186963546e-01,3.523628970988100240e-01,-3.110115074210743735e+00,1.045247473374968407e-02,6.385677975887520293e-04
1.067165897481791442e-01,1.102282108490184598e-01,3.522710692592131432e-01,-3.110070751374929277e+00,1.164756797281444461e-02,6.320152966191966383e-04
1.065092920033258589e-01,1.107280714060572546e-01,3.521794430525201913e-01,-3.110026593188512489e+00,1.285236083678561667e-02,6.254737387636671907e-04
1.063023471422042260e-01,1.112270686954263815e-01,3.520880943860318912e-01,-3.109982037364627416e+00,1.406659294844958032e-02,6.189434840102609608e-04
1.060957517099264391e-01,1.117252233013650425e-01,3.519970202827272798e-01,-3.109937119354949431e+00,1.529024237719725163e-02,6.124242796473985300e-04
1.058894818680044536e-01,1.122225690541105991e-01,3.519061942674805432e-01,-3.109891879522386215e+00,1.652323026255926586e-02,6.059158473345100130e-04
1.056835404493561281e-01,1.127191215034598210e-01,3.518156209490800324e-01,-3.109846346450317878e+00,1.776552231413543528e-02,5.994179459984810311e-04
1.054779082101828247e-01,1.132149104815529800e-01,3.517252794020887530e-01,-3.109800554541588991e+00,1.901702522729408276e-02,5.929303090630993079e-04
1.052725783481952143e-01,1.137099571283522320e-01,3.516351632679550199e-01,-3.109754531747180195e+00,2.027766221814280428e-02,5.864526880142739186e-04
1.050675484677450061e-01,1.142042793263101930e-01,3.515452714402861334e-01,-3.109708302541371427e+00,2.154735708822563822e-02,5.799848411304902055e-04
1.048627960576990759e-01,1.146979076521193186e-01,3.514555793985203458e-01,-3.109661896962654382e+00,2.282597986173486720e-02,5.735265094131027216e-04
1.046583256366383080e-01,1.151908547184610082e-01,3.513660942877938620e-01,-3.109615333551387639e+00,2.411345376569282162e-02,5.670774634927149439e-04
1.044541184510273252e-01,1.156831477735385111e-01,3.512767960796913669e-01,-3.109568637805840918e+00,2.540964198838944338e-02,5.606374560355238028e-04
1.042501695915633297e-01,1.161748047490026720e-01,3.511876810112949387e-01,-3.109521828700568147e+00,2.671443307875324275e-02,5.542062555162908643e-04
1.040464775212983084e-01,1.166658411029152936e-01,3.510987493514862723e-01,-3.109474922579802847e+00,2.802771819537193052e-02,5.477836355073997798e-04
1.038430210670693715e-01,1.171562842827563178e-01,3.510099782944010038e-01,-3.109427941786543581e+00,2.934933686378495346e-02,5.413693607384090743e-04
1.036398062109735035e-01,1.176461443045447863e-01,3.509213770512253916e-01,-3.109380897372906905e+00,3.067918899263696528e-02,5.349632162073240244e-04
1.034368146211198797e-01,1.181354459907053844e-01,3.508329261790252840e-01,-3.109333808325669413e+00,3.201711202563883168e-02,5.285649777035176774e-04
1.032339707550914143e-01,1.186242555333291843e-01,3.507446042695890887e-01,-3.109286662673607093e+00,3.336308002947824952e-02,5.221693221236185312e-04
1.029467207968274567e-01,1.191724964990748953e-01,3.506330668508249593e-01,-3.109211046605214079e+00,3.483689833430095306e-02,5.098049045591270239e-04
1.026450303295328575e-01,1.197809727086473625e-01,3.504807822717262988e-01,-3.109082831209430076e+00,3.609807951366796747e-02,4.954922968346622564e-04
1.023482449712242309e-01,1.204012990216885848e-01,3.503266436885416057e-01,-3.108919974215839321e+00,3.729596408704652366e-02,4.811034128493313594e-04
1.020519518337216908e-01,1.210207597357783466e-01,3.501728300852144926e-01,-3.108757419728601423e+00,3.850160097131179876e-02,4.667461708994475678e-04
1.017561257669709479e-01,1.216393550621039238e-01,3.500193379636232227e-01,-3.108595243108236872e+00,3.971500248253371362e-02,4.524195300568523799e-04
1.014607537939279241e-01,1.222571145479204313e-01,3.498661602026092998e-01,-3.108433434454803024e+00,4.093601185511996920e-02,4.381222232240039420e-04
1.011658075367389553e-01,1.228740741067294584e-01,3.497132698409656792e-01,-3.108271993631361418e+00,4.216442823228635367e-02,4.238532267559519829e-04
1.008712826166054399e-01,1.234902577154368825e-01,3.495606700965527280e-01,-3.108110906087038217e+00,4.340011725171353391e-02,4.096112749073693758e-04
1.005771524393911653e-01,1.241056987336706940e-01,3.494083356188531497e-01,-3.107950171367736214e+00,4.464288093555957015e-02,3.953954324736748643e-04
1.002834062940824583e-01,1.247204225552030893e-01,3.492562610179070770e-01,-3.107789779492257765e+00,4.589256630841542089e-02,3.812046124727743249e-04
9.999003389411692533e-02,1.253344537538090830e-01,3.491044412179947765e-01,-3.107629720490623360e+00,4.714902200969556256e-02,3.670377665391359474e-04
9.969700351262393567e-02,1.259478598992649356e-01,3.489528365110433072e-01,-3.107470035927502483e+00,4.841207985642922984e-02,3.528937292337502732e-04
9.938905144868508124e-02,1.266438126250734597e-01,3.487667678625150369e-01,-3.107403628141800489e+00,4.974041459933759707e-02,3.379687038931092325e-04
9.907788423167628034e-02,1.273584912607249320e-01,3.485728375917565014e-01,-3.107359208971387066e+00,5.108856359374037981e-02,3.228787726328652603e-04
9.878322433553658743e-02,1.280519428264996762e-01,3.483803169472751149e-01,-3.107355709889585871e+00,5.229791936276440706e-02,3.084739129871006064e-04
9.853647015087516059e-02,1.286846321783489677e-01,3.481912834713701277e-01,-3.107472856909946568e+00,5.308669014669241404e-02,2.960411117502056945e-04
9.828996159796599130e-02,1.293165888506268291e-01,3.480025560124972439e-01,-3.107589715977557621e+00,5.388189773361108659e-02,2.836262802352336031e-04
9.804359150456251615e-02,1.299479761160911018e-01,3.478141291474149965e-01,-3.107706021400436391e+00,5.468438527476429667e-02,2.712240272509477859e-04
9.779734330451640700e-02,1.305788190298128315e-01,3.476259763897325827e-01,-3.107821804944572275e+00,5.549390835000309746e-02,2.588340196448941054e-04
9.755120860258155446e-02,1.312091551576197446e-01,3.474380724669813847e-01,-3.107937260621111086e+00,5.631023103109895900e-02,2.464548989662960522e-04
9.729508508188243476e-02,1.318581266357927162e-01,3.472297670636957378e-01,-3.108221586743017628e+00,5.709328502421626150e-02,2.332584924907039209e-04
9.700888277436087170e-02,1.325444907699170061e-01,3.469849255880681493e-01,-3.108573142022340807e+00,5.772301624488179739e-02,2.184119512468930021e-04
9.669877310858231156e-02,1.332541424451477163e-01,3.467191393384093656e-01,-3.108836609812138274e+00,5.821929544164728548e-02,2.025256478609056593e-04
9.638890989132246900e-02,1.339631472706417359e-01,3.464537693224836179e-01,-3.109099005330042687e+00,5.872234356543060141e-02,1.866580740502297618e-04
9.607939050154605531e-02,1.346714256648683383e-01,3.461888650525808409e-01,-3.109360650761521683e+00,5.923226954652140858e-02,1.708142841418475643e-04
9.580949438072937363e-02,1.353367301816539026e-01,3.459308805748199656e-01,-3.109673358312728286e+00,5.970859288655135100e-02,1.581499521111195256e-04
9.554747673574953692e-02,1.359932228768495621e-01,3.456745625839574565e-01,-3.109995358284924016e+00,6.018358611232407784e-02,1.461156275036046260e-04
9.528558548298371456e-02,1.366492686713865479e-01,3.454186301368798451e-01,-3.110316469353554325e+00,6.066500856747283205e-02,1.340874421804466284e-04
9.502380060663173644e-02,1.373048903715569369e-01,3.451630529384993595e-01,-3.110636727335329699e+00,6.115262609974331243e-02,1.220650896025663650e-04
9.476212464294540838e-02,1.379601031308112236e-01,3.449078230727257721e-01,-3.110956172486997851e+00,6.164624744283006552e-02,1.100482571838031989e-04
9.450055618289986137e-02,1.386149222760173216e-01,3.446529287080063453e-01,-3.111274842910357830e+00,6.214567919578239952e-02,9.803670106454095490e-05
9.423908267798396243e-02,1.392693640667863608e-01,3.443983460045987322e-01,-3.111592773694336955e+00,6.265070945529406521e-02,8.603037085614095034e-05
9.397771247077689460e-02,1.399234414754385591e-01,3.441440749609918082e-01,-3.111910000663346665e+00,6.316117788356372109e-02,7.402887784680292941e-05
9.371642953788608676e-02,1.405771699036960920e-01,3.438900886953475400e-01,-3.112226555108079218e+00,6.367687573165649317e-02,6.203225348198960804e-05
9.345523744635569896e-02,1.412305619754226915e-01,3.436363826893506501e-01,-3.112542469216108554e+00,6.419764325442585406e-02,5.004020399698370892e-05
9.319413489127811867e-02,1.418836304554690619e-01,3.433829473539105059e-01,-3.112857773154405816e+00,6.472331524553279203e-02,3.805252501028519958e-05
9.293311057076263093e-02,1.425363883834361578e-01,3.431297622337160513e-01,-3.113172494241843502e+00,6.525370852183556836e-02,2.606920119192897913e-05
9.267217317239864749e-02,1.431888469082470139e-01,3.428768296932985238e-01,-3.113486661420553858e+00,6.578869112110143080e-02,1.408986111205686211e-05
9.241130712393745561e-02,1.438410182313667462e-01,3.426241251476082050e-01,-3.113800298650554854e+00,6.632807924597816651e-02,2.114588844327565243e-06
9.215049084539307656e-02,1.444928917910463517e-01,3.423716429960505514e-01,-3.114113393740901348e+00,6.687164543525324356e-02,-9.855527880321589016e-06
9.186694630116683247e-02,1.451261434353363078e-01,3.421158133773724019e-01,-3.114393442251762067e+00,6.733643164415210880e-02,-2.064310723277296982e-05
9.144725206649319260e-02,1.457591154288906676e-01,3.417551690961321276e-01,-3.114841747306216213e+00,6.758659664999307204e-02,-3.394660470207663008e-05
9.099011239688101216e-02,1.464252765879441032e-01,3.413608444052668167e-01,-3.115382946798129549e+00,6.790155838814597444e-02,-4.935389793261349742e-05
9.053355776511827491e-02,1.470912389242791385e-01,3.409670678048073444e-01,-3.115923237026302139e+00,6.822114393588052383e-02,-6.475217226761782003e-05
9.007767047051405684e-02,1.477569207739267421e-01,3.405739142672232767e-01,-3.116462411445713787e+00,6.854504258138165163e-02,-8.013632673350167045e-05
8.962242314531054799e-02,1.484223332559508890e-01,3.401813582034017291e-01,-3.117000519829723260e+00,6.887310319196401909e-02,-9.550697091121839702e-05
8.916778437150015002e-02,1.490874864383577303e-01,3.397893681793033860e-01,-3.117537605136508017e+00,6.920516306919420602e-02,-1.108644781595827982e-04
8.871373591683942572e-02,1.497523914612890195e-01,3.393979299313215625e-01,-3.118073719072164351e+00,6.954110365625312817e-02,-1.262096911160226573e-04
8.826024474063205727e-02,1.504170568473505165e-01,3.390070089444432444e-01,-3.118608896788763296e+00,6.988075923463556161e-02,-1.415427696829308962e-04
8.780729245103958969e-02,1.510814928034751314e-01,3.386165899749991604e-01,-3.119143184254423939e+00,7.022401394611567371e-02,-1.568644264199263818e-04
8.735485670686778115e-02,1.517457084534197531e-01,3.382266520992452397e-01,-3.119676621066268751e+00,7.057074028529497500e-02,-1.721751470084739949e-04
8.690290371068455644e-02,1.524097140851984333e-01,3.378371621423310600e-01,-3.120209290564208704e+00,7.092080255502189456e-02,-1.874747411128135346e-04
8.643437746060815552e-02,1.530788375734488393e-01,3.374327856831953465e-01,-3.120845660305930913e+00,7.127918630103512176e-02,-2.018026409921468156e-04
8.596026009502061305e-02,1.537496491791056075e-01,3.370233932293357770e-01,-3.121518292833769692e+00,7.164246450214659112e-02,-2.157799401464728878e-04
8.548664866214193692e-02,1.544202511564378433e-01,3.366144689412940427e-01,-3.122189781973859546e+00,7.200872237728198066e-02,-2.297519949096693418e-04
8.501352582687150827e-02,1.550906506153949815e-01,3.362059964704222081e-01,-3.122860153061763011e+00,7.237785183780097442e-02,-2.437192415046833462e-04
8.454086785308345675e-02,1.557608542714381261e-01,3.357979520319205879e-01,-3.123529449267421487e+00,7.274973653244592997e-02,-2.576817076640512748e-04
8.406866100824923749e-02,1.564308724615502966e-01,3.353903258763760720e-01,-3.124197727593554408e+00,7.312430219086790695e-02,-2.716398938369843060e-04
8.359687936724559398e-02,1.571007093003884969e-01,3.349830901051286669e-01,-3.124865019795142196e+00,7.350142237025755754e-02,-2.855935951670089939e-04
8.312550577397057050e-02,1.577703093174275262e-01,3.345762429621542688e-01,-3.125531141110025057e+00,7.388083817705930201e-02,-2.995424424435467244e-04
8.265169593031869433e-02,1.583913678437497419e-01,3.341759695861616919e-01,-3.126020527891336442e+00,7.412362305369524229e-02,-3.128938125227772649e-04
8.213846388143020150e-02,1.589211687436217768e-01,3.337772740242370140e-01,-3.126253506066748233e+00,7.413714984633183736e-02,-3.241441813765001418e-04
8.159888693516983982e-02,1.594323729185282423e-01,3.333740179506829437e-01,-3.126472963250709114e+00,7.412311326112901166e-02,-3.344282698773625405e-04
8.105980105514948297e-02,1.599438772802089515e-01,3.329710544917641180e-01,-3.126692994507224377e+00,7.411238261515491754e-02,-3.447176419154517556e-04
8.052126334869680324e-02,1.604557217215436538e-01,3.325683912137084586e-01,-3.126913617965575209e+00,7.410493181117951134e-02,-3.550149790595628733e-04
7.998325024767609370e-02,1.609678913440512338e-01,3.321660145575620615e-01,-3.127134808924789677e+00,7.410063265993402370e-02,-3.653199088037990512e-04
7.944573797134329984e-02,1.614803714464667361e-01,3.317639089019356335e-01,-3.127356542413772811e+00,7.409935543113436995e-02,-3.756319781896459513e-04
7.890870880803883824e-02,1.619931496685075301e-01,3.313620701484238373e-01,-3.127578799672748655e+00,7.410100168362113160e-02,-3.859511447359647955e-04
7.837213805476124506e-02,1.625062113691612964e-01,3.309604775470917359e-01,-3.127801554545682983e+00,7.410543561050557393e-02,-3.962767545233317115e-04
7.783600920579311633e-02,1.630195453288714180e-01,3.305591269698091028e-01,-3.128024789702563702e+00,7.411256537625908469e-02,-4.066087619207215363e-04
7.730030308222356206e-02,1.635331394663583071e-01,3.301580070073560358e-01,-3.128248484830191689e+00,7.412228422033045883e-02,-4.169468472801090447e-04
7.676499815779698477e-02,1.640469701165271077e-01,3.297571039742503984e-01,-3.128472583432666543e+00,7.413444659369140821e-02,-4.272897971129747691e-04
7.622533068541996470e-02,1.645386459300089144e-01,3.293545184632791778e-01,-3.128627621374559631e+00,7.407531979486241258e-02,-4.360289243097803871e-04
7.568476904402370031e-02,1.650245933817781896e-01,3.289516256860677279e-01,-3.128764585632820783e+00,7.399888546741677231e-02,-4.443451832647690985e-04
7.514458232512606639e-02,1.655108470257298237e-01,3.285489355800366718e-01,-3.128902213033035729e+00,7.392495676076535349e-02,-4.526729226557301843e-04
7.460475488473655714e-02,1.659973967392533167e-01,3.281464384276946422e-01,-3.129040486106092089e+00,7.385344370105631495e-02,-4.610118458359529765e-04
7.406527146836125453e-02,1.664842253486144008e-01,3.277441163169679261e-01,-3.129179341521040936e+00,7.378426412742582208e-02,-4.693601271806065330e-04
7.352750550438835742e-02,1.669643908439452651e-01,3.273281696854927203e-01,-3.129252016634778144e+00,7.375184534624888710e-02,-4.753610214041638598e-04
7.299050673550822044e-02,1.674425482833476198e-01,3.269078774133230003e-01,-3.129303441637611094e+00,7.373283620642394343e-02,-4.806012059331716537e-04
7.245383141432881757e-02,1.679209317213020136e-01,3.264878157667585046e-01,-3.129355685953771893e+00,7.371571833976166277e-02,-4.858596950338337070e-04
7.193443405120700240e-02,1.683666938067123475e-01,3.260745493141284368e-01,-3.129408727121525402e+00,7.368077173992683415e-02,-4.905990919288697729e-04
7.144409537745238792e-02,1.687314828266262279e-01,3.256858616119348016e-01,-3.129462531286352434e+00,7.356169531643219628e-02,-4.904135066401576516e-04
7.095883735610858389e-02,1.690684700996189782e-01,3.253086912826808064e-01,-3.129517067525415808e+00,7.340041654025533657e-02,-4.871719767967434811e-04
7.047368100315985762e-02,1.694060619624558617e-01,3.249315999656768317e-01,-3.129572303494716046e+00,7.324111048480846931e-02,-4.839655041175278788e-04
6.998861033084780026e-02,1.697443123390414976e-01,3.245545582865599354e-01,-3.129628210960478274e+00,7.308383775231507007e-02,-4.808013466310062265e-04
6.950362106133817219e-02,1.700831930552760274e-01,3.241775621910752969e-01,-3.129684761330228326e+00,7.292851296616369161e-02,-4.776776798802805199e-04
6.901870928464434729e-02,1.704226770784121048e-01,3.238006081461529129e-01,-3.129741927254459100e+00,7.277505482846891027e-02,-4.745927606221877104e-04
6.853387350883967388e-02,1.707627388917651590e-01,3.234236999364046294e-01,-3.129799684055094122e+00,7.262340289598072374e-02,-4.715450013701550465e-04
6.804910816008417906e-02,1.711033533152458430e-01,3.230468277669523713e-01,-3.129858005208529637e+00,7.247346591924301584e-02,-4.685327291895405831e-04
6.756441201893005621e-02,1.714444971142694840e-01,3.226699959245604155e-01,-3.129916868282382136e+00,7.232519031760323291e-02,-4.655544988170634145e-04
6.707978158131974733e-02,1.717861474827036827e-01,3.222932005760731355e-01,-3.129976250033155605e+00,7.217850471454710648e-02,-4.626088353469012295e-04
6.659521381511285254e-02,1.721282826010517575e-01,3.219164389763214951e-01,-3.130036128376564530e+00,7.203334277765924276e-02,-4.596943370141946209e-04
6.611070730796864137e-02,1.724708823760212895e-01,3.215397147389321142e-01,-3.130096483676738206e+00,7.188965721184900626e-02,-4.568097354079173663e-04
6.562625782245772033e-02,1.728139259356205604e-01,3.211630189846347294e-01,-3.130157294088625530e+00,7.174736999266466408e-02,-4.539536701616759314e-04
6.514186418903752940e-02,1.731573951136345657e-01,3.207863560427127725e-01,-3.130218541885351868e+00,7.160644035438425148e-02,-4.511249912562899540e-04
6.465752360503600193e-02,1.735012713449758659e-01,3.204097222686544399e-01,-3.130280208111504425e+00,7.146680823476891931e-02,-4.483225047157549429e-04
6.417323373426901678e-02,1.738455370280414802e-01,3.200331155900442148e-01,-3.130342274949397652e+00,7.132841967263969796e-02,-4.455450840819909263e-04
6.368899314669609901e-02,1.741901764794599461e-01,3.196565393873294081e-01,-3.130404726833297069e+00,7.119123800901656918e-02,-4.427917168607744050e-04
6.320479883068912119e-02,1.745351721876660378e-01,3.192799856503134026e-01,-3.130467545677109165e+00,7.105519611157955218e-02,-4.400612950520204139e-04
6.272057408277817436e-02,1.748805241477366657e-01,3.189034185955802458e-01,-3.130530717575215061e+00,7.092023318654523678e-02,-4.373501466292559702e-04
6.219393688350304678e-02,1.752340585709336596e-01,3.185043145854903890e-01,-3.130594227002515328e+00,7.076906199871269010e-02,-4.331077816658759189e-04
6.149609352380551452e-02,1.756100814853298053e-01,3.180019604786403220e-01,-3.130658059603875554e+00,7.048347222427438219e-02,-4.229179216713732582e-04
6.077640643030053635e-02,1.759886159723025034e-01,3.174826282505000541e-01,-3.130722203097586753e+00,7.016188037782677966e-02,-4.123194842064650378e-04
6.005744714290418840e-02,1.763673402139885604e-01,3.169637114619996421e-01,-3.130786617059997390e+00,6.984170441514295224e-02,-4.017634034186265434e-04
5.934023371195352309e-02,1.767465814716576433e-01,3.164245365111631458e-01,-3.130801663926693124e+00,6.948918295762086805e-02,-3.908793247119033711e-04
5.862429176011254434e-02,1.771261786787885761e-01,3.158743711202841586e-01,-3.130789592587068793e+00,6.911941965944726207e-02,-3.798313503571766636e-04
5.790903975949292931e-02,1.775059355910141023e-01,3.153247138362784141e-01,-3.130777995316601281e+00,6.875116652967089292e-02,-3.688234208960350412e-04
5.719444403281825212e-02,1.778858471541787389e-01,3.147755591827398058e-01,-3.130766888528598191e+00,6.838439457734604709e-02,-3.578540268482280199e-04
5.648048259654386838e-02,1.782659034227757899e-01,3.142268842730993050e-01,-3.130756251095991427e+00,6.801902996078475205e-02,-3.469216491910597768e-04
5.576712351361860776e-02,1.786461009856912252e-01,3.136786698897677805e-01,-3.130746063508436983e+00,6.765502568741597889e-02,-3.360246112210459784e-04
5.505434395456228897e-02,1.790264322319379819e-01,3.131308958917957130e-01,-3.130736306576404004e+00,6.729232020257190638e-02,-3.251614647575290919e-04
5.434211941255374240e-02,1.794068913608783955e-01,3.125835435998959855e-01,-3.130726962094054766e+00,6.693086014167436149e-02,-3.143307694703496142e-04
5.363042216206140300e-02,1.797874752029161582e-01,3.120365955809937253e-01,-3.130718012868700217e+00,6.657060206375299549e-02,-3.035310628698502811e-04
5.291923665843051294e-02,1.801681745706224524e-01,3.114900339316608036e-01,-3.130709441801626358e+00,6.621148420893856190e-02,-2.927611604314432473e-04
5.220853520065230763e-02,1.805489878355651390e-01,3.109438427463087073e-01,-3.130701233242188852e+00,6.585347031543835328e-02,-2.820196777356496630e-04
5.149830074065353536e-02,1.809299081438040802e-01,3.103980060467184110e-01,-3.130693371675586700e+00,6.549650906268367212e-02,-2.713054733320135093e-04
5.078851325632042363e-02,1.813109310014549835e-01,3.098525088207827460e-01,-3.130685842447464839e+00,6.514055768269744195e-02,-2.606173825233021389e-04
5.007914917039638092e-02,1.816920545645566987e-01,3.093073366396805746e-01,-3.130678631740722917e+00,6.478558179238498582e-02,-2.499542069490279413e-04
4.937019827120053828e-02,1.820732701721998748e-01,3.087624757549247700e-01,-3.130671725704811337e+00,6.443152957366957145e-02,-2.393150332592877206e-04
4.866175769823013336e-02,1.824544984700006700e-01,3.082179233468191892e-01,-3.130665111799933786e+00,6.407833490612709071e-02,-2.287029044830740567e-04
4.801367567663800129e-02,1.827967051756558825e-01,3.076788359813292795e-01,-3.130658777469458531e+00,6.370694301016063821e-02,-2.201820945422606579e-04
4.741638061046543617e-02,1.830928346790768879e-01,3.071162766950817358e-01,-3.130652710924143545e+00,6.326049244545754735e-02,-2.139216724476314055e-04
4.681233957160277348e-02,1.833769922668592733e-01,3.065181984740322219e-01,-3.130646901064516374e+00,6.274444133040002480e-02,-2.080477158839317739e-04
4.620829036770616322e-02,1.836614984133966011e-01,3.059204524087137389e-01,-3.130641336659627072e+00,6.222948157550829695e-02,-2.021793306003490478e-04
4.560424536316915606e-02,1.839463735823202994e-01,3.053231178464378970e-01,-3.130636007676925292e+00,6.171576278530148396e-02,-1.963152131780914107e-04
4.500020835537383440e-02,1.842316003382241663e-01,3.047261785915079679e-01,-3.130630903940537557e+00,6.120322885575330690e-02,-1.904552187160101385e-04
4.439617823687797005e-02,1.845171640365627919e-01,3.041296176013980057e-01,-3.130626015973186682e+00,6.069183133025603250e-02,-1.845991634325632174e-04
4.379215070152479156e-02,1.848030520762599660e-01,3.035334172874243341e-01,-3.130621334862685679e+00,6.018152675043218075e-02,-1.787468405368279373e-04
4.318813628897610196e-02,1.850892472165822089e-01,3.029375563405580229e-01,-3.130616851491306640e+00,5.967223406118318113e-02,-1.728981977648839203e-04
4.259154283985632644e-02,1.853751339405361465e-01,3.023232816611839957e-01,-3.130612557847203714e+00,5.910225784370891355e-02,-1.671369944044393463e-04
4.199896231885447834e-02,1.856609761185761820e-01,3.016992040309732781e-01,-3.130608445670000073e+00,5.849992976503649161e-02,-1.614244785048861777e-04
4.140631643667404271e-02,1.859470960692142516e-01,3.010755041341847127e-01,-3.130604507348596854e+00,5.789871868007405442e-02,-1.557134707883975019e-04
4.076283951384750137e-02,1.862389191584740700e-01,3.004400460442083753e-01,-3.130600735730591389e+00,5.720209657795758545e-02,-1.482992439290651903e-04
4.010534293131099576e-02,1.865324901724183804e-01,2.998016113749988332e-01,-3.130597123403572102e+00,5.647998951318349004e-02,-1.404176191840048710e-04
3.944801753759436674e-02,1.868262817430040301e-01,2.991635728128810290e-01,-3.130593663984192254e+00,5.575935031737307146e-02,-1.325451756914049998e-04
3.879086867544125766e-02,1.871202812033503915e-01,2.985259182390451183e-01,-3.130590350752692430e+00,5.504012803217692845e-02,-1.246818126457391069e-04
3.813388693267891899e-02,1.874144804662758179e-01,2.978886303702386051e-01,-3.130587177604893689e+00,5.432226339049685965e-02,-1.168271185954536867e-04
3.747706023800585762e-02,1.877088730450070797e-01,2.972516909702268006e-01,-3.130584138803548910e+00,5.360569971652799637e-02,-1.089806606705436535e-04
3.682037712206890495e-02,1.880034458131089325e-01,2.966150589531216242e-01,-3.130581228313009667e+00,5.289029298625393810e-02,-1.011421720975247635e-04
3.613200197281423581e-02,1.882959684992162874e-01,2.959094232991301143e-01,-3.130578441062243478e+00,5.198018174251343299e-02,-9.322819720573794139e-05
3.543665898525200780e-02,1.885610319983843652e-01,2.951139622233220905e-01,-3.130575771570071719e+00,5.072010474932790725e-02,-8.556936260946797169e-05
3.504583924584011440e-02,1.887247795573434861e-01,2.945528523658943465e-01,-3.130573214949717187e+00,4.968222673022952562e-02,-7.980172215200998843e-05
3.469302696633377175e-02,1.888864148556808897e-01,2.940368872108503062e-01,-3.130570766601223909e+00,4.875322461290682724e-02,-7.415245306842880690e-05
3.433945502281905010e-02,1.890486138162783269e-01,2.935208939515225879e-01,-3.130568421601110707e+00,4.782609738737721161e-02,-6.850300172250525397e-05
3.398505479648376154e-02,1.892113607656939755e-01,2.930047577001572146e-01,-3.130566175935729500e+00,4.690049471224568001e-02,-6.285299075945643759e-05
3.362986532909003484e-02,1.893746309586850363e-01,2.924884877035935915e-01,-3.130564025119146887e+00,4.597635627241360157e-02,-5.720251804751883549e-05
3.327391872415481899e-02,1.895384026836031965e-01,2.919720884633074109e-01,-3.130561965248680245e+00,4.505361878822625177e-02,-5.155157437614613412e-05
3.291724487096594348e-02,1.897026554865772208e-01,2.914555634939307582e-01,-3.130559992637579114e+00,4.413222053910000747e-02,-4.590013509397196996e-05
3.255987950597853675e-02,1.898673670650322942e-01,2.909389223105577904e-01,-3.130558103261486647e+00,4.321211050350570737e-02,-4.024831325756172073e-05
3.220184678448329701e-02,1.900325199145035671e-01,2.904221652879095394e-01,-3.130556293958561387e+00,4.229322826961218196e-02,-3.459602427161960470e-05
3.184317953451613892e-02,1.901980935527519401e-01,2.899053012720433364e-01,-3.130554561042074635e+00,4.137552725907440304e-02,-2.894337255314709533e-05
3.148390290381006262e-02,1.903640707834245160e-01,2.893883332138592612e-01,-3.130552901405455390e+00,4.045895550009834252e-02,-2.329033810816401372e-05
3.112404049794245675e-02,1.905304353371820025e-01,2.888712634387674560e-01,-3.130551312094361549e+00,3.954346246048748986e-02,-1.763689341346096740e-05
3.076362233324303475e-02,1.906971687458829390e-01,2.883541009358231988e-01,-3.130549789812091088e+00,3.862900901676204202e-02,-1.198315175591101983e-05
3.040266627733999305e-02,1.908642575706982203e-01,2.878368443644607200e-01,-3.130548332082775165e+00,3.771554401992986694e-02,-6.329017085821883610e-06
3.004121581263655832e-02,1.910316769108780233e-01,2.873195104022183144e-01,-3.130546935860955227e+00,3.680302016555618561e-02,-6.751283765374332162e-07
2.969559462745996123e-02,1.911912296520564269e-01,2.868104658386239625e-01,-3.130545598684738806e+00,3.587862437104745450e-02,4.424313134734207877e-06
2.936189054664635478e-02,1.913448758486335499e-01,2.863076953222292165e-01,-3.130544318186212482e+00,3.494539388396707830e-02,9.102955425292069144e-06
2.902767633342022771e-02,1.914988504781319212e-01,2.858048183683791210e-01,-3.130543091658404276e+00,3.401305255453876408e-02,1.378398922734823437e-05
2.869301246261775351e-02,1.916531689372648894e-01,2.853018840841018422e-01,-3.130541917177577904e+00,3.308163672602106725e-02,1.846980410807690280e-05
2.838745494580969392e-02,1.918127446696110128e-01,2.848250059894604225e-01,-3.130540792212292533e+00,3.217487588402072329e-02,2.371584426276303508e-05
2.823956055821508215e-02,1.919023901060557258e-01,2.844288606697547017e-01,-3.130539714823401987e+00,3.108778866396219240e-02,2.483398845696002482e-05
2.814317369662159771e-02,1.919834392743235696e-01,2.840284656262689889e-01,-3.130538683111391052e+00,2.980862052073312077e-02,2.437757607495808531e-05
2.804570400169073205e-02,1.920649834370903308e-01,2.836276373722949606e-01,-3.130537694848200214e+00,2.853088364790306794e-02,2.393697456975015279e-05
2.794707577810711871e-02,1.921470232431466141e-01,2.832263988307426872e-01,-3.130536748554105575e+00,2.725494349318855966e-02,2.351515086187545272e-05
2.784733970843435158e-02,1.922295366639108494e-01,2.828247716795438960e-01,-3.130535842109124722e+00,2.598074032880889547e-02,2.311130397238320334e-05
2.774654218576349043e-02,1.923125040212640691e-01,2.824227703542835921e-01,-3.130534973998763348e+00,2.470819238696932152e-02,2.272467104961205478e-05
2.764472788422997832e-02,1.923959063119110580e-01,2.820204094036495301e-01,-3.130534142696236533e+00,2.343722437394636648e-02,2.235452105377567386e-05
2.754194131260950112e-02,1.924797241779816481e-01,2.816177079465587152e-01,-3.130533346363539415e+00,2.216778384409344785e-02,2.200015102850064527e-05
2.743822217036487321e-02,1.925639410402251728e-01,2.812146755605653969e-01,-3.130532583877470021e+00,2.089978745334863247e-02,2.166089294473955571e-05
2.733361176436660891e-02,1.926485388148641009e-01,2.808113312774876413e-01,-3.130531853446802071e+00,1.963319276428841104e-02,2.133610148469277092e-05
2.722814713314667193e-02,1.927335018718226989e-01,2.804076858003958228e-01,-3.130531153902896158e+00,1.836793062532912635e-02,2.102516309328407595e-05
2.712186418621108028e-02,1.928188149527733652e-01,2.800037506877710580e-01,-3.130530484013812842e+00,1.710393997254700676e-02,2.072748939640164549e-05
2.701479905765104272e-02,1.929044622595457725e-01,2.795995423036916061e-01,-3.130529842260617368e+00,1.584118191852016549e-02,2.044251433269466469e-05
2.690698321368954760e-02,1.929904307885424719e-01,2.791950668548614511e-01,-3.130529227805615378e+00,1.457958411247220129e-02,2.016970079574973153e-05
2.679845047241478581e-02,1.930767055887698536e-01,2.787903414288175896e-01,-3.130528639119574574e+00,1.331911862990770370e-02,1.990852873532581271e-05
2.668923029561708418e-02,1.931632743220327575e-01,2.783853735739424407e-01,-3.130528075316594272e+00,1.205972598332745102e-02,1.965850479670869293e-05
2.657935157472508456e-02,1.932501247190953342e-01,2.779801725526368505e-01,-3.130527535395671190e+00,1.080135697264023552e-02,1.941915538313649764e-05
2.646884369084489749e-02,1.933372438538685234e-01,2.775747524787084419e-01,-3.130527018100632386e+00,9.543983468441903997e-03,1.919002466332101137e-05
2.635773863314302967e-02,1.934246196343960555e-01,2.771691494249834964e-01,-3.130526522821318824e+00,8.287723353268099113e-03,1.897092311168813931e-05
2.624877319921380819e-02,1.935114818340466780e-01,2.767756029765831016e-01,-3.130526048236502490e+00,7.100447952973403497e-03,1.885090646290192253e-05
2.620720855567992835e-02,1.935684445000415144e-01,2.765492532667711556e-01,-3.130525593692717656e+00,6.729265307302090791e-03,1.843865070877392435e-05
2.617819143315263178e-02,1.936158434135417106e-01,2.763460155496992865e-01,-3.130525158366729954e+00,6.415650430837241923e-03,1.799928549822249385e-05
2.614842617252887205e-02,1.936635691311162089e-01,2.761419995699559982e-01,-3.130524741221053731e+00,6.099946001710148703e-03,1.756887719541466922e-05
2.611791672377633197e-02,1.937116287968013717e-01,2.759371868740032596e-01,-3.130524341825239532e+00,5.782114357055048379e-03,1.714711759699954504e-05
2.608669530794148830e-02,1.937600074341505607e-01,2.757316142716684793e-01,-3.130523959022285307e+00,5.462251912449194759e-03,1.673364108169654867e-05
2.605479186856327067e-02,1.938086919198807878e-01,2.755253123793635628e-01,-3.130523592351420081e+00,5.140441630272374156e-03,1.632809414966791370e-05
2.602223537218821200e-02,1.938576692835994597e-01,2.753183120411283880e-01,-3.130523241121903943e+00,4.816766130695935080e-03,1.593013938657299460e-05
2.598905393888506152e-02,1.939069266100914013e-01,2.751106447068308314e-01,-3.130522904481335189e+00,4.491308184442794650e-03,1.553945529305963998e-05
2.595527360028039576e-02,1.939564527042766384e-01,2.749023359962998181e-01,-3.130522582138762555e+00,4.164138241950281379e-03,1.515573051004384532e-05
2.592092049803781245e-02,1.940062352442638582e-01,2.746934165795530403e-01,-3.130522273065775796e+00,3.835335867753151065e-03,1.477867166988233060e-05
2.588603013461678731e-02,1.940562489714616201e-01,2.744839165032945671e-01,-3.130521976963397179e+00,3.504995139057257795e-03,1.440656805777411433e-05
2.586027980640873136e-02,1.940940406365898874e-01,2.742789635845600538e-01,-3.130521693233347946e+00,3.197147179187670354e-03,1.284686645632312788e-05
2.583631902327197111e-02,1.941291029043939464e-01,2.740746862121883898e-01,-3.130521421184051967e+00,2.893556524095191977e-03,1.100991218708290556e-05
2.581183885180155652e-02,1.941644296950418569e-01,2.738698728599819332e-01,-3.130521160629119670e+00,2.588495405555813009e-03,9.183181222411859903e-06
2.578686083607687266e-02,1.942000104441767849e-01,2.736645495206449508e-01,-3.130520910639599474e+00,2.282030708326074006e-03,7.366405111256217207e-06
2.576140584745307410e-02,1.942358347493749471e-01,2.734587355782004958e-01,-3.130520671054950022e+00,1.974217875179100530e-03,5.559137226293180970e-06
2.573549422105653184e-02,1.942718921731992898e-01,2.732524523815479944e-01,-3.130520441331924530e+00,1.665115268188952597e-03,3.760979372000977685e-06
2.570914560011491184e-02,1.943081725199311827e-01,2.730457214516375242e-01,-3.130520220924381647e+00,1.354780512494072877e-03,1.971558798738944490e-06
2.568239753618415180e-02,1.943446156739048747e-01,2.728386071342381869e-01,-3.130520009718483543e+00,1.043167036403372730e-03,1.901915232139763549e-07
2.566210502897366477e-02,1.943631472326383669e-01,2.726481626842229278e-01,-3.130519794361239949e+00,6.972046003547337960e-04,-1.684197448170894152e-06
2.563667879798790447e-02,1.943838770743880895e-01,2.724799755328431439e-01,-3.130501189765248604e+00,3.976286647556233453e-04,-3.602630611013283389e-06
2.558958787240504795e-02,1.944293677941381082e-01,2.723619917618593234e-01,-3.130427316562728102e+00,2.737063780063485243e-04,-5.565594116819570403e-06
2.554217021349722630e-02,1.944750516712309418e-01,2.722434511021575854e-01,-3.130353589185034924e+00,1.484910594005273826e-04,-7.520962842594669818e-06
2.549447802694295925e-02,1.945208762082012710e-01,2.721242829299554966e-01,-3.130280101912666257e+00,2.171199308791826486e-05,-9.468992759157029729e-06
2.544652415064752038e-02,1.945668343602479922e-01,2.720045164439716667e-01,-3.130206845961380324e+00,-1.065604510214932475e-04,-1.140994336885440679e-05
2.539831896639843656e-02,1.946129211359793332e-01,2.718841754329804350e-01,-3.130133810602553801e+00,-2.362653346076805817e-04,-1.334415050919788469e-05
2.534988279575577444e-02,1.946591203038880724e-01,2.717632413176923611e-01,-3.130060987022815766e+00,-3.672292295596364946e-04,-1.526868768008738438e-05
2.530614974334107273e-02,1.946998753924223668e-01,2.716181406669085918e-01,-3.129988366520178644e+00,-4.398325283405370915e-04,-1.547082546560281610e-05
2.526767690849515344e-02,1.947345642188759440e-01,2.714462684421497518e-01,-3.129915939740679054e+00,-4.473933078538192909e-04,-1.376022428760842429e-05
2.522897554517857313e-02,1.947693809767770123e-01,2.712740058745614080e-01,-3.129843700069872892e+00,-4.563796380815162020e-04,-1.205039880608807785e-05
2.519003964159989215e-02,1.948043377802796405e-01,2.711014387852990759e-01,-3.129771638491775754e+00,-4.669135316019002563e-04,-1.034652300531302386e-05
2.515087978369351732e-02,1.948394281508305514e-01,2.709285825943565373e-01,-3.129699748384838998e+00,-4.789285935513840336e-04,-8.648366408448299999e-06
2.511150555702482828e-02,1.948746463594934752e-01,2.707554498332770399e-01,-3.129628022561502743e+00,-4.923618145699494401e-04,-6.955688765392692061e-06
2.507192598626472799e-02,1.949099870529328871e-01,2.705820518788196183e-01,-3.129556453903256763e+00,-5.071530195171167514e-04,-5.268254560837809122e-06
2.503238062874693290e-02,1.949452460636272866e-01,2.704093367172730744e-01,-3.129485390984120485e+00,-5.230075446005823248e-04,-3.594035271438257771e-06
2.499600460265175364e-02,1.949777232553330519e-01,2.702500039791213005e-01,-3.129419639628156613e+00,-5.366603852682085051e-04,-2.043810888682658078e-06
2.496260245216188126e-02,1.950075892327390037e-01,2.701032383151258376e-01,-3.129358880578224422e+00,-5.482674900041564596e-04,-6.101551343947776876e-07
2.493198950713329184e-02,1.950350052130234157e-01,2.699682690884440128e-01,-3.129302811960481101e+00,-5.579756339543515218e-04,7.139546820220764323e-07
2.490399132362214329e-02,1.950601235119578669e-01,2.698443680641330333e-01,-3.129251148390039372e+00,-5.659229126274397184e-04,1.935158403039295237e-06
